solid LIGGGHTS_STL_EXPORT
  facet normal -0 -0 -1
    outer loop
      vertex 0.3 0.2 1
      vertex 0.3 -0.2 1
      vertex -0.1 0.2 1
    endloop
  endfacet
  facet normal 0 0 -1
    outer loop
      vertex 0.3 -0.2 1
      vertex -0.1 -0.2 1
      vertex -0.1 0.2 1
    endloop
  endfacet
  facet normal 0 -1 1.7949e-09
    outer loop
      vertex -0.0375879 -0.075 -0.0136791
      vertex 0.0375879 -0.075 -0.0136791
      vertex 0.04 -0.075 1.34617e-10
    endloop
  endfacet
  facet normal 0.984807 -3.11691e-10 -0.173654
    outer loop
      vertex 0.04 0.075 -1.34617e-10
      vertex 0.04 -0.075 1.34617e-10
      vertex 0.0375879 -0.075 -0.0136791
    endloop
  endfacet
  facet normal 0 -1 1.7949e-09
    outer loop
      vertex -0.04 -0.075 1.34617e-10
      vertex -0.0375879 -0.075 -0.0136791
      vertex 0.04 -0.075 1.34617e-10
    endloop
  endfacet
  facet normal 0 -1 1.7949e-09
    outer loop
      vertex 0.0375879 -0.075 0.0136791
      vertex -0.04 -0.075 1.34617e-10
      vertex 0.04 -0.075 1.34617e-10
    endloop
  endfacet
  facet normal 0.984807 3.11691e-10 0.173654
    outer loop
      vertex 0.0375879 0.075 0.0136791
      vertex 0.0375879 -0.075 0.0136791
      vertex 0.04 -0.075 1.34617e-10
    endloop
  endfacet
  facet normal 0.984807 3.11691e-10 0.173654
    outer loop
      vertex 0.0375879 0.075 0.0136791
      vertex 0.04 -0.075 1.34617e-10
      vertex 0.04 0.075 -1.34617e-10
    endloop
  endfacet
  facet normal 0 -1 1.79489e-09
    outer loop
      vertex -0.0306404 -0.075 -0.0257125
      vertex 0.0306404 -0.075 -0.0257125
      vertex 0.0375879 -0.075 -0.0136791
    endloop
  endfacet
  facet normal 0.866026 -8.97448e-10 -0.5
    outer loop
      vertex 0.0375879 0.075 -0.0136791
      vertex 0.0375879 -0.075 -0.0136791
      vertex 0.0306404 -0.075 -0.0257125
    endloop
  endfacet
  facet normal 0 -1 1.79489e-09
    outer loop
      vertex -0.0375879 -0.075 -0.0136791
      vertex -0.0306404 -0.075 -0.0257125
      vertex 0.0375879 -0.075 -0.0136791
    endloop
  endfacet
  facet normal 0.984807 -3.11691e-10 -0.173654
    outer loop
      vertex 0.0375879 0.075 -0.0136791
      vertex 0.04 0.075 -1.34617e-10
      vertex 0.0375879 -0.075 -0.0136791
    endloop
  endfacet
  facet normal 0 -1 1.7949e-09
    outer loop
      vertex -0.02 -0.075 -0.034641
      vertex 0.02 -0.075 -0.034641
      vertex 0.0306404 -0.075 -0.0257125
    endloop
  endfacet
  facet normal 0.642792 -1.37496e-09 -0.766041
    outer loop
      vertex 0.0306404 0.075 -0.0257125
      vertex 0.0306404 -0.075 -0.0257125
      vertex 0.02 -0.075 -0.034641
    endloop
  endfacet
  facet normal -3.37443e-26 -1 1.7949e-09
    outer loop
      vertex -0.0306404 -0.075 -0.0257125
      vertex -0.02 -0.075 -0.034641
      vertex 0.0306404 -0.075 -0.0257125
    endloop
  endfacet
  facet normal 0.866026 -8.97448e-10 -0.5
    outer loop
      vertex 0.0375879 0.075 -0.0136791
      vertex 0.0306404 -0.075 -0.0257125
      vertex 0.0306404 0.075 -0.0257125
    endloop
  endfacet
  facet normal 0 -1 1.7949e-09
    outer loop
      vertex -0.00694749 -0.075 -0.0393917
      vertex 0.00694749 -0.075 -0.0393917
      vertex 0.02 -0.075 -0.034641
    endloop
  endfacet
  facet normal 0.342015 -1.68665e-09 -0.939695
    outer loop
      vertex 0.02 0.075 -0.034641
      vertex 0.02 -0.075 -0.034641
      vertex 0.00694749 -0.075 -0.0393917
    endloop
  endfacet
  facet normal -2.58511e-26 -1 1.7949e-09
    outer loop
      vertex -0.02 -0.075 -0.034641
      vertex -0.00694749 -0.075 -0.0393917
      vertex 0.02 -0.075 -0.034641
    endloop
  endfacet
  facet normal 0.642792 -1.37496e-09 -0.766041
    outer loop
      vertex 0.0306404 0.075 -0.0257125
      vertex 0.02 -0.075 -0.034641
      vertex 0.02 0.075 -0.034641
    endloop
  endfacet
  facet normal -0 -1.7949e-09 -1
    outer loop
      vertex 0.00694749 0.075 -0.0393917
      vertex 0.00694749 -0.075 -0.0393917
      vertex -0.00694749 -0.075 -0.0393917
    endloop
  endfacet
  facet normal 0.342015 -1.68665e-09 -0.939695
    outer loop
      vertex 0.02 0.075 -0.034641
      vertex 0.00694749 -0.075 -0.0393917
      vertex 0.00694749 0.075 -0.0393917
    endloop
  endfacet
  facet normal -0.342015 -1.68665e-09 -0.939695
    outer loop
      vertex -0.00694749 0.075 -0.0393917
      vertex -0.00694749 -0.075 -0.0393917
      vertex -0.02 -0.075 -0.034641
    endloop
  endfacet
  facet normal 2.24196e-24 -1.7949e-09 -1
    outer loop
      vertex 0.00694749 0.075 -0.0393917
      vertex -0.00694749 -0.075 -0.0393917
      vertex -0.00694749 0.075 -0.0393917
    endloop
  endfacet
  facet normal -0.642792 -1.37496e-09 -0.766041
    outer loop
      vertex -0.02 0.075 -0.034641
      vertex -0.02 -0.075 -0.034641
      vertex -0.0306404 -0.075 -0.0257125
    endloop
  endfacet
  facet normal -0.342015 -1.68665e-09 -0.939695
    outer loop
      vertex -0.00694749 0.075 -0.0393917
      vertex -0.02 -0.075 -0.034641
      vertex -0.02 0.075 -0.034641
    endloop
  endfacet
  facet normal -0.866026 -8.97448e-10 -0.5
    outer loop
      vertex -0.0306404 0.075 -0.0257125
      vertex -0.0306404 -0.075 -0.0257125
      vertex -0.0375879 -0.075 -0.0136791
    endloop
  endfacet
  facet normal -0.642792 -1.37496e-09 -0.766041
    outer loop
      vertex -0.02 0.075 -0.034641
      vertex -0.0306404 -0.075 -0.0257125
      vertex -0.0306404 0.075 -0.0257125
    endloop
  endfacet
  facet normal -0.984807 -3.11691e-10 -0.173654
    outer loop
      vertex -0.0375879 0.075 -0.0136791
      vertex -0.0375879 -0.075 -0.0136791
      vertex -0.04 -0.075 1.34617e-10
    endloop
  endfacet
  facet normal -0.866026 -8.97448e-10 -0.5
    outer loop
      vertex -0.0306404 0.075 -0.0257125
      vertex -0.0375879 -0.075 -0.0136791
      vertex -0.0375879 0.075 -0.0136791
    endloop
  endfacet
  facet normal 0 -1 1.7949e-09
    outer loop
      vertex 0.0375879 -0.075 0.0136791
      vertex -0.0375879 -0.075 0.0136791
      vertex -0.04 -0.075 1.34617e-10
    endloop
  endfacet
  facet normal -0.984807 3.11691e-10 0.173654
    outer loop
      vertex -0.04 0.075 -1.34617e-10
      vertex -0.04 -0.075 1.34617e-10
      vertex -0.0375879 -0.075 0.0136791
    endloop
  endfacet
  facet normal -0.984807 -3.11691e-10 -0.173654
    outer loop
      vertex -0.0375879 0.075 -0.0136791
      vertex -0.04 -0.075 1.34617e-10
      vertex -0.04 0.075 -1.34617e-10
    endloop
  endfacet
  facet normal 0 -1 1.7949e-09
    outer loop
      vertex 0.0306404 -0.075 0.0257125
      vertex -0.0306404 -0.075 0.0257125
      vertex -0.0375879 -0.075 0.0136791
    endloop
  endfacet
  facet normal -0.866026 8.97448e-10 0.5
    outer loop
      vertex -0.0375879 0.075 0.0136791
      vertex -0.0375879 -0.075 0.0136791
      vertex -0.0306404 -0.075 0.0257125
    endloop
  endfacet
  facet normal 0 -1 1.7949e-09
    outer loop
      vertex 0.0375879 -0.075 0.0136791
      vertex 0.0306404 -0.075 0.0257125
      vertex -0.0375879 -0.075 0.0136791
    endloop
  endfacet
  facet normal -0.984807 3.11691e-10 0.173654
    outer loop
      vertex -0.04 0.075 -1.34617e-10
      vertex -0.0375879 -0.075 0.0136791
      vertex -0.0375879 0.075 0.0136791
    endloop
  endfacet
  facet normal 0 -1 1.7949e-09
    outer loop
      vertex 0.02 -0.075 0.034641
      vertex -0.02 -0.075 0.034641
      vertex -0.0306404 -0.075 0.0257125
    endloop
  endfacet
  facet normal -0.642792 1.37496e-09 0.766041
    outer loop
      vertex -0.0306404 0.075 0.0257125
      vertex -0.0306404 -0.075 0.0257125
      vertex -0.02 -0.075 0.034641
    endloop
  endfacet
  facet normal -3.37443e-26 -1 1.7949e-09
    outer loop
      vertex 0.0306404 -0.075 0.0257125
      vertex 0.02 -0.075 0.034641
      vertex -0.0306404 -0.075 0.0257125
    endloop
  endfacet
  facet normal -0.866026 8.97448e-10 0.5
    outer loop
      vertex -0.0375879 0.075 0.0136791
      vertex -0.0306404 -0.075 0.0257125
      vertex -0.0306404 0.075 0.0257125
    endloop
  endfacet
  facet normal 0 -1 1.7949e-09
    outer loop
      vertex 0.00694749 -0.075 0.0393917
      vertex -0.00694749 -0.075 0.0393917
      vertex -0.02 -0.075 0.034641
    endloop
  endfacet
  facet normal -0.342015 1.68665e-09 0.939695
    outer loop
      vertex -0.02 0.075 0.034641
      vertex -0.02 -0.075 0.034641
      vertex -0.00694749 -0.075 0.0393917
    endloop
  endfacet
  facet normal 2.58511e-26 -1 1.7949e-09
    outer loop
      vertex 0.02 -0.075 0.034641
      vertex 0.00694749 -0.075 0.0393917
      vertex -0.02 -0.075 0.034641
    endloop
  endfacet
  facet normal -0.642792 1.37496e-09 0.766041
    outer loop
      vertex -0.0306404 0.075 0.0257125
      vertex -0.02 -0.075 0.034641
      vertex -0.02 0.075 0.034641
    endloop
  endfacet
  facet normal -0 1.7949e-09 1
    outer loop
      vertex -0.00694749 0.075 0.0393917
      vertex -0.00694749 -0.075 0.0393917
      vertex 0.00694749 -0.075 0.0393917
    endloop
  endfacet
  facet normal -0.342015 1.68665e-09 0.939695
    outer loop
      vertex -0.02 0.075 0.034641
      vertex -0.00694749 -0.075 0.0393917
      vertex -0.00694749 0.075 0.0393917
    endloop
  endfacet
  facet normal 0.342015 1.68665e-09 0.939695
    outer loop
      vertex 0.00694749 0.075 0.0393917
      vertex 0.00694749 -0.075 0.0393917
      vertex 0.02 -0.075 0.034641
    endloop
  endfacet
  facet normal 2.24196e-24 1.7949e-09 1
    outer loop
      vertex -0.00694749 0.075 0.0393917
      vertex 0.00694749 -0.075 0.0393917
      vertex 0.00694749 0.075 0.0393917
    endloop
  endfacet
  facet normal 0.642792 1.37496e-09 0.766041
    outer loop
      vertex 0.02 0.075 0.034641
      vertex 0.02 -0.075 0.034641
      vertex 0.0306404 -0.075 0.0257125
    endloop
  endfacet
  facet normal 0.342015 1.68665e-09 0.939695
    outer loop
      vertex 0.00694749 0.075 0.0393917
      vertex 0.02 -0.075 0.034641
      vertex 0.02 0.075 0.034641
    endloop
  endfacet
  facet normal 0.866026 8.97448e-10 0.5
    outer loop
      vertex 0.0306404 0.075 0.0257125
      vertex 0.0306404 -0.075 0.0257125
      vertex 0.0375879 -0.075 0.0136791
    endloop
  endfacet
  facet normal 0.642792 1.37496e-09 0.766041
    outer loop
      vertex 0.02 0.075 0.034641
      vertex 0.0306404 -0.075 0.0257125
      vertex 0.0306404 0.075 0.0257125
    endloop
  endfacet
  facet normal 0.866026 8.97448e-10 0.5
    outer loop
      vertex 0.0306404 0.075 0.0257125
      vertex 0.0375879 -0.075 0.0136791
      vertex 0.0375879 0.075 0.0136791
    endloop
  endfacet
  facet normal 0 1 -1.7949e-09
    outer loop
      vertex -0.0375879 0.075 0.0136791
      vertex 0.0375879 0.075 0.0136791
      vertex 0.04 0.075 -1.34617e-10
    endloop
  endfacet
  facet normal 0 1 -1.7949e-09
    outer loop
      vertex -0.04 0.075 -1.34617e-10
      vertex -0.0375879 0.075 0.0136791
      vertex 0.04 0.075 -1.34617e-10
    endloop
  endfacet
  facet normal 0 1 -1.7949e-09
    outer loop
      vertex 0.0375879 0.075 -0.0136791
      vertex -0.04 0.075 -1.34617e-10
      vertex 0.04 0.075 -1.34617e-10
    endloop
  endfacet
  facet normal 0 1 -1.79489e-09
    outer loop
      vertex -0.0306404 0.075 0.0257125
      vertex 0.0306404 0.075 0.0257125
      vertex 0.0375879 0.075 0.0136791
    endloop
  endfacet
  facet normal 0 1 -1.79489e-09
    outer loop
      vertex -0.0375879 0.075 0.0136791
      vertex -0.0306404 0.075 0.0257125
      vertex 0.0375879 0.075 0.0136791
    endloop
  endfacet
  facet normal 0 1 -1.7949e-09
    outer loop
      vertex -0.02 0.075 0.034641
      vertex 0.02 0.075 0.034641
      vertex 0.0306404 0.075 0.0257125
    endloop
  endfacet
  facet normal -3.37443e-26 1 -1.7949e-09
    outer loop
      vertex -0.0306404 0.075 0.0257125
      vertex -0.02 0.075 0.034641
      vertex 0.0306404 0.075 0.0257125
    endloop
  endfacet
  facet normal 0 1 -1.7949e-09
    outer loop
      vertex -0.00694749 0.075 0.0393917
      vertex 0.00694749 0.075 0.0393917
      vertex 0.02 0.075 0.034641
    endloop
  endfacet
  facet normal -2.58511e-26 1 -1.7949e-09
    outer loop
      vertex -0.02 0.075 0.034641
      vertex -0.00694749 0.075 0.0393917
      vertex 0.02 0.075 0.034641
    endloop
  endfacet
  facet normal 0 1 -1.7949e-09
    outer loop
      vertex 0.0375879 0.075 -0.0136791
      vertex -0.0375879 0.075 -0.0136791
      vertex -0.04 0.075 -1.34617e-10
    endloop
  endfacet
  facet normal 0 1 -1.7949e-09
    outer loop
      vertex 0.0306404 0.075 -0.0257125
      vertex -0.0306404 0.075 -0.0257125
      vertex -0.0375879 0.075 -0.0136791
    endloop
  endfacet
  facet normal 0 1 -1.7949e-09
    outer loop
      vertex 0.0375879 0.075 -0.0136791
      vertex 0.0306404 0.075 -0.0257125
      vertex -0.0375879 0.075 -0.0136791
    endloop
  endfacet
  facet normal 0 1 -1.7949e-09
    outer loop
      vertex 0.02 0.075 -0.034641
      vertex -0.02 0.075 -0.034641
      vertex -0.0306404 0.075 -0.0257125
    endloop
  endfacet
  facet normal -3.37443e-26 1 -1.7949e-09
    outer loop
      vertex 0.0306404 0.075 -0.0257125
      vertex 0.02 0.075 -0.034641
      vertex -0.0306404 0.075 -0.0257125
    endloop
  endfacet
  facet normal 0 1 -1.7949e-09
    outer loop
      vertex 0.00694749 0.075 -0.0393917
      vertex -0.00694749 0.075 -0.0393917
      vertex -0.02 0.075 -0.034641
    endloop
  endfacet
  facet normal 2.58511e-26 1 -1.7949e-09
    outer loop
      vertex 0.02 0.075 -0.034641
      vertex 0.00694749 0.075 -0.0393917
      vertex -0.02 0.075 -0.034641
    endloop
  endfacet
  facet normal -0 -0 -1
    outer loop
      vertex 0.3 0.2 -0.1
      vertex 0.3 -0.2 -0.1
      vertex -0.1 0.2 -0.1
    endloop
  endfacet
  facet normal 0 0 -1
    outer loop
      vertex 0.3 -0.2 -0.1
      vertex -0.1 -0.2 -0.1
      vertex -0.1 0.2 -0.1
    endloop
  endfacet
endsolid LIGGGHTS_STL_EXPORT
