# vtk DataFile Version 2.0
Generated by lpp.py
ASCII
DATASET POLYDATA
POINTS 86 float
0.0540477 0.0423754 0.133653
0.0838694 0.0924291 0.127502
-0.0471576 -0.170755 0.131071
0.00898122 -0.164523 0.130271
0.241781 0.108672 0.146918
0.00219469 -0.00983473 0.0653233
-0.0152175 0.0645357 0.0877933
-0.0044103 -0.111429 0.149743
0.179347 -0.0107411 0.149191
0.13197 -0.11791 0.0654924
0.24361 0.0574967 0.147212
0.0823301 -0.160553 0.152112
0.274436 0.140358 0.0672568
0.162553 0.132438 0.0850067
0.0455952 -0.0672861 0.143004
0.142434 -0.0165617 0.0747124
0.21904 -0.088424 0.0792115
0.103454 0.0501108 0.0242258
0.113052 0.156584 0.142828
0.100029 -0.0692646 0.0325118
-0.0464708 0.144238 0.132072
0.260616 -0.122628 0.131217
0.200035 0.085947 0.121447
0.135242 -0.0671011 0.151541
-0.0631264 0.0448574 0.111857
-0.0637205 -0.0175652 0.148484
-0.0227657 -0.0533601 0.142915
0.0359849 0.0986761 0.0595916
0.132325 0.082203 0.136104
0.245152 -0.0357403 0.0554437
0.0941252 -0.0121962 0.127326
0.0620239 0.136269 0.0248474
0.0565772 -0.111885 0.0762443
-0.0783727 -0.059302 0.0696666
-0.0765379 -0.11804 0.0445039
0.248915 0.0223543 0.0687474
0.221483 0.163431 0.137923
0.0849835 -0.150749 0.0295174
0.17202 0.0473367 0.0426358
-0.0273367 -0.0783102 0.0603842
0.268529 0.0736419 0.0570783
0.0250405 0.155213 0.0836144
0.166471 -0.147136 0.143273
0.202476 -0.14552 0.12068
0.27306 -0.172849 -0.00188669
0.175632 -0.047499 0.0660207
0.0616244 0.00358391 0.0214829
0.131649 -0.177762 0.0897513
0.253436 -0.00591787 0.141796
0.188783 0.179478 0.0659399
0.19306 -0.177243 -0.00152002
-0.0760294 0.0888848 0.131966
-0.0760474 0.120846 0.0333639
0.125 0.169667 0.00510383
-0.062043 -0.0144958 0.0163628
0.118898 0.0261041 0.139187
0.0502908 0.138151 0.144574
0.208909 0.0299761 0.13418
-0.012895 0.173977 0.0676099
0.045937 -0.0344447 0.0538555
0.268068 -0.0823996 0.00782534
0.265396 -0.174891 0.138549
0.0662625 0.174477 0.133695
0.278232 -0.0621294 0.143789
0.0809825 -0.102295 0.144644
-0.0596725 -0.0881033 0.144273
0.0107661 -0.131182 0.00297311
0.219019 -0.0512545 0.141632
0.12609 0.0988676 -0.00238049
0.22943 0.128218 0.0141872
-0.030565 0.0131801 0.135975
-0.0117798 0.116579 0.0607411
0.17824 -0.0934721 0.137039
0.0443106 -0.17176 0.00677757
0.198079 0.0108947 0.0071428
0.229885 0.178675 -0.00301525
-0.0782994 0.174701 0.142264
-0.0317267 -0.134488 0.0482284
0.231099 -0.171271 0.0663741
0.162764 -0.151253 0.0189629
0.166972 -0.0858798 0.000976295
0.0555598 -0.0813357 0.0450319
0.260634 0.167245 0.147254
0.0449786 0.0384506 0.0753605
-0.0758881 0.167109 0.0207155
0.00478546 0.129269 0.147215
VERTICES 86 172
1 0
1 1
1 2
1 3
1 4
1 5
1 6
1 7
1 8
1 9
1 10
1 11
1 12
1 13
1 14
1 15
1 16
1 17
1 18
1 19
1 20
1 21
1 22
1 23
1 24
1 25
1 26
1 27
1 28
1 29
1 30
1 31
1 32
1 33
1 34
1 35
1 36
1 37
1 38
1 39
1 40
1 41
1 42
1 43
1 44
1 45
1 46
1 47
1 48
1 49
1 50
1 51
1 52
1 53
1 54
1 55
1 56
1 57
1 58
1 59
1 60
1 61
1 62
1 63
1 64
1 65
1 66
1 67
1 68
1 69
1 70
1 71
1 72
1 73
1 74
1 75
1 76
1 77
1 78
1 79
1 80
1 81
1 82
1 83
1 84
1 85
POINT_DATA 86
VECTORS i float
0.0 0.0 0.0
0.0 0.0 0.0
0.0 0.0 0.0
0.0 0.0 0.0
0.0 0.0 0.0
0.0 0.0 0.0
0.0 0.0 0.0
0.0 0.0 0.0
0.0 0.0 0.0
0.0 0.0 0.0
0.0 0.0 0.0
0.0 0.0 0.0
0.0 0.0 0.0
0.0 0.0 0.0
0.0 0.0 0.0
0.0 0.0 0.0
0.0 0.0 0.0
0.0 0.0 0.0
0.0 0.0 0.0
0.0 0.0 0.0
0.0 0.0 0.0
0.0 0.0 0.0
0.0 0.0 0.0
0.0 0.0 0.0
0.0 0.0 0.0
0.0 0.0 0.0
0.0 0.0 0.0
0.0 0.0 0.0
0.0 0.0 0.0
0.0 0.0 0.0
0.0 0.0 0.0
0.0 0.0 0.0
0.0 0.0 0.0
0.0 0.0 0.0
0.0 0.0 0.0
0.0 0.0 0.0
0.0 0.0 0.0
0.0 0.0 0.0
0.0 0.0 0.0
0.0 0.0 0.0
0.0 0.0 0.0
0.0 0.0 0.0
0.0 0.0 0.0
0.0 0.0 0.0
0.0 0.0 0.0
0.0 0.0 0.0
0.0 0.0 0.0
0.0 0.0 0.0
0.0 0.0 0.0
0.0 0.0 0.0
0.0 0.0 0.0
0.0 0.0 0.0
0.0 0.0 0.0
0.0 0.0 0.0
0.0 0.0 0.0
0.0 0.0 0.0
0.0 0.0 0.0
0.0 0.0 0.0
0.0 0.0 0.0
0.0 0.0 0.0
0.0 0.0 0.0
0.0 0.0 0.0
0.0 0.0 0.0
0.0 0.0 0.0
0.0 0.0 0.0
0.0 0.0 0.0
0.0 0.0 0.0
0.0 0.0 0.0
0.0 0.0 0.0
0.0 0.0 0.0
0.0 0.0 0.0
0.0 0.0 0.0
0.0 0.0 0.0
0.0 0.0 0.0
0.0 0.0 0.0
0.0 0.0 0.0
0.0 0.0 0.0
0.0 0.0 0.0
0.0 0.0 0.0
0.0 0.0 0.0
0.0 0.0 0.0
0.0 0.0 0.0
0.0 0.0 0.0
0.0 0.0 0.0
0.0 0.0 0.0
0.0 0.0 0.0
VECTORS f float
0.0 0.0 -1.60516
0.0 0.0 -1.60516
0.0 0.0 -1.60516
0.0 0.0 -1.60516
0.0 0.0 -1.60516
0.0 0.0 -1.60516
0.0 0.0 -1.60516
0.0 0.0 -1.60516
0.0 0.0 -1.60516
0.0 0.0 -1.60516
0.0 0.0 -1.60516
0.0 0.0 -1.60516
0.0 0.0 -1.60516
0.0 0.0 -1.60516
0.0 0.0 -1.60516
0.0 0.0 -1.60516
0.0 0.0 -1.60516
0.0 0.0 -1.60516
0.0 0.0 -1.60516
0.0 0.0 -1.60516
0.0 0.0 -1.60516
0.0 0.0 -1.60516
0.0 0.0 -1.60516
0.0 0.0 -1.60516
0.0 0.0 -1.60516
0.0 0.0 -1.60516
0.0 0.0 -1.60516
0.0 0.0 -1.60516
0.0 0.0 -0.821841
0.0 0.0 -0.821841
0.0 0.0 -0.821841
0.0 0.0 -0.821841
0.0 0.0 -0.821841
0.0 0.0 -0.821841
0.0 0.0 -0.821841
0.0 0.0 -0.821841
0.0 0.0 -0.821841
0.0 0.0 -0.821841
0.0 0.0 -0.821841
0.0 0.0 -0.821841
0.0 0.0 -0.821841
0.0 0.0 -0.821841
0.0 0.0 -0.821841
0.0 0.0 -0.821841
0.0 0.0 -0.821841
0.0 0.0 -0.821841
0.0 0.0 -0.821841
0.0 0.0 -0.821841
0.0 0.0 -0.821841
0.0 0.0 -0.821841
0.0 0.0 -0.821841
0.0 0.0 -0.821841
0.0 0.0 -0.821841
0.0 0.0 -0.821841
0.0 0.0 -0.821841
0.0 0.0 -0.821841
0.0 0.0 -0.821841
0.0 0.0 -0.821841
0.0 0.0 -0.821841
0.0 0.0 -0.821841
0.0 0.0 -0.821841
0.0 0.0 -0.821841
0.0 0.0 -0.821841
0.0 0.0 -0.821841
0.0 0.0 -0.821841
0.0 0.0 -0.821841
0.0 0.0 -0.821841
0.0 0.0 -0.821841
0.0 0.0 -0.821841
0.0 0.0 -0.821841
0.0 0.0 -0.821841
0.0 0.0 -0.821841
0.0 0.0 -0.821841
0.0 0.0 -0.821841
0.0 0.0 -0.821841
0.0 0.0 -0.821841
0.0 0.0 -0.821841
0.0 0.0 -0.821841
0.0 0.0 -0.821841
0.0 0.0 -0.821841
0.0 0.0 -0.821841
0.0 0.0 -0.821841
0.0 0.0 -0.821841
0.0 0.0 -0.821841
0.0 0.0 -0.821841
0.0 0.0 -0.821841
VECTORS omega float
0.0 0.0 0.0
0.0 0.0 0.0
0.0 0.0 0.0
0.0 0.0 0.0
0.0 0.0 0.0
-2.06556e-07 0.0 0.0
0.0 0.0 0.0
0.0 0.0 0.0
0.0 0.0 0.0
0.0 0.0 0.0
0.0 0.0 0.0
0.0 0.0 0.0
0.0 0.0 0.0
0.0 0.0 0.0
0.0 0.0 0.0
0.0 0.0 0.0
0.0 0.0 0.0
0.0 0.0 0.0
0.0 0.0 0.0
0.0 0.0 0.0
0.0 0.0 0.0
0.0 0.0 0.0
0.0 0.0 0.0
0.0 0.0 0.0
0.0 0.0 0.0
0.0 0.0 0.0
0.0 0.0 0.0
0.0 0.0 0.0
0.0 0.0 0.0
0.0 0.0 0.0
0.0 0.0 0.0
0.0 0.0 0.0
29.4222 -48.9779 -43.8717
-21.6472 71.9359 21.8888
0.0 0.0 0.0
0.0 0.0 0.0
0.0 0.0 0.0
0.0 0.0 0.0
0.0 0.0 0.0
-21.6472 -102.245 -9.72073
0.0 0.0 0.0
0.0 0.0 0.0
0.0 0.0 0.0
0.0 0.0 0.0
0.0 0.0 0.0
0.0 0.0 0.0
0.0 0.0 0.0
0.0 0.0 0.0
0.0 0.0 0.0
0.0 0.0 0.0
0.0 0.0 0.0
0.0 0.0 0.0
0.0 0.0 0.0
0.0 0.0 0.0
-1.40651e-07 -153.931 -8.411e-11
0.0 0.0 0.0
0.0 0.0 0.0
0.0 0.0 0.0
0.0 0.0 0.0
0.0 0.0 0.0
0.0 0.0 0.0
0.0 0.0 0.0
0.0 0.0 0.0
0.0 0.0 0.0
0.0 0.0 0.0
0.0 0.0 0.0
0.0 0.0 0.0
0.0 0.0 0.0
0.0 0.0 0.0
0.0 0.0 0.0
0.0 0.0 0.0
0.0 0.0 0.0
0.0 0.0 0.0
0.0 0.0 0.0
0.0 0.0 0.0
0.0 0.0 0.0
0.0 0.0 0.0
0.0 0.0 0.0
0.0 0.0 0.0
0.0 0.0 0.0
0.0 0.0 0.0
53.2608 43.9349 -43.8717
0.0 0.0 0.0
-2.60195e-07 52.7615 -3.74191e-16
0.0 0.0 0.0
0.0 0.0 0.0
VECTORS v float
0.0 0.0 -4.25692
0.0 0.0 -4.25692
0.0 0.0 -4.25692
0.0 0.0 -4.25692
0.0 0.0 -4.25692
0.0 1.01201e-08 2.38555
0.0 0.0 -4.34712
0.0 0.0 -4.25692
0.0 0.0 -4.25692
0.0 0.0 -4.39715
0.0 0.0 -4.25692
0.0 0.0 -4.25692
0.0 0.0 -4.39323
0.0 0.0 -4.3534
0.0 0.0 -4.25692
0.0 0.0 -4.37655
0.0 0.0 -4.36645
0.0 0.0 -4.48829
0.0 0.0 -4.25692
0.0 0.0 -4.47014
0.0 0.0 -4.25692
0.0 0.0 -4.25692
0.0 0.0 -4.27051
0.0 0.0 -4.25692
0.0 0.0 -4.29248
0.0 0.0 -4.25692
0.0 0.0 -4.25692
0.0 0.0 -4.4103
0.0 0.0 -4.25692
0.0 0.0 -4.41952
0.0 0.0 -4.25697
0.0 0.0 -4.48692
0.75142 -1.63743 -2.05561
1.30948 0.41409 -1.35872
0.0 0.0 -4.44375
0.0 0.0 -4.38989
0.0 0.0 -4.25692
0.0 0.0 -4.47671
0.0 0.0 -4.44787
0.75967 -0.667283 -0.587695
0.0 0.0 -4.41589
0.0 0.0 -4.35654
0.0 0.0 -4.25692
0.0 0.0 -4.27227
0.0 0.0 -4.54499
0.0 0.0 -4.39598
0.0 0.0 -4.49427
0.0 0.0 -4.34271
0.0 0.0 -4.25692
0.0 0.0 -4.39617
0.0 0.0 -4.54421
0.0 0.0 -4.25692
0.0 0.0 -4.46828
0.0 0.0 -4.52988
-2.1514 1.95059e-09 -2.05191
0.0 0.0 -4.25692
0.0 0.0 -4.25692
0.0 0.0 -4.25692
0.0 0.0 -4.39245
0.0 0.0 -4.42305
0.0 0.0 -4.524
0.0 0.0 -4.25692
0.0 0.0 -4.25692
0.0 0.0 -4.25692
0.0 0.0 -4.25692
0.0 0.0 -4.25692
0.0 0.0 -4.53449
0.0 0.0 -4.25692
0.0 0.0 -4.54607
0.0 0.0 -4.51017
0.0 0.0 -4.25692
0.0 0.0 -4.40775
0.0 0.0 -4.25692
0.0 0.0 -4.52625
0.0 0.0 -4.52547
0.0 0.0 -4.54744
0.0 0.0 -4.25692
0.0 0.0 -4.43551
0.0 0.0 -4.39519
0.0 0.0 -4.49977
0.0 0.0 -4.53881
1.84936 0.970147 -2.41614
0.0 0.0 -4.25692
1.74633 8.61209e-09 1.48377
0.0 0.0 -4.49594
0.0 0.0 -4.25692
SCALARS radius float 1
LOOKUP_TABLE default
0.025
0.025
0.025
0.025
0.025
0.025
0.025
0.025
0.025
0.025
0.025
0.025
0.025
0.025
0.025
0.025
0.025
0.025
0.025
0.025
0.025
0.025
0.025
0.025
0.025
0.025
0.025
0.025
0.02
0.02
0.02
0.02
0.02
0.02
0.02
0.02
0.02
0.02
0.02
0.02
0.02
0.02
0.02
0.02
0.02
0.02
0.02
0.02
0.02
0.02
0.02
0.02
0.02
0.02
0.02
0.02
0.02
0.02
0.02
0.02
0.02
0.02
0.02
0.02
0.02
0.02
0.02
0.02
0.02
0.02
0.02
0.02
0.02
0.02
0.02
0.02
0.02
0.02
0.02
0.02
0.02
0.02
0.02
0.02
0.02
0.02
SCALARS type float 1
LOOKUP_TABLE default
1.0
1.0
1.0
1.0
1.0
1.0
1.0
1.0
1.0
1.0
1.0
1.0
1.0
1.0
1.0
1.0
1.0
1.0
1.0
1.0
1.0
1.0
1.0
1.0
1.0
1.0
1.0
1.0
1.0
1.0
1.0
1.0
1.0
1.0
1.0
1.0
1.0
1.0
1.0
1.0
1.0
1.0
1.0
1.0
1.0
1.0
1.0
1.0
1.0
1.0
1.0
1.0
1.0
1.0
1.0
1.0
1.0
1.0
1.0
1.0
1.0
1.0
1.0
1.0
1.0
1.0
1.0
1.0
1.0
1.0
1.0
1.0
1.0
1.0
1.0
1.0
1.0
1.0
1.0
1.0
1.0
1.0
1.0
1.0
1.0
1.0
SCALARS id float 1
LOOKUP_TABLE default
1.0
2.0
3.0
4.0
5.0
6.0
7.0
8.0
9.0
10.0
11.0
12.0
13.0
14.0
15.0
16.0
17.0
18.0
19.0
20.0
21.0
22.0
23.0
24.0
25.0
26.0
27.0
28.0
29.0
30.0
31.0
32.0
33.0
34.0
35.0
36.0
37.0
38.0
39.0
40.0
41.0
42.0
43.0
44.0
45.0
46.0
47.0
48.0
49.0
50.0
51.0
52.0
53.0
54.0
55.0
56.0
57.0
58.0
59.0
60.0
61.0
62.0
63.0
64.0
65.0
66.0
67.0
68.0
69.0
70.0
71.0
72.0
73.0
74.0
75.0
76.0
77.0
78.0
79.0
80.0
81.0
82.0
83.0
84.0
85.0
86.0

