# vtk DataFile Version 2.0
Generated by lpp.py
ASCII
DATASET POLYDATA
POINTS 86 float
0.0786117 0.0887029 -0.0364106
0.0570545 0.118742 -0.0742548
-0.0745038 -0.158582 -0.0745213
-0.0292793 -0.168898 -0.0552292
0.262398 0.0829971 -0.0103728
0.148109 -0.0900302 0.128161
0.00284967 0.174159 0.0327092
0.0428654 -0.0898675 -0.0457249
0.186853 -0.0199817 -0.00955239
0.118577 -0.11212 -0.074937
0.274963 0.0599793 -0.0621426
0.0865295 -0.146754 -0.0440434
0.251993 0.146733 -0.0597204
0.150128 0.146967 0.0415956
0.243621 -0.105697 0.0554153
0.107168 0.00142684 -0.0746387
0.245843 -0.0791805 -0.0749826
0.112203 0.0948208 -0.0740246
0.141423 0.138848 -0.0403694
0.0880153 -0.0512521 -0.0191274
-0.060005 0.120975 -0.0393802
0.263015 -0.116051 -0.0454651
0.203043 0.0704186 -0.0461223
0.2028 -0.0858199 -0.0383022
-0.0582674 0.00762191 -0.073346
-0.0597494 -0.0373501 -0.050678
-0.0510416 -0.00323803 0.131707
-0.000225808 0.124828 -0.0247511
0.137697 0.0568995 0.0153635
0.24315 -0.00760386 -0.0750923
0.106772 0.0127832 -0.0296979
0.157364 0.124696 -0.0800002
-0.0205814 -0.101815 -0.0624375
-0.0799286 -0.064882 -0.0800003
-0.0655652 -0.109399 -0.08
0.243513 0.0330222 -0.0799166
0.268345 0.0541435 0.0921171
0.0910045 -0.173439 -0.0800003
0.192334 0.00183258 -0.0774146
-0.0577534 -0.0834914 -0.049342
0.249505 0.0926468 -0.0800002
0.0832546 0.16479 -0.0793963
0.176803 -0.12382 -0.0155438
0.215008 -0.140184 -0.0703234
0.257708 -0.14693 -0.0793714
0.209376 -0.0507678 -0.0793278
0.0379972 0.0322112 -0.0588648
0.175739 -0.170513 -0.0353883
0.27998 0.0154836 -0.0798173
0.188783 0.179478 0.152246
0.171684 -0.174094 -0.0789513
-0.0775854 0.0538584 -0.0799605
-0.0797002 0.122415 -0.079819
0.190607 0.176119 -0.024408
0.00403422 0.0330191 -0.0799992
0.143567 0.0700054 0.0708703
0.119962 0.147404 -0.079465
0.224195 0.0308224 -0.0306828
0.0128899 0.172692 -0.079926
0.0751655 0.0186013 -0.00546671
0.278283 -0.0429958 -0.0794464
0.22654 -0.179775 -0.0426859
0.151088 0.176282 -0.0785045
0.279178 0.00933765 -0.0401849
0.0648128 -0.115529 -0.0798642
-0.0280597 0.00386159 0.0793613
0.046714 -0.000642854 -0.0799924
0.243314 -0.0393451 -0.0478596
0.184318 0.0937438 -0.0799972
0.190734 0.171789 -0.0700251
-0.0443729 0.119381 0.0228069
-0.0185918 0.0660996 -0.0791483
0.234138 -0.144512 -0.0253651
0.0220063 -0.14964 -0.0797279
0.152354 -0.0258942 -0.062755
0.228839 0.179787 -0.0796467
-0.0751414 0.173038 0.0424551
-0.0346282 -0.0628403 -0.0786692
0.211818 -0.178882 -0.0799989
0.170872 -0.126545 -0.0799749
0.207441 -0.102103 -0.0799962
0.0749224 -0.0763334 -0.0789614
0.207577 0.117079 -0.0102798
0.0772135 0.0504108 -0.0648928
-0.0680569 0.172848 -0.0299727
0.0391718 0.120009 0.0527909
VERTICES 86 172
1 0
1 1
1 2
1 3
1 4
1 5
1 6
1 7
1 8
1 9
1 10
1 11
1 12
1 13
1 14
1 15
1 16
1 17
1 18
1 19
1 20
1 21
1 22
1 23
1 24
1 25
1 26
1 27
1 28
1 29
1 30
1 31
1 32
1 33
1 34
1 35
1 36
1 37
1 38
1 39
1 40
1 41
1 42
1 43
1 44
1 45
1 46
1 47
1 48
1 49
1 50
1 51
1 52
1 53
1 54
1 55
1 56
1 57
1 58
1 59
1 60
1 61
1 62
1 63
1 64
1 65
1 66
1 67
1 68
1 69
1 70
1 71
1 72
1 73
1 74
1 75
1 76
1 77
1 78
1 79
1 80
1 81
1 82
1 83
1 84
1 85
POINT_DATA 86
VECTORS i float
0.0 0.0 0.0
0.0 0.0 0.0
0.0 0.0 0.0
0.0 0.0 0.0
0.0 0.0 0.0
0.0 0.0 0.0
0.0 0.0 0.0
0.0 0.0 0.0
0.0 0.0 0.0
0.0 0.0 0.0
0.0 0.0 0.0
0.0 0.0 0.0
0.0 0.0 0.0
0.0 0.0 0.0
0.0 0.0 0.0
0.0 0.0 0.0
0.0 0.0 0.0
0.0 0.0 0.0
0.0 0.0 0.0
0.0 0.0 0.0
0.0 0.0 0.0
0.0 0.0 0.0
0.0 0.0 0.0
0.0 0.0 0.0
0.0 0.0 0.0
0.0 0.0 0.0
0.0 0.0 0.0
0.0 0.0 0.0
0.0 0.0 0.0
0.0 0.0 0.0
0.0 0.0 0.0
0.0 0.0 0.0
0.0 0.0 0.0
0.0 0.0 0.0
0.0 0.0 0.0
0.0 0.0 0.0
0.0 0.0 0.0
0.0 0.0 0.0
0.0 0.0 0.0
0.0 0.0 0.0
0.0 0.0 0.0
0.0 0.0 0.0
0.0 0.0 0.0
0.0 0.0 0.0
0.0 0.0 0.0
0.0 0.0 0.0
0.0 0.0 0.0
0.0 0.0 0.0
0.0 0.0 0.0
0.0 0.0 0.0
0.0 0.0 0.0
0.0 0.0 0.0
0.0 0.0 0.0
0.0 0.0 0.0
0.0 0.0 0.0
0.0 0.0 0.0
0.0 0.0 0.0
0.0 0.0 0.0
0.0 0.0 0.0
0.0 0.0 0.0
0.0 0.0 0.0
0.0 0.0 0.0
0.0 0.0 0.0
0.0 0.0 0.0
0.0 0.0 0.0
0.0 0.0 0.0
0.0 0.0 0.0
0.0 0.0 0.0
0.0 0.0 0.0
0.0 0.0 0.0
0.0 0.0 0.0
0.0 0.0 0.0
0.0 0.0 0.0
0.0 0.0 0.0
0.0 0.0 0.0
0.0 0.0 0.0
0.0 0.0 0.0
0.0 0.0 0.0
0.0 0.0 0.0
0.0 0.0 0.0
0.0 0.0 0.0
0.0 0.0 0.0
0.0 0.0 0.0
0.0 0.0 0.0
0.0 0.0 0.0
0.0 0.0 0.0
VECTORS f float
0.0 0.0 -1.60516
0.0 0.0 -1.60516
0.0 0.0 -1.60516
0.0 0.0 -1.60516
0.0 0.0 -1.60516
0.0 0.0 -1.60516
0.0 0.0 -1.60516
0.0 0.0 -1.60516
0.0 0.0 -1.60516
0.0 0.0 -1.60516
0.0 0.0 -1.60516
-0.0574835 0.308109 -0.702348
0.0 0.0 -1.60516
0.0 0.0 -1.60516
0.0 0.0 -1.60516
0.0 0.0 -1.60516
0.0 0.0 -1.60516
0.0 0.0 -1.60516
0.0286202 0.0604259 -1.45663
0.0 0.0 -1.60516
0.0 0.0 -1.60516
0.0 0.0 -1.60516
0.0 0.0 -1.60516
0.0 0.0 -1.60516
0.0 0.0 -1.60516
0.277711 0.38045 -0.678686
0.0 0.0 -1.60516
0.0 0.0 -1.60516
0.0 0.0 -0.821841
0.0 0.0 -0.821841
0.0 0.0 -0.821841
-0.0760308 -0.0478055 8.61362e-06
0.0 0.0 -0.821841
-0.0308636 -0.043937 6.32242e-05
0.000166026 2.2499e-05 -1.01038
0.0 0.0 -0.821841
0.0 0.0 -0.821841
0.00973913 -0.0135215 0.000113244
0.0 0.0 -0.821841
0.0 0.0 -0.821841
1.55513e-14 -4.73861e-13 1.02704e-09
0.0 0.0 -0.821841
0.0 0.0 -0.821841
0.0 0.0 -0.821841
0.0 0.0 -0.821841
0.0 0.0 -0.821841
0.0 0.0 -0.821841
0.0 0.0 -0.821841
0.0 0.0 -0.821841
0.0 0.0 -0.821841
0.0 0.0 -0.821841
0.0 0.0 -0.821841
0.0 0.0 -0.821841
0.0 0.0 -0.821841
0.0 0.0 -0.821841
0.0 0.0 -0.821841
0.0 0.0 -0.821841
0.0 0.0 -0.821841
0.0 0.0 -0.821841
0.0 0.0 -0.821841
0.0 0.0 -0.821841
0.0 0.0 -0.821841
0.0 0.0 -0.821841
0.0 0.0 -0.821841
0.0 0.0 -0.821841
0.0 0.0 -0.821841
0.0 0.0 -0.821841
0.0 0.0 -0.821841
0.0 0.0 -0.821841
0.0 0.0 -0.821841
0.0 0.0 -0.821841
0.0 0.0 -0.821841
0.0 0.0 -0.821841
0.0 0.0 -0.821841
0.0 0.0 -0.821841
0.0 0.0 -0.821841
0.0 0.0 -0.821841
0.0 0.0 -0.821841
0.0 0.0 -0.821841
0.0 0.0 -0.821841
0.0 0.0 -0.821841
0.0 0.0 -0.821841
0.0 0.0 -0.821841
0.0 0.0 -0.821841
0.0 0.0 -0.821841
0.0 0.0 -0.821841
VECTORS omega float
13.2705 -18.2705 6.96244
-7.18413 1.46309 18.0881
-6.48628 -1.55705 5.77378
0.939467 -12.7654 -12.6904
15.6619 13.8107 13.0728
-26.0803 -50.5733 -1.45208
35.4193 -99.0088 7.57596
-12.7165 27.942 4.04226
-6.19893 15.0278 -11.3492
-10.0244 -27.7569 7.05505
-0.242095 8.73002 2.4259
-11.9357 0.238545 0.102546
3.49065 -4.22017 2.1816
-9.27354 1.69843 -10.2287
20.3494 33.9821 23.8601
1.21429 -8.36794 2.46925
1.96779 4.89622 -7.34586
-13.3332 4.31312 3.5414
-11.6662 -28.8309 -24.9642
-32.8138 3.90956 6.22557
-1.65722 -17.8842 1.40227
-8.18881 0.948619 -7.66272
10.4082 1.27407 -11.9235
-3.00449 -3.58541 -9.31982
10.5387 -7.98736 2.00475
5.12804 2.97684 -3.41378
-14.2654 -16.5103 7.3168
47.3475 -20.3895 -10.3552
51.789 9.06372 29.1574
26.9299 20.8953 -3.98971
4.1321 13.1206 -12.9841
6.39772 24.2225 -30.0746
-18.378 14.8455 1.63759
-5.68704 0.105577 5.99349
-2.17189 10.1125 14.5182
-5.35056 -5.22436 -5.0413
54.6499 -24.416 -9.64789
-0.456796 -2.64413 2.80196
21.4901 -6.64631 20.4426
23.6465 -40.7547 -41.6914
-11.7049 -0.498902 -24.6241
11.3728 30.0577 39.3632
-23.6819 45.0345 -21.9833
1.744 -4.91637 -13.4871
9.57089 -1.48653 18.5093
4.04613 6.9259 16.3982
19.9952 -12.4818 -4.57878
31.2294 -72.4385 -18.6543
-9.45052 -21.036 -6.09164
0.0 0.0 0.0
-6.49501 7.30812 0.234956
2.6328 -6.68051 -5.19176
3.67166 5.73293 -2.5886
-6.20594 -20.6477 33.9274
-24.8476 -1.26874 13.2874
34.834 -5.33969 -1.83755
-21.581 -9.48997 -6.14888
-50.8394 33.5771 -10.8996
1.35325 18.1771 -25.1824
-49.7516 -11.8837 31.4145
-11.8249 -0.0920036 -1.96426
-1.70337 15.9512 -5.28923
-4.5615 7.92071 9.49029
-22.4595 3.5481 10.4814
-4.22308 -4.65371 -11.8341
-63.3931 18.2802 51.8135
-20.6639 9.31065 12.7062
-14.8252 8.75786 8.10548
5.38817 5.59516 33.9029
-16.9535 -10.1008 1.74618
-58.2175 -1.87261 35.946
-6.12509 9.34527 -38.66
9.92884 -4.81911 15.9927
-6.89797 -11.1657 -1.82556
-19.3417 -21.0496 12.2605
-3.36504 8.92214 -3.81648
-14.5476 1.10021 -18.3635
4.79995 -8.01544 -17.173
-2.4908 -7.34536 4.70342
-4.51022 -0.321232 -21.0806
-1.04402 6.30068 4.34629
0.580037 -6.14395 -3.9494
-15.1823 -67.0945 6.92827
-12.9399 40.3868 5.20283
12.4938 -19.7411 -0.456119
-40.4952 14.8317 -8.78423
VECTORS v float
0.000938902 0.0573413 -0.20185
0.0448537 0.170784 0.0903452
-0.0465493 0.165965 -0.0113982
-0.0521313 0.0297097 -0.0391314
-0.24094 -0.328647 -0.164805
0.934564 -0.509511 -0.481643
0.175886 -0.352659 -0.9283
0.194861 0.714797 -0.233481
0.0542784 -0.143223 -0.477457
0.0800471 0.157263 -0.545242
-0.0126281 0.143153 -0.107634
-0.125125 0.249035 -0.187026
0.0662355 -0.0921151 -0.121583
-0.12488 0.107635 0.161235
-0.681398 -0.59658 0.399371
-0.175891 -0.117395 -0.156988
0.113678 0.0465503 -0.0083272
0.0697838 0.353246 -0.212395
0.280897 0.36994 -0.259668
-0.280657 0.0796731 -0.11879
-0.284893 -0.102552 0.110259
0.0143274 0.0180591 -0.0808042
0.456722 -0.326646 -0.331765
0.223154 0.134485 -0.0444471
-0.198747 -0.288852 0.224222
0.0308572 0.1198 -0.0254722
0.358811 0.180481 -0.243125
-0.30904 -0.124499 0.206904
0.0529848 -0.0660418 0.0991333
-0.173391 -0.0791759 -0.617698
0.0883008 -0.163649 -0.0628353
0.484446 -0.127953 4.91059e-06
-0.0872756 -0.225132 -0.116965
0.00211149 0.11374 4.33142e-08
0.20225 0.0434379 0.0013041
-0.095995 0.114319 0.0157241
0.541289 -0.675966 0.523258
-0.0528823 0.00913585 1.54918e-06
-0.112281 -0.430624 0.352709
-0.279806 0.464572 -0.46379
-0.009978 0.234097 -1.96117e-12
0.200391 -0.140571 -0.272315
0.105485 0.0411779 -0.408743
-0.0344428 -0.0329511 -0.0660979
-0.0151785 -0.183483 -0.0521482
-0.0637353 0.0907607 -0.109774
0.00861774 0.429567 -0.116596
0.385979 0.0973345 -0.333913
-0.0373683 0.135335 -0.802095
0.0 0.0 1.11446
-0.116266 0.0791719 -0.185195
-0.134924 -0.0504799 0.026773
-0.0330252 -0.0631009 -0.11096
0.673134 -0.14215 -0.179211
-0.0253746 0.49695 -2.29933e-06
-0.0478136 0.412972 0.216333
0.48453 0.0880972 -0.0421978
0.317212 -0.596075 -0.128504
0.363527 -0.0271414 0.0051474
0.00521566 0.130509 -0.0944714
-0.0061384 0.245372 0.441484
0.103138 -0.0539503 -0.170819
0.158677 0.0813498 0.0451464
-0.0925385 0.725522 -0.624535
-0.0985144 0.0822522 0.0297211
0.43188 0.713029 0.428661
0.185479 0.416184 0.00672727
0.19913 0.227493 -0.460305
0.111442 -0.107151 -0.00367706
-0.0349938 0.229014 -0.214962
0.504286 0.707406 -0.695208
0.189485 0.121817 0.0752365
0.0170827 -0.0265 -0.0398917
-0.222973 0.135474 0.0625177
-0.444824 -0.0660754 -0.526371
0.0665339 -0.0374654 -0.00123104
0.0281889 -0.00136821 0.0316566
-0.160553 -0.0982402 -0.0503209
-0.152696 -0.0408679 -0.0198714
-0.0064664 0.090163 0.00487431
0.127061 0.0193572 -0.0101938
-0.0327226 0.112397 -0.144675
-0.425251 -0.336841 -0.414107
0.296592 0.142998 -0.649681
0.105361 0.170287 -0.280793
0.182932 -0.631006 0.922636
SCALARS radius float 1
LOOKUP_TABLE default
0.025
0.025
0.025
0.025
0.025
0.025
0.025
0.025
0.025
0.025
0.025
0.025
0.025
0.025
0.025
0.025
0.025
0.025
0.025
0.025
0.025
0.025
0.025
0.025
0.025
0.025
0.025
0.025
0.02
0.02
0.02
0.02
0.02
0.02
0.02
0.02
0.02
0.02
0.02
0.02
0.02
0.02
0.02
0.02
0.02
0.02
0.02
0.02
0.02
0.02
0.02
0.02
0.02
0.02
0.02
0.02
0.02
0.02
0.02
0.02
0.02
0.02
0.02
0.02
0.02
0.02
0.02
0.02
0.02
0.02
0.02
0.02
0.02
0.02
0.02
0.02
0.02
0.02
0.02
0.02
0.02
0.02
0.02
0.02
0.02
0.02
SCALARS type float 1
LOOKUP_TABLE default
1.0
1.0
1.0
1.0
1.0
1.0
1.0
1.0
1.0
1.0
1.0
1.0
1.0
1.0
1.0
1.0
1.0
1.0
1.0
1.0
1.0
1.0
1.0
1.0
1.0
1.0
1.0
1.0
1.0
1.0
1.0
1.0
1.0
1.0
1.0
1.0
1.0
1.0
1.0
1.0
1.0
1.0
1.0
1.0
1.0
1.0
1.0
1.0
1.0
1.0
1.0
1.0
1.0
1.0
1.0
1.0
1.0
1.0
1.0
1.0
1.0
1.0
1.0
1.0
1.0
1.0
1.0
1.0
1.0
1.0
1.0
1.0
1.0
1.0
1.0
1.0
1.0
1.0
1.0
1.0
1.0
1.0
1.0
1.0
1.0
1.0
SCALARS id float 1
LOOKUP_TABLE default
1.0
2.0
3.0
4.0
5.0
6.0
7.0
8.0
9.0
10.0
11.0
12.0
13.0
14.0
15.0
16.0
17.0
18.0
19.0
20.0
21.0
22.0
23.0
24.0
25.0
26.0
27.0
28.0
29.0
30.0
31.0
32.0
33.0
34.0
35.0
36.0
37.0
38.0
39.0
40.0
41.0
42.0
43.0
44.0
45.0
46.0
47.0
48.0
49.0
50.0
51.0
52.0
53.0
54.0
55.0
56.0
57.0
58.0
59.0
60.0
61.0
62.0
63.0
64.0
65.0
66.0
67.0
68.0
69.0
70.0
71.0
72.0
73.0
74.0
75.0
76.0
77.0
78.0
79.0
80.0
81.0
82.0
83.0
84.0
85.0
86.0

