# vtk DataFile Version 2.0
Generated by lpp.py
ASCII
DATASET POLYDATA
POINTS 86 float
0.16161 0.049777 -0.0569078
0.0605673 0.126899 -0.074987
-0.0748947 -0.147259 -0.0750002
-0.0317181 -0.172796 -0.0747184
0.272558 0.0926848 -0.0221845
0.196484 -0.127399 0.0519471
0.0168586 0.163593 -0.0609902
0.0234433 -0.0645251 -0.069032
0.215124 -0.0285619 -0.0374216
0.102265 -0.0903535 -0.0749639
0.272354 0.05912 -0.0721989
0.0831661 -0.133424 -0.0568068
0.273456 0.12831 -0.0657894
0.134143 0.160745 -0.0181299
0.221678 -0.164042 -0.00330104
0.0875884 -0.0161268 -0.0711065
0.264841 -0.0752016 -0.0748167
0.193504 0.0950559 -0.052402
0.183482 0.151628 -0.0339213
0.173673 -0.0668482 -0.0433786
-0.0671572 0.108029 -0.0362047
0.274949 -0.122227 -0.0610806
0.227304 0.0285554 0.0153527
0.227026 -0.0778387 -0.0407848
-0.069023 0.0153313 -0.0750003
-0.0515558 -0.030469 -0.0651402
-0.027679 0.0206398 0.0737833
0.0128661 0.108897 -0.0733866
0.178847 0.0199651 -0.0153599
0.232616 -0.0182607 -0.0790476
0.172076 -0.018761 -0.0286603
0.219286 0.129869 -0.0740329
-0.0138812 -0.10657 -0.0799032
-0.0776402 -0.0657321 -0.0800003
-0.0640427 -0.103675 -0.0800002
0.237916 0.0216036 -0.076214
0.251143 -0.00492588 0.0534802
0.0839492 -0.172012 -0.0799704
0.175272 -0.0324209 -0.0742877
-0.0741979 -0.0783929 -0.0422133
0.2376 0.0940961 -0.0793748
0.0967636 0.155636 -0.0800002
0.205496 -0.116783 -0.0480221
0.224644 -0.141552 -0.0781386
0.260162 -0.160462 -0.0798687
0.208376 -0.0562841 -0.0789887
0.0439752 0.0733393 -0.079997
0.195876 -0.164784 -0.0464625
0.276802 0.00960617 -0.0711284
0.188783 0.179478 0.214534
0.177804 -0.15182 -0.0800002
-0.0795198 0.0588568 -0.0800002
-0.0743901 0.11542 -0.0800003
0.238833 0.153634 -0.0415581
0.00791276 0.0546515 -0.0800002
0.137446 0.122866 0.0181974
0.142419 0.1346 -0.0766007
0.249223 6.05942e-05 -0.0434508
0.061071 0.175513 -0.0778644
0.159366 0.00229856 -0.0602735
0.279966 -0.0310206 -0.0800445
0.239773 -0.179835 -0.0512302
0.176825 0.169259 -0.0752673
0.276267 0.0304867 -0.0341153
0.0518083 -0.0991705 -0.0800002
0.0272208 0.0951293 0.0538664
0.0597561 0.0363509 -0.0799988
0.257424 -0.0396543 -0.0481918
0.207273 0.0474185 -0.0740194
0.224389 0.177313 -0.0790308
-0.0517027 0.173829 -0.0420799
-0.0349119 0.0708056 -0.0789077
0.240051 -0.136711 -0.0366357
0.00902176 -0.142456 -0.0800002
0.130273 -0.0463699 -0.0784433
0.265445 0.174722 -0.0793285
-0.0794121 0.173454 -0.00915953
-0.0376826 -0.0706152 -0.0800002
0.211488 -0.179999 -0.0800002
0.152108 -0.1176 -0.0800002
0.224828 -0.101478 -0.0795571
0.071111 -0.0575506 -0.0799932
0.223105 0.0794746 -0.0197198
0.198362 0.00269772 -0.0701868
-0.0649847 0.165296 -0.0791374
0.062587 0.0392403 0.0905247
VERTICES 86 172
1 0
1 1
1 2
1 3
1 4
1 5
1 6
1 7
1 8
1 9
1 10
1 11
1 12
1 13
1 14
1 15
1 16
1 17
1 18
1 19
1 20
1 21
1 22
1 23
1 24
1 25
1 26
1 27
1 28
1 29
1 30
1 31
1 32
1 33
1 34
1 35
1 36
1 37
1 38
1 39
1 40
1 41
1 42
1 43
1 44
1 45
1 46
1 47
1 48
1 49
1 50
1 51
1 52
1 53
1 54
1 55
1 56
1 57
1 58
1 59
1 60
1 61
1 62
1 63
1 64
1 65
1 66
1 67
1 68
1 69
1 70
1 71
1 72
1 73
1 74
1 75
1 76
1 77
1 78
1 79
1 80
1 81
1 82
1 83
1 84
1 85
POINT_DATA 86
VECTORS i float
0.0 0.0 0.0
0.0 0.0 0.0
0.0 0.0 0.0
0.0 0.0 0.0
0.0 0.0 0.0
0.0 0.0 0.0
0.0 0.0 0.0
0.0 0.0 0.0
0.0 0.0 0.0
0.0 0.0 0.0
0.0 0.0 0.0
0.0 0.0 0.0
0.0 0.0 0.0
0.0 0.0 0.0
0.0 0.0 0.0
0.0 0.0 0.0
0.0 0.0 0.0
0.0 0.0 0.0
0.0 0.0 0.0
0.0 0.0 0.0
0.0 0.0 0.0
0.0 0.0 0.0
0.0 0.0 0.0
0.0 0.0 0.0
0.0 0.0 0.0
0.0 0.0 0.0
0.0 0.0 0.0
0.0 0.0 0.0
0.0 0.0 0.0
0.0 0.0 0.0
0.0 0.0 0.0
0.0 0.0 0.0
0.0 0.0 0.0
0.0 0.0 0.0
0.0 0.0 0.0
0.0 0.0 0.0
0.0 0.0 0.0
0.0 0.0 0.0
0.0 0.0 0.0
0.0 0.0 0.0
0.0 0.0 0.0
0.0 0.0 0.0
0.0 0.0 0.0
0.0 0.0 0.0
0.0 0.0 0.0
0.0 0.0 0.0
0.0 0.0 0.0
0.0 0.0 0.0
0.0 0.0 0.0
0.0 0.0 0.0
0.0 0.0 0.0
0.0 0.0 0.0
0.0 0.0 0.0
0.0 0.0 0.0
0.0 0.0 0.0
0.0 0.0 0.0
0.0 0.0 0.0
0.0 0.0 0.0
0.0 0.0 0.0
0.0 0.0 0.0
0.0 0.0 0.0
0.0 0.0 0.0
0.0 0.0 0.0
0.0 0.0 0.0
0.0 0.0 0.0
0.0 0.0 0.0
0.0 0.0 0.0
0.0 0.0 0.0
0.0 0.0 0.0
0.0 0.0 0.0
0.0 0.0 0.0
0.0 0.0 0.0
0.0 0.0 0.0
0.0 0.0 0.0
0.0 0.0 0.0
0.0 0.0 0.0
0.0 0.0 0.0
0.0 0.0 0.0
0.0 0.0 0.0
0.0 0.0 0.0
0.0 0.0 0.0
0.0 0.0 0.0
0.0 0.0 0.0
0.0 0.0 0.0
0.0 0.0 0.0
0.0 0.0 0.0
VECTORS f float
0.0 0.0 -1.60516
0.0 0.0 -1.60516
1.03801e-15 3.79445e-14 0.0
0.0 0.0 -1.60516
0.0 0.0 -1.60516
0.0 0.0 -1.60516
0.0 0.0 -1.60516
0.0 0.0 -1.60516
-4647.02 -2106.41 -1773.4
0.0 0.0 -1.60516
0.0 0.0 -1.60516
0.0 0.0 -1.60516
0.0 0.0 -1.60516
0.0 0.0 -1.60516
0.0 0.0 -1.60516
0.0 0.0 -1.60516
0.0 0.0 -1.60516
0.0 0.0 -1.60516
0.0 0.0 -1.60516
0.0 0.0 -1.60516
0.136148 -0.146092 -0.117537
0.0 0.0 -1.60516
0.0 0.0 -1.60516
0.0 0.0 -1.60516
-0.02743 0.0815747 -0.0962556
-0.0282209 0.0746259 -0.783559
0.0 0.0 -1.60516
0.0 0.0 -1.60516
0.0 0.0 -0.821841
0.0 0.0 -0.821841
0.0 0.0 -0.821841
0.0 0.0 -0.821841
0.0 0.0 -0.821841
-0.00871118 0.0362913 -2.34583e-05
2.62143e-15 -5.85653e-15 0.0
0.0 0.0 -0.821841
0.0 0.0 -0.821841
0.0 0.0 -0.821841
0.0 0.0 -0.821841
0.0384021 -0.144303 -0.0957739
0.0 0.0 -0.821841
3.45173e-13 -2.85871e-13 1.20919e-09
0.0 0.0 -0.821841
0.0 0.0 -0.821841
0.0 0.0 -0.821841
0.0 0.0 -0.821841
0.0 0.0 -0.821841
-0.156571 0.159969 -0.175514
0.0 0.0 -0.821841
0.0 0.0 -0.821841
-4.91646e-14 -1.07068e-13 0.0
-8.52844e-16 -2.79583e-14 0.0
-0.021102 0.0313875 6.07944e-07
0.0 0.0 -0.821841
-6.67582e-15 6.1392e-15 0.0
0.0 0.0 -0.821841
0.0 0.0 -0.821841
4647.02 2106.41 1770.98
0.0 0.0 -0.821841
0.0 0.0 -0.821841
107.828 348.566 892.822
0.0 0.0 -0.821841
0.0 0.0 -0.821841
0.0 0.0 -0.821841
5.25721e-14 -4.44661e-14 0.0
0.0 0.0 -0.821841
0.0 0.0 -0.821841
-313.839 22.6879 2572.45
0.0 0.0 -0.821841
0.0 0.0 -0.821841
0.0 0.0 -0.821841
0.0 0.0 -0.821841
0.0 0.0 -0.821841
1.3143e-14 -6.67582e-15 0.0
0.0 0.0 -0.821841
0.0 0.0 -0.821841
0.0 0.0 -0.821841
0.0268444 -0.0510882 0.017912
0.0251441 -0.0341873 0.00813739
3.97006e-14 -6.79644e-15 -3.73291e-10
0.0 0.0 -0.821841
0.0 0.0 -0.821841
0.0 0.0 -0.821841
0.0 0.0 -0.821841
0.0 0.0 -0.821841
0.0 0.0 -0.821841
VECTORS omega float
69.6288 -209.621 250.484
1.79499 4.12712 10.5747
-2.56459 0.057559 4.07862
3.03621 -2.88578 -8.62327
15.5156 70.5727 -19.6851
-32.0872 -34.3 -14.8384
8.4412 -75.7915 -1.98464
0.565228 -7.85174 3.02475
-182.109 -285.844 -47.5651
-0.821448 -2.23479 11.9945
-15.2656 -2.22161 -1.34406
-1.20753 -1.60387 -10.9473
-100.243 44.6648 -38.9935
-9.27354 1.69843 -10.2287
9.89537 8.04943 -12.0473
1.56248 34.1454 -6.42255
28.5527 31.1336 -60.1394
28.5039 -15.9472 -159.089
20.9897 -59.4194 -29.4787
34.9998 45.8423 -103.856
1.8414 1.22548 -2.60765
-42.4806 -2.11183 11.3016
153.307 487.98 350.106
6.70807 20.1461 -129.111
-2.42543 -2.58447 2.97221
-3.51803 8.44832 0.716056
-11.9501 -7.3483 8.15948
-24.5422 -2.10013 -2.68093
-182.069 -608.32 13.0446
-7.43935 45.3018 -28.7406
49.7031 130.607 33.715
-26.1032 76.5944 88.014
0.37828 5.29818 0.719046
-0.233146 1.85281 1.05141
0.946593 1.17623 -2.18818
-9.04413 -34.6503 231.675
54.6499 5.22539 22.5806
7.01122 -4.40401 6.50961
178.214 88.1654 95.0718
4.76595 2.09431 -1.35538
132.399 -88.5331 -14.3566
3.31156 4.00086 11.0693
-6.46361 1.49415 -19.019
-11.6943 28.0299 45.7944
3.95674 -37.7606 -66.8469
-44.3826 -11.9759 -3.67403
8.30803 3.48443 7.68356
4.48726 -7.12328 -18.2232
55.843 28.0326 111.234
0.0 0.0 0.0
-9.13007 4.94689 1.4277
-3.00994 0.297049 -2.07179
1.49787 3.08117 -1.91587
45.0894 -158.643 19.9808
-3.40134 -0.936173 23.2313
34.834 -5.33969 -1.83755
40.7447 20.235 -152.367
-85.8954 40.6972 205.444
-7.84811 24.2773 5.36888
-236.456 -65.2847 -177.771
8.31185 -41.6591 -8.36731
19.4851 76.168 64.6912
-44.138 -20.2792 139.058
-16.0536 84.5876 7.74804
-7.03762 -5.20871 -9.44528
-63.3931 18.2802 51.8135
-4.44784 -1.15716 -6.95858
-19.6247 419.878 119.288
-254.005 80.9851 -277.369
26.8282 86.1586 28.4496
-8.86103 9.80052 0.224199
12.0967 -15.9253 -9.67866
-6.38441 -6.9229 -14.567
0.898636 1.07383 7.58879
49.5074 2.95282 84.0708
3.987 -82.9783 -54.9825
-3.36506 -10.9546 -14.7278
-0.856494 1.603 0.978828
0.00795136 -0.24724 0.296965
-4.28074 -10.308 -14.1124
30.159 1.7475 -9.64382
34.0383 -9.62703 28.3191
-55.6088 -195.832 19.2279
227.877 -43.0567 121.752
11.3951 -3.51366 3.98795
-40.4952 14.8317 -8.78423
VECTORS v float
5.0781 -3.11782 -0.984066
0.103003 -0.0460756 -0.046396
0.00143897 0.0641145 -1.14919e-13
-0.0712749 -0.0748065 0.105665
-1.14854 0.449127 1.77178
0.111223 -0.187587 -0.976818
-0.0500851 -0.26961 -0.64034
-0.203038 0.0299191 0.0471702
4.56818 -0.985566 2.52662
0.0480253 -0.0787788 -0.00221168
1.11261 0.294118 0.918749
-0.0345827 -0.109664 0.0809869
-0.282281 -2.01543 1.51423
-0.12488 0.107635 -1.09444
-0.0970685 -0.0510081 0.355008
-0.509613 -0.859077 -0.00701631
1.01244 -0.547288 -0.113577
2.87279 -0.816435 0.569551
0.952416 -0.309986 1.08966
5.26605 -1.67871 -1.50667
0.134412 -0.120554 -0.0273101
0.152983 -1.10386 0.156503
2.51349 -3.05391 11.8078
1.37307 -1.19926 0.978511
-0.0646459 0.0607262 -0.000316367
0.0684346 0.0813238 -0.140511
-0.358694 0.205124 0.204638
-0.0515048 0.0906195 -0.558131
7.65993 0.173641 4.24256
1.642 -3.28295 0.380194
4.36017 1.10993 -2.69799
1.44816 -0.113226 0.139035
0.0945559 -0.0113147 -0.123689
0.0370559 0.00466301 -3.36694e-07
0.0235246 -0.0189318 3.36788e-13
-0.334713 -2.26686 -0.217709
-0.271386 -0.418036 -0.969647
-0.0881917 -0.143082 0.0724714
-0.688101 -4.42358 2.34209
0.109706 -0.0815008 -0.0354883
-0.320662 -2.64204 -0.518568
0.0800168 -0.0662309 4.68724e-12
-0.0650412 -0.181762 0.0994857
-0.669934 0.105628 -0.0493226
-0.290565 -0.661607 0.197312
1.92648 -3.9425 -0.561466
0.00660391 -0.0140702 -0.00717786
0.00784233 0.0643848 -0.0233669
0.802589 -0.380027 1.3918
0.0 0.0 -0.141216
0.0989373 0.182601 -3.20563e-13
0.00594095 0.0601985 -3.20563e-13
0.0616228 -0.029957 2.87189e-07
1.28528 1.78995 2.34664
-0.0187234 0.0680265 8.1125e-15
-0.0478136 0.412972 -1.03935
-1.53864 -2.85851 0.219583
2.85171 0.594908 2.31377
0.0642082 -0.214379 -0.0373381
0.490621 -0.179477 -3.38737
-0.901957 -0.381354 0.0734469
-1.25437 0.206519 0.324402
0.339669 -1.51975 0.37433
-0.463594 -0.0216682 2.3421
-0.104174 0.140752 -6.49239e-13
0.43188 0.713029 -0.827019
0.0693679 -0.123208 -0.093132
5.68751 -1.34202 3.59208
-2.59258 -3.90362 -0.0113108
1.32652 -0.458997 0.177264
0.180606 -0.14661 -0.169987
-0.320101 -0.22781 0.0786526
-0.0449401 -0.0131575 0.509019
0.0214766 -0.0179726 8.1125e-15
0.48268 -1.49103 0.273546
1.59903 -0.981795 0.108081
-0.200067 -0.0041559 -0.485968
0.0321219 0.0169509 -0.000388522
-0.00494183 -0.000161973 -3.15494e-05
-0.206159 0.0856144 -1.12978e-13
0.201337 -0.0279532 0.100115
-1.04123 -0.820245 -0.0237999
1.51062 -4.14649 6.20702
3.38582 -3.32056 -0.444043
-0.0842994 -0.238837 -0.0023517
0.182932 -0.631006 -0.333044
SCALARS radius float 1
LOOKUP_TABLE default
0.025
0.025
0.025
0.025
0.025
0.025
0.025
0.025
0.025
0.025
0.025
0.025
0.025
0.025
0.025
0.025
0.025
0.025
0.025
0.025
0.025
0.025
0.025
0.025
0.025
0.025
0.025
0.025
0.02
0.02
0.02
0.02
0.02
0.02
0.02
0.02
0.02
0.02
0.02
0.02
0.02
0.02
0.02
0.02
0.02
0.02
0.02
0.02
0.02
0.02
0.02
0.02
0.02
0.02
0.02
0.02
0.02
0.02
0.02
0.02
0.02
0.02
0.02
0.02
0.02
0.02
0.02
0.02
0.02
0.02
0.02
0.02
0.02
0.02
0.02
0.02
0.02
0.02
0.02
0.02
0.02
0.02
0.02
0.02
0.02
0.02
SCALARS type float 1
LOOKUP_TABLE default
1.0
1.0
1.0
1.0
1.0
1.0
1.0
1.0
1.0
1.0
1.0
1.0
1.0
1.0
1.0
1.0
1.0
1.0
1.0
1.0
1.0
1.0
1.0
1.0
1.0
1.0
1.0
1.0
1.0
1.0
1.0
1.0
1.0
1.0
1.0
1.0
1.0
1.0
1.0
1.0
1.0
1.0
1.0
1.0
1.0
1.0
1.0
1.0
1.0
1.0
1.0
1.0
1.0
1.0
1.0
1.0
1.0
1.0
1.0
1.0
1.0
1.0
1.0
1.0
1.0
1.0
1.0
1.0
1.0
1.0
1.0
1.0
1.0
1.0
1.0
1.0
1.0
1.0
1.0
1.0
1.0
1.0
1.0
1.0
1.0
1.0
SCALARS id float 1
LOOKUP_TABLE default
1.0
2.0
3.0
4.0
5.0
6.0
7.0
8.0
9.0
10.0
11.0
12.0
13.0
14.0
15.0
16.0
17.0
18.0
19.0
20.0
21.0
22.0
23.0
24.0
25.0
26.0
27.0
28.0
29.0
30.0
31.0
32.0
33.0
34.0
35.0
36.0
37.0
38.0
39.0
40.0
41.0
42.0
43.0
44.0
45.0
46.0
47.0
48.0
49.0
50.0
51.0
52.0
53.0
54.0
55.0
56.0
57.0
58.0
59.0
60.0
61.0
62.0
63.0
64.0
65.0
66.0
67.0
68.0
69.0
70.0
71.0
72.0
73.0
74.0
75.0
76.0
77.0
78.0
79.0
80.0
81.0
82.0
83.0
84.0
85.0
86.0

