# vtk DataFile Version 2.0
Generated by lpp.py
ASCII
DATASET POLYDATA
POINTS 86 float
0.0783095 0.0902211 -0.0486355
0.0570645 0.127086 -0.0750002
-0.074999 -0.152002 -0.0750002
-0.0284576 -0.168448 -0.0665367
0.253058 0.0719481 -0.0243426
0.188253 -0.113518 0.0973719
0.0122175 0.160484 -0.0223625
0.0391041 -0.071202 -0.0536702
0.190056 -0.0322037 -0.0366789
0.111029 -0.102196 -0.0747918
0.274942 0.0642728 -0.0748936
0.0839855 -0.138026 -0.0477913
0.261491 0.143309 -0.0699911
0.143385 0.15278 0.0359993
0.217147 -0.141938 0.0531559
0.0959807 -0.00239831 -0.0750003
0.253941 -0.0770825 -0.0750003
0.11738 0.107032 -0.074998
0.158797 0.152907 -0.0426451
0.080897 -0.0374915 -0.0358567
-0.0736752 0.115146 -0.035391
0.268424 -0.118012 -0.0500599
0.213547 0.0591882 -0.0533268
0.214204 -0.0755114 -0.0430932
-0.0643845 0.0124314 -0.0749974
-0.0565688 -0.033659 -0.0572578
-0.0316658 0.00650797 0.104276
-0.00149572 0.114778 -0.0482114
0.140558 0.0533332 0.00641377
0.239573 -0.0106186 -0.0799477
0.110503 0.00516344 -0.0330846
0.173763 0.126594 -0.0800002
-0.0189459 -0.110358 -0.0790602
-0.0793489 -0.0654018 -0.0800003
-0.063622 -0.107115 -0.0793488
0.241123 0.0330365 -0.0789747
0.271225 0.0260088 0.0983743
0.0882081 -0.172719 -0.0800002
0.185536 -0.0132283 -0.0800143
-0.0716816 -0.0771633 -0.0425454
0.248859 0.101229 -0.0800002
0.0902199 0.157337 -0.0796809
0.186058 -0.120791 -0.04005
0.216745 -0.140955 -0.0761242
0.256698 -0.156941 -0.0800002
0.208783 -0.0482848 -0.0800002
0.0431637 0.057748 -0.0688089
0.191553 -0.167491 -0.0453839
0.278965 0.0180201 -0.0799619
0.188783 0.179478 0.198124
0.171584 -0.165776 -0.0800003
-0.0799594 0.0544022 -0.0800002
-0.0782864 0.118853 -0.0800003
0.225189 0.167405 -0.0424246
0.00676584 0.0452528 -0.0800002
0.140985 0.0923059 0.0682493
0.129712 0.150029 -0.0799994
0.241204 0.00570174 -0.0407907
0.0325206 0.171228 -0.0800002
0.0754472 0.0256488 -0.0248712
0.27595 -0.036676 -0.0793606
0.232695 -0.179979 -0.0477963
0.156618 0.179954 -0.0792314
0.279611 0.0316944 -0.0423398
0.059492 -0.109555 -0.0794707
-0.00473824 0.0423651 0.088206
0.0569588 0.0219034 -0.0800002
0.245191 -0.0390961 -0.0520329
0.189963 0.0871023 -0.0799344
0.196463 0.179782 -0.0737343
-0.0461347 0.155461 -0.00400266
-0.0128567 0.0838198 -0.0795822
0.236636 -0.143762 -0.0312749
0.00996223 -0.142298 -0.0800002
0.13528 -0.0290012 -0.0725909
0.237118 0.179932 -0.0796814
-0.0736192 0.172964 0.0298615
-0.0393964 -0.068675 -0.0798971
0.20897 -0.179998 -0.0800008
0.167819 -0.122674 -0.078542
0.214081 -0.101238 -0.0800063
0.0752788 -0.0663936 -0.0800002
0.183355 0.100555 -0.0419799
0.0981576 0.0567086 -0.0766403
-0.0627798 0.179004 -0.0578375
0.0490501 0.0859347 0.0883102
VERTICES 86 172
1 0
1 1
1 2
1 3
1 4
1 5
1 6
1 7
1 8
1 9
1 10
1 11
1 12
1 13
1 14
1 15
1 16
1 17
1 18
1 19
1 20
1 21
1 22
1 23
1 24
1 25
1 26
1 27
1 28
1 29
1 30
1 31
1 32
1 33
1 34
1 35
1 36
1 37
1 38
1 39
1 40
1 41
1 42
1 43
1 44
1 45
1 46
1 47
1 48
1 49
1 50
1 51
1 52
1 53
1 54
1 55
1 56
1 57
1 58
1 59
1 60
1 61
1 62
1 63
1 64
1 65
1 66
1 67
1 68
1 69
1 70
1 71
1 72
1 73
1 74
1 75
1 76
1 77
1 78
1 79
1 80
1 81
1 82
1 83
1 84
1 85
POINT_DATA 86
VECTORS i float
0.0 0.0 0.0
0.0 0.0 0.0
0.0 0.0 0.0
0.0 0.0 0.0
0.0 0.0 0.0
0.0 0.0 0.0
0.0 0.0 0.0
0.0 0.0 0.0
0.0 0.0 0.0
0.0 0.0 0.0
0.0 0.0 0.0
0.0 0.0 0.0
0.0 0.0 0.0
0.0 0.0 0.0
0.0 0.0 0.0
0.0 0.0 0.0
0.0 0.0 0.0
0.0 0.0 0.0
0.0 0.0 0.0
0.0 0.0 0.0
0.0 0.0 0.0
0.0 0.0 0.0
0.0 0.0 0.0
0.0 0.0 0.0
0.0 0.0 0.0
0.0 0.0 0.0
0.0 0.0 0.0
0.0 0.0 0.0
0.0 0.0 0.0
0.0 0.0 0.0
0.0 0.0 0.0
0.0 0.0 0.0
0.0 0.0 0.0
0.0 0.0 0.0
0.0 0.0 0.0
0.0 0.0 0.0
0.0 0.0 0.0
0.0 0.0 0.0
0.0 0.0 0.0
0.0 0.0 0.0
0.0 0.0 0.0
0.0 0.0 0.0
0.0 0.0 0.0
0.0 0.0 0.0
0.0 0.0 0.0
0.0 0.0 0.0
0.0 0.0 0.0
0.0 0.0 0.0
0.0 0.0 0.0
0.0 0.0 0.0
0.0 0.0 0.0
0.0 0.0 0.0
0.0 0.0 0.0
0.0 0.0 0.0
0.0 0.0 0.0
0.0 0.0 0.0
0.0 0.0 0.0
0.0 0.0 0.0
0.0 0.0 0.0
0.0 0.0 0.0
0.0 0.0 0.0
0.0 0.0 0.0
0.0 0.0 0.0
0.0 0.0 0.0
0.0 0.0 0.0
0.0 0.0 0.0
0.0 0.0 0.0
0.0 0.0 0.0
0.0 0.0 0.0
0.0 0.0 0.0
0.0 0.0 0.0
0.0 0.0 0.0
0.0 0.0 0.0
0.0 0.0 0.0
0.0 0.0 0.0
0.0 0.0 0.0
0.0 0.0 0.0
0.0 0.0 0.0
0.0 0.0 0.0
0.0 0.0 0.0
0.0 0.0 0.0
0.0 0.0 0.0
0.0 0.0 0.0
0.0 0.0 0.0
0.0 0.0 0.0
0.0 0.0 0.0
VECTORS f float
0.0 0.0 -1.60516
-1.38286e-05 8.71738e-06 -0.560841
-3.66835e-15 6.34026e-14 4.44089e-16
0.0 0.0 -1.60516
0.0 0.0 -1.60516
0.0 0.0 -1.60516
0.0 0.0 -1.60516
-0.245988 0.00686637 -1.04436
-42.3767 -175.5 29.8444
0.0 0.0 -1.60516
0.0 0.0 -1.60516
0.0 0.0 -1.60516
0.0 0.0 -1.60516
0.0 0.0 -1.60516
0.0 0.0 -1.60516
-0.00925709 0.0349959 1.65097e-06
-0.0293901 0.0583251 3.26674
0.0 0.0 -1.60516
0.0 0.0 -1.60516
0.0 0.0 -1.60516
0.0776701 -0.063388 -0.265969
0.0 0.0 -1.60516
0.0 0.0 -1.60516
63.226 389.585 219.912
0.0 0.0 -1.60516
0.0 0.0 -1.60516
0.0 0.0 -1.60516
0.0 0.0 -1.60516
0.0 0.0 -0.821841
0.0 0.0 -0.821841
0.102579 0.0245536 -0.248055
8.35284e-07 4.52436e-07 0.00258085
0.0 0.0 -0.821841
3.75021 -1.72205 -15.1069
0.0 0.0 -0.821841
0.0 0.0 -0.821841
0.0 0.0 -0.821841
2.65966e-14 -6.98654e-15 0.0
-18.1905 166.023 624.07
-3.28282 1.20146 15.6272
-1.75007e-09 5.55958e-09 -7.32063e-05
0.0 0.0 -0.821841
0.0 0.0 -0.821841
22.7182 -125.037 61.2211
6.67583e-15 -5.06644e-14 0.0
3.28576e-15 -4.44071e-15 0.0
0.0 0.0 -0.821841
-0.00569926 -0.154677 0.0988543
0.0 0.0 -0.821841
0.0 0.0 -0.821841
0.378096 0.165226 -0.0788055
3.00172e-09 3.04154e-08 0.000355296
-0.0124552 0.0113569 1.3876e-06
0.0 0.0 -0.821841
-2.79504e-14 -5.904e-14 -2.3059e-11
0.0 0.0 -0.821841
0.0 0.0 -0.821841
0.0 0.0 -0.821841
-2.10289e-13 1.33516e-14 0.0
0.0 0.0 -0.821841
0.0 0.0 -0.821841
0.0 0.0 -0.821841
0.0 0.0 -0.821841
0.0 0.0 -0.821841
0.0 0.0 -0.821841
0.0 0.0 -0.821841
-3.91256e-10 -8.52397e-10 7.08113e-07
0.0 0.0 -0.821841
0.0 0.0 -0.821841
0.0 0.0 -0.821841
0.0 0.0 -0.821841
0.0 0.0 -0.821841
0.0 0.0 -0.821841
-1.1182e-13 5.34066e-14 0.0
0.0 0.0 -0.821841
0.0 0.0 -0.821841
0.0 0.0 -0.821841
0.0 0.0 -0.821841
-2.09141 -125.086 -32.3383
0.0 0.0 -0.821841
-20.4814 38.9065 -4.99911
-0.0434985 -0.0505752 -2.27633e-05
0.0 0.0 -0.821841
0.0 0.0 -0.821841
0.0 0.0 -0.821841
0.0 0.0 -0.821841
VECTORS omega float
17.5632 -16.2317 5.28649
-3.76745 -1.00225 8.99948
-2.43549 -0.154565 4.53047
3.61806 -2.92645 -12.0963
12.9292 19.1781 13.4723
-32.0872 -34.3 -14.8384
11.1113 -87.1433 0.432299
10.5933 -4.9902 2.90617
-2.94429 12.6515 4.26276
-7.36881 -5.73205 7.05505
1.72494 0.782059 2.98714
1.6053 14.7548 1.01249
-0.669182 1.39295 -4.55342
-9.27354 1.69843 -10.2287
14.3425 50.2553 10.4737
1.75379 -9.57693 -1.63652
0.192774 7.20732 0.237333
-1.2168 2.83089 5.07908
0.291333 -1.34505 -13.3391
-25.8019 1.92681 -3.19886
-0.509555 -11.1902 1.4216
-0.856468 11.6312 -12.2119
3.99396 -2.36909 -14.6072
-4.71873 -2.83779 4.56934
3.10615 -1.99309 1.67225
-1.54529 0.0482731 3.67072
-14.2654 -16.5103 7.3168
-30.952 6.83238 -21.8287
51.789 9.06372 29.1574
2.00279 -7.8258 1.33513
-3.93646 25.167 -14.5801
-6.73578 12.4355 -35.9986
-1.67986 8.84743 -11.5266
-0.158471 2.56809 7.63573
-4.85512 -1.29283 -0.816406
2.47061 3.95495 2.24186
54.6499 5.22539 22.5806
-0.792033 -2.58321 2.63456
-1.54231 -9.04181 19.1079
-6.9869 -19.7154 -16.5017
-1.98422 -0.624603 -13.5251
-0.800422 2.05664 9.33869
-17.606 42.3716 -23.6163
-5.79304 -0.739808 -6.13798
9.28755 -0.966822 18.5093
-2.08523 -0.2972 16.3982
11.5604 -6.71537 -5.96463
15.4652 -23.2831 -16.5677
5.12491 2.23618 -1.56827
0.0 0.0 0.0
-10.8298 3.81644 -11.1706
-3.00994 0.297049 -2.07179
3.18372 1.24087 -2.54139
4.10955 -25.9284 36.0491
-11.3041 2.65172 22.0983
34.834 -5.33969 -1.83755
-1.42798 3.79604 -7.15265
-29.7447 24.0567 -4.61677
1.35598 18.1766 -25.1824
-49.7516 -11.8837 31.4145
-4.57826 -4.19825 -3.41458
-4.20803 8.33831 -5.57088
-2.25555 7.02541 9.34339
2.21412 12.0501 4.39198
-7.76106 -5.79232 -9.44528
-63.3931 18.2802 51.8135
-20.8738 9.58099 12.0719
-2.34625 1.79599 16.2972
-5.04496 -0.819866 10.6638
-2.93609 -3.35204 0.979009
-79.91 11.2541 11.9498
8.09214 -10.965 -15.6708
-0.435109 -15.8783 5.08762
-6.80924 -11.1535 -1.82556
-2.14978 -18.0175 3.83284
-1.53578 18.8372 10.9774
-14.5476 1.10021 -18.3635
5.65977 -1.14177 -12.9645
-2.54554 0.218634 -0.0207355
-0.443066 -12.0421 -22.7136
5.69241 9.17433 -0.775436
-8.09622 0.277614 -8.52387
-16.6464 -48.6294 0.58558
-26.7881 12.7296 9.49845
29.2389 -19.7411 3.85755
-40.4952 14.8317 -8.78423
VECTORS v float
-0.0264592 -0.0243297 -0.177185
-0.0250561 0.0941859 -4.62235e-05
-0.0038641 0.060887 4.30887e-13
0.0567269 -0.00872069 -0.418082
-0.0373435 0.0836664 -0.144699
0.111223 -0.187587 -0.250878
0.169558 -0.0923071 -1.00406
-0.207886 0.132729 -0.298565
0.0140065 0.0580578 -0.155654
-0.140261 0.183826 -0.259597
0.0157214 -0.038701 0.000801532
0.0243768 0.0672858 -0.0545149
0.354103 -0.00955152 -0.196056
-0.12488 0.107635 -0.368505
0.141943 -0.918503 -0.890874
-0.239422 -0.0438444 3.72498e-07
0.18019 -0.00483454 -0.00387723
0.0706481 0.0309899 -9.59049e-05
0.218882 0.0483468 0.172836
-0.015678 0.391342 -0.517004
-0.229167 -0.115734 0.0219273
0.197759 -0.129009 -0.193532
-0.0206222 -0.304867 -0.0251902
0.236568 -0.0693181 -0.107613
-0.0726639 0.0577129 -0.0671252
0.0388195 0.0320213 -0.0848521
0.358811 0.180481 -0.772865
0.439533 0.388109 0.313323
0.0529848 -0.0660418 -0.430607
-0.155657 -0.0391864 0.0780062
0.0622795 -0.118667 -0.091028
0.24871 0.134715 3.60911e-06
0.168395 0.000978338 0.244989
0.0495124 0.00523006 -0.00266991
-0.0312636 0.106469 0.0143085
-0.0738444 -0.0773816 -0.0783401
-0.271386 -0.418036 -0.243707
-0.051664 0.0158406 -3.20563e-13
-0.160335 -0.155431 0.046455
-0.290329 0.0757487 0.0818921
-0.012492 0.0396842 1.57184e-07
0.0443741 0.0187107 0.0124489
0.405632 0.109012 0.0650123
0.10432 -0.101305 -0.148296
-0.0193364 -0.18575 8.11284e-15
-0.00594398 0.0417044 -6.49239e-13
0.0950517 0.503346 -0.382795
0.241954 0.0156024 -0.105463
0.0440865 -0.105117 -0.0101632
0.0 0.0 0.584724
0.07637 0.216566 2.23338e-05
0.00594095 0.0601985 5.45182e-07
0.0248176 -0.0636739 -2.27299e-07
0.427128 -0.286938 0.124404
0.0530341 0.226081 -2.46831e-13
-0.0478136 0.412972 -0.313407
0.075598 0.0274497 -0.00414714
0.309273 -0.141666 0.0595725
0.363531 -0.0271195 -6.49239e-13
0.00521566 0.130509 -0.624211
-0.0918557 0.0864507 0.10967
0.123601 0.00537402 -0.0965802
0.113601 0.00347898 0.0598361
0.29901 -0.187671 0.025268
-0.0995046 0.134964 -0.122586
0.43188 0.713029 -0.101079
0.191619 0.417474 -2.27834e-09
-0.00291841 0.0184791 -0.00543973
0.0485141 -0.146838 -0.0822425
0.157192 -0.0299297 0.0111183
-0.281767 0.650124 -0.546109
-0.195671 -0.0870935 0.358009
0.0605879 0.0452023 -0.175978
-0.22307 0.136184 3.36788e-13
-0.137638 -0.073785 0.135749
0.269516 -0.0282923 0.00874228
0.0281889 -0.00136821 -0.498083
-0.0268166 -0.105304 0.0191207
-0.0111558 -0.0380845 -0.0244689
-0.234106 0.00626603 0.067461
0.222331 -0.125889 -0.098476
0.00555013 0.161923 4.52919e-06
-0.643009 -0.044737 -0.0169127
0.45671 -0.00154627 -0.261525
0.0708466 -0.0842001 -0.676552
0.182932 -0.631006 0.392896
SCALARS radius float 1
LOOKUP_TABLE default
0.025
0.025
0.025
0.025
0.025
0.025
0.025
0.025
0.025
0.025
0.025
0.025
0.025
0.025
0.025
0.025
0.025
0.025
0.025
0.025
0.025
0.025
0.025
0.025
0.025
0.025
0.025
0.025
0.02
0.02
0.02
0.02
0.02
0.02
0.02
0.02
0.02
0.02
0.02
0.02
0.02
0.02
0.02
0.02
0.02
0.02
0.02
0.02
0.02
0.02
0.02
0.02
0.02
0.02
0.02
0.02
0.02
0.02
0.02
0.02
0.02
0.02
0.02
0.02
0.02
0.02
0.02
0.02
0.02
0.02
0.02
0.02
0.02
0.02
0.02
0.02
0.02
0.02
0.02
0.02
0.02
0.02
0.02
0.02
0.02
0.02
SCALARS type float 1
LOOKUP_TABLE default
1.0
1.0
1.0
1.0
1.0
1.0
1.0
1.0
1.0
1.0
1.0
1.0
1.0
1.0
1.0
1.0
1.0
1.0
1.0
1.0
1.0
1.0
1.0
1.0
1.0
1.0
1.0
1.0
1.0
1.0
1.0
1.0
1.0
1.0
1.0
1.0
1.0
1.0
1.0
1.0
1.0
1.0
1.0
1.0
1.0
1.0
1.0
1.0
1.0
1.0
1.0
1.0
1.0
1.0
1.0
1.0
1.0
1.0
1.0
1.0
1.0
1.0
1.0
1.0
1.0
1.0
1.0
1.0
1.0
1.0
1.0
1.0
1.0
1.0
1.0
1.0
1.0
1.0
1.0
1.0
1.0
1.0
1.0
1.0
1.0
1.0
SCALARS id float 1
LOOKUP_TABLE default
1.0
2.0
3.0
4.0
5.0
6.0
7.0
8.0
9.0
10.0
11.0
12.0
13.0
14.0
15.0
16.0
17.0
18.0
19.0
20.0
21.0
22.0
23.0
24.0
25.0
26.0
27.0
28.0
29.0
30.0
31.0
32.0
33.0
34.0
35.0
36.0
37.0
38.0
39.0
40.0
41.0
42.0
43.0
44.0
45.0
46.0
47.0
48.0
49.0
50.0
51.0
52.0
53.0
54.0
55.0
56.0
57.0
58.0
59.0
60.0
61.0
62.0
63.0
64.0
65.0
66.0
67.0
68.0
69.0
70.0
71.0
72.0
73.0
74.0
75.0
76.0
77.0
78.0
79.0
80.0
81.0
82.0
83.0
84.0
85.0
86.0

