# vtk DataFile Version 2.0
Generated by lpp.py
ASCII
DATASET POLYDATA
POINTS 86 float
0.0866228 0.0677029 0.0178286
0.0725687 0.0958304 -0.0554079
-0.0579726 -0.172789 -0.0723628
-0.00505525 -0.172913 -0.0686117
0.256399 0.104248 -0.0273879
0.0639978 -0.0441743 0.131778
-0.00968265 0.112137 0.0812812
0.0214104 -0.158197 -0.0144714
0.181968 -0.00709162 -0.0063118
0.118645 -0.123467 -0.0740161
0.263374 0.0539201 -0.0295192
0.0957869 -0.16874 -0.0346736
0.262453 0.140932 -0.0644077
0.161367 0.13728 -0.0126461
0.184028 -0.0672861 0.028922
0.11974 0.00486358 -0.069104
0.230292 -0.0829814 -0.0630375
0.125323 0.0575231 -0.063101
0.109224 0.126812 -0.0378334
0.113274 -0.0584226 -0.0481668
-0.025619 0.13105 -0.0514004
0.263753 -0.121708 -0.0545804
0.186338 0.092556 -0.046972
0.174168 -0.0861393 -0.0351934
-0.053438 0.0224613 -0.0656397
-0.0721002 -0.018898 -0.0425607
-0.0582305 -0.0264253 0.112367
0.0189805 0.100669 -0.0467904
0.147812 0.0767428 -0.0277526
0.255391 -0.0292907 -0.0516938
0.105439 0.0241281 -0.0183438
0.0910371 0.138424 -0.0775522
0.024599 -0.128329 -0.0536264
-0.078647 -0.0631705 -0.0680966
-0.0796411 -0.13157 -0.0799408
0.247978 0.0224732 -0.0784995
0.219629 0.11498 0.00529343
0.0976275 -0.178477 -0.079338
0.175847 0.0417725 -0.0438191
-0.0559741 -0.125635 -0.0456501
0.264695 0.0872369 -0.0777441
0.0367652 0.179205 -0.0729997
0.167558 -0.129584 -0.0185566
0.208472 -0.136803 -0.0727601
0.274917 -0.171868 -0.076574
0.195867 -0.0530357 -0.0762889
0.0476179 -0.0202722 -0.052801
0.141001 -0.179273 -0.0450667
0.277767 0.010271 -0.045462
0.188783 0.179478 0.0122135
0.182747 -0.179901 -0.0678689
-0.0763654 0.0759101 -0.0773842
-0.0731856 0.125651 -0.0685992
0.141183 0.163065 -0.0505229
-0.0243445 -0.0125691 -0.0745367
0.14787 0.0328379 0.0116699
0.0580203 0.148448 -0.0555661
0.213225 0.0364486 -0.0272122
-0.019614 0.176557 -0.0748646
0.0647517 0.00331827 -0.0242897
0.275047 -0.0751374 -0.053705
0.23832 -0.176995 -0.041563
0.0887192 0.17791 -0.0585238
0.275043 -0.0429966 -0.0151682
0.0713462 -0.129102 -0.0706129
-0.0669289 -0.060311 0.00105125
0.021499 -0.0460587 -0.0728097
0.212233 -0.0575754 -0.0261809
0.143145 0.120309 -0.0780057
0.193992 0.137061 -0.0592299
-0.0600504 0.057614 0.0522676
-0.0321486 0.0778708 -0.0799906
0.21321 -0.111725 -0.0196732
0.0415212 -0.157729 -0.0760119
0.19007 -0.0105785 -0.0530131
0.240565 0.179916 -0.074717
-0.0776784 0.173161 -0.000124528
-0.0135667 -0.0706497 -0.0664709
0.224385 -0.17944 -0.0799989
0.163269 -0.143213 -0.0775957
0.185711 -0.100988 -0.0797084
0.07889 -0.0741942 -0.0734409
0.245239 0.153061 -0.011789
0.0678689 0.0475333 -0.0344787
-0.0775394 0.157522 -0.0444318
0.0210638 0.159253 -0.0415814
VERTICES 86 172
1 0
1 1
1 2
1 3
1 4
1 5
1 6
1 7
1 8
1 9
1 10
1 11
1 12
1 13
1 14
1 15
1 16
1 17
1 18
1 19
1 20
1 21
1 22
1 23
1 24
1 25
1 26
1 27
1 28
1 29
1 30
1 31
1 32
1 33
1 34
1 35
1 36
1 37
1 38
1 39
1 40
1 41
1 42
1 43
1 44
1 45
1 46
1 47
1 48
1 49
1 50
1 51
1 52
1 53
1 54
1 55
1 56
1 57
1 58
1 59
1 60
1 61
1 62
1 63
1 64
1 65
1 66
1 67
1 68
1 69
1 70
1 71
1 72
1 73
1 74
1 75
1 76
1 77
1 78
1 79
1 80
1 81
1 82
1 83
1 84
1 85
POINT_DATA 86
VECTORS i float
0.0 0.0 0.0
0.0 0.0 0.0
0.0 0.0 0.0
0.0 0.0 0.0
0.0 0.0 0.0
0.0 0.0 0.0
0.0 0.0 0.0
0.0 0.0 0.0
0.0 0.0 0.0
0.0 0.0 0.0
0.0 0.0 0.0
0.0 0.0 0.0
0.0 0.0 0.0
0.0 0.0 0.0
0.0 0.0 0.0
0.0 0.0 0.0
0.0 0.0 0.0
0.0 0.0 0.0
0.0 0.0 0.0
0.0 0.0 0.0
0.0 0.0 0.0
0.0 0.0 0.0
0.0 0.0 0.0
0.0 0.0 0.0
0.0 0.0 0.0
0.0 0.0 0.0
0.0 0.0 0.0
0.0 0.0 0.0
0.0 0.0 0.0
0.0 0.0 0.0
0.0 0.0 0.0
0.0 0.0 0.0
0.0 0.0 0.0
0.0 0.0 0.0
0.0 0.0 0.0
0.0 0.0 0.0
0.0 0.0 0.0
0.0 0.0 0.0
0.0 0.0 0.0
0.0 0.0 0.0
0.0 0.0 0.0
0.0 0.0 0.0
0.0 0.0 0.0
0.0 0.0 0.0
0.0 0.0 0.0
0.0 0.0 0.0
0.0 0.0 0.0
0.0 0.0 0.0
0.0 0.0 0.0
0.0 0.0 0.0
0.0 0.0 0.0
0.0 0.0 0.0
0.0 0.0 0.0
0.0 0.0 0.0
0.0 0.0 0.0
0.0 0.0 0.0
0.0 0.0 0.0
0.0 0.0 0.0
0.0 0.0 0.0
0.0 0.0 0.0
0.0 0.0 0.0
0.0 0.0 0.0
0.0 0.0 0.0
0.0 0.0 0.0
0.0 0.0 0.0
0.0 0.0 0.0
0.0 0.0 0.0
0.0 0.0 0.0
0.0 0.0 0.0
0.0 0.0 0.0
0.0 0.0 0.0
0.0 0.0 0.0
0.0 0.0 0.0
0.0 0.0 0.0
0.0 0.0 0.0
0.0 0.0 0.0
0.0 0.0 0.0
0.0 0.0 0.0
0.0 0.0 0.0
0.0 0.0 0.0
0.0 0.0 0.0
0.0 0.0 0.0
0.0 0.0 0.0
0.0 0.0 0.0
0.0 0.0 0.0
0.0 0.0 0.0
VECTORS f float
0.0 0.0 -1.60516
0.0 0.0 -1.60516
0.0 0.0 -1.60516
0.0 0.0 -1.60516
0.0 0.0 -1.60516
0.0 0.0 -1.60516
0.0 0.0 -1.60516
0.0 0.0 -1.60516
0.0 0.0 -1.60516
0.0 0.0 -1.60516
0.0 0.0 -1.60516
0.0 0.0 -1.60516
0.0 0.0 -1.60516
0.0 0.0 -1.60516
0.0 0.0 -1.60516
0.0 0.0 -1.60516
0.0 0.0 -1.60516
0.0 0.0 -1.60516
0.0 0.0 -1.60516
0.0 0.0 -1.60516
0.0 0.0 -1.60516
0.0 0.0 -1.60516
0.0 0.0 -1.60516
0.0 0.0 -1.60516
0.0 0.0 -1.60516
0.0 0.0 -1.60516
0.0 0.0 -1.60516
0.0 0.0 -1.60516
0.0 0.0 -0.821841
0.0 0.0 -0.821841
0.0 0.0 -0.821841
0.0 0.0 -0.821841
0.0 0.0 -0.821841
0.0 0.0 -0.821841
0.0 0.0 -0.821841
0.0 0.0 -0.821841
0.0 0.0 -0.821841
0.0 0.0 -0.821841
0.0 0.0 -0.821841
0.0 0.0 -0.821841
0.0 0.0 -0.821841
0.0 0.0 -0.821841
0.0 0.0 -0.821841
0.0 0.0 -0.821841
0.0 0.0 -0.821841
0.0 0.0 -0.821841
0.0 0.0 -0.821841
0.0 0.0 -0.821841
0.0 0.0 -0.821841
0.0 0.0 -0.821841
0.0 0.0 -0.821841
0.0 0.0 -0.821841
0.0 0.0 -0.821841
0.0 0.0 -0.821841
0.0 0.0 -0.821841
0.0 0.0 -0.821841
0.0 0.0 -0.821841
0.0 0.0 -0.821841
0.0 0.0 -0.821841
0.0 0.0 -0.821841
0.0 0.0 -0.821841
0.0 0.0 -0.821841
0.0 0.0 -0.821841
0.0 0.0 -0.821841
0.0 0.0 -0.821841
0.0 0.0 -0.821841
0.0 0.0 -0.821841
0.0 0.0 -0.821841
0.0 0.0 -0.821841
0.0 0.0 -0.821841
0.0 0.0 -0.821841
0.0 0.0 -0.821841
0.0 0.0 -0.821841
0.0 0.0 -0.821841
0.0 0.0 -0.821841
0.0 0.0 -0.821841
0.0 0.0 -0.821841
0.0 0.0 -0.821841
0.0 0.0 -0.821841
0.0 0.0 -0.821841
0.0 0.0 -0.821841
0.0 0.0 -0.821841
0.0 0.0 -0.821841
0.0 0.0 -0.821841
0.0 0.0 -0.821841
0.0 0.0 -0.821841
VECTORS omega float
2.29635 -15.0543 1.56848
-12.3487 10.3181 -6.91702
-4.7652 30.6404 15.537
-16.2087 -8.44715 -9.5562
12.3333 24.4886 3.96862
-26.0803 -50.5733 -1.45208
29.9813 -99.0088 11.3468
-20.2797 40.3712 3.2624
-6.19893 15.0278 -11.3492
-11.5914 -13.87 7.49519
0.419672 -4.11585 -3.73485
-31.5976 8.7285 7.66402
-10.9029 -23.7987 -4.94817
-9.27354 1.69843 -10.2287
-1.66815e-07 77.9855 -5.52063e-16
-26.2082 -12.2307 8.66327
20.9273 -36.8467 10.0708
-14.0186 16.2944 9.76523
9.94214 14.2459 -13.9321
-32.8138 3.90956 6.22557
-12.1134 10.2177 -10.1135
-37.7942 -2.49573 -5.26006
15.464 20.9592 -0.945525
19.1283 1.95846 -0.893875
19.4317 32.0934 -18.3697
2.02086 19.4941 -9.79139
-14.2654 -10.0516 -22.768
-21.8421 -22.8298 6.39196
60.4324 11.8181 -1.03671
-0.259756 21.8374 -15.9031
-0.679996 20.0677 -56.6326
20.8464 18.8846 -31.7755
-12.7451 1.93438 16.3945
18.9771 -1.96132 2.85941
-24.3898 32.0657 19.0724
5.38783 8.03677 -5.40715
54.6499 -24.416 -9.64789
44.1545 -11.4863 0.629003
19.7114 -46.5994 20.4426
30.6524 -63.2451 -35.2312
3.30238 -14.304 -56.5427
11.7133 -22.2629 51.8178
4.17459 47.8123 -4.4612
-9.03506 -8.89257 -21.937
-21.9169 -16.301 8.19549
-26.26 9.30618 12.0521
44.8047 -37.2303 13.1211
31.2294 -72.4385 -18.6543
12.641 28.3699 14.6557
0.0 0.0 0.0
-26.913 31.0712 8.32803
16.3811 16.5278 0.113519
4.73835 44.3662 9.24705
3.82015 -22.9192 49.2713
-22.3929 23.866 32.8113
34.834 -5.33969 -1.83755
30.1287 3.52185 -41.8218
-69.0571 52.421 -7.6213
-3.0997 18.8448 -25.1824
-62.1028 1.93314 -21.097
24.9856 18.0696 -2.53218
7.62746 18.1655 -2.6471
1.68253 -58.6479 23.8693
-21.7377 2.63282 -65.8925
-12.2701 -10.0778 -45.6283
-63.3931 18.2802 51.8135
-66.5453 -4.41064 -25.8906
-17.6283 -25.3182 8.02823
5.72414 41.1203 38.3598
-30.5185 11.566 -18.9522
-58.2175 -44.9089 48.2916
4.84302 -12.7851 -42.74
0.18886 5.38496 11.9551
-60.5922 0.356992 -6.07397
-47.7691 -24.8786 -2.0376
-4.48642 12.3751 -7.59511
-14.5476 1.10021 -18.3635
124.742 -49.3897 -1.89006
-1.63276 -17.174 5.09757
-12.5128 3.35793 -21.1545
7.9124 41.171 18.8412
18.32 11.8577 -9.48799
-29.7176 -64.2652 -19.2119
-16.4846 16.7605 -2.15521
12.4938 -19.7411 -0.456119
-70.4816 -15.4553 15.289
VECTORS v float
0.139327 0.946289 -1.2046
-0.43518 -0.377303 0.444303
-0.411077 0.207752 -0.218056
-0.0196497 0.00820542 -1.35404
0.585884 0.345182 0.35643
0.934564 -0.509511 0.401257
0.138172 0.718813 -0.099789
0.284064 0.811167 -0.542143
0.0542784 -0.143223 0.405443
-0.327503 0.305815 0.499159
0.62196 0.0236804 -0.0827334
-0.0915298 0.00988432 -0.0460725
-0.339773 0.020633 0.5466
-0.12488 0.107635 1.04414
2.67853 5.72952e-09 -0.576897
-0.292989 0.654621 0.300684
-0.112255 0.338737 -0.233271
-0.218076 0.0416306 0.055332
0.255018 -0.53922 0.204831
-0.280657 0.0796731 0.76411
-0.206883 -0.159189 -0.011708
0.206347 0.124846 0.723513
-0.520625 0.114284 0.440563
0.413975 -0.330889 -0.136475
0.807418 -0.430496 1.18953
0.252589 -0.223178 -0.564476
-0.726947 0.481433 0.704384
0.0989629 -0.526484 0.724952
-0.542837 -0.622169 0.760428
-0.0903319 0.420736 0.301285
0.682042 -0.379681 -1.22559
0.315854 -0.388294 0.21226
-0.542798 0.707723 -1.70129
-0.132578 0.144563 -0.170089
0.554092 0.460214 0.637049
0.19952 -0.0188717 0.208021
0.541289 -0.675966 1.40616
-0.0244329 0.0302748 -0.404852
0.207445 -0.444857 -0.0270516
-0.666021 0.337656 -0.699126
-0.256524 -0.0845545 0.258503
0.146027 0.293989 -0.443691
0.0467944 0.527725 0.490337
-0.150286 0.222163 0.429887
-0.290448 0.431999 0.220345
0.547538 0.0141574 -0.522437
-0.195193 0.83482 0.26748
0.385979 0.0973345 0.548987
0.741044 0.307773 -0.791807
0.0 0.0 1.99736
-0.196051 -0.0684751 0.0693027
0.348277 -0.3839 0.212679
0.00810321 0.0450198 -0.0100405
0.128121 0.244699 0.488848
0.976632 -0.575498 0.269148
-0.0478136 0.412972 1.09923
0.148182 0.149976 -0.524286
0.571238 0.101528 0.158412
0.358185 -0.0627667 0.0484336
-0.523808 0.589283 0.777426
0.142146 0.452772 0.539318
-0.340506 0.0188041 0.102017
0.464194 -0.16755 -0.152093
0.188368 -0.093715 0.627904
0.0910999 0.0528028 -0.423805
0.43188 0.713029 1.31156
-0.189657 0.641184 -0.137711
0.633517 -0.0115309 0.376721
0.790231 -0.0944662 0.216031
-0.574266 0.18969 0.196515
-1.03723 0.60861 -0.156711
-0.202233 -0.994512 0.0238093
0.741811 -0.628624 -0.0683607
-1.0461 -0.100859 0.287482
-0.330671 -0.527529 0.253127
-0.144707 -0.228177 0.111018
0.0281889 -0.00136821 0.914557
0.06374 1.3756 -0.255915
-0.0735834 0.00458815 -0.0301078
0.280642 0.397703 -0.257922
0.644462 -0.732019 -0.0885418
0.235622 -0.35398 0.185021
-0.359679 -0.948677 0.366223
0.0405076 1.21865 -0.818248
0.105361 0.170287 0.602107
0.215723 0.497084 0.231201
SCALARS radius float 1
LOOKUP_TABLE default
0.025
0.025
0.025
0.025
0.025
0.025
0.025
0.025
0.025
0.025
0.025
0.025
0.025
0.025
0.025
0.025
0.025
0.025
0.025
0.025
0.025
0.025
0.025
0.025
0.025
0.025
0.025
0.025
0.02
0.02
0.02
0.02
0.02
0.02
0.02
0.02
0.02
0.02
0.02
0.02
0.02
0.02
0.02
0.02
0.02
0.02
0.02
0.02
0.02
0.02
0.02
0.02
0.02
0.02
0.02
0.02
0.02
0.02
0.02
0.02
0.02
0.02
0.02
0.02
0.02
0.02
0.02
0.02
0.02
0.02
0.02
0.02
0.02
0.02
0.02
0.02
0.02
0.02
0.02
0.02
0.02
0.02
0.02
0.02
0.02
0.02
SCALARS type float 1
LOOKUP_TABLE default
1.0
1.0
1.0
1.0
1.0
1.0
1.0
1.0
1.0
1.0
1.0
1.0
1.0
1.0
1.0
1.0
1.0
1.0
1.0
1.0
1.0
1.0
1.0
1.0
1.0
1.0
1.0
1.0
1.0
1.0
1.0
1.0
1.0
1.0
1.0
1.0
1.0
1.0
1.0
1.0
1.0
1.0
1.0
1.0
1.0
1.0
1.0
1.0
1.0
1.0
1.0
1.0
1.0
1.0
1.0
1.0
1.0
1.0
1.0
1.0
1.0
1.0
1.0
1.0
1.0
1.0
1.0
1.0
1.0
1.0
1.0
1.0
1.0
1.0
1.0
1.0
1.0
1.0
1.0
1.0
1.0
1.0
1.0
1.0
1.0
1.0
SCALARS id float 1
LOOKUP_TABLE default
1.0
2.0
3.0
4.0
5.0
6.0
7.0
8.0
9.0
10.0
11.0
12.0
13.0
14.0
15.0
16.0
17.0
18.0
19.0
20.0
21.0
22.0
23.0
24.0
25.0
26.0
27.0
28.0
29.0
30.0
31.0
32.0
33.0
34.0
35.0
36.0
37.0
38.0
39.0
40.0
41.0
42.0
43.0
44.0
45.0
46.0
47.0
48.0
49.0
50.0
51.0
52.0
53.0
54.0
55.0
56.0
57.0
58.0
59.0
60.0
61.0
62.0
63.0
64.0
65.0
66.0
67.0
68.0
69.0
70.0
71.0
72.0
73.0
74.0
75.0
76.0
77.0
78.0
79.0
80.0
81.0
82.0
83.0
84.0
85.0
86.0

