# vtk DataFile Version 2.0
Generated by lpp.py
ASCII
DATASET POLYDATA
POINTS 86 float
0.0779707 0.0899764 -0.0440207
0.0577079 0.123977 -0.074996
-0.0749099 -0.153695 -0.0750003
-0.0297552 -0.168286 -0.0592475
0.255169 0.0731377 -0.0197315
0.176146 -0.105316 0.109297
0.00812626 0.163579 0.000445752
0.0435417 -0.0742627 -0.0478958
0.188482 -0.024285 -0.0282763
0.114395 -0.106608 -0.0713868
0.27468 0.0640967 -0.0695552
0.0834004 -0.139641 -0.0493082
0.254951 0.143136 -0.0663382
0.146382 0.150196 0.0420181
0.223179 -0.123594 0.062982
0.101949 -0.00135036 -0.0750002
0.250051 -0.0778937 -0.0750004
0.115854 0.105201 -0.0748944
0.151538 0.148048 -0.041489
0.0812732 -0.0468837 -0.0262739
-0.0679821 0.117825 -0.0364318
0.264845 -0.116546 -0.046944
0.214452 0.062843 -0.0549634
0.209209 -0.08087 -0.0400998
-0.0624061 0.0111918 -0.0740915
-0.058148 -0.0343615 -0.0521233
-0.0402773 0.00217642 0.119999
-0.00431148 0.121475 -0.0274346
0.139286 0.0549182 0.013923
0.241269 -0.00672515 -0.0799853
0.109072 0.00818626 -0.0315852
0.167458 0.123993 -0.079869
-0.0224059 -0.108161 -0.0702548
-0.0792116 -0.0657274 -0.0799932
-0.0622583 -0.109665 -0.0778124
0.241337 0.0352662 -0.0790452
0.277738 0.0360417 0.101398
0.089448 -0.173099 -0.0800002
0.188964 -0.0110732 -0.0712757
-0.0652868 -0.0792298 -0.0448596
0.249261 0.099827 -0.0800002
0.0885537 0.159503 -0.0782385
0.179968 -0.122585 -0.0322206
0.214938 -0.140808 -0.0731217
0.257162 -0.152483 -0.0799981
0.208926 -0.0492857 -0.0799921
0.0408345 0.0458056 -0.0622332
0.185628 -0.168243 -0.0430862
0.279264 0.0192313 -0.0797806
0.188783 0.179478 0.181265
0.170357 -0.170477 -0.0800004
-0.0795436 0.0525171 -0.0799687
-0.0789398 0.120415 -0.0800003
0.210801 0.171854 -0.0341988
0.00549253 0.0398258 -0.0800002
0.142132 0.0823946 0.0729458
0.127684 0.149151 -0.0799713
0.233711 0.0129402 -0.0389524
0.0237958 0.171878 -0.0800002
0.075322 0.0225166 -0.0127154
0.278639 -0.0384376 -0.0756791
0.229799 -0.18 -0.0456747
0.153927 0.179642 -0.0800001
0.275516 0.0286836 -0.0377046
0.0618801 -0.112794 -0.079354
-0.0151034 0.0252525 0.0878066
0.0523703 0.0118754 -0.0800003
0.245433 -0.0400312 -0.0509912
0.188973 0.0902717 -0.0799608
0.193408 0.178602 -0.0736626
-0.0393723 0.139858 0.00627866
-0.01559 0.0771361 -0.079954
0.235182 -0.14455 -0.0279465
0.0153159 -0.145567 -0.0799823
0.139033 -0.0274264 -0.0786573
0.232882 0.179901 -0.0800001
-0.0742958 0.172997 0.0389903
-0.0389747 -0.0658603 -0.0799794
0.209264 -0.179801 -0.0800005
0.170679 -0.12384 -0.0800002
0.211199 -0.101582 -0.0800004
0.0748798 -0.070767 -0.0800002
0.194819 0.106974 -0.0271175
0.0874433 0.0550024 -0.0765316
-0.064896 0.177956 -0.042811
0.0446597 0.101079 0.0760555
VERTICES 86 172
1 0
1 1
1 2
1 3
1 4
1 5
1 6
1 7
1 8
1 9
1 10
1 11
1 12
1 13
1 14
1 15
1 16
1 17
1 18
1 19
1 20
1 21
1 22
1 23
1 24
1 25
1 26
1 27
1 28
1 29
1 30
1 31
1 32
1 33
1 34
1 35
1 36
1 37
1 38
1 39
1 40
1 41
1 42
1 43
1 44
1 45
1 46
1 47
1 48
1 49
1 50
1 51
1 52
1 53
1 54
1 55
1 56
1 57
1 58
1 59
1 60
1 61
1 62
1 63
1 64
1 65
1 66
1 67
1 68
1 69
1 70
1 71
1 72
1 73
1 74
1 75
1 76
1 77
1 78
1 79
1 80
1 81
1 82
1 83
1 84
1 85
POINT_DATA 86
VECTORS i float
0.0 0.0 0.0
0.0 0.0 0.0
0.0 0.0 0.0
0.0 0.0 0.0
0.0 0.0 0.0
0.0 0.0 0.0
0.0 0.0 0.0
0.0 0.0 0.0
0.0 0.0 0.0
0.0 0.0 0.0
0.0 0.0 0.0
0.0 0.0 0.0
0.0 0.0 0.0
0.0 0.0 0.0
0.0 0.0 0.0
0.0 0.0 0.0
0.0 0.0 0.0
0.0 0.0 0.0
0.0 0.0 0.0
0.0 0.0 0.0
0.0 0.0 0.0
0.0 0.0 0.0
0.0 0.0 0.0
0.0 0.0 0.0
0.0 0.0 0.0
0.0 0.0 0.0
0.0 0.0 0.0
0.0 0.0 0.0
0.0 0.0 0.0
0.0 0.0 0.0
0.0 0.0 0.0
0.0 0.0 0.0
0.0 0.0 0.0
0.0 0.0 0.0
0.0 0.0 0.0
0.0 0.0 0.0
0.0 0.0 0.0
0.0 0.0 0.0
0.0 0.0 0.0
0.0 0.0 0.0
0.0 0.0 0.0
0.0 0.0 0.0
0.0 0.0 0.0
0.0 0.0 0.0
0.0 0.0 0.0
0.0 0.0 0.0
0.0 0.0 0.0
0.0 0.0 0.0
0.0 0.0 0.0
0.0 0.0 0.0
0.0 0.0 0.0
0.0 0.0 0.0
0.0 0.0 0.0
0.0 0.0 0.0
0.0 0.0 0.0
0.0 0.0 0.0
0.0 0.0 0.0
0.0 0.0 0.0
0.0 0.0 0.0
0.0 0.0 0.0
0.0 0.0 0.0
0.0 0.0 0.0
0.0 0.0 0.0
0.0 0.0 0.0
0.0 0.0 0.0
0.0 0.0 0.0
0.0 0.0 0.0
0.0 0.0 0.0
0.0 0.0 0.0
0.0 0.0 0.0
0.0 0.0 0.0
0.0 0.0 0.0
0.0 0.0 0.0
0.0 0.0 0.0
0.0 0.0 0.0
0.0 0.0 0.0
0.0 0.0 0.0
0.0 0.0 0.0
0.0 0.0 0.0
0.0 0.0 0.0
0.0 0.0 0.0
0.0 0.0 0.0
0.0 0.0 0.0
0.0 0.0 0.0
0.0 0.0 0.0
0.0 0.0 0.0
VECTORS f float
0.0 0.0 -1.60516
0.0 0.0 -1.60516
-0.0324461 0.0108143 -0.0315934
0.168225 -0.054695 -1.3993
0.0 0.0 -1.60516
0.0 0.0 -1.60516
0.0 0.0 -1.60516
-8.37102 6.99357 18.8834
-22.5018 -100.883 487.496
0.0 0.0 -1.60516
0.0 0.0 -1.60516
0.0 0.0 -1.60516
0.0 0.0 -1.60516
0.0 0.0 -1.60516
0.0 0.0 -1.60516
-0.0020607 -0.00322321 -0.601604
0.119696 0.206381 0.277949
0.0 0.0 -1.60516
0.0 0.0 -1.60516
0.0 0.0 -1.60516
0.169309 -0.0412226 -0.370431
0.423054 -0.194335 -0.476746
0.0 0.0 -1.60516
-0.04401 0.537093 0.178572
0.0 0.0 -1.60516
0.0 0.0 -1.60516
0.0 0.0 -1.60516
0.0 0.0 -1.60516
0.0 0.0 -0.821841
0.0 0.0 -0.821841
0.0 0.0 -0.821841
0.0 0.0 -0.821841
0.0 0.0 -0.821841
0.0 0.0 -0.821841
0.0 0.0 -0.821841
0.0 0.0 -0.821841
0.0 0.0 -0.821841
-2.5533e-09 7.82871e-10 -2.75358e-05
22.5018 100.883 -489.923
0.0 0.0 -0.821841
-2.69565e-14 1.47813e-12 -6.0723e-07
0.0 0.0 -0.821841
0.0 0.0 -0.821841
0.228038 0.0315038 0.0733192
0.0 0.0 -0.821841
0.0 0.0 -0.821841
-0.0689846 0.198556 -0.494004
0.0 0.0 -0.821841
0.0 0.0 -0.821841
0.0 0.0 -0.821841
0.115343 -0.0354518 1.55063
0.0 0.0 -0.821841
-0.0232632 0.00718911 2.80692e-06
0.0 0.0 -0.821841
4.08647e-07 1.60604e-06 -0.00905469
0.0 0.0 -0.821841
0.0 0.0 -0.821841
0.0 0.0 -0.821841
-2.10289e-13 1.33516e-14 0.0
0.0 0.0 -0.821841
0.0 0.0 -0.821841
-0.0183329 0.00841936 0.133312
-0.000284052 3.55464e-05 -0.13939
0.0 0.0 -0.821841
0.0 0.0 -0.821841
0.0 0.0 -0.821841
-0.00661237 0.0249251 0.033542
0.0 0.0 -0.821841
0.0 0.0 -0.821841
0.0 0.0 -0.821841
0.0 0.0 -0.821841
0.0 0.0 -0.821841
0.125841 0.0949697 -0.0959106
0.0 0.0 -0.821841
0.0 0.0 -0.821841
-0.0276777 -0.00123696 -0.330489
0.0 0.0 -0.821841
0.0 0.0 -0.821841
-0.30683 0.112076 0.366198
6.59397e-16 5.34066e-14 0.0
-0.0233914 -0.00511757 0.288152
8.37102 -6.99357 -20.4885
0.0 0.0 -0.821841
0.0 0.0 -0.821841
0.0 0.0 -0.821841
0.0 0.0 -0.821841
VECTORS omega float
23.4397 -17.0248 4.17095
-4.72607 -0.14185 13.8187
-6.36584 0.430739 6.44233
3.25533 -4.74533 -12.8239
15.6619 13.8107 13.0728
-26.0803 -50.5733 -1.45208
35.4193 -99.0088 7.57596
7.41576 2.48818 0.539228
-9.11996 14.0181 -11.693
-7.36881 -5.73205 7.05505
-0.184962 10.2568 3.59131
1.6053 14.7548 1.01249
7.84408 -2.21086 0.584973
-9.27354 1.69843 -10.2287
20.3494 33.9821 23.8601
3.2939 -6.65197 2.20539
-2.57613 6.28172 -3.35757
-13.4541 5.47782 5.01936
-12.2008 -12.9038 -21.6918
-25.8019 1.92681 -3.19886
-1.08317 -12.6412 1.41882
0.691847 9.6863 -10.8449
-5.63603 -15.399 -13.1179
-7.32469 -4.15713 -9.4151
1.32685 -5.58752 4.5987
0.652819 4.07363 3.77996
-14.2654 -16.5103 7.3168
38.4616 -15.0124 -20.1848
51.789 9.06372 29.1574
-3.29487 -1.22214 -3.18928
-2.40293 18.1816 -13.6283
-3.79368 13.8061 -36.8955
-15.3751 12.4333 -11.5266
-0.199557 3.15871 5.34844
3.11163 4.01659 5.62775
4.79861 9.62809 3.97354
54.6499 5.22539 22.5806
-0.792033 -2.58321 2.63456
14.3589 -9.11141 19.6032
-11.3043 -30.0232 -18.789
-12.4501 -0.233548 -22.9562
5.02042 7.68942 28.8162
-23.6819 45.0345 -21.9833
0.853039 -3.1112 -7.96848
9.28756 -0.966858 18.5093
-2.08638 -0.298551 16.3982
13.8722 -6.02011 -5.86466
19.3432 -37.9297 -18.2354
-3.32875 1.86342 3.36428
0.0 0.0 0.0
-8.6975 1.36125 -10.2751
-1.52078 -1.0724 -6.72493
3.31631 1.50804 -2.5482
-6.20594 -20.6477 33.9274
-11.3085 2.65375 22.1072
34.834 -5.33969 -1.83755
-0.322966 8.14425 -9.99862
-50.8394 33.5771 -10.8996
1.35598 18.1766 -25.1824
-49.7516 -11.8837 31.4145
-6.63577 -1.01733 -3.41458
-4.2902 9.7334 -5.62483
2.52625 5.47229 10.8927
-16.5946 5.05942 10.8288
-7.76106 -5.79232 -9.44528
-63.3931 18.2802 51.8135
-20.9297 9.51911 12.163
-2.70395 3.74586 17.0369
-0.0762781 2.69566 25.3889
-12.0008 -7.19612 -2.26121
-79.91 11.2541 11.9498
-14.9061 6.64043 -29.0974
2.80724 -10.5897 8.47872
-6.81018 -11.1537 -1.82556
-4.13251 -21.852 12.2605
-0.209076 7.85379 -5.98928
-14.5476 1.10021 -18.3635
4.83328 -4.35267 -13.2628
0.800188 -1.41617 1.38915
-4.50875 -0.322724 -21.0806
-0.764801 6.10372 4.07352
-12.075 1.39243 -14.3025
-15.1823 -67.0945 6.92827
-9.10696 23.4665 5.20283
12.4938 -19.7411 -0.456119
-40.4952 14.8317 -8.78423
VECTORS v float
0.0264165 -0.0104425 -0.217835
-0.0348027 0.175068 -0.0172029
0.0108351 0.159124 0.000235908
0.0349092 0.00657569 -0.210032
-0.24094 -0.328647 -0.459105
0.934564 -0.509511 -0.775943
0.175886 -0.352659 -1.2226
-0.149974 0.107176 -0.216912
0.0601289 -0.301274 -0.356745
-0.140261 0.183826 -0.0241568
0.00641055 0.130179 -0.370426
0.0243768 0.0672858 0.180925
0.119693 -0.141195 -0.333247
-0.12488 0.107635 -0.133065
-0.681398 -0.59658 0.105071
-0.166296 -0.0823426 -0.000292496
0.157068 0.064344 0.000145102
0.140824 0.338421 -0.0329487
0.344144 0.278788 -0.0980799
-0.015678 0.391342 -0.281564
-0.247507 -0.108097 0.0673511
0.106589 -0.0142932 -0.0815256
0.0751626 0.0432196 0.122507
0.209048 0.197598 -0.0900942
-0.0771488 0.0273015 -0.149834
0.0587495 0.103896 -0.19139
0.358811 0.180481 -0.537425
0.0934193 -0.0951705 -0.434962
0.0529848 -0.0660418 -0.195167
-0.0243707 0.065432 0.0405626
0.0765317 -0.139209 -0.0255829
0.291767 0.0505748 0.0345228
0.139705 -0.108592 -0.380861
-0.0774963 0.0185908 -0.00954867
-0.0980864 -0.116566 -0.0749222
0.0178356 -0.099292 0.10563
-0.271386 -0.418036 -0.00826699
-0.051664 0.0158406 5.55072e-08
-0.123708 -0.12193 -0.752161
-0.25051 0.0965997 0.144908
-0.00467094 0.249001 2.74412e-11
0.12712 -0.183666 -0.0542108
0.105485 0.0411779 -0.703043
0.0531078 -0.00945147 -0.100037
-0.0193361 -0.18575 0.000877039
-0.00593317 0.0416951 0.0139346
0.102291 0.483157 -0.179098
0.258471 0.0467681 -0.102734
0.252346 -0.0526146 -0.0850851
0.0 0.0 0.820164
0.027226 0.173947 0.00217928
-0.0672118 0.122312 0.0168936
0.030161 -0.0663256 -6.621e-07
0.673134 -0.14215 -0.473511
0.0530748 0.226169 8.16066e-06
-0.0478136 0.412972 -0.0779673
0.108057 -0.0990859 -0.0301809
0.317212 -0.596075 -0.422804
0.363531 -0.0271195 -6.49239e-13
0.00521566 0.130509 -0.388771
-0.117304 0.0699899 -0.133384
0.114337 0.000706408 -0.0832861
0.109444 -0.0505247 -3.26034e-05
-0.122441 0.643828 -0.0512538
-0.0995046 0.134964 0.112854
0.43188 0.713029 0.134361
0.190379 0.418596 0.00122045
-0.00556536 -0.115704 -0.0233935
0.114969 -0.0967859 -0.0434315
0.132978 0.212598 -0.105215
-0.281767 0.650124 -0.310669
0.132013 0.2998 0.00954362
0.0561974 0.0216057 -0.107208
-0.223069 0.136177 -0.0136671
-0.438404 0.0556238 0.359221
0.15706 0.00418077 -7.50344e-05
0.0281889 -0.00136821 -0.262643
0.0115989 -0.127795 -0.0603225
-0.0280682 -0.015674 0.00154502
-0.00645446 0.0901747 8.11251e-15
0.122119 0.0148484 0.000412734
0.0295858 0.242064 -0.0012228
-0.425251 -0.336841 -0.708407
0.431963 0.173663 0.310084
0.105361 0.170287 -0.575093
0.182932 -0.631006 0.628336
SCALARS radius float 1
LOOKUP_TABLE default
0.025
0.025
0.025
0.025
0.025
0.025
0.025
0.025
0.025
0.025
0.025
0.025
0.025
0.025
0.025
0.025
0.025
0.025
0.025
0.025
0.025
0.025
0.025
0.025
0.025
0.025
0.025
0.025
0.02
0.02
0.02
0.02
0.02
0.02
0.02
0.02
0.02
0.02
0.02
0.02
0.02
0.02
0.02
0.02
0.02
0.02
0.02
0.02
0.02
0.02
0.02
0.02
0.02
0.02
0.02
0.02
0.02
0.02
0.02
0.02
0.02
0.02
0.02
0.02
0.02
0.02
0.02
0.02
0.02
0.02
0.02
0.02
0.02
0.02
0.02
0.02
0.02
0.02
0.02
0.02
0.02
0.02
0.02
0.02
0.02
0.02
SCALARS type float 1
LOOKUP_TABLE default
1.0
1.0
1.0
1.0
1.0
1.0
1.0
1.0
1.0
1.0
1.0
1.0
1.0
1.0
1.0
1.0
1.0
1.0
1.0
1.0
1.0
1.0
1.0
1.0
1.0
1.0
1.0
1.0
1.0
1.0
1.0
1.0
1.0
1.0
1.0
1.0
1.0
1.0
1.0
1.0
1.0
1.0
1.0
1.0
1.0
1.0
1.0
1.0
1.0
1.0
1.0
1.0
1.0
1.0
1.0
1.0
1.0
1.0
1.0
1.0
1.0
1.0
1.0
1.0
1.0
1.0
1.0
1.0
1.0
1.0
1.0
1.0
1.0
1.0
1.0
1.0
1.0
1.0
1.0
1.0
1.0
1.0
1.0
1.0
1.0
1.0
SCALARS id float 1
LOOKUP_TABLE default
1.0
2.0
3.0
4.0
5.0
6.0
7.0
8.0
9.0
10.0
11.0
12.0
13.0
14.0
15.0
16.0
17.0
18.0
19.0
20.0
21.0
22.0
23.0
24.0
25.0
26.0
27.0
28.0
29.0
30.0
31.0
32.0
33.0
34.0
35.0
36.0
37.0
38.0
39.0
40.0
41.0
42.0
43.0
44.0
45.0
46.0
47.0
48.0
49.0
50.0
51.0
52.0
53.0
54.0
55.0
56.0
57.0
58.0
59.0
60.0
61.0
62.0
63.0
64.0
65.0
66.0
67.0
68.0
69.0
70.0
71.0
72.0
73.0
74.0
75.0
76.0
77.0
78.0
79.0
80.0
81.0
82.0
83.0
84.0
85.0
86.0

