# vtk DataFile Version 2.0
Generated by lpp.py
ASCII
DATASET POLYDATA
POINTS 86 float
0.0540477 0.0423754 0.159018
0.0838694 0.0924291 0.152867
-0.0471576 -0.170755 0.156436
0.00898122 -0.164523 0.155636
0.241781 0.108672 0.172283
0.00219469 -0.00983473 0.0883566
-0.0152175 0.0645357 0.113699
-0.0044103 -0.111429 0.175108
0.179347 -0.0107411 0.174556
0.13197 -0.11791 0.0916988
0.24361 0.0574967 0.172577
0.0823301 -0.160553 0.177477
0.274436 0.140358 0.0934396
0.162553 0.132438 0.110951
0.0455952 -0.0672861 0.168369
0.142434 -0.0165617 0.100795
0.21904 -0.088424 0.105234
0.103454 0.0501108 0.050979
0.113052 0.156584 0.168193
0.100029 -0.0692646 0.059156
-0.0464708 0.144238 0.157437
0.260616 -0.122628 0.156582
0.200035 0.085947 0.146893
0.135242 -0.0671011 0.176906
-0.0631264 0.0448574 0.137435
-0.0637205 -0.0175652 0.173849
-0.0227657 -0.0533601 0.16828
0.0359849 0.0986761 0.0858768
0.132325 0.082203 0.161469
0.245152 -0.0357403 0.0817842
0.0941252 -0.0121962 0.152692
0.0620239 0.136269 0.0515923
0.0551037 -0.108719 0.0978529
-0.0682344 -0.0629682 0.0822595
-0.0765379 -0.11804 0.0709898
0.248915 0.0223543 0.0949102
0.221483 0.163431 0.163288
0.0849835 -0.150749 0.0562011
0.17202 0.0473367 0.0691464
-0.0318947 -0.0743065 0.0637338
0.268529 0.0736419 0.0833971
0.0250405 0.155213 0.109577
0.166471 -0.147136 0.168638
0.202476 -0.14552 0.146137
0.27306 -0.172849 0.0252067
0.175632 -0.047499 0.09222
0.0616244 0.00358391 0.0482719
0.131649 -0.177762 0.115631
0.253436 -0.00591787 0.167161
0.188783 0.179478 0.0921404
0.19306 -0.177243 0.0255686
-0.0760294 0.0888848 0.157331
-0.0760474 0.120846 0.059997
0.125 0.169667 0.0321066
-0.0553798 -0.0144958 0.0356405
0.118898 0.0261041 0.164551
0.0502908 0.138151 0.169939
0.208909 0.0299761 0.159545
-0.012895 0.173977 0.093788
0.045937 -0.0344447 0.0802173
0.268068 -0.0823996 0.0347927
0.265396 -0.174891 0.163914
0.0662625 0.174477 0.15906
0.278232 -0.0621294 0.169154
0.0809825 -0.102295 0.170009
-0.0596725 -0.0881033 0.169638
0.0107661 -0.131182 0.0300035
0.219019 -0.0512545 0.166997
0.12609 0.0988676 0.0247194
0.22943 0.128218 0.0410716
-0.030565 0.0131801 0.16134
-0.0117798 0.116579 0.087011
0.17824 -0.0934721 0.162404
0.0443106 -0.17176 0.0337585
0.198079 0.0108947 0.034119
0.229885 0.178675 0.0240928
-0.0782994 0.174701 0.167629
-0.0317267 -0.134488 0.0746649
0.231099 -0.171271 0.0925687
0.162764 -0.151253 0.0457849
0.166972 -0.0858798 0.0280326
0.0414285 -0.0804979 0.0499007
0.260634 0.167245 0.172619
0.0345006 0.0384506 0.0662813
-0.0758881 0.167109 0.0475146
0.00478546 0.129269 0.17258
VERTICES 86 172
1 0
1 1
1 2
1 3
1 4
1 5
1 6
1 7
1 8
1 9
1 10
1 11
1 12
1 13
1 14
1 15
1 16
1 17
1 18
1 19
1 20
1 21
1 22
1 23
1 24
1 25
1 26
1 27
1 28
1 29
1 30
1 31
1 32
1 33
1 34
1 35
1 36
1 37
1 38
1 39
1 40
1 41
1 42
1 43
1 44
1 45
1 46
1 47
1 48
1 49
1 50
1 51
1 52
1 53
1 54
1 55
1 56
1 57
1 58
1 59
1 60
1 61
1 62
1 63
1 64
1 65
1 66
1 67
1 68
1 69
1 70
1 71
1 72
1 73
1 74
1 75
1 76
1 77
1 78
1 79
1 80
1 81
1 82
1 83
1 84
1 85
POINT_DATA 86
VECTORS i float
0.0 0.0 0.0
0.0 0.0 0.0
0.0 0.0 0.0
0.0 0.0 0.0
0.0 0.0 0.0
0.0 0.0 0.0
0.0 0.0 0.0
0.0 0.0 0.0
0.0 0.0 0.0
0.0 0.0 0.0
0.0 0.0 0.0
0.0 0.0 0.0
0.0 0.0 0.0
0.0 0.0 0.0
0.0 0.0 0.0
0.0 0.0 0.0
0.0 0.0 0.0
0.0 0.0 0.0
0.0 0.0 0.0
0.0 0.0 0.0
0.0 0.0 0.0
0.0 0.0 0.0
0.0 0.0 0.0
0.0 0.0 0.0
0.0 0.0 0.0
0.0 0.0 0.0
0.0 0.0 0.0
0.0 0.0 0.0
0.0 0.0 0.0
0.0 0.0 0.0
0.0 0.0 0.0
0.0 0.0 0.0
0.0 0.0 0.0
0.0 0.0 0.0
0.0 0.0 0.0
0.0 0.0 0.0
0.0 0.0 0.0
0.0 0.0 0.0
0.0 0.0 0.0
0.0 0.0 0.0
0.0 0.0 0.0
0.0 0.0 0.0
0.0 0.0 0.0
0.0 0.0 0.0
0.0 0.0 0.0
0.0 0.0 0.0
0.0 0.0 0.0
0.0 0.0 0.0
0.0 0.0 0.0
0.0 0.0 0.0
0.0 0.0 0.0
0.0 0.0 0.0
0.0 0.0 0.0
0.0 0.0 0.0
0.0 0.0 0.0
0.0 0.0 0.0
0.0 0.0 0.0
0.0 0.0 0.0
0.0 0.0 0.0
0.0 0.0 0.0
0.0 0.0 0.0
0.0 0.0 0.0
0.0 0.0 0.0
0.0 0.0 0.0
0.0 0.0 0.0
0.0 0.0 0.0
0.0 0.0 0.0
0.0 0.0 0.0
0.0 0.0 0.0
0.0 0.0 0.0
0.0 0.0 0.0
0.0 0.0 0.0
0.0 0.0 0.0
0.0 0.0 0.0
0.0 0.0 0.0
0.0 0.0 0.0
0.0 0.0 0.0
0.0 0.0 0.0
0.0 0.0 0.0
0.0 0.0 0.0
0.0 0.0 0.0
0.0 0.0 0.0
0.0 0.0 0.0
0.0 0.0 0.0
0.0 0.0 0.0
0.0 0.0 0.0
VECTORS f float
0.0 0.0 -1.60516
0.0 0.0 -1.60516
0.0 0.0 -1.60516
0.0 0.0 -1.60516
0.0 0.0 -1.60516
0.0 0.0 -1.60516
0.0 0.0 -1.60516
0.0 0.0 -1.60516
0.0 0.0 -1.60516
0.0 0.0 -1.60516
0.0 0.0 -1.60516
0.0 0.0 -1.60516
0.0 0.0 -1.60516
0.0 0.0 -1.60516
0.0 0.0 -1.60516
0.0 0.0 -1.60516
0.0 0.0 -1.60516
0.0 0.0 -1.60516
0.0 0.0 -1.60516
0.0 0.0 -1.60516
0.0 0.0 -1.60516
0.0 0.0 -1.60516
0.0 0.0 -1.60516
0.0 0.0 -1.60516
0.0 0.0 -1.60516
0.0 0.0 -1.60516
0.0 0.0 -1.60516
0.0 0.0 -1.60516
0.0 0.0 -0.821841
0.0 0.0 -0.821841
0.0 0.0 -0.821841
0.0 0.0 -0.821841
0.0 0.0 -0.821841
0.0 0.0 -0.821841
0.0 0.0 -0.821841
0.0 0.0 -0.821841
0.0 0.0 -0.821841
0.0 0.0 -0.821841
0.0 0.0 -0.821841
0.0 0.0 -0.821841
0.0 0.0 -0.821841
0.0 0.0 -0.821841
0.0 0.0 -0.821841
0.0 0.0 -0.821841
0.0 0.0 -0.821841
0.0 0.0 -0.821841
0.0 0.0 -0.821841
0.0 0.0 -0.821841
0.0 0.0 -0.821841
0.0 0.0 -0.821841
0.0 0.0 -0.821841
0.0 0.0 -0.821841
0.0 0.0 -0.821841
0.0 0.0 -0.821841
0.0 0.0 -0.821841
0.0 0.0 -0.821841
0.0 0.0 -0.821841
0.0 0.0 -0.821841
0.0 0.0 -0.821841
0.0 0.0 -0.821841
0.0 0.0 -0.821841
0.0 0.0 -0.821841
0.0 0.0 -0.821841
0.0 0.0 -0.821841
0.0 0.0 -0.821841
0.0 0.0 -0.821841
0.0 0.0 -0.821841
0.0 0.0 -0.821841
0.0 0.0 -0.821841
0.0 0.0 -0.821841
0.0 0.0 -0.821841
0.0 0.0 -0.821841
0.0 0.0 -0.821841
0.0 0.0 -0.821841
0.0 0.0 -0.821841
0.0 0.0 -0.821841
0.0 0.0 -0.821841
0.0 0.0 -0.821841
0.0 0.0 -0.821841
0.0 0.0 -0.821841
0.0 0.0 -0.821841
0.0 0.0 -0.821841
0.0 0.0 -0.821841
0.0 0.0 -0.821841
0.0 0.0 -0.821841
0.0 0.0 -0.821841
VECTORS omega float
0.0 0.0 0.0
0.0 0.0 0.0
0.0 0.0 0.0
0.0 0.0 0.0
0.0 0.0 0.0
0.0 0.0 0.0
0.0 0.0 0.0
0.0 0.0 0.0
0.0 0.0 0.0
0.0 0.0 0.0
0.0 0.0 0.0
0.0 0.0 0.0
0.0 0.0 0.0
0.0 0.0 0.0
0.0 0.0 0.0
0.0 0.0 0.0
0.0 0.0 0.0
0.0 0.0 0.0
0.0 0.0 0.0
0.0 0.0 0.0
0.0 0.0 0.0
0.0 0.0 0.0
0.0 0.0 0.0
0.0 0.0 0.0
0.0 0.0 0.0
0.0 0.0 0.0
0.0 0.0 0.0
0.0 0.0 0.0
0.0 0.0 0.0
0.0 0.0 0.0
0.0 0.0 0.0
0.0 0.0 0.0
0.0 0.0 0.0
-21.6472 -51.5778 -9.72073
0.0 0.0 0.0
0.0 0.0 0.0
0.0 0.0 0.0
0.0 0.0 0.0
0.0 0.0 0.0
-21.6472 -102.245 -9.72073
0.0 0.0 0.0
0.0 0.0 0.0
0.0 0.0 0.0
0.0 0.0 0.0
0.0 0.0 0.0
0.0 0.0 0.0
0.0 0.0 0.0
0.0 0.0 0.0
0.0 0.0 0.0
0.0 0.0 0.0
0.0 0.0 0.0
0.0 0.0 0.0
0.0 0.0 0.0
0.0 0.0 0.0
0.0 0.0 0.0
0.0 0.0 0.0
0.0 0.0 0.0
0.0 0.0 0.0
0.0 0.0 0.0
0.0 0.0 0.0
0.0 0.0 0.0
0.0 0.0 0.0
0.0 0.0 0.0
0.0 0.0 0.0
0.0 0.0 0.0
0.0 0.0 0.0
0.0 0.0 0.0
0.0 0.0 0.0
0.0 0.0 0.0
0.0 0.0 0.0
0.0 0.0 0.0
0.0 0.0 0.0
0.0 0.0 0.0
0.0 0.0 0.0
0.0 0.0 0.0
0.0 0.0 0.0
0.0 0.0 0.0
0.0 0.0 0.0
0.0 0.0 0.0
0.0 0.0 0.0
0.0 0.0 0.0
23.8387 92.9128 -1.69206e-14
0.0 0.0 0.0
-2.60195e-07 52.7615 -3.74191e-16
0.0 0.0 0.0
0.0 0.0 0.0
VECTORS v float
0.0 0.0 -4.19806
0.0 0.0 -4.19806
0.0 0.0 -4.19806
0.0 0.0 -4.19806
0.0 0.0 -4.19806
0.0 0.0 -4.34585
0.0 0.0 -4.28826
0.0 0.0 -4.19806
0.0 0.0 -4.19806
0.0 0.0 -4.33829
0.0 0.0 -4.19806
0.0 0.0 -4.19806
0.0 0.0 -4.33437
0.0 0.0 -4.29454
0.0 0.0 -4.19806
0.0 0.0 -4.31769
0.0 0.0 -4.30759
0.0 0.0 -4.42943
0.0 0.0 -4.19806
0.0 0.0 -4.41128
0.0 0.0 -4.19806
0.0 0.0 -4.19806
0.0 0.0 -4.21165
0.0 0.0 -4.19806
0.0 0.0 -4.23362
0.0 0.0 -4.19806
0.0 0.0 -4.19806
0.0 0.0 -4.35144
0.0 0.0 -4.19806
0.0 0.0 -4.36066
0.0 0.0 -4.19811
0.0 0.0 -4.42806
0.0 0.0 -4.32436
-2.52477 0.667283 -2.2892
0.0 0.0 -4.38489
0.0 0.0 -4.33103
0.0 0.0 -4.19806
0.0 0.0 -4.41785
0.0 0.0 -4.38901
0.75967 -0.667283 -0.528835
0.0 0.0 -4.35703
0.0 0.0 -4.29768
0.0 0.0 -4.19806
0.0 0.0 -4.21341
0.0 0.0 -4.48613
0.0 0.0 -4.33712
0.0 0.0 -4.43541
0.0 0.0 -4.28385
0.0 0.0 -4.19806
0.0 0.0 -4.33731
0.0 0.0 -4.48535
0.0 0.0 -4.19806
0.0 0.0 -4.40942
0.0 0.0 -4.47102
0.0 0.0 -4.46327
0.0 0.0 -4.19806
0.0 0.0 -4.19806
0.0 0.0 -4.19806
0.0 0.0 -4.33359
0.0 0.0 -4.36419
0.0 0.0 -4.46514
0.0 0.0 -4.19806
0.0 0.0 -4.19806
0.0 0.0 -4.19806
0.0 0.0 -4.19806
0.0 0.0 -4.19806
0.0 0.0 -4.47563
0.0 0.0 -4.19806
0.0 0.0 -4.48721
0.0 0.0 -4.45131
0.0 0.0 -4.19806
0.0 0.0 -4.34889
0.0 0.0 -4.19806
0.0 0.0 -4.46739
0.0 0.0 -4.46661
0.0 0.0 -4.48858
0.0 0.0 -4.19806
0.0 0.0 -4.37665
0.0 0.0 -4.33633
0.0 0.0 -4.44091
0.0 0.0 -4.47995
2.60079 -0.667284 -0.0296631
0.0 0.0 -4.19806
1.74633 8.61209e-09 1.54263
0.0 0.0 -4.43708
0.0 0.0 -4.19806
SCALARS radius float 1
LOOKUP_TABLE default
0.025
0.025
0.025
0.025
0.025
0.025
0.025
0.025
0.025
0.025
0.025
0.025
0.025
0.025
0.025
0.025
0.025
0.025
0.025
0.025
0.025
0.025
0.025
0.025
0.025
0.025
0.025
0.025
0.02
0.02
0.02
0.02
0.02
0.02
0.02
0.02
0.02
0.02
0.02
0.02
0.02
0.02
0.02
0.02
0.02
0.02
0.02
0.02
0.02
0.02
0.02
0.02
0.02
0.02
0.02
0.02
0.02
0.02
0.02
0.02
0.02
0.02
0.02
0.02
0.02
0.02
0.02
0.02
0.02
0.02
0.02
0.02
0.02
0.02
0.02
0.02
0.02
0.02
0.02
0.02
0.02
0.02
0.02
0.02
0.02
0.02
SCALARS type float 1
LOOKUP_TABLE default
1.0
1.0
1.0
1.0
1.0
1.0
1.0
1.0
1.0
1.0
1.0
1.0
1.0
1.0
1.0
1.0
1.0
1.0
1.0
1.0
1.0
1.0
1.0
1.0
1.0
1.0
1.0
1.0
1.0
1.0
1.0
1.0
1.0
1.0
1.0
1.0
1.0
1.0
1.0
1.0
1.0
1.0
1.0
1.0
1.0
1.0
1.0
1.0
1.0
1.0
1.0
1.0
1.0
1.0
1.0
1.0
1.0
1.0
1.0
1.0
1.0
1.0
1.0
1.0
1.0
1.0
1.0
1.0
1.0
1.0
1.0
1.0
1.0
1.0
1.0
1.0
1.0
1.0
1.0
1.0
1.0
1.0
1.0
1.0
1.0
1.0
SCALARS id float 1
LOOKUP_TABLE default
1.0
2.0
3.0
4.0
5.0
6.0
7.0
8.0
9.0
10.0
11.0
12.0
13.0
14.0
15.0
16.0
17.0
18.0
19.0
20.0
21.0
22.0
23.0
24.0
25.0
26.0
27.0
28.0
29.0
30.0
31.0
32.0
33.0
34.0
35.0
36.0
37.0
38.0
39.0
40.0
41.0
42.0
43.0
44.0
45.0
46.0
47.0
48.0
49.0
50.0
51.0
52.0
53.0
54.0
55.0
56.0
57.0
58.0
59.0
60.0
61.0
62.0
63.0
64.0
65.0
66.0
67.0
68.0
69.0
70.0
71.0
72.0
73.0
74.0
75.0
76.0
77.0
78.0
79.0
80.0
81.0
82.0
83.0
84.0
85.0
86.0

