# vtk DataFile Version 2.0
Generated by lpp.py
ASCII
DATASET POLYDATA
POINTS 86 float
0.0540477 0.0423754 0.961219
0.0838694 0.0924291 0.955068
-0.0471576 -0.170755 0.958637
0.00898122 -0.164523 0.957837
0.241781 0.108672 0.974484
0.00219469 -0.00983473 0.93312
-0.0152175 0.0645357 0.941879
-0.0044103 -0.111429 0.977309
0.179347 -0.0107411 0.976757
0.13197 -0.11791 0.934287
0.24361 0.0574967 0.974778
0.0823301 -0.160553 0.979678
0.274436 0.140358 0.934898
0.162553 0.132438 0.940938
0.0455952 -0.0672861 0.97057
0.142434 -0.0165617 0.93745
0.21904 -0.088424 0.938979
0.103454 0.0501108 0.919814
0.113052 0.156584 0.970394
0.100029 -0.0692646 0.922764
-0.0464708 0.144238 0.959638
0.260616 -0.122628 0.958783
0.200035 0.085947 0.953007
0.135242 -0.0671011 0.979107
-0.0631264 0.0448574 0.949878
-0.0637205 -0.0175652 0.97605
-0.0227657 -0.0533601 0.970481
0.0359849 0.0986761 0.932251
0.132325 0.082203 0.96367
0.245152 -0.0357403 0.930814
0.0941252 -0.0121962 0.954907
0.0620239 0.136269 0.920032
0.0551037 -0.108719 0.936429
-0.0655034 -0.063686 0.930182
-0.0765379 -0.11804 0.926998
0.248915 0.0223543 0.935408
0.221483 0.163431 0.965489
0.0849835 -0.150749 0.921702
0.17202 0.0473367 0.926341
-0.0222955 -0.0735886 0.909844
0.268529 0.0736419 0.931382
0.0250405 0.155213 0.940469
0.166471 -0.147136 0.970839
0.202476 -0.14552 0.952759
0.27306 -0.172849 0.910372
0.175632 -0.047499 0.934469
0.0616244 0.00358391 0.918831
0.131649 -0.177762 0.942539
0.253436 -0.00591787 0.969362
0.188783 0.179478 0.934446
0.19306 -0.177243 0.910508
-0.0760294 0.0888848 0.959532
-0.0760474 0.120846 0.923069
0.125 0.169667 0.912921
-0.0553798 -0.0144958 0.914223
0.118898 0.0261041 0.966752
0.0502908 0.138151 0.97214
0.208909 0.0299761 0.961745
-0.012895 0.173977 0.93502
0.045937 -0.0344447 0.930264
0.268068 -0.0823996 0.913912
0.265396 -0.174891 0.966115
0.0662625 0.174477 0.961261
0.278232 -0.0621294 0.971355
0.0809825 -0.102295 0.972209
-0.0596725 -0.0881033 0.971839
0.0107661 -0.131182 0.912146
0.219019 -0.0512545 0.969198
0.12609 0.0988676 0.910195
0.22943 0.128218 0.916207
-0.030565 0.0131801 0.963541
-0.0117798 0.116579 0.932651
0.17824 -0.0934721 0.964605
0.0443106 -0.17176 0.913528
0.198079 0.0108947 0.913662
0.229885 0.178675 0.909964
-0.0782994 0.174701 0.96983
-0.0317267 -0.134488 0.9283
0.231099 -0.171271 0.934592
0.162764 -0.151253 0.917926
0.166972 -0.0858798 0.911418
0.0323207 -0.0781611 0.913729
0.260634 0.167245 0.974819
0.0220594 0.0384506 0.909649
-0.0758881 0.167109 0.918553
0.00478546 0.129269 0.974781
VERTICES 86 172
1 0
1 1
1 2
1 3
1 4
1 5
1 6
1 7
1 8
1 9
1 10
1 11
1 12
1 13
1 14
1 15
1 16
1 17
1 18
1 19
1 20
1 21
1 22
1 23
1 24
1 25
1 26
1 27
1 28
1 29
1 30
1 31
1 32
1 33
1 34
1 35
1 36
1 37
1 38
1 39
1 40
1 41
1 42
1 43
1 44
1 45
1 46
1 47
1 48
1 49
1 50
1 51
1 52
1 53
1 54
1 55
1 56
1 57
1 58
1 59
1 60
1 61
1 62
1 63
1 64
1 65
1 66
1 67
1 68
1 69
1 70
1 71
1 72
1 73
1 74
1 75
1 76
1 77
1 78
1 79
1 80
1 81
1 82
1 83
1 84
1 85
POINT_DATA 86
VECTORS i float
0.0 0.0 0.0
0.0 0.0 0.0
0.0 0.0 0.0
0.0 0.0 0.0
0.0 0.0 0.0
0.0 0.0 0.0
0.0 0.0 0.0
0.0 0.0 0.0
0.0 0.0 0.0
0.0 0.0 0.0
0.0 0.0 0.0
0.0 0.0 0.0
0.0 0.0 0.0
0.0 0.0 0.0
0.0 0.0 0.0
0.0 0.0 0.0
0.0 0.0 0.0
0.0 0.0 0.0
0.0 0.0 0.0
0.0 0.0 0.0
0.0 0.0 0.0
0.0 0.0 0.0
0.0 0.0 0.0
0.0 0.0 0.0
0.0 0.0 0.0
0.0 0.0 0.0
0.0 0.0 0.0
0.0 0.0 0.0
0.0 0.0 0.0
0.0 0.0 0.0
0.0 0.0 0.0
0.0 0.0 0.0
0.0 0.0 0.0
0.0 0.0 0.0
0.0 0.0 0.0
0.0 0.0 0.0
0.0 0.0 0.0
0.0 0.0 0.0
0.0 0.0 0.0
0.0 0.0 0.0
0.0 0.0 0.0
0.0 0.0 0.0
0.0 0.0 0.0
0.0 0.0 0.0
0.0 0.0 0.0
0.0 0.0 0.0
0.0 0.0 0.0
0.0 0.0 0.0
0.0 0.0 0.0
0.0 0.0 0.0
0.0 0.0 0.0
0.0 0.0 0.0
0.0 0.0 0.0
0.0 0.0 0.0
0.0 0.0 0.0
0.0 0.0 0.0
0.0 0.0 0.0
0.0 0.0 0.0
0.0 0.0 0.0
0.0 0.0 0.0
0.0 0.0 0.0
0.0 0.0 0.0
0.0 0.0 0.0
0.0 0.0 0.0
0.0 0.0 0.0
0.0 0.0 0.0
0.0 0.0 0.0
0.0 0.0 0.0
0.0 0.0 0.0
0.0 0.0 0.0
0.0 0.0 0.0
0.0 0.0 0.0
0.0 0.0 0.0
0.0 0.0 0.0
0.0 0.0 0.0
0.0 0.0 0.0
0.0 0.0 0.0
0.0 0.0 0.0
0.0 0.0 0.0
0.0 0.0 0.0
0.0 0.0 0.0
0.0 0.0 0.0
0.0 0.0 0.0
0.0 0.0 0.0
0.0 0.0 0.0
0.0 0.0 0.0
VECTORS f float
0.0 0.0 -1.60516
0.0 0.0 -1.60516
0.0 0.0 -1.60516
0.0 0.0 -1.60516
0.0 0.0 -1.60516
0.0 0.0 -1.60516
0.0 0.0 -1.60516
0.0 0.0 -1.60516
0.0 0.0 -1.60516
0.0 0.0 -1.60516
0.0 0.0 -1.60516
0.0 0.0 -1.60516
0.0 0.0 -1.60516
0.0 0.0 -1.60516
0.0 0.0 -1.60516
0.0 0.0 -1.60516
0.0 0.0 -1.60516
0.0 0.0 -1.60516
0.0 0.0 -1.60516
0.0 0.0 -1.60516
0.0 0.0 -1.60516
0.0 0.0 -1.60516
0.0 0.0 -1.60516
0.0 0.0 -1.60516
0.0 0.0 -1.60516
0.0 0.0 -1.60516
0.0 0.0 -1.60516
0.0 0.0 -1.60516
0.0 0.0 -0.821841
0.0 0.0 -0.821841
0.0 0.0 -0.821841
0.0 0.0 -0.821841
0.0 0.0 -0.821841
0.0 0.0 -0.821841
0.0 0.0 -0.821841
0.0 0.0 -0.821841
0.0 0.0 -0.821841
0.0 0.0 -0.821841
0.0 0.0 -0.821841
0.0 0.0 -0.821841
0.0 0.0 -0.821841
0.0 0.0 -0.821841
0.0 0.0 -0.821841
0.0 0.0 -0.821841
0.0 0.0 -0.821841
0.0 0.0 -0.821841
0.0 0.0 -0.821841
0.0 0.0 -0.821841
0.0 0.0 -0.821841
0.0 0.0 -0.821841
0.0 0.0 -0.821841
0.0 0.0 -0.821841
0.0 0.0 -0.821841
0.0 0.0 -0.821841
0.0 0.0 -0.821841
0.0 0.0 -0.821841
0.0 0.0 -0.821841
0.0 0.0 -0.821841
0.0 0.0 -0.821841
0.0 0.0 -0.821841
0.0 0.0 -0.821841
0.0 0.0 -0.821841
0.0 0.0 -0.821841
0.0 0.0 -0.821841
0.0 0.0 -0.821841
0.0 0.0 -0.821841
0.0 0.0 -0.821841
0.0 0.0 -0.821841
0.0 0.0 -0.821841
0.0 0.0 -0.821841
0.0 0.0 -0.821841
0.0 0.0 -0.821841
0.0 0.0 -0.821841
0.0 0.0 -0.821841
0.0 0.0 -0.821841
0.0 0.0 -0.821841
0.0 0.0 -0.821841
0.0 0.0 -0.821841
0.0 0.0 -0.821841
0.0 0.0 -0.821841
0.0 0.0 -0.821841
0.0 0.0 -0.821841
0.0 0.0 -0.821841
0.0 0.0 -0.821841
0.0 0.0 -0.821841
0.0 0.0 -0.821841
VECTORS omega float
0.0 0.0 0.0
0.0 0.0 0.0
0.0 0.0 0.0
0.0 0.0 0.0
0.0 0.0 0.0
0.0 0.0 0.0
0.0 0.0 0.0
0.0 0.0 0.0
0.0 0.0 0.0
0.0 0.0 0.0
0.0 0.0 0.0
0.0 0.0 0.0
0.0 0.0 0.0
0.0 0.0 0.0
0.0 0.0 0.0
0.0 0.0 0.0
0.0 0.0 0.0
0.0 0.0 0.0
0.0 0.0 0.0
0.0 0.0 0.0
0.0 0.0 0.0
0.0 0.0 0.0
0.0 0.0 0.0
0.0 0.0 0.0
0.0 0.0 0.0
0.0 0.0 0.0
0.0 0.0 0.0
0.0 0.0 0.0
0.0 0.0 0.0
0.0 0.0 0.0
0.0 0.0 0.0
0.0 0.0 0.0
0.0 0.0 0.0
0.0 0.0 0.0
0.0 0.0 0.0
0.0 0.0 0.0
0.0 0.0 0.0
0.0 0.0 0.0
0.0 0.0 0.0
0.0 0.0 0.0
0.0 0.0 0.0
0.0 0.0 0.0
0.0 0.0 0.0
0.0 0.0 0.0
0.0 0.0 0.0
0.0 0.0 0.0
0.0 0.0 0.0
0.0 0.0 0.0
0.0 0.0 0.0
0.0 0.0 0.0
0.0 0.0 0.0
0.0 0.0 0.0
0.0 0.0 0.0
0.0 0.0 0.0
0.0 0.0 0.0
0.0 0.0 0.0
0.0 0.0 0.0
0.0 0.0 0.0
0.0 0.0 0.0
0.0 0.0 0.0
0.0 0.0 0.0
0.0 0.0 0.0
0.0 0.0 0.0
0.0 0.0 0.0
0.0 0.0 0.0
0.0 0.0 0.0
0.0 0.0 0.0
0.0 0.0 0.0
0.0 0.0 0.0
0.0 0.0 0.0
0.0 0.0 0.0
0.0 0.0 0.0
0.0 0.0 0.0
0.0 0.0 0.0
0.0 0.0 0.0
0.0 0.0 0.0
0.0 0.0 0.0
0.0 0.0 0.0
0.0 0.0 0.0
0.0 0.0 0.0
0.0 0.0 0.0
0.0 0.0 0.0
0.0 0.0 0.0
0.0 0.0 0.0
0.0 0.0 0.0
0.0 0.0 0.0
VECTORS v float
0.0 0.0 -1.37278
0.0 0.0 -1.37278
0.0 0.0 -1.37278
0.0 0.0 -1.37278
0.0 0.0 -1.37278
0.0 0.0 -1.52057
0.0 0.0 -1.46298
0.0 0.0 -1.37278
0.0 0.0 -1.37278
0.0 0.0 -1.51301
0.0 0.0 -1.37278
0.0 0.0 -1.37278
0.0 0.0 -1.50909
0.0 0.0 -1.46926
0.0 0.0 -1.37278
0.0 0.0 -1.49241
0.0 0.0 -1.48231
0.0 0.0 -1.60415
0.0 0.0 -1.37278
0.0 0.0 -1.586
0.0 0.0 -1.37278
0.0 0.0 -1.37278
0.0 0.0 -1.38637
0.0 0.0 -1.37278
0.0 0.0 -1.40834
0.0 0.0 -1.37278
0.0 0.0 -1.37278
0.0 0.0 -1.52616
0.0 0.0 -1.37278
0.0 0.0 -1.53538
0.0 0.0 -1.37283
0.0 0.0 -1.60278
0.0 0.0 -1.49908
0.0 0.0 -1.5394
0.0 0.0 -1.55961
0.0 0.0 -1.50575
0.0 0.0 -1.37278
0.0 0.0 -1.59257
0.0 0.0 -1.56373
0.0 0.0 -1.66399
0.0 0.0 -1.53175
0.0 0.0 -1.4724
0.0 0.0 -1.37278
0.0 0.0 -1.38813
0.0 0.0 -1.66085
0.0 0.0 -1.51184
0.0 0.0 -1.61013
0.0 0.0 -1.45857
0.0 0.0 -1.37278
0.0 0.0 -1.51203
0.0 0.0 -1.66007
0.0 0.0 -1.37278
0.0 0.0 -1.58414
0.0 0.0 -1.64574
0.0 0.0 -1.63799
0.0 0.0 -1.37278
0.0 0.0 -1.37278
0.0 0.0 -1.37278
0.0 0.0 -1.50831
0.0 0.0 -1.53891
0.0 0.0 -1.63986
0.0 0.0 -1.37278
0.0 0.0 -1.37278
0.0 0.0 -1.37278
0.0 0.0 -1.37278
0.0 0.0 -1.37278
0.0 0.0 -1.65035
0.0 0.0 -1.37278
0.0 0.0 -1.66193
0.0 0.0 -1.62603
0.0 0.0 -1.37278
0.0 0.0 -1.52361
0.0 0.0 -1.37278
0.0 0.0 -1.64211
0.0 0.0 -1.64133
0.0 0.0 -1.6633
0.0 0.0 -1.37278
0.0 0.0 -1.55137
0.0 0.0 -1.51105
0.0 0.0 -1.61563
0.0 0.0 -1.65467
0.0 0.0 -1.64094
0.0 0.0 -1.37278
0.0 0.0 -1.66517
0.0 0.0 -1.6118
0.0 0.0 -1.37278
SCALARS radius float 1
LOOKUP_TABLE default
0.025
0.025
0.025
0.025
0.025
0.025
0.025
0.025
0.025
0.025
0.025
0.025
0.025
0.025
0.025
0.025
0.025
0.025
0.025
0.025
0.025
0.025
0.025
0.025
0.025
0.025
0.025
0.025
0.02
0.02
0.02
0.02
0.02
0.02
0.02
0.02
0.02
0.02
0.02
0.02
0.02
0.02
0.02
0.02
0.02
0.02
0.02
0.02
0.02
0.02
0.02
0.02
0.02
0.02
0.02
0.02
0.02
0.02
0.02
0.02
0.02
0.02
0.02
0.02
0.02
0.02
0.02
0.02
0.02
0.02
0.02
0.02
0.02
0.02
0.02
0.02
0.02
0.02
0.02
0.02
0.02
0.02
0.02
0.02
0.02
0.02
SCALARS type float 1
LOOKUP_TABLE default
1.0
1.0
1.0
1.0
1.0
1.0
1.0
1.0
1.0
1.0
1.0
1.0
1.0
1.0
1.0
1.0
1.0
1.0
1.0
1.0
1.0
1.0
1.0
1.0
1.0
1.0
1.0
1.0
1.0
1.0
1.0
1.0
1.0
1.0
1.0
1.0
1.0
1.0
1.0
1.0
1.0
1.0
1.0
1.0
1.0
1.0
1.0
1.0
1.0
1.0
1.0
1.0
1.0
1.0
1.0
1.0
1.0
1.0
1.0
1.0
1.0
1.0
1.0
1.0
1.0
1.0
1.0
1.0
1.0
1.0
1.0
1.0
1.0
1.0
1.0
1.0
1.0
1.0
1.0
1.0
1.0
1.0
1.0
1.0
1.0
1.0
SCALARS id float 1
LOOKUP_TABLE default
1.0
2.0
3.0
4.0
5.0
6.0
7.0
8.0
9.0
10.0
11.0
12.0
13.0
14.0
15.0
16.0
17.0
18.0
19.0
20.0
21.0
22.0
23.0
24.0
25.0
26.0
27.0
28.0
29.0
30.0
31.0
32.0
33.0
34.0
35.0
36.0
37.0
38.0
39.0
40.0
41.0
42.0
43.0
44.0
45.0
46.0
47.0
48.0
49.0
50.0
51.0
52.0
53.0
54.0
55.0
56.0
57.0
58.0
59.0
60.0
61.0
62.0
63.0
64.0
65.0
66.0
67.0
68.0
69.0
70.0
71.0
72.0
73.0
74.0
75.0
76.0
77.0
78.0
79.0
80.0
81.0
82.0
83.0
84.0
85.0
86.0

