# vtk DataFile Version 2.0
Generated by lpp.py
ASCII
DATASET POLYDATA
POINTS 86 float
0.0786155 0.0889323 -0.0372965
0.057234 0.119425 -0.0739719
-0.07469 -0.157918 -0.0746454
-0.0294879 -0.168779 -0.0554642
0.261434 0.0816825 -0.0111105
0.151847 -0.0920683 0.126156
0.00355322 0.172748 0.0289176
0.0436449 -0.0870083 -0.0467373
0.18707 -0.0205546 -0.0115407
0.118042 -0.111388 -0.0740745
0.274913 0.0605519 -0.0626516
0.0860262 -0.145743 -0.0448267
0.252271 0.146356 -0.0602644
0.149629 0.147398 0.042162
0.240895 -0.108083 0.0569343
0.106448 0.00100112 -0.0748691
0.24632 -0.0790513 -0.0749892
0.112482 0.0962338 -0.0749527
0.142603 0.140227 -0.0407706
0.0868927 -0.0509334 -0.019681
-0.0611407 0.120565 -0.0389799
0.263083 -0.11602 -0.0457858
0.20487 0.069112 -0.0475278
0.20368 -0.0852639 -0.0384518
-0.0588448 0.00768549 -0.0728549
-0.0596416 -0.0372092 -0.050453
-0.0496064 -0.0025161 0.130656
-0.00146197 0.12433 -0.0240019
0.137909 0.0566353 0.0156816
0.242456 -0.00792057 -0.0776415
0.107126 0.0121286 -0.0300277
0.159298 0.124182 -0.0800002
-0.0209305 -0.102716 -0.0629838
-0.079939 -0.0650363 -0.0799423
-0.0648158 -0.109256 -0.0798645
0.243129 0.0334795 -0.0799322
0.27051 0.0514396 0.0941317
0.0907938 -0.173403 -0.0800003
0.191885 0.00011009 -0.0760822
-0.0589324 -0.0824607 -0.0506516
0.249465 0.0935832 -0.0800002
0.0842682 0.164182 -0.0797655
0.177225 -0.123656 -0.0172572
0.214876 -0.140279 -0.0705991
0.257647 -0.147664 -0.0796585
0.209121 -0.0504048 -0.0798454
0.0383663 0.0339398 -0.0590251
0.177283 -0.170124 -0.0368025
0.279534 0.0162341 -0.079613
0.188783 0.179478 0.156625
0.171219 -0.173777 -0.0797705
-0.0781251 0.0536565 -0.0799319
-0.0797399 0.122157 -0.0799604
0.193299 0.17555 -0.0252033
0.00415124 0.0339257 -0.0799888
0.143375 0.0716573 0.0716572
0.121717 0.14805 -0.0799877
0.225464 0.0284381 -0.0312753
0.014344 0.172584 -0.0799839
0.0751864 0.0191233 -0.00592308
0.278258 -0.0420143 -0.0777589
0.226978 -0.179978 -0.0431841
0.151566 0.176601 -0.0784712
0.2787 0.0119441 -0.0396878
0.0644187 -0.1152 -0.0798238
-0.0263322 0.00671371 0.0809974
0.0474563 0.00102038 -0.0800002
0.24411 -0.0384352 -0.0497793
0.184764 0.0933146 -0.0800002
0.190721 0.172702 -0.0708763
-0.0423558 0.12221 0.0199476
-0.0182798 0.0677525 -0.0791747
0.234206 -0.144618 -0.0256032
0.0211144 -0.149098 -0.0795563
0.150574 -0.0261585 -0.064939
0.22911 0.179661 -0.0797891
-0.0750287 0.173032 0.0425032
-0.0352704 -0.0632333 -0.078949
0.211248 -0.178995 -0.0799829
0.170846 -0.126185 -0.0799943
0.207941 -0.102023 -0.0799984
0.0747915 -0.0758838 -0.0796186
0.205876 0.115732 -0.0120147
0.0783999 0.0509828 -0.06757
-0.0676354 0.173529 -0.0311743
0.0399035 0.117485 0.056403
VERTICES 86 172
1 0
1 1
1 2
1 3
1 4
1 5
1 6
1 7
1 8
1 9
1 10
1 11
1 12
1 13
1 14
1 15
1 16
1 17
1 18
1 19
1 20
1 21
1 22
1 23
1 24
1 25
1 26
1 27
1 28
1 29
1 30
1 31
1 32
1 33
1 34
1 35
1 36
1 37
1 38
1 39
1 40
1 41
1 42
1 43
1 44
1 45
1 46
1 47
1 48
1 49
1 50
1 51
1 52
1 53
1 54
1 55
1 56
1 57
1 58
1 59
1 60
1 61
1 62
1 63
1 64
1 65
1 66
1 67
1 68
1 69
1 70
1 71
1 72
1 73
1 74
1 75
1 76
1 77
1 78
1 79
1 80
1 81
1 82
1 83
1 84
1 85
POINT_DATA 86
VECTORS i float
0.0 0.0 0.0
0.0 0.0 0.0
0.0 0.0 0.0
0.0 0.0 0.0
0.0 0.0 0.0
0.0 0.0 0.0
0.0 0.0 0.0
0.0 0.0 0.0
0.0 0.0 0.0
0.0 0.0 0.0
0.0 0.0 0.0
0.0 0.0 0.0
0.0 0.0 0.0
0.0 0.0 0.0
0.0 0.0 0.0
0.0 0.0 0.0
0.0 0.0 0.0
0.0 0.0 0.0
0.0 0.0 0.0
0.0 0.0 0.0
0.0 0.0 0.0
0.0 0.0 0.0
0.0 0.0 0.0
0.0 0.0 0.0
0.0 0.0 0.0
0.0 0.0 0.0
0.0 0.0 0.0
0.0 0.0 0.0
0.0 0.0 0.0
0.0 0.0 0.0
0.0 0.0 0.0
0.0 0.0 0.0
0.0 0.0 0.0
0.0 0.0 0.0
0.0 0.0 0.0
0.0 0.0 0.0
0.0 0.0 0.0
0.0 0.0 0.0
0.0 0.0 0.0
0.0 0.0 0.0
0.0 0.0 0.0
0.0 0.0 0.0
0.0 0.0 0.0
0.0 0.0 0.0
0.0 0.0 0.0
0.0 0.0 0.0
0.0 0.0 0.0
0.0 0.0 0.0
0.0 0.0 0.0
0.0 0.0 0.0
0.0 0.0 0.0
0.0 0.0 0.0
0.0 0.0 0.0
0.0 0.0 0.0
0.0 0.0 0.0
0.0 0.0 0.0
0.0 0.0 0.0
0.0 0.0 0.0
0.0 0.0 0.0
0.0 0.0 0.0
0.0 0.0 0.0
0.0 0.0 0.0
0.0 0.0 0.0
0.0 0.0 0.0
0.0 0.0 0.0
0.0 0.0 0.0
0.0 0.0 0.0
0.0 0.0 0.0
0.0 0.0 0.0
0.0 0.0 0.0
0.0 0.0 0.0
0.0 0.0 0.0
0.0 0.0 0.0
0.0 0.0 0.0
0.0 0.0 0.0
0.0 0.0 0.0
0.0 0.0 0.0
0.0 0.0 0.0
0.0 0.0 0.0
0.0 0.0 0.0
0.0 0.0 0.0
0.0 0.0 0.0
0.0 0.0 0.0
0.0 0.0 0.0
0.0 0.0 0.0
0.0 0.0 0.0
VECTORS f float
0.0 0.0 -1.60516
0.0 0.0 -1.60516
0.0 0.0 -1.60516
0.0 0.0 -1.60516
0.0 0.0 -1.60516
0.0 0.0 -1.60516
0.0 0.0 -1.60516
0.0 0.0 -1.60516
0.0 0.0 -1.60516
0.0 0.0 -1.60516
0.0 0.0 -1.60516
-0.0571919 0.296421 -0.756314
0.0 0.0 -1.60516
0.0 0.0 -1.60516
0.0 0.0 -1.60516
0.0 0.0 -1.60516
0.0 0.0 -1.60516
0.0 0.0 -1.60516
0.0 0.0 -1.60516
0.0 0.0 -1.60516
0.0 0.0 -1.60516
0.0 0.0 -1.60516
0.0 0.0 -1.60516
0.0 0.0 -1.60516
0.0 0.0 -1.60516
0.0 0.0 -1.60516
0.0 0.0 -1.60516
0.0 0.0 -1.60516
0.0 0.0 -0.821841
0.0 0.0 -0.821841
0.0 0.0 -0.821841
1.38339e-07 -3.67861e-08 0.000497809
0.0 0.0 -0.821841
0.0 0.0 -0.821841
0.0 0.0 -0.821841
0.0 0.0 -0.821841
0.0 0.0 -0.821841
0.00854422 -0.00453645 3.92354e-06
0.0 0.0 -0.821841
0.0 0.0 -0.821841
2.15507e-15 9.1797e-14 1.44329e-15
0.0 0.0 -0.821841
0.0 0.0 -0.821841
0.0 0.0 -0.821841
0.0 0.0 -0.821841
0.0 0.0 -0.821841
0.0 0.0 -0.821841
0.0 0.0 -0.821841
0.0 0.0 -0.821841
0.0 0.0 -0.821841
0.0 0.0 -0.821841
0.0 0.0 -0.821841
0.0 0.0 -0.821841
0.0 0.0 -0.821841
0.0 0.0 -0.821841
0.0 0.0 -0.821841
0.0 0.0 -0.821841
0.0 0.0 -0.821841
0.0 0.0 -0.821841
0.0 0.0 -0.821841
0.0 0.0 -0.821841
0.0 0.0 -0.821841
0.0 0.0 -0.821841
0.0 0.0 -0.821841
0.0 0.0 -0.821841
0.0 0.0 -0.821841
0.00178322 -0.00413621 -0.890767
0.0 0.0 -0.821841
2.08393e-06 -2.00521e-06 -0.0223496
0.0 0.0 -0.821841
0.0 0.0 -0.821841
0.0 0.0 -0.821841
0.0 0.0 -0.821841
0.0 0.0 -0.821841
0.0 0.0 -0.821841
0.0 0.0 -0.821841
0.0 0.0 -0.821841
0.0 0.0 -0.821841
0.0 0.0 -0.821841
0.0 0.0 -0.821841
0.0 0.0 -0.821841
0.0 0.0 -0.821841
0.0 0.0 -0.821841
0.0 0.0 -0.821841
0.0 0.0 -0.821841
0.0 0.0 -0.821841
VECTORS omega float
13.2705 -18.2705 6.96244
-7.18413 1.46309 18.0881
-6.48628 -1.55705 5.77378
0.939467 -12.7654 -12.6904
15.6619 13.8107 13.0728
-26.0803 -50.5733 -1.45208
35.4193 -99.0088 7.57596
-12.7165 27.942 4.04226
-6.19893 15.0278 -11.3492
-7.36881 -5.73205 7.05505
-0.242095 8.73002 2.4259
-12.6438 0.129638 0.0937529
3.84091 -4.07122 2.02135
-9.27354 1.69843 -10.2287
20.3494 33.9821 23.8601
3.56726 -7.46793 2.46925
-0.987316 5.18351 -6.30944
-13.3332 4.31312 3.5414
-9.95628 -17.4641 -23.4756
-32.8138 3.90956 6.22557
-1.54556 -16.384 1.40814
-2.13552 4.41991 -6.76035
10.4082 1.27407 -11.9235
-3.90865 -3.48994 -9.45574
2.51861 -5.18972 7.10087
2.70296 4.62417 4.91033
-14.2654 -16.5103 7.3168
47.3475 -20.3895 -10.3552
51.789 9.06372 29.1574
26.9299 20.8953 -3.98971
4.1321 13.1206 -12.9841
6.42774 24.1754 -30.0265
-18.378 14.8455 1.63759
5.04512 -1.34459 -3.60969
0.108728 6.4288 18.7919
-5.35056 -5.22436 -5.0413
54.6499 -24.416 -9.64789
-0.434974 -2.62225 2.7805
21.4901 -6.64631 20.4426
-8.96846 -37.442 -23.8369
-11.7049 -0.498902 -24.6241
8.29263 15.8481 39.3632
-23.6819 45.0345 -21.9833
0.960789 -4.48526 -13.307
9.57089 -1.48653 18.5093
4.04613 6.9259 16.3982
20.4359 -7.46751 -5.094
31.2294 -72.4385 -18.6543
-6.77038 -6.13112 -5.74418
0.0 0.0 0.0
-6.49501 7.30812 0.234956
2.6328 -6.68051 -5.19176
3.59198 4.35873 -2.57426
-6.20594 -20.6477 33.9274
-13.4457 4.90316 22.3347
34.834 -5.33969 -1.83755
-11.989 18.0569 -2.56279
-50.8394 33.5771 -10.8996
1.35325 18.1771 -25.1824
-49.7516 -11.8837 31.4145
-11.8249 -0.0920036 -1.96426
-0.710187 20.2633 -5.58632
-3.46348 12.9899 6.57095
-16.5946 5.05942 10.8288
-4.22308 -4.65371 -11.8341
-63.3931 18.2802 51.8135
-20.7669 9.2847 12.7062
-14.8252 8.75786 8.10548
5.36632 5.57872 33.9029
-15.3377 -9.29868 -2.30838
-58.2175 -1.87261 35.946
1.48161 14.2989 -29.0974
9.92884 -4.81911 15.9927
-6.89797 -11.1657 -1.82556
-19.3417 -21.0496 12.2605
-1.99217 5.01875 -5.34293
-14.5476 1.10021 -18.3635
4.79995 -8.01544 -17.173
0.608164 -6.76374 4.45605
-4.5089 -0.322579 -21.0806
-0.923887 6.3358 4.47213
0.580037 -6.14395 -3.9494
-15.1823 -67.0945 6.92827
-12.9399 40.3868 5.20283
12.4938 -19.7411 -0.456119
-40.4952 14.8317 -8.78423
VECTORS v float
0.000938902 0.0573413 -0.24109
0.0448537 0.170784 0.0511052
-0.0465493 0.165965 -0.0506382
-0.0521313 0.0297097 -0.0783714
-0.24094 -0.328647 -0.204045
0.934564 -0.509511 -0.520883
0.175886 -0.352659 -0.96754
0.194861 0.714797 -0.272721
0.0542784 -0.143223 -0.516697
-0.140261 0.183826 0.230903
-0.0126281 0.143153 -0.146874
-0.126528 0.256429 -0.204853
0.0701061 -0.0945322 -0.154609
-0.12488 0.107635 0.121995
-0.681398 -0.59658 0.360131
-0.184892 -0.0938642 0.0722857
0.129831 0.0238288 0.0294886
0.0697838 0.353246 -0.251635
0.343978 0.315376 0.0629849
-0.280657 0.0796731 -0.15803
-0.279516 -0.10314 0.118562
0.0327027 -0.0490998 0.0150468
0.456722 -0.326646 -0.371005
0.217213 0.142756 -0.0380993
-0.130521 0.0959118 0.0811943
0.046476 0.156792 0.0601637
0.358811 0.180481 -0.282365
-0.30904 -0.124499 0.167664
0.0529848 -0.0660418 0.0598933
-0.173391 -0.0791759 -0.656938
0.0883008 -0.163649 -0.102075
0.483506 -0.128554 2.97962e-07
-0.0872756 -0.225132 -0.156205
0.0328734 -0.0687533 0.0101293
0.128895 -2.68961e-05 0.210542
-0.095995 0.114319 -0.0235159
0.541289 -0.675966 0.484018
-0.0524445 0.00869942 1.50337e-06
-0.112281 -0.430624 0.313469
-0.241484 0.176764 0.284377
-0.009978 0.234097 6.6546e-13
0.314085 -0.165217 0.128569
0.105485 0.0411779 -0.447983
-0.0306679 -0.0256312 -0.0692471
-0.0151785 -0.183483 -0.0913882
-0.0637353 0.0907607 -0.149014
0.0987083 0.432274 -0.052642
0.385979 0.0973345 -0.373153
-0.114623 0.191549 0.093916
0.0 0.0 1.07522
-0.116266 0.0791719 -0.224435
-0.134924 -0.0504799 -0.012467
-0.00323046 -0.0647712 -0.0545586
0.673134 -0.14215 -0.218451
0.0336509 0.211984 -0.0132742
-0.0478136 0.412972 0.177093
0.364271 0.238853 0.058109
0.317212 -0.596075 -0.167744
0.363527 -0.0271414 -0.0340926
0.00521566 0.130509 -0.133711
-0.0061384 0.245372 0.402244
0.115597 -0.0484584 -0.0888536
-0.019153 0.0757852 -0.0705747
-0.122441 0.643828 0.203806
-0.0985144 0.0822522 -0.00951892
0.43188 0.713029 0.389421
0.185687 0.41536 0.00307976
0.19913 0.227493 -0.499545
0.111574 -0.107326 2.15996e-05
0.0358662 0.205531 -0.117258
0.504286 0.707406 -0.734448
0.0707389 0.430915 -0.029655
0.0170827 -0.0265 -0.0791317
-0.222973 0.135474 0.0232777
-0.444824 -0.0660754 -0.565611
0.165944 -0.00369672 -0.11307
0.0281889 -0.00136821 -0.00758342
-0.160553 -0.0982402 -0.0895609
-0.136253 -0.0345229 -0.00353652
-0.00645561 0.0901736 0.00167788
0.126402 0.0205402 -0.000702755
-0.0327226 0.112397 -0.183915
-0.425251 -0.336841 -0.453347
0.296592 0.142998 -0.688921
0.105361 0.170287 -0.320033
0.182932 -0.631006 0.883396
SCALARS radius float 1
LOOKUP_TABLE default
0.025
0.025
0.025
0.025
0.025
0.025
0.025
0.025
0.025
0.025
0.025
0.025
0.025
0.025
0.025
0.025
0.025
0.025
0.025
0.025
0.025
0.025
0.025
0.025
0.025
0.025
0.025
0.025
0.02
0.02
0.02
0.02
0.02
0.02
0.02
0.02
0.02
0.02
0.02
0.02
0.02
0.02
0.02
0.02
0.02
0.02
0.02
0.02
0.02
0.02
0.02
0.02
0.02
0.02
0.02
0.02
0.02
0.02
0.02
0.02
0.02
0.02
0.02
0.02
0.02
0.02
0.02
0.02
0.02
0.02
0.02
0.02
0.02
0.02
0.02
0.02
0.02
0.02
0.02
0.02
0.02
0.02
0.02
0.02
0.02
0.02
SCALARS type float 1
LOOKUP_TABLE default
1.0
1.0
1.0
1.0
1.0
1.0
1.0
1.0
1.0
1.0
1.0
1.0
1.0
1.0
1.0
1.0
1.0
1.0
1.0
1.0
1.0
1.0
1.0
1.0
1.0
1.0
1.0
1.0
1.0
1.0
1.0
1.0
1.0
1.0
1.0
1.0
1.0
1.0
1.0
1.0
1.0
1.0
1.0
1.0
1.0
1.0
1.0
1.0
1.0
1.0
1.0
1.0
1.0
1.0
1.0
1.0
1.0
1.0
1.0
1.0
1.0
1.0
1.0
1.0
1.0
1.0
1.0
1.0
1.0
1.0
1.0
1.0
1.0
1.0
1.0
1.0
1.0
1.0
1.0
1.0
1.0
1.0
1.0
1.0
1.0
1.0
SCALARS id float 1
LOOKUP_TABLE default
1.0
2.0
3.0
4.0
5.0
6.0
7.0
8.0
9.0
10.0
11.0
12.0
13.0
14.0
15.0
16.0
17.0
18.0
19.0
20.0
21.0
22.0
23.0
24.0
25.0
26.0
27.0
28.0
29.0
30.0
31.0
32.0
33.0
34.0
35.0
36.0
37.0
38.0
39.0
40.0
41.0
42.0
43.0
44.0
45.0
46.0
47.0
48.0
49.0
50.0
51.0
52.0
53.0
54.0
55.0
56.0
57.0
58.0
59.0
60.0
61.0
62.0
63.0
64.0
65.0
66.0
67.0
68.0
69.0
70.0
71.0
72.0
73.0
74.0
75.0
76.0
77.0
78.0
79.0
80.0
81.0
82.0
83.0
84.0
85.0
86.0

