# vtk DataFile Version 2.0
Generated by lpp.py
ASCII
DATASET POLYDATA
POINTS 86 float
0.0540477 0.0423754 1.0203
0.0838694 0.0924291 1.01415
-0.0471576 -0.170755 1.01772
0.00898122 -0.164523 1.01692
0.241781 0.108672 1.03357
0.00219469 -0.00983473 0.998927
-0.0152175 0.0645357 1.0048
-0.0044103 -0.111429 1.03639
0.179347 -0.0107411 1.03584
0.13197 -0.11791 0.999701
0.24361 0.0574967 1.03386
0.0823301 -0.160553 1.03876
0.274436 0.140358 1.00011
0.162553 0.132438 1.00416
0.0455952 -0.0672861 1.02965
0.142434 -0.0165617 1.00181
0.21904 -0.088424 1.00284
0.103454 0.0501108 0.989967
0.113052 0.156584 1.02948
0.100029 -0.0692646 0.991973
-0.0464708 0.144238 1.01872
0.260616 -0.122628 1.01787
0.200035 0.085947 1.01262
0.135242 -0.0671011 1.03819
-0.0631264 0.0448574 1.01038
-0.0637205 -0.0175652 1.03513
-0.0227657 -0.0533601 1.02956
0.0359849 0.0986761 0.998348
0.132325 0.082203 1.02275
0.245152 -0.0357403 0.997391
0.0941252 -0.0121962 1.01399
0.0620239 0.136269 0.990113
0.0551037 -0.108719 1.00112
-0.0655034 -0.063686 0.996967
-0.0765379 -0.11804 0.994835
0.248915 0.0223543 1.00044
0.221483 0.163431 1.02457
0.0849835 -0.150749 0.991253
0.17202 0.0473367 0.994392
-0.0222955 -0.0735886 0.983108
0.268529 0.0736419 0.99777
0.0250405 0.155213 1.00384
0.166471 -0.147136 1.02992
0.202476 -0.14552 1.01244
0.27306 -0.172849 0.983473
0.175632 -0.047499 0.999822
0.0616244 0.00358391 0.989294
0.131649 -0.177762 1.00526
0.253436 -0.00591787 1.02844
0.188783 0.179478 0.999809
0.19306 -0.177243 0.983568
-0.0760294 0.0888848 1.01862
-0.0760474 0.120846 0.992181
0.125 0.169667 0.985236
-0.0553798 -0.0144958 0.986135
0.118898 0.0261041 1.02584
0.0502908 0.138151 1.03122
0.208909 0.0299761 1.02083
-0.012895 0.173977 1.00019
0.045937 -0.0344447 0.997025
0.268068 -0.0823996 0.985921
0.265396 -0.174891 1.0252
0.0662625 0.174477 1.02034
0.278232 -0.0621294 1.03044
0.0809825 -0.102295 1.03129
-0.0596725 -0.0881033 1.03092
0.0107661 -0.131182 0.984701
0.219019 -0.0512545 1.02828
0.12609 0.0988676 0.983353
0.22943 0.128218 0.987497
-0.030565 0.0131801 1.02262
-0.0117798 0.116579 0.998615
0.17824 -0.0934721 1.02369
0.0443106 -0.17176 0.985654
0.198079 0.0108947 0.985748
0.229885 0.178675 0.983193
-0.0782994 0.174701 1.02891
-0.0317267 -0.134488 0.995708
0.231099 -0.171271 0.999904
0.162764 -0.151253 0.988675
0.166972 -0.0858798 0.984198
0.0323207 -0.0781611 0.985795
0.260634 0.167245 1.0339
0.0220594 0.0384506 0.982974
-0.0758881 0.167109 0.989104
0.00478546 0.129269 1.03386
VERTICES 86 172
1 0
1 1
1 2
1 3
1 4
1 5
1 6
1 7
1 8
1 9
1 10
1 11
1 12
1 13
1 14
1 15
1 16
1 17
1 18
1 19
1 20
1 21
1 22
1 23
1 24
1 25
1 26
1 27
1 28
1 29
1 30
1 31
1 32
1 33
1 34
1 35
1 36
1 37
1 38
1 39
1 40
1 41
1 42
1 43
1 44
1 45
1 46
1 47
1 48
1 49
1 50
1 51
1 52
1 53
1 54
1 55
1 56
1 57
1 58
1 59
1 60
1 61
1 62
1 63
1 64
1 65
1 66
1 67
1 68
1 69
1 70
1 71
1 72
1 73
1 74
1 75
1 76
1 77
1 78
1 79
1 80
1 81
1 82
1 83
1 84
1 85
POINT_DATA 86
VECTORS i float
0.0 0.0 0.0
0.0 0.0 0.0
0.0 0.0 0.0
0.0 0.0 0.0
0.0 0.0 0.0
0.0 0.0 0.0
0.0 0.0 0.0
0.0 0.0 0.0
0.0 0.0 0.0
0.0 0.0 0.0
0.0 0.0 0.0
0.0 0.0 0.0
0.0 0.0 0.0
0.0 0.0 0.0
0.0 0.0 0.0
0.0 0.0 0.0
0.0 0.0 0.0
0.0 0.0 0.0
0.0 0.0 0.0
0.0 0.0 0.0
0.0 0.0 0.0
0.0 0.0 0.0
0.0 0.0 0.0
0.0 0.0 0.0
0.0 0.0 0.0
0.0 0.0 0.0
0.0 0.0 0.0
0.0 0.0 0.0
0.0 0.0 0.0
0.0 0.0 0.0
0.0 0.0 0.0
0.0 0.0 0.0
0.0 0.0 0.0
0.0 0.0 0.0
0.0 0.0 0.0
0.0 0.0 0.0
0.0 0.0 0.0
0.0 0.0 0.0
0.0 0.0 0.0
0.0 0.0 0.0
0.0 0.0 0.0
0.0 0.0 0.0
0.0 0.0 0.0
0.0 0.0 0.0
0.0 0.0 0.0
0.0 0.0 0.0
0.0 0.0 0.0
0.0 0.0 0.0
0.0 0.0 0.0
0.0 0.0 0.0
0.0 0.0 0.0
0.0 0.0 0.0
0.0 0.0 0.0
0.0 0.0 0.0
0.0 0.0 0.0
0.0 0.0 0.0
0.0 0.0 0.0
0.0 0.0 0.0
0.0 0.0 0.0
0.0 0.0 0.0
0.0 0.0 0.0
0.0 0.0 0.0
0.0 0.0 0.0
0.0 0.0 0.0
0.0 0.0 0.0
0.0 0.0 0.0
0.0 0.0 0.0
0.0 0.0 0.0
0.0 0.0 0.0
0.0 0.0 0.0
0.0 0.0 0.0
0.0 0.0 0.0
0.0 0.0 0.0
0.0 0.0 0.0
0.0 0.0 0.0
0.0 0.0 0.0
0.0 0.0 0.0
0.0 0.0 0.0
0.0 0.0 0.0
0.0 0.0 0.0
0.0 0.0 0.0
0.0 0.0 0.0
0.0 0.0 0.0
0.0 0.0 0.0
0.0 0.0 0.0
0.0 0.0 0.0
VECTORS f float
0.0 0.0 0.0
0.0 0.0 0.0
0.0 0.0 0.0
0.0 0.0 0.0
0.0 0.0 0.0
0.0 0.0 -1.60516
0.0 0.0 0.0
0.0 0.0 0.0
0.0 0.0 0.0
0.0 0.0 -1.60516
0.0 0.0 0.0
0.0 0.0 0.0
0.0 0.0 0.0
0.0 0.0 0.0
0.0 0.0 0.0
0.0 0.0 0.0
0.0 0.0 0.0
0.0 0.0 -1.60516
0.0 0.0 0.0
0.0 0.0 -1.60516
0.0 0.0 0.0
0.0 0.0 0.0
0.0 0.0 0.0
0.0 0.0 0.0
0.0 0.0 0.0
0.0 0.0 0.0
0.0 0.0 0.0
0.0 0.0 -1.60516
0.0 0.0 0.0
0.0 0.0 -0.821841
0.0 0.0 0.0
0.0 0.0 -0.821841
0.0 0.0 0.0
0.0 0.0 -0.821841
0.0 0.0 -0.821841
0.0 0.0 0.0
0.0 0.0 0.0
0.0 0.0 -0.821841
0.0 0.0 -0.821841
0.0 0.0 -0.821841
0.0 0.0 -0.821841
0.0 0.0 0.0
0.0 0.0 0.0
0.0 0.0 0.0
0.0 0.0 -0.821841
0.0 0.0 -0.821841
0.0 0.0 -0.821841
0.0 0.0 0.0
0.0 0.0 0.0
0.0 0.0 -0.821841
0.0 0.0 -0.821841
0.0 0.0 0.0
0.0 0.0 -0.821841
0.0 0.0 -0.821841
0.0 0.0 -0.821841
0.0 0.0 0.0
0.0 0.0 0.0
0.0 0.0 0.0
0.0 0.0 0.0
0.0 0.0 -0.821841
0.0 0.0 -0.821841
0.0 0.0 0.0
0.0 0.0 0.0
0.0 0.0 0.0
0.0 0.0 0.0
0.0 0.0 0.0
0.0 0.0 -0.821841
0.0 0.0 0.0
0.0 0.0 -0.821841
0.0 0.0 -0.821841
0.0 0.0 0.0
0.0 0.0 -0.821841
0.0 0.0 0.0
0.0 0.0 -0.821841
0.0 0.0 -0.821841
0.0 0.0 -0.821841
0.0 0.0 0.0
0.0 0.0 -0.821841
0.0 0.0 -0.821841
0.0 0.0 -0.821841
0.0 0.0 -0.821841
0.0 0.0 -0.821841
0.0 0.0 0.0
0.0 0.0 -0.821841
0.0 0.0 -0.821841
0.0 0.0 0.0
VECTORS omega float
0.0 0.0 0.0
0.0 0.0 0.0
0.0 0.0 0.0
0.0 0.0 0.0
0.0 0.0 0.0
0.0 0.0 0.0
0.0 0.0 0.0
0.0 0.0 0.0
0.0 0.0 0.0
0.0 0.0 0.0
0.0 0.0 0.0
0.0 0.0 0.0
0.0 0.0 0.0
0.0 0.0 0.0
0.0 0.0 0.0
0.0 0.0 0.0
0.0 0.0 0.0
0.0 0.0 0.0
0.0 0.0 0.0
0.0 0.0 0.0
0.0 0.0 0.0
0.0 0.0 0.0
0.0 0.0 0.0
0.0 0.0 0.0
0.0 0.0 0.0
0.0 0.0 0.0
0.0 0.0 0.0
0.0 0.0 0.0
0.0 0.0 0.0
0.0 0.0 0.0
0.0 0.0 0.0
0.0 0.0 0.0
0.0 0.0 0.0
0.0 0.0 0.0
0.0 0.0 0.0
0.0 0.0 0.0
0.0 0.0 0.0
0.0 0.0 0.0
0.0 0.0 0.0
0.0 0.0 0.0
0.0 0.0 0.0
0.0 0.0 0.0
0.0 0.0 0.0
0.0 0.0 0.0
0.0 0.0 0.0
0.0 0.0 0.0
0.0 0.0 0.0
0.0 0.0 0.0
0.0 0.0 0.0
0.0 0.0 0.0
0.0 0.0 0.0
0.0 0.0 0.0
0.0 0.0 0.0
0.0 0.0 0.0
0.0 0.0 0.0
0.0 0.0 0.0
0.0 0.0 0.0
0.0 0.0 0.0
0.0 0.0 0.0
0.0 0.0 0.0
0.0 0.0 0.0
0.0 0.0 0.0
0.0 0.0 0.0
0.0 0.0 0.0
0.0 0.0 0.0
0.0 0.0 0.0
0.0 0.0 0.0
0.0 0.0 0.0
0.0 0.0 0.0
0.0 0.0 0.0
0.0 0.0 0.0
0.0 0.0 0.0
0.0 0.0 0.0
0.0 0.0 0.0
0.0 0.0 0.0
0.0 0.0 0.0
0.0 0.0 0.0
0.0 0.0 0.0
0.0 0.0 0.0
0.0 0.0 0.0
0.0 0.0 0.0
0.0 0.0 0.0
0.0 0.0 0.0
0.0 0.0 0.0
0.0 0.0 0.0
0.0 0.0 0.0
VECTORS v float
-0.0 -0.0 -1.0
-0.0 -0.0 -1.0
-0.0 -0.0 -1.0
-0.0 -0.0 -1.0
-0.0 -0.0 -1.0
0.0 0.0 -1.01045
-0.0 -0.0 -1.0
-0.0 -0.0 -1.0
-0.0 -0.0 -1.0
0.0 0.0 -1.00289
-0.0 -0.0 -1.0
-0.0 -0.0 -1.0
-0.0 -0.0 -1.0
-0.0 -0.0 -1.0
-0.0 -0.0 -1.0
-0.0 -0.0 -1.0
-0.0 -0.0 -1.0
0.0 0.0 -1.09403
-0.0 -0.0 -1.0
0.0 0.0 -1.07588
-0.0 -0.0 -1.0
-0.0 -0.0 -1.0
-0.0 -0.0 -1.0
-0.0 -0.0 -1.0
-0.0 -0.0 -1.0
-0.0 -0.0 -1.0
-0.0 -0.0 -1.0
0.0 0.0 -1.01604
-0.0 -0.0 -1.0
0.0 0.0 -1.02526
-0.0 -0.0 -1.0
0.0 0.0 -1.09266
-0.0 -0.0 -1.0
0.0 0.0 -1.02928
0.0 0.0 -1.04949
-0.0 -0.0 -1.0
-0.0 -0.0 -1.0
0.0 0.0 -1.08245
0.0 0.0 -1.05361
0.0 0.0 -1.15387
0.0 0.0 -1.02163
-0.0 -0.0 -1.0
-0.0 -0.0 -1.0
-0.0 -0.0 -1.0
0.0 0.0 -1.15073
0.0 0.0 -1.00172
0.0 0.0 -1.10001
-0.0 -0.0 -1.0
-0.0 -0.0 -1.0
0.0 0.0 -1.00191
0.0 0.0 -1.14995
-0.0 -0.0 -1.0
0.0 0.0 -1.07402
0.0 0.0 -1.13562
0.0 0.0 -1.12787
-0.0 -0.0 -1.0
-0.0 -0.0 -1.0
-0.0 -0.0 -1.0
-0.0 -0.0 -1.0
0.0 0.0 -1.02879
0.0 0.0 -1.12974
-0.0 -0.0 -1.0
-0.0 -0.0 -1.0
-0.0 -0.0 -1.0
-0.0 -0.0 -1.0
-0.0 -0.0 -1.0
0.0 0.0 -1.14023
-0.0 -0.0 -1.0
0.0 0.0 -1.15181
0.0 0.0 -1.11591
-0.0 -0.0 -1.0
0.0 0.0 -1.01349
-0.0 -0.0 -1.0
0.0 0.0 -1.13199
0.0 0.0 -1.13121
0.0 0.0 -1.15318
-0.0 -0.0 -1.0
0.0 0.0 -1.04125
0.0 0.0 -1.00093
0.0 0.0 -1.10551
0.0 0.0 -1.14455
0.0 0.0 -1.13082
-0.0 -0.0 -1.0
0.0 0.0 -1.15505
0.0 0.0 -1.10168
-0.0 -0.0 -1.0
SCALARS radius float 1
LOOKUP_TABLE default
0.025
0.025
0.025
0.025
0.025
0.025
0.025
0.025
0.025
0.025
0.025
0.025
0.025
0.025
0.025
0.025
0.025
0.025
0.025
0.025
0.025
0.025
0.025
0.025
0.025
0.025
0.025
0.025
0.02
0.02
0.02
0.02
0.02
0.02
0.02
0.02
0.02
0.02
0.02
0.02
0.02
0.02
0.02
0.02
0.02
0.02
0.02
0.02
0.02
0.02
0.02
0.02
0.02
0.02
0.02
0.02
0.02
0.02
0.02
0.02
0.02
0.02
0.02
0.02
0.02
0.02
0.02
0.02
0.02
0.02
0.02
0.02
0.02
0.02
0.02
0.02
0.02
0.02
0.02
0.02
0.02
0.02
0.02
0.02
0.02
0.02
SCALARS type float 1
LOOKUP_TABLE default
1.0
1.0
1.0
1.0
1.0
1.0
1.0
1.0
1.0
1.0
1.0
1.0
1.0
1.0
1.0
1.0
1.0
1.0
1.0
1.0
1.0
1.0
1.0
1.0
1.0
1.0
1.0
1.0
1.0
1.0
1.0
1.0
1.0
1.0
1.0
1.0
1.0
1.0
1.0
1.0
1.0
1.0
1.0
1.0
1.0
1.0
1.0
1.0
1.0
1.0
1.0
1.0
1.0
1.0
1.0
1.0
1.0
1.0
1.0
1.0
1.0
1.0
1.0
1.0
1.0
1.0
1.0
1.0
1.0
1.0
1.0
1.0
1.0
1.0
1.0
1.0
1.0
1.0
1.0
1.0
1.0
1.0
1.0
1.0
1.0
1.0
SCALARS id float 1
LOOKUP_TABLE default
1.0
2.0
3.0
4.0
5.0
6.0
7.0
8.0
9.0
10.0
11.0
12.0
13.0
14.0
15.0
16.0
17.0
18.0
19.0
20.0
21.0
22.0
23.0
24.0
25.0
26.0
27.0
28.0
29.0
30.0
31.0
32.0
33.0
34.0
35.0
36.0
37.0
38.0
39.0
40.0
41.0
42.0
43.0
44.0
45.0
46.0
47.0
48.0
49.0
50.0
51.0
52.0
53.0
54.0
55.0
56.0
57.0
58.0
59.0
60.0
61.0
62.0
63.0
64.0
65.0
66.0
67.0
68.0
69.0
70.0
71.0
72.0
73.0
74.0
75.0
76.0
77.0
78.0
79.0
80.0
81.0
82.0
83.0
84.0
85.0
86.0

