# vtk DataFile Version 2.0
Generated by lpp.py
ASCII
DATASET POLYDATA
POINTS 86 float
0.0540477 0.0423754 0.633484
0.0838694 0.0924291 0.627333
-0.0471576 -0.170755 0.630902
0.00898122 -0.164523 0.630102
0.241781 0.108672 0.646749
0.00219469 -0.00983473 0.582626
-0.0152175 0.0645357 0.600253
-0.0044103 -0.111429 0.649574
0.179347 -0.0107411 0.649021
0.13197 -0.11791 0.584956
0.24361 0.0574967 0.647042
0.0823301 -0.160553 0.651943
0.274436 0.140358 0.586171
0.162553 0.132438 0.598345
0.0455952 -0.0672861 0.642835
0.142434 -0.0165617 0.591292
0.21904 -0.088424 0.594376
0.103454 0.0501108 0.556448
0.113052 0.156584 0.642659
0.100029 -0.0692646 0.562193
-0.0464708 0.144238 0.631903
0.260616 -0.122628 0.631048
0.200035 0.085947 0.62318
0.135242 -0.0671011 0.651372
-0.0631264 0.0448574 0.616666
-0.0637205 -0.0175652 0.648315
-0.0227657 -0.0533601 0.642746
0.0359849 0.0986761 0.580896
0.132325 0.082203 0.635935
0.245152 -0.0357403 0.578039
0.0941252 -0.0121962 0.627164
0.0620239 0.136269 0.556878
0.0551037 -0.108719 0.589243
-0.0655034 -0.063686 0.576787
-0.0765379 -0.11804 0.570491
0.248915 0.0223543 0.587195
0.221483 0.163431 0.637754
0.0849835 -0.150749 0.560119
0.17202 0.0473367 0.5692
-0.0222955 -0.0735886 0.537262
0.268529 0.0736419 0.579165
0.0250405 0.155213 0.597392
0.166471 -0.147136 0.643104
0.202476 -0.14552 0.62266
0.27306 -0.172849 0.538274
0.175632 -0.047499 0.585319
0.0616244 0.00358391 0.554543
0.131649 -0.177762 0.601592
0.253436 -0.00591787 0.641627
0.188783 0.179478 0.585266
0.19306 -0.177243 0.538531
-0.0760294 0.0888848 0.631797
-0.0760474 0.120846 0.562785
0.125 0.169667 0.543149
-0.0553798 -0.0144958 0.545645
0.118898 0.0261041 0.639017
0.0502908 0.138151 0.644405
0.208909 0.0299761 0.63401
-0.012895 0.173977 0.586414
0.045937 -0.0344447 0.576945
0.268068 -0.0823996 0.545047
0.265396 -0.174891 0.63838
0.0662625 0.174477 0.633526
0.278232 -0.0621294 0.64362
0.0809825 -0.102295 0.644474
-0.0596725 -0.0881033 0.644104
0.0107661 -0.131182 0.541664
0.219019 -0.0512545 0.641463
0.12609 0.0988676 0.537931
0.22943 0.128218 0.549472
-0.030565 0.0131801 0.635805
-0.0117798 0.116579 0.581688
0.17824 -0.0934721 0.63687
0.0443106 -0.17176 0.544315
0.198079 0.0108947 0.54457
0.229885 0.178675 0.537489
-0.0782994 0.174701 0.642095
-0.0317267 -0.134488 0.573062
0.231099 -0.171271 0.585563
0.162764 -0.151253 0.552792
0.166972 -0.0858798 0.540272
0.0323207 -0.0781611 0.544698
0.260634 0.167245 0.647084
0.0220594 0.0384506 0.536886
-0.0758881 0.167109 0.554009
0.00478546 0.129269 0.647046
VERTICES 86 172
1 0
1 1
1 2
1 3
1 4
1 5
1 6
1 7
1 8
1 9
1 10
1 11
1 12
1 13
1 14
1 15
1 16
1 17
1 18
1 19
1 20
1 21
1 22
1 23
1 24
1 25
1 26
1 27
1 28
1 29
1 30
1 31
1 32
1 33
1 34
1 35
1 36
1 37
1 38
1 39
1 40
1 41
1 42
1 43
1 44
1 45
1 46
1 47
1 48
1 49
1 50
1 51
1 52
1 53
1 54
1 55
1 56
1 57
1 58
1 59
1 60
1 61
1 62
1 63
1 64
1 65
1 66
1 67
1 68
1 69
1 70
1 71
1 72
1 73
1 74
1 75
1 76
1 77
1 78
1 79
1 80
1 81
1 82
1 83
1 84
1 85
POINT_DATA 86
VECTORS i float
0.0 0.0 0.0
0.0 0.0 0.0
0.0 0.0 0.0
0.0 0.0 0.0
0.0 0.0 0.0
0.0 0.0 0.0
0.0 0.0 0.0
0.0 0.0 0.0
0.0 0.0 0.0
0.0 0.0 0.0
0.0 0.0 0.0
0.0 0.0 0.0
0.0 0.0 0.0
0.0 0.0 0.0
0.0 0.0 0.0
0.0 0.0 0.0
0.0 0.0 0.0
0.0 0.0 0.0
0.0 0.0 0.0
0.0 0.0 0.0
0.0 0.0 0.0
0.0 0.0 0.0
0.0 0.0 0.0
0.0 0.0 0.0
0.0 0.0 0.0
0.0 0.0 0.0
0.0 0.0 0.0
0.0 0.0 0.0
0.0 0.0 0.0
0.0 0.0 0.0
0.0 0.0 0.0
0.0 0.0 0.0
0.0 0.0 0.0
0.0 0.0 0.0
0.0 0.0 0.0
0.0 0.0 0.0
0.0 0.0 0.0
0.0 0.0 0.0
0.0 0.0 0.0
0.0 0.0 0.0
0.0 0.0 0.0
0.0 0.0 0.0
0.0 0.0 0.0
0.0 0.0 0.0
0.0 0.0 0.0
0.0 0.0 0.0
0.0 0.0 0.0
0.0 0.0 0.0
0.0 0.0 0.0
0.0 0.0 0.0
0.0 0.0 0.0
0.0 0.0 0.0
0.0 0.0 0.0
0.0 0.0 0.0
0.0 0.0 0.0
0.0 0.0 0.0
0.0 0.0 0.0
0.0 0.0 0.0
0.0 0.0 0.0
0.0 0.0 0.0
0.0 0.0 0.0
0.0 0.0 0.0
0.0 0.0 0.0
0.0 0.0 0.0
0.0 0.0 0.0
0.0 0.0 0.0
0.0 0.0 0.0
0.0 0.0 0.0
0.0 0.0 0.0
0.0 0.0 0.0
0.0 0.0 0.0
0.0 0.0 0.0
0.0 0.0 0.0
0.0 0.0 0.0
0.0 0.0 0.0
0.0 0.0 0.0
0.0 0.0 0.0
0.0 0.0 0.0
0.0 0.0 0.0
0.0 0.0 0.0
0.0 0.0 0.0
0.0 0.0 0.0
0.0 0.0 0.0
0.0 0.0 0.0
0.0 0.0 0.0
0.0 0.0 0.0
VECTORS f float
0.0 0.0 -1.60516
0.0 0.0 -1.60516
0.0 0.0 -1.60516
0.0 0.0 -1.60516
0.0 0.0 -1.60516
0.0 0.0 -1.60516
0.0 0.0 -1.60516
0.0 0.0 -1.60516
0.0 0.0 -1.60516
0.0 0.0 -1.60516
0.0 0.0 -1.60516
0.0 0.0 -1.60516
0.0 0.0 -1.60516
0.0 0.0 -1.60516
0.0 0.0 -1.60516
0.0 0.0 -1.60516
0.0 0.0 -1.60516
0.0 0.0 -1.60516
0.0 0.0 -1.60516
0.0 0.0 -1.60516
0.0 0.0 -1.60516
0.0 0.0 -1.60516
0.0 0.0 -1.60516
0.0 0.0 -1.60516
0.0 0.0 -1.60516
0.0 0.0 -1.60516
0.0 0.0 -1.60516
0.0 0.0 -1.60516
0.0 0.0 -0.821841
0.0 0.0 -0.821841
0.0 0.0 -0.821841
0.0 0.0 -0.821841
0.0 0.0 -0.821841
0.0 0.0 -0.821841
0.0 0.0 -0.821841
0.0 0.0 -0.821841
0.0 0.0 -0.821841
0.0 0.0 -0.821841
0.0 0.0 -0.821841
0.0 0.0 -0.821841
0.0 0.0 -0.821841
0.0 0.0 -0.821841
0.0 0.0 -0.821841
0.0 0.0 -0.821841
0.0 0.0 -0.821841
0.0 0.0 -0.821841
0.0 0.0 -0.821841
0.0 0.0 -0.821841
0.0 0.0 -0.821841
0.0 0.0 -0.821841
0.0 0.0 -0.821841
0.0 0.0 -0.821841
0.0 0.0 -0.821841
0.0 0.0 -0.821841
0.0 0.0 -0.821841
0.0 0.0 -0.821841
0.0 0.0 -0.821841
0.0 0.0 -0.821841
0.0 0.0 -0.821841
0.0 0.0 -0.821841
0.0 0.0 -0.821841
0.0 0.0 -0.821841
0.0 0.0 -0.821841
0.0 0.0 -0.821841
0.0 0.0 -0.821841
0.0 0.0 -0.821841
0.0 0.0 -0.821841
0.0 0.0 -0.821841
0.0 0.0 -0.821841
0.0 0.0 -0.821841
0.0 0.0 -0.821841
0.0 0.0 -0.821841
0.0 0.0 -0.821841
0.0 0.0 -0.821841
0.0 0.0 -0.821841
0.0 0.0 -0.821841
0.0 0.0 -0.821841
0.0 0.0 -0.821841
0.0 0.0 -0.821841
0.0 0.0 -0.821841
0.0 0.0 -0.821841
0.0 0.0 -0.821841
0.0 0.0 -0.821841
0.0 0.0 -0.821841
0.0 0.0 -0.821841
0.0 0.0 -0.821841
VECTORS omega float
0.0 0.0 0.0
0.0 0.0 0.0
0.0 0.0 0.0
0.0 0.0 0.0
0.0 0.0 0.0
0.0 0.0 0.0
0.0 0.0 0.0
0.0 0.0 0.0
0.0 0.0 0.0
0.0 0.0 0.0
0.0 0.0 0.0
0.0 0.0 0.0
0.0 0.0 0.0
0.0 0.0 0.0
0.0 0.0 0.0
0.0 0.0 0.0
0.0 0.0 0.0
0.0 0.0 0.0
0.0 0.0 0.0
0.0 0.0 0.0
0.0 0.0 0.0
0.0 0.0 0.0
0.0 0.0 0.0
0.0 0.0 0.0
0.0 0.0 0.0
0.0 0.0 0.0
0.0 0.0 0.0
0.0 0.0 0.0
0.0 0.0 0.0
0.0 0.0 0.0
0.0 0.0 0.0
0.0 0.0 0.0
0.0 0.0 0.0
0.0 0.0 0.0
0.0 0.0 0.0
0.0 0.0 0.0
0.0 0.0 0.0
0.0 0.0 0.0
0.0 0.0 0.0
0.0 0.0 0.0
0.0 0.0 0.0
0.0 0.0 0.0
0.0 0.0 0.0
0.0 0.0 0.0
0.0 0.0 0.0
0.0 0.0 0.0
0.0 0.0 0.0
0.0 0.0 0.0
0.0 0.0 0.0
0.0 0.0 0.0
0.0 0.0 0.0
0.0 0.0 0.0
0.0 0.0 0.0
0.0 0.0 0.0
0.0 0.0 0.0
0.0 0.0 0.0
0.0 0.0 0.0
0.0 0.0 0.0
0.0 0.0 0.0
0.0 0.0 0.0
0.0 0.0 0.0
0.0 0.0 0.0
0.0 0.0 0.0
0.0 0.0 0.0
0.0 0.0 0.0
0.0 0.0 0.0
0.0 0.0 0.0
0.0 0.0 0.0
0.0 0.0 0.0
0.0 0.0 0.0
0.0 0.0 0.0
0.0 0.0 0.0
0.0 0.0 0.0
0.0 0.0 0.0
0.0 0.0 0.0
0.0 0.0 0.0
0.0 0.0 0.0
0.0 0.0 0.0
0.0 0.0 0.0
0.0 0.0 0.0
0.0 0.0 0.0
0.0 0.0 0.0
0.0 0.0 0.0
0.0 0.0 0.0
0.0 0.0 0.0
0.0 0.0 0.0
VECTORS v float
0.0 0.0 -2.88352
0.0 0.0 -2.88352
0.0 0.0 -2.88352
0.0 0.0 -2.88352
0.0 0.0 -2.88352
0.0 0.0 -3.03131
0.0 0.0 -2.97372
0.0 0.0 -2.88352
0.0 0.0 -2.88352
0.0 0.0 -3.02375
0.0 0.0 -2.88352
0.0 0.0 -2.88352
0.0 0.0 -3.01983
0.0 0.0 -2.98
0.0 0.0 -2.88352
0.0 0.0 -3.00315
0.0 0.0 -2.99305
0.0 0.0 -3.11489
0.0 0.0 -2.88352
0.0 0.0 -3.09674
0.0 0.0 -2.88352
0.0 0.0 -2.88352
0.0 0.0 -2.89711
0.0 0.0 -2.88352
0.0 0.0 -2.91908
0.0 0.0 -2.88352
0.0 0.0 -2.88352
0.0 0.0 -3.0369
0.0 0.0 -2.88352
0.0 0.0 -3.04612
0.0 0.0 -2.88357
0.0 0.0 -3.11352
0.0 0.0 -3.00982
0.0 0.0 -3.05014
0.0 0.0 -3.07035
0.0 0.0 -3.01649
0.0 0.0 -2.88352
0.0 0.0 -3.10331
0.0 0.0 -3.07447
0.0 0.0 -3.17473
0.0 0.0 -3.04249
0.0 0.0 -2.98314
0.0 0.0 -2.88352
0.0 0.0 -2.89887
0.0 0.0 -3.17159
0.0 0.0 -3.02258
0.0 0.0 -3.12087
0.0 0.0 -2.96931
0.0 0.0 -2.88352
0.0 0.0 -3.02277
0.0 0.0 -3.17081
0.0 0.0 -2.88352
0.0 0.0 -3.09488
0.0 0.0 -3.15648
0.0 0.0 -3.14873
0.0 0.0 -2.88352
0.0 0.0 -2.88352
0.0 0.0 -2.88352
0.0 0.0 -3.01905
0.0 0.0 -3.04965
0.0 0.0 -3.1506
0.0 0.0 -2.88352
0.0 0.0 -2.88352
0.0 0.0 -2.88352
0.0 0.0 -2.88352
0.0 0.0 -2.88352
0.0 0.0 -3.16109
0.0 0.0 -2.88352
0.0 0.0 -3.17267
0.0 0.0 -3.13677
0.0 0.0 -2.88352
0.0 0.0 -3.03435
0.0 0.0 -2.88352
0.0 0.0 -3.15285
0.0 0.0 -3.15207
0.0 0.0 -3.17404
0.0 0.0 -2.88352
0.0 0.0 -3.06211
0.0 0.0 -3.02179
0.0 0.0 -3.12637
0.0 0.0 -3.16541
0.0 0.0 -3.15168
0.0 0.0 -2.88352
0.0 0.0 -3.17591
0.0 0.0 -3.12254
0.0 0.0 -2.88352
SCALARS radius float 1
LOOKUP_TABLE default
0.025
0.025
0.025
0.025
0.025
0.025
0.025
0.025
0.025
0.025
0.025
0.025
0.025
0.025
0.025
0.025
0.025
0.025
0.025
0.025
0.025
0.025
0.025
0.025
0.025
0.025
0.025
0.025
0.02
0.02
0.02
0.02
0.02
0.02
0.02
0.02
0.02
0.02
0.02
0.02
0.02
0.02
0.02
0.02
0.02
0.02
0.02
0.02
0.02
0.02
0.02
0.02
0.02
0.02
0.02
0.02
0.02
0.02
0.02
0.02
0.02
0.02
0.02
0.02
0.02
0.02
0.02
0.02
0.02
0.02
0.02
0.02
0.02
0.02
0.02
0.02
0.02
0.02
0.02
0.02
0.02
0.02
0.02
0.02
0.02
0.02
SCALARS type float 1
LOOKUP_TABLE default
1.0
1.0
1.0
1.0
1.0
1.0
1.0
1.0
1.0
1.0
1.0
1.0
1.0
1.0
1.0
1.0
1.0
1.0
1.0
1.0
1.0
1.0
1.0
1.0
1.0
1.0
1.0
1.0
1.0
1.0
1.0
1.0
1.0
1.0
1.0
1.0
1.0
1.0
1.0
1.0
1.0
1.0
1.0
1.0
1.0
1.0
1.0
1.0
1.0
1.0
1.0
1.0
1.0
1.0
1.0
1.0
1.0
1.0
1.0
1.0
1.0
1.0
1.0
1.0
1.0
1.0
1.0
1.0
1.0
1.0
1.0
1.0
1.0
1.0
1.0
1.0
1.0
1.0
1.0
1.0
1.0
1.0
1.0
1.0
1.0
1.0
SCALARS id float 1
LOOKUP_TABLE default
1.0
2.0
3.0
4.0
5.0
6.0
7.0
8.0
9.0
10.0
11.0
12.0
13.0
14.0
15.0
16.0
17.0
18.0
19.0
20.0
21.0
22.0
23.0
24.0
25.0
26.0
27.0
28.0
29.0
30.0
31.0
32.0
33.0
34.0
35.0
36.0
37.0
38.0
39.0
40.0
41.0
42.0
43.0
44.0
45.0
46.0
47.0
48.0
49.0
50.0
51.0
52.0
53.0
54.0
55.0
56.0
57.0
58.0
59.0
60.0
61.0
62.0
63.0
64.0
65.0
66.0
67.0
68.0
69.0
70.0
71.0
72.0
73.0
74.0
75.0
76.0
77.0
78.0
79.0
80.0
81.0
82.0
83.0
84.0
85.0
86.0

