# vtk DataFile Version 2.0
Generated by lpp.py
ASCII
DATASET POLYDATA
POINTS 86 float
0.0778023 0.0879185 -0.0341851
0.0574639 0.114812 -0.0725055
-0.0743567 -0.161223 -0.0747985
-0.0276166 -0.169503 -0.0552361
0.266253 0.0882554 -0.00899162
0.133156 -0.0818781 0.134612
0.000542115 0.165329 0.047037
0.0397476 -0.101304 -0.0432449
0.185985 -0.0176901 -0.00316877
0.117296 -0.114636 -0.0674688
0.27376 0.0578275 -0.0581019
0.088487 -0.150489 -0.0415456
0.251695 0.14785 -0.0583975
0.152126 0.145245 0.0377601
0.254523 -0.0961512 0.0477697
0.109984 0.00311435 -0.0746617
0.243772 -0.0797863 -0.0745665
0.111881 0.0890358 -0.0721336
0.136987 0.133018 -0.0372079
0.0925058 -0.0525268 -0.0184824
-0.0549687 0.122582 -0.0404473
0.264664 -0.117261 -0.0437321
0.194716 0.0765397 -0.0415115
0.198906 -0.0875704 -0.0376822
-0.0551076 0.0127983 -0.0699956
-0.0599652 -0.0389484 -0.0507789
-0.0567826 -0.00612573 0.134342
0.00471883 0.12682 -0.0293172
0.136849 0.0579561 0.0125217
0.245925 -0.0063511 -0.0664472
0.106338 0.0151004 -0.0287658
0.149338 0.126595 -0.0800002
-0.0182465 -0.0981945 -0.0618357
-0.079993 -0.0667292 -0.0799829
-0.0688004 -0.110096 -0.0799442
0.244707 0.0312798 -0.0799791
0.259684 0.064959 0.0824893
0.0918672 -0.17362 -0.0800005
0.191198 0.00885308 -0.0726807
-0.0542149 -0.0909435 -0.0431631
0.249677 0.0889243 -0.0800004
0.0773603 0.167415 -0.0748125
0.175115 -0.124479 -0.0102596
0.216695 -0.139027 -0.0675138
0.257951 -0.143994 -0.0797927
0.208813 -0.0509427 -0.0788276
0.037745 0.0257803 -0.0573072
0.169563 -0.172071 -0.0313014
0.279998 0.0149209 -0.0703097
0.188783 0.179478 0.133159
0.173544 -0.175361 -0.0772438
-0.0753343 0.0545138 -0.079901
-0.0795619 0.123454 -0.079261
0.179836 0.178393 -0.0227963
0.00443853 0.0250679 -0.0799882
0.144332 0.0633979 0.0661533
0.113106 0.147278 -0.0777445
0.222179 0.0370455 -0.0281978
0.00707391 0.173129 -0.0797783
0.0741007 0.0171869 -0.00389493
0.278808 -0.0478074 -0.0675278
0.224675 -0.179705 -0.0412191
0.148563 0.174506 -0.0791492
0.279512 -0.00391137 -0.0282654
0.066159 -0.117252 -0.0791724
-0.0349698 -0.00754687 0.071247
0.0436735 -0.00690725 -0.0797022
0.240128 -0.042985 -0.0417504
0.181834 0.0964067 -0.0797727
0.187412 0.167281 -0.0665917
-0.0524415 0.108062 0.0326745
-0.0216863 0.0641671 -0.0778454
0.233161 -0.144529 -0.0237146
0.0255633 -0.151729 -0.0783205
0.159471 -0.024837 -0.0555888
0.228603 0.17987 -0.0799978
-0.0755925 0.17306 0.0406929
-0.0320594 -0.0612685 -0.0791198
0.213542 -0.179223 -0.0799858
0.170982 -0.127982 -0.0796866
0.205269 -0.102692 -0.0799947
0.0759977 -0.0775949 -0.077995
0.214381 0.122469 -0.00490978
0.0724681 0.0481228 -0.0557536
-0.0697426 0.170123 -0.0267357
0.0362449 0.130105 0.0367731
VERTICES 86 172
1 0
1 1
1 2
1 3
1 4
1 5
1 6
1 7
1 8
1 9
1 10
1 11
1 12
1 13
1 14
1 15
1 16
1 17
1 18
1 19
1 20
1 21
1 22
1 23
1 24
1 25
1 26
1 27
1 28
1 29
1 30
1 31
1 32
1 33
1 34
1 35
1 36
1 37
1 38
1 39
1 40
1 41
1 42
1 43
1 44
1 45
1 46
1 47
1 48
1 49
1 50
1 51
1 52
1 53
1 54
1 55
1 56
1 57
1 58
1 59
1 60
1 61
1 62
1 63
1 64
1 65
1 66
1 67
1 68
1 69
1 70
1 71
1 72
1 73
1 74
1 75
1 76
1 77
1 78
1 79
1 80
1 81
1 82
1 83
1 84
1 85
POINT_DATA 86
VECTORS i float
0.0 0.0 0.0
0.0 0.0 0.0
0.0 0.0 0.0
0.0 0.0 0.0
0.0 0.0 0.0
0.0 0.0 0.0
0.0 0.0 0.0
0.0 0.0 0.0
0.0 0.0 0.0
0.0 0.0 0.0
0.0 0.0 0.0
0.0 0.0 0.0
0.0 0.0 0.0
0.0 0.0 0.0
0.0 0.0 0.0
0.0 0.0 0.0
0.0 0.0 0.0
0.0 0.0 0.0
0.0 0.0 0.0
0.0 0.0 0.0
0.0 0.0 0.0
0.0 0.0 0.0
0.0 0.0 0.0
0.0 0.0 0.0
0.0 0.0 0.0
0.0 0.0 0.0
0.0 0.0 0.0
0.0 0.0 0.0
0.0 0.0 0.0
0.0 0.0 0.0
0.0 0.0 0.0
0.0 0.0 0.0
0.0 0.0 0.0
0.0 0.0 0.0
0.0 0.0 0.0
0.0 0.0 0.0
0.0 0.0 0.0
0.0 0.0 0.0
0.0 0.0 0.0
0.0 0.0 0.0
0.0 0.0 0.0
0.0 0.0 0.0
0.0 0.0 0.0
0.0 0.0 0.0
0.0 0.0 0.0
0.0 0.0 0.0
0.0 0.0 0.0
0.0 0.0 0.0
0.0 0.0 0.0
0.0 0.0 0.0
0.0 0.0 0.0
0.0 0.0 0.0
0.0 0.0 0.0
0.0 0.0 0.0
0.0 0.0 0.0
0.0 0.0 0.0
0.0 0.0 0.0
0.0 0.0 0.0
0.0 0.0 0.0
0.0 0.0 0.0
0.0 0.0 0.0
0.0 0.0 0.0
0.0 0.0 0.0
0.0 0.0 0.0
0.0 0.0 0.0
0.0 0.0 0.0
0.0 0.0 0.0
0.0 0.0 0.0
0.0 0.0 0.0
0.0 0.0 0.0
0.0 0.0 0.0
0.0 0.0 0.0
0.0 0.0 0.0
0.0 0.0 0.0
0.0 0.0 0.0
0.0 0.0 0.0
0.0 0.0 0.0
0.0 0.0 0.0
0.0 0.0 0.0
0.0 0.0 0.0
0.0 0.0 0.0
0.0 0.0 0.0
0.0 0.0 0.0
0.0 0.0 0.0
0.0 0.0 0.0
0.0 0.0 0.0
VECTORS f float
0.0 0.0 -1.60516
0.0 0.0 -1.60516
0.0 0.0 -1.60516
0.0 0.0 -1.60516
0.0 0.0 -1.60516
0.0 0.0 -1.60516
0.0 0.0 -1.60516
0.0 0.0 -1.60516
0.0 0.0 -1.60516
0.0 0.0 -1.60516
0.0 0.0 -1.60516
0.0 0.0 -1.60516
0.0 0.0 -1.60516
0.0 0.0 -1.60516
0.0 0.0 -1.60516
0.0 0.0 -1.60516
0.0 0.0 -1.60516
0.0 0.0 -1.60516
0.171204 0.158307 -0.965972
0.0 0.0 -1.60516
0.0 0.0 -1.60516
0.0 0.0 -1.60516
218.612 -126.926 163.173
0.0 0.0 -1.60516
0.0 0.0 -1.60516
0.0 0.0 -1.60516
0.0 0.0 -1.60516
0.0 0.0 -1.60516
0.0 0.0 -0.821841
0.0 0.0 -0.821841
0.0 0.0 -0.821841
-0.363898 -0.155444 3.03323e-05
0.0 0.0 -0.821841
0.0 0.0 -0.821841
0.0 0.0 -0.821841
0.0 0.0 -0.821841
0.0 0.0 -0.821841
0.000110349 -0.000189043 3.39169
0.0 0.0 -0.821841
0.0 0.0 -0.821841
0.376628 -0.473902 -3.50525
0.0 0.0 -0.821841
0.0 0.0 -0.821841
0.0 0.0 -0.821841
0.0 0.0 -0.821841
0.0 0.0 -0.821841
0.0 0.0 -0.821841
0.0 0.0 -0.821841
0.0 0.0 -0.821841
0.0 0.0 -0.821841
0.0 0.0 -0.821841
0.0 0.0 -0.821841
0.0 0.0 -0.821841
0.0 0.0 -0.821841
0.0 0.0 -0.821841
0.0 0.0 -0.821841
0.0 0.0 -0.821841
0.0 0.0 -0.821841
0.0 0.0 -0.821841
0.0 0.0 -0.821841
0.0 0.0 -0.821841
0.0 0.0 -0.821841
0.0 0.0 -0.821841
0.0 0.0 -0.821841
0.0 0.0 -0.821841
0.0 0.0 -0.821841
0.0 0.0 -0.821841
0.0 0.0 -0.821841
-218.612 126.926 -165.6
0.0 0.0 -0.821841
0.0 0.0 -0.821841
0.0 0.0 -0.821841
0.0 0.0 -0.821841
0.0 0.0 -0.821841
0.0 0.0 -0.821841
0.0 0.0 -0.821841
0.0 0.0 -0.821841
0.0 0.0 -0.821841
0.0 0.0 -0.821841
0.0 0.0 -0.821841
0.0 0.0 -0.821841
0.0 0.0 -0.821841
0.0 0.0 -0.821841
0.0 0.0 -0.821841
0.0 0.0 -0.821841
0.0 0.0 -0.821841
VECTORS omega float
11.3422 -25.4426 4.66692
5.21957 13.1388 18.0881
-5.48633 -2.83558 6.44761
-0.538738 -18.9915 -12.0166
15.6619 13.8107 13.0728
-26.0803 -50.5733 -1.45208
29.9813 -99.0088 11.3468
-12.7165 27.942 4.04226
-6.19893 15.0278 -11.3492
-10.0244 -27.7569 7.05505
8.78522 9.48306 7.35893
-8.79497 0.677108 0.136672
-1.22915 -4.30275 7.3097
-9.27354 1.69843 -10.2287
20.3494 33.9821 23.8601
3.3197 -7.39494 2.32745
2.02351 3.39516 -4.31396
-15.2614 -2.85894 1.24587
-11.9765 -26.6745 -25.5581
-32.8138 3.90956 6.22557
-1.91473 -22.1339 1.40567
-20.5206 1.09887 -1.89673
7.0649 2.3722 -4.47867
-4.93266 -7.38499 -8.23922
4.59899 -8.20367 2.00475
8.27483 2.87967 -5.48825
-14.2654 -16.5103 7.3168
47.3475 -20.3895 -10.3552
51.789 9.06372 29.1574
25.5402 20.8592 -3.97329
6.89802 19.6735 -17.2392
5.29639 26.4001 -31.5246
-17.8905 -1.98778 11.5271
-5.49686 -1.97278 8.94651
-2.14438 10.1246 14.5182
-9.48458 5.91428 -6.00904
54.6499 -24.416 -9.64789
-0.707904 -2.76295 2.88528
19.7114 -46.5994 20.4426
24.134 -57.588 -31.8019
-11.3038 -0.697078 -25.4722
18.4465 43.2301 48.8495
-23.6819 45.0345 -21.9833
5.32157 -5.79074 -17.263
9.57089 -1.48653 18.5093
6.43799 9.90685 16.6176
32.9516 -9.86269 -4.4549
31.2294 -72.4385 -18.6543
-0.415956 -20.7098 -7.55919
0.0 0.0 0.0
-6.49501 7.30812 0.234956
3.93879 -5.88941 -5.19176
3.39077 0.433448 -2.58028
-6.20594 -20.6477 33.9274
-24.8471 -1.29297 13.2874
34.834 -5.33969 -1.83755
-42.4267 -26.4647 3.33748
-59.3404 34.5984 6.56802
1.32742 18.1812 -25.1824
-52.1258 -7.70632 27.5056
-4.26214 3.55065 -1.96426
0.404524 19.7547 -6.56109
20.0551 8.63239 9.49029
-13.4249 -5.48283 9.07874
-7.48481 -0.752054 -19.3039
-63.3931 18.2802 51.8135
-20.6935 9.24035 12.8301
-14.8252 8.75786 8.10548
14.2177 9.3667 34.6105
-18.2088 -9.46966 -1.73412
-58.2175 -1.87261 35.946
-6.3757 8.39542 -38.66
7.00703 1.16376 18.1513
-7.69128 -11.2728 -1.82556
-19.3417 -21.0496 12.2605
0.767861 -4.37774 -3.76318
-14.5476 1.10021 -18.3635
4.79995 -8.01544 -17.173
-2.82192 -2.20335 0.350315
-4.65101 -0.175416 -21.0806
-7.10479 3.45058 4.8933
-1.40433 -5.39457 -11.4192
-15.1823 -67.0945 6.92827
-12.9399 40.3868 5.20283
12.4938 -19.7411 -0.456119
-40.4952 14.8317 -8.78423
VECTORS v float
0.133421 0.0351719 -0.0869262
-0.0719271 0.294846 -0.211717
0.114102 0.158001 0.00576016
-0.262261 0.0624576 -0.0409386
-0.24094 -0.328647 -0.0078452
0.934564 -0.509511 -0.324683
0.138172 0.718813 -0.825729
0.194861 0.714797 -0.0765209
0.0542784 -0.143223 -0.320497
0.0800471 0.157263 -0.388282
0.0727679 0.105817 -0.300695
-0.119037 0.214028 -0.140688
-0.0468229 -0.0350457 -0.0679596
-0.12488 0.107635 0.318195
-0.681398 -0.59658 0.556331
-0.176095 -0.0893406 0.18896
0.163798 -0.0124594 0.00800861
-0.0626987 0.375415 -0.0133994
0.271242 0.357256 -0.143625
-0.280657 0.0796731 0.0381698
-0.321493 -0.100202 0.105389
-0.226952 0.219724 -0.229953
0.623567 -0.490514 -0.22326
0.287455 0.0481383 -0.0681516
-0.196584 -0.348255 -0.488142
-0.0405252 0.0677031 0.0249328
0.358811 0.180481 -0.0861648
-0.30904 -0.124499 0.363864
0.0529848 -0.0660418 0.256093
-0.173922 -0.0661186 -0.476997
0.013397 -0.166684 -0.173958
0.527999 -0.105927 2.18432e-06
-0.402175 -0.231538 0.0445867
0.00290499 0.0914085 -0.0329991
0.202154 0.0436579 0.0287637
-0.148428 0.0976696 -0.194125
0.541289 -0.675966 0.680218
-0.0552582 0.0141587 -0.00029703
0.207445 -0.444857 -0.752992
0.0350929 0.470979 -0.311422
-0.0143207 0.22655 0.01502
0.427527 -0.172372 -0.240581
0.105485 0.0411779 -0.251783
-0.123599 -0.0866808 -0.143308
-0.0151785 -0.183483 0.104812
0.190037 -0.112676 0.0455181
0.0300095 0.33106 -0.152777
0.385979 0.0973345 -0.176953
0.00413459 0.0245521 -0.506229
0.0 0.0 1.27142
-0.116266 0.0791719 -0.0282351
-0.141253 -0.0400316 0.0647774
-0.00214736 -0.0649087 0.0758311
0.673134 -0.14215 -0.0222514
-0.0251808 0.496954 0.0405748
-0.0478136 0.412972 0.373293
0.498629 -0.10351 -0.269658
-0.183475 -0.0552494 -0.247101
0.363494 -0.027348 0.0429658
0.0805177 0.0787492 -0.0385442
-0.0352855 0.305886 -0.779962
0.0546808 -0.066617 -0.15434
0.152982 0.278325 -0.343064
-0.0154493 0.835785 -0.681343
-0.043375 0.150281 -0.00837026
0.43188 0.713029 0.585621
0.185604 0.410795 0.0575745
0.19913 0.227493 -0.303345
0.269364 -0.259994 -0.0250473
0.52139 0.350033 -0.236904
0.504286 0.707406 -0.538248
0.197085 0.119812 -0.219942
0.0763624 0.0229181 -0.0488651
-0.222116 0.129127 -0.0745617
-0.444824 -0.0660754 -0.369411
-0.0872794 -0.0157397 5.17389e-05
0.0281889 -0.00136821 0.188617
-0.160553 -0.0982402 0.106639
-0.0409036 0.0619476 0.0143414
-0.00763296 0.0890366 -0.0521335
0.0648257 0.154572 0.0365194
-0.113081 0.0341495 0.0257828
-0.425251 -0.336841 -0.257147
0.296592 0.142998 -0.492721
0.105361 0.170287 -0.123833
0.182932 -0.631006 1.0796
SCALARS radius float 1
LOOKUP_TABLE default
0.025
0.025
0.025
0.025
0.025
0.025
0.025
0.025
0.025
0.025
0.025
0.025
0.025
0.025
0.025
0.025
0.025
0.025
0.025
0.025
0.025
0.025
0.025
0.025
0.025
0.025
0.025
0.025
0.02
0.02
0.02
0.02
0.02
0.02
0.02
0.02
0.02
0.02
0.02
0.02
0.02
0.02
0.02
0.02
0.02
0.02
0.02
0.02
0.02
0.02
0.02
0.02
0.02
0.02
0.02
0.02
0.02
0.02
0.02
0.02
0.02
0.02
0.02
0.02
0.02
0.02
0.02
0.02
0.02
0.02
0.02
0.02
0.02
0.02
0.02
0.02
0.02
0.02
0.02
0.02
0.02
0.02
0.02
0.02
0.02
0.02
SCALARS type float 1
LOOKUP_TABLE default
1.0
1.0
1.0
1.0
1.0
1.0
1.0
1.0
1.0
1.0
1.0
1.0
1.0
1.0
1.0
1.0
1.0
1.0
1.0
1.0
1.0
1.0
1.0
1.0
1.0
1.0
1.0
1.0
1.0
1.0
1.0
1.0
1.0
1.0
1.0
1.0
1.0
1.0
1.0
1.0
1.0
1.0
1.0
1.0
1.0
1.0
1.0
1.0
1.0
1.0
1.0
1.0
1.0
1.0
1.0
1.0
1.0
1.0
1.0
1.0
1.0
1.0
1.0
1.0
1.0
1.0
1.0
1.0
1.0
1.0
1.0
1.0
1.0
1.0
1.0
1.0
1.0
1.0
1.0
1.0
1.0
1.0
1.0
1.0
1.0
1.0
SCALARS id float 1
LOOKUP_TABLE default
1.0
2.0
3.0
4.0
5.0
6.0
7.0
8.0
9.0
10.0
11.0
12.0
13.0
14.0
15.0
16.0
17.0
18.0
19.0
20.0
21.0
22.0
23.0
24.0
25.0
26.0
27.0
28.0
29.0
30.0
31.0
32.0
33.0
34.0
35.0
36.0
37.0
38.0
39.0
40.0
41.0
42.0
43.0
44.0
45.0
46.0
47.0
48.0
49.0
50.0
51.0
52.0
53.0
54.0
55.0
56.0
57.0
58.0
59.0
60.0
61.0
62.0
63.0
64.0
65.0
66.0
67.0
68.0
69.0
70.0
71.0
72.0
73.0
74.0
75.0
76.0
77.0
78.0
79.0
80.0
81.0
82.0
83.0
84.0
85.0
86.0

