# vtk DataFile Version 2.0
Generated by lpp.py
ASCII
DATASET POLYDATA
POINTS 86 float
0.078182 0.0898929 -0.0460773
0.0574986 0.125252 -0.0750002
-0.0749367 -0.152976 -0.0750002
-0.0293652 -0.168309 -0.0611031
0.253656 0.0706095 -0.0232831
0.183622 -0.109392 0.102776
0.00950455 0.16196 -0.00755317
0.0421976 -0.0732944 -0.0495619
0.188957 -0.0267213 -0.0313109
0.113273 -0.105137 -0.071894
0.274882 0.0644704 -0.0723675
0.0835954 -0.139103 -0.0481747
0.256651 0.143131 -0.0676039
0.145383 0.151057 0.0406397
0.217728 -0.128367 0.0635086
0.0998246 -0.00167232 -0.0750003
0.251272 -0.077591 -0.0750003
0.11657 0.106541 -0.0749749
0.154291 0.150279 -0.0425875
0.0811478 -0.043753 -0.0288403
-0.0699309 0.116952 -0.0359622
0.265851 -0.116891 -0.0477427
0.214928 0.0628618 -0.054037
0.210877 -0.0792193 -0.0409053
-0.0630896 0.0114888 -0.0748793
-0.0576593 -0.0336549 -0.0538662
-0.0374068 0.00362027 0.115386
-0.00353532 0.119511 -0.033324
0.13971 0.0543899 0.0120478
0.241074 -0.0062017 -0.0799747
0.109631 0.00710934 -0.0319687
0.169769 0.124446 -0.0798886
-0.0212882 -0.10903 -0.0736156
-0.0796107 -0.0656016 -0.0800002
-0.0629054 -0.109193 -0.078838
0.241479 0.0344718 -0.0785141
0.275567 0.0326974 0.101018
0.0890347 -0.172972 -0.0800002
0.187987 -0.0119977 -0.0778673
-0.0672909 -0.078457 -0.0440142
0.249064 0.100542 -0.0800003
0.0894703 0.158031 -0.0789248
0.180812 -0.122256 -0.0381588
0.215421 -0.140883 -0.0740181
0.257007 -0.153969 -0.0800002
0.208878 -0.0489521 -0.0800002
0.0416336 0.0497229 -0.063896
0.187645 -0.167914 -0.0438093
0.279567 0.0189453 -0.0796554
0.188783 0.179478 0.187513
0.170646 -0.169024 -0.0800003
-0.0799862 0.0533789 -0.0799921
-0.0787072 0.119888 -0.0800003
0.216186 0.170717 -0.0383008
0.00591713 0.0416351 -0.0800002
0.14175 0.0856983 0.0720082
0.128595 0.149615 -0.0799978
0.236249 0.00817156 -0.0426488
0.0267041 0.171661 -0.0800002
0.0753637 0.0235606 -0.0161394
0.277701 -0.0378777 -0.07706
0.230763 -0.18 -0.0463553
0.154649 0.179996 -0.0799998
0.274589 0.0337547 -0.038461
0.061084 -0.111714 -0.0787651
-0.0116483 0.0309567 0.0885676
0.0538954 0.0152221 -0.0800002
0.245354 -0.0397766 -0.0510819
0.189621 0.0896838 -0.0799121
0.19422 0.179816 -0.0740233
-0.0416264 0.145059 0.0034794
-0.0145331 0.0795328 -0.0799987
0.235627 -0.144363 -0.0288531
0.0135313 -0.144477 -0.0800002
0.137482 -0.0278206 -0.0760186
0.233847 0.179891 -0.0800001
-0.0740703 0.172986 0.0365752
-0.0390989 -0.0668142 -0.0799908
0.209129 -0.179933 -0.0800004
0.170627 -0.123119 -0.0800002
0.212169 -0.101466 -0.0800003
0.0750802 -0.0691395 -0.0800002
0.191417 0.104279 -0.0330987
0.090899 0.0563917 -0.0743649
-0.0640531 0.179318 -0.0477256
0.0461232 0.0960308 0.0807682
VERTICES 86 172
1 0
1 1
1 2
1 3
1 4
1 5
1 6
1 7
1 8
1 9
1 10
1 11
1 12
1 13
1 14
1 15
1 16
1 17
1 18
1 19
1 20
1 21
1 22
1 23
1 24
1 25
1 26
1 27
1 28
1 29
1 30
1 31
1 32
1 33
1 34
1 35
1 36
1 37
1 38
1 39
1 40
1 41
1 42
1 43
1 44
1 45
1 46
1 47
1 48
1 49
1 50
1 51
1 52
1 53
1 54
1 55
1 56
1 57
1 58
1 59
1 60
1 61
1 62
1 63
1 64
1 65
1 66
1 67
1 68
1 69
1 70
1 71
1 72
1 73
1 74
1 75
1 76
1 77
1 78
1 79
1 80
1 81
1 82
1 83
1 84
1 85
POINT_DATA 86
VECTORS i float
0.0 0.0 0.0
0.0 0.0 0.0
0.0 0.0 0.0
0.0 0.0 0.0
0.0 0.0 0.0
0.0 0.0 0.0
0.0 0.0 0.0
0.0 0.0 0.0
0.0 0.0 0.0
0.0 0.0 0.0
0.0 0.0 0.0
0.0 0.0 0.0
0.0 0.0 0.0
0.0 0.0 0.0
0.0 0.0 0.0
0.0 0.0 0.0
0.0 0.0 0.0
0.0 0.0 0.0
0.0 0.0 0.0
0.0 0.0 0.0
0.0 0.0 0.0
0.0 0.0 0.0
0.0 0.0 0.0
0.0 0.0 0.0
0.0 0.0 0.0
0.0 0.0 0.0
0.0 0.0 0.0
0.0 0.0 0.0
0.0 0.0 0.0
0.0 0.0 0.0
0.0 0.0 0.0
0.0 0.0 0.0
0.0 0.0 0.0
0.0 0.0 0.0
0.0 0.0 0.0
0.0 0.0 0.0
0.0 0.0 0.0
0.0 0.0 0.0
0.0 0.0 0.0
0.0 0.0 0.0
0.0 0.0 0.0
0.0 0.0 0.0
0.0 0.0 0.0
0.0 0.0 0.0
0.0 0.0 0.0
0.0 0.0 0.0
0.0 0.0 0.0
0.0 0.0 0.0
0.0 0.0 0.0
0.0 0.0 0.0
0.0 0.0 0.0
0.0 0.0 0.0
0.0 0.0 0.0
0.0 0.0 0.0
0.0 0.0 0.0
0.0 0.0 0.0
0.0 0.0 0.0
0.0 0.0 0.0
0.0 0.0 0.0
0.0 0.0 0.0
0.0 0.0 0.0
0.0 0.0 0.0
0.0 0.0 0.0
0.0 0.0 0.0
0.0 0.0 0.0
0.0 0.0 0.0
0.0 0.0 0.0
0.0 0.0 0.0
0.0 0.0 0.0
0.0 0.0 0.0
0.0 0.0 0.0
0.0 0.0 0.0
0.0 0.0 0.0
0.0 0.0 0.0
0.0 0.0 0.0
0.0 0.0 0.0
0.0 0.0 0.0
0.0 0.0 0.0
0.0 0.0 0.0
0.0 0.0 0.0
0.0 0.0 0.0
0.0 0.0 0.0
0.0 0.0 0.0
0.0 0.0 0.0
0.0 0.0 0.0
0.0 0.0 0.0
VECTORS f float
0.0 0.0 -1.60516
-1.13184e-07 6.94726e-07 0.000852297
0.473985 0.852662 0.0207564
0.0 0.0 -1.60516
0.0 0.0 -1.60516
0.0 0.0 -1.60516
0.0 0.0 -1.60516
0.0 0.0 -1.60516
0.0 0.0 -1.60516
0.0 0.0 -1.60516
0.0 0.0 -1.60516
0.0 0.0 -1.60516
0.0 0.0 -1.60516
0.0 0.0 -1.60516
0.0 0.0 -1.60516
1.66275 -0.55793 0.0255634
0.101565 0.181804 0.0394422
0.0 0.0 -1.60516
0.0 0.0 -1.60516
0.0 0.0 -1.60516
0.140973 -0.0482876 -0.324162
0.311099 -0.226257 -0.700875
0.0 0.0 -1.60516
-0.0111174 0.369308 -0.330756
0.0 0.0 -1.60516
0.0 0.0 -1.60516
0.0 0.0 -1.60516
0.0 0.0 -1.60516
0.0 0.0 -0.821841
0.0 0.0 -0.821841
-0.267243 0.157812 -0.0330098
0.0 0.0 -0.821841
0.0 0.0 -0.821841
-2.4258e-07 2.32983e-08 0.000192369
0.0 0.0 -0.821841
0.0 0.0 -0.821841
0.0 0.0 -0.821841
2.65966e-14 -6.98654e-15 5.97966e-13
0.0 0.0 -0.821841
0.0 0.0 -0.821841
0.356441 2.45387 3.31086
0.0 0.0 -0.821841
0.0 0.0 -0.821841
0.0 0.0 -0.821841
-2.09994e-10 -2.01719e-09 3.4673e-06
-4.44721e-07 3.14435e-06 0.123024
-0.0438324 0.108378 -0.657028
-0.0628704 -0.10073 -0.0359066
0.0 0.0 -0.821841
0.0 0.0 -0.821841
0.18175 0.131681 -0.0124659
0.0 0.0 -0.821841
-0.0207849 0.00855179 1.57275e-06
0.0 0.0 -0.821841
1.53461e-13 6.72122e-13 1.60684e-09
0.0 0.0 -0.821841
0.0 0.0 -0.821841
0.0 0.0 -0.821841
-2.10289e-13 1.33516e-14 0.0
0.0 0.0 -0.821841
0.0 0.0 -0.821841
0.280394 -0.320556 0.0938229
0.0 0.0 -0.821841
0.0 0.0 -0.821841
0.0 0.0 -0.821841
0.0 0.0 -0.821841
0.00782565 -0.00703813 2.38583e-05
0.0 0.0 -0.821841
0.0 0.0 -0.821841
0.0 0.0 -0.821841
0.0 0.0 -0.821841
0.0 0.0 -0.821841
0.0623764 -0.0571021 -0.333179
-1.44641e-07 8.83033e-08 -0.00945446
0.0 0.0 -0.821841
-0.00493755 0.00795369 -0.806238
0.0 0.0 -0.821841
0.0 0.0 -0.821841
-0.00214227 -0.169395 0.342843
1.7025e-15 5.34066e-14 0.0
-0.0115401 -0.0388011 0.0779497
0.0057099 0.00137386 -0.0757651
0.0 0.0 -0.821841
0.0 0.0 -0.821841
0.0 0.0 -0.821841
0.0 0.0 -0.821841
VECTORS omega float
23.4397 -17.0248 4.17095
-6.35227 -1.03489 13.8187
-2.74286 0.0162997 4.53047
3.61806 -2.92645 -12.0963
12.9292 19.1781 13.4723
-26.0803 -50.5733 -1.45208
11.1113 -87.1433 0.432299
9.32053 -0.680384 2.07619
-8.94214 14.0785 -11.6725
-7.36881 -5.73205 7.05505
4.37905 14.772 8.40038
1.6053 14.7548 1.01249
-0.622237 0.954378 0.128803
-9.27354 1.69843 -10.2287
20.3494 33.9821 23.8601
2.10258 -9.03278 -1.56823
-1.48565 6.27841 -1.59098
-6.19249 3.59385 5.99528
-12.2008 -12.9038 -21.6918
-25.8019 1.92681 -3.19886
-0.918345 -12.0331 1.42007
0.805226 10.6495 -11.2657
8.5022 1.57501 -14.5428
-8.5033 -4.28542 -9.39431
3.3756 -3.6484 4.2436
4.32555 4.33342 3.42485
-14.2654 -16.5103 7.3168
14.1535 -3.14689 -27.3284
51.789 9.06372 29.1574
-3.29487 -1.22214 -3.18928
-2.12743 21.6697 -14.4134
-6.98525 11.9567 -35.9986
-15.3751 12.4333 -11.5266
-0.720973 -1.86522 5.34844
3.40228 3.47224 -0.816406
4.79861 9.62809 3.97354
54.6499 5.22539 22.5806
-0.792033 -2.58321 2.63456
14.793 -8.96397 19.6534
-11.3043 -30.0232 -18.789
-2.57495 -0.660801 -13.0164
3.74399 2.31507 26.4293
-23.6819 45.0345 -21.9833
0.743473 -2.62198 -7.35355
9.28755 -0.966822 18.5093
-2.08523 -0.2972 16.3982
12.403 -6.50987 -5.90658
17.6492 -32.1951 -17.7696
1.10209 4.66876 1.65676
0.0 0.0 0.0
-9.36159 2.28302 -11.4036
-4.87595 -1.02161 -0.504866
3.27875 1.40229 -2.54514
-6.20594 -20.6477 33.9274
-11.3085 2.65375 22.1072
34.834 -5.33969 -1.83755
2.37153 1.81747 -11.6916
-50.8394 33.5771 -10.8996
1.35598 18.1766 -25.1824
-49.7516 -11.8837 31.4145
-6.63577 -1.01733 -3.41458
-4.2408 8.78781 -5.20849
-4.68912 4.09045 9.82384
-16.4709 7.04482 6.16064
-7.76106 -5.79232 -9.44528
-63.3931 18.2802 51.8135
-20.9012 9.54892 12.1211
2.03665 3.35021 18.5877
-2.72335 -6.66768 17.1639
-13.5855 -4.65087 -12.2505
-79.91 11.2541 11.9498
-14.9655 6.61228 -29.0974
1.46449 -12.3587 7.1657
-6.80924 -11.1535 -1.82556
-2.14978 -18.0175 3.83284
1.06546 5.15788 6.25627
-14.5476 1.10021 -18.3635
5.94576 -0.827189 -13.2628
0.851444 -0.630923 1.12035
-4.50875 -0.322724 -21.0806
-0.69361 6.02615 4.05722
-9.46144 1.07887 -10.5502
-15.1823 -67.0945 6.92827
-9.10696 23.4665 5.20283
12.4938 -19.7411 -0.456119
-40.4952 14.8317 -8.78423
VECTORS v float
0.0264165 -0.0104425 -0.296315
-0.0258721 0.158806 3.07691e-06
-0.00557275 0.0578133 -3.05902e-05
0.0567269 -0.00872069 -0.261122
-0.0373435 0.0836664 0.0122608
0.934564 -0.509511 -0.854423
0.169558 -0.0923071 -0.847103
-0.176267 0.125887 -0.224509
0.0593099 -0.304531 -0.418568
-0.140261 0.183826 -0.102637
0.0363926 0.00326383 -0.358394
0.0243768 0.0672858 0.102445
0.2507 0.0312161 -0.114108
-0.12488 0.107635 -0.211545
-0.681398 -0.59658 0.0265906
-0.25679 -0.0437076 -2.24739e-05
0.156959 0.0371477 -0.000159521
0.0605 0.0823569 -0.00597081
0.344144 0.278788 -0.17656
-0.015678 0.391342 -0.360044
-0.23991 -0.110284 0.0504196
0.135021 -0.0472762 -0.110198
-0.0969058 -0.217504 0.121438
0.208149 0.214972 -0.111865
-0.112084 0.132994 -0.0255245
0.0768902 -0.0180377 -0.1717
0.358811 0.180481 -0.615905
0.0997478 -0.355523 -0.967419
0.0529848 -0.0660418 -0.273647
-0.0243707 0.065432 -0.0379174
0.0575958 -0.126594 -0.0547514
0.252541 0.132719 -0.0142373
0.139705 -0.108592 -0.459341
-0.0373043 0.0144194 -2.03147e-07
-0.0693873 0.172533 -0.17656
0.0178356 -0.099292 0.0271502
-0.271386 -0.418036 -0.086747
-0.051664 0.0158406 -3.22475e-13
-0.122108 -0.115568 -0.863173
-0.25051 0.0965997 0.0664283
-0.013963 0.0463561 -0.00511746
0.0514558 -0.186287 -0.0863206
0.105485 0.0411779 -0.781523
0.0664808 -0.00813186 -0.127458
-0.0193364 -0.18575 1.18666e-08
-0.00594398 0.0417044 6.86038e-05
0.097537 0.495713 -0.237583
0.24811 0.0363222 -0.090443
-0.0920152 -0.0308254 0.0399872
0.0 0.0 0.741684
0.0454736 0.187309 0.000104715
0.027034 0.0457066 -0.00116638
0.028046 -0.0655744 -5.07798e-07
0.673134 -0.14215 -0.551991
0.0530748 0.226169 3.08708e-12
-0.0478136 0.412972 -0.156447
0.129996 0.062704 0.00287874
0.317212 -0.596075 -0.501284
0.363531 -0.0271195 -6.49239e-13
0.00521566 0.130509 -0.467251
-0.117304 0.0699899 -0.211864
0.12468 -0.00420015 -0.0868244
0.0818714 0.0932295 -0.00175954
0.317092 -0.0508258 -0.413805
-0.0995046 0.134964 0.0343743
0.43188 0.713029 0.0558811
0.190977 0.418022 1.80775e-06
-0.0103816 0.0417911 -0.0470012
-0.0441623 -0.106566 0.102852
0.0884045 0.114672 -0.0326362
-0.281767 0.650124 -0.389149
0.132238 0.299324 0.00427101
0.0585769 0.0248876 -0.12757
-0.22307 0.136184 1.02176e-06
-0.137638 -0.073785 0.292709
0.103098 -0.0212127 0.00102844
0.0281889 -0.00136821 -0.341123
-0.0166066 -0.118894 0.00582685
-0.0124598 -0.01701 0.00114396
-0.00645446 0.0901747 8.11251e-15
0.120524 0.0138304 -0.000268933
0.0215603 0.189224 0.000793599
-0.425251 -0.336841 -0.786887
0.431963 0.173663 0.231604
0.105361 0.170287 -0.653573
0.182932 -0.631006 0.549856
SCALARS radius float 1
LOOKUP_TABLE default
0.025
0.025
0.025
0.025
0.025
0.025
0.025
0.025
0.025
0.025
0.025
0.025
0.025
0.025
0.025
0.025
0.025
0.025
0.025
0.025
0.025
0.025
0.025
0.025
0.025
0.025
0.025
0.025
0.02
0.02
0.02
0.02
0.02
0.02
0.02
0.02
0.02
0.02
0.02
0.02
0.02
0.02
0.02
0.02
0.02
0.02
0.02
0.02
0.02
0.02
0.02
0.02
0.02
0.02
0.02
0.02
0.02
0.02
0.02
0.02
0.02
0.02
0.02
0.02
0.02
0.02
0.02
0.02
0.02
0.02
0.02
0.02
0.02
0.02
0.02
0.02
0.02
0.02
0.02
0.02
0.02
0.02
0.02
0.02
0.02
0.02
SCALARS type float 1
LOOKUP_TABLE default
1.0
1.0
1.0
1.0
1.0
1.0
1.0
1.0
1.0
1.0
1.0
1.0
1.0
1.0
1.0
1.0
1.0
1.0
1.0
1.0
1.0
1.0
1.0
1.0
1.0
1.0
1.0
1.0
1.0
1.0
1.0
1.0
1.0
1.0
1.0
1.0
1.0
1.0
1.0
1.0
1.0
1.0
1.0
1.0
1.0
1.0
1.0
1.0
1.0
1.0
1.0
1.0
1.0
1.0
1.0
1.0
1.0
1.0
1.0
1.0
1.0
1.0
1.0
1.0
1.0
1.0
1.0
1.0
1.0
1.0
1.0
1.0
1.0
1.0
1.0
1.0
1.0
1.0
1.0
1.0
1.0
1.0
1.0
1.0
1.0
1.0
SCALARS id float 1
LOOKUP_TABLE default
1.0
2.0
3.0
4.0
5.0
6.0
7.0
8.0
9.0
10.0
11.0
12.0
13.0
14.0
15.0
16.0
17.0
18.0
19.0
20.0
21.0
22.0
23.0
24.0
25.0
26.0
27.0
28.0
29.0
30.0
31.0
32.0
33.0
34.0
35.0
36.0
37.0
38.0
39.0
40.0
41.0
42.0
43.0
44.0
45.0
46.0
47.0
48.0
49.0
50.0
51.0
52.0
53.0
54.0
55.0
56.0
57.0
58.0
59.0
60.0
61.0
62.0
63.0
64.0
65.0
66.0
67.0
68.0
69.0
70.0
71.0
72.0
73.0
74.0
75.0
76.0
77.0
78.0
79.0
80.0
81.0
82.0
83.0
84.0
85.0
86.0

