# vtk DataFile Version 2.0
Generated by lpp.py
ASCII
DATASET POLYDATA
POINTS 86 float
0.17147 0.0397781 -0.0611683
0.0611856 0.126625 -0.0749974
-0.074889 -0.147001 -0.0749998
-0.0321458 -0.173245 -0.074261
0.265667 0.0953795 -0.0117304
0.197151 -0.128525 0.0459096
0.0165581 0.161976 -0.0650088
0.0220921 -0.0643978 -0.0689142
0.2355 -0.0359145 -0.0240898
0.102482 -0.0907582 -0.074999
0.274942 0.0587446 -0.0678418
0.0829586 -0.134082 -0.0564974
0.271762 0.116217 -0.0568806
0.133394 0.16139 -0.0248731
0.221104 -0.164623 -0.00106872
0.0845308 -0.0212813 -0.0713252
0.272509 -0.0799808 -0.0749682
0.206645 0.0906722 -0.0469823
0.189197 0.149768 -0.0275599
0.197409 -0.0814146 -0.0431626
-0.0663355 0.107289 -0.0363822
0.275017 -0.127917 -0.0605354
0.225492 0.0245775 0.0731942
0.245293 -0.0937049 -0.0338548
-0.0693953 0.0156749 -0.0750003
-0.0511401 -0.0299976 -0.0660131
-0.0298312 0.0218705 0.0748345
0.0125563 0.109889 -0.0741535
0.223476 0.0176025 0.00967073
0.239854 -0.0312352 -0.0798629
0.18977 -0.0142717 -0.0439113
0.227975 0.129189 -0.0733753
-0.0132984 -0.106633 -0.0798037
-0.0774198 -0.0656963 -0.0800003
-0.0639117 -0.103607 -0.0799994
0.241649 0.00867199 -0.0799122
0.279031 -0.0342887 0.0717306
0.0834201 -0.17287 -0.0797122
0.177492 -0.045441 -0.0779753
-0.0735311 -0.0789131 -0.0424477
0.237172 0.0810707 -0.0799155
0.0972437 0.155238 -0.0800002
0.207018 -0.125866 -0.0468561
0.224298 -0.142855 -0.0787106
0.258085 -0.16551 -0.0789354
0.22039 -0.0666842 -0.0795044
0.0440661 0.0731314 -0.0800002
0.194703 -0.163999 -0.0459582
0.279927 0.0116802 -0.0680945
0.188783 0.179478 0.21351
0.178397 -0.150725 -0.0800002
-0.0795167 0.0592449 -0.0800002
-0.074025 0.115247 -0.0800003
0.246545 0.164373 -0.0276548
0.00780042 0.0550596 -0.0800002
0.13716 0.125344 0.0117847
0.133188 0.117449 -0.0754598
0.269392 -0.00232555 -0.0250878
0.0614562 0.174227 -0.078265
0.164503 -0.00507169 -0.073771
0.279856 -0.0334261 -0.0769393
0.235127 -0.178814 -0.0484602
0.178863 0.160141 -0.0731979
0.279192 0.0402546 -0.0219812
0.0507994 -0.0992382 -0.0799382
0.0298121 0.0994074 0.0487277
0.0600083 0.0359879 -0.0798976
0.278602 -0.0499709 -0.0166346
0.214514 0.0382306 -0.079174
0.232348 0.174559 -0.0781438
-0.050619 0.17295 -0.0432764
-0.0368325 0.0694387 -0.0786124
0.2417 -0.140274 -0.0328348
0.00915061 -0.142563 -0.0800002
0.133169 -0.0553161 -0.0769786
0.275039 0.168832 -0.0788566
-0.0797186 0.173218 -0.0117183
-0.0374816 -0.0705292 -0.0800003
0.209252 -0.179896 -0.0799671
0.150871 -0.117086 -0.0800002
0.234376 -0.104163 -0.0795484
0.0657606 -0.0612815 -0.0798503
0.2335 0.0580001 0.0175939
0.205851 -0.00963138 -0.080063
-0.0654905 0.163863 -0.0793281
0.0636846 0.0354542 0.0883499
VERTICES 86 172
1 0
1 1
1 2
1 3
1 4
1 5
1 6
1 7
1 8
1 9
1 10
1 11
1 12
1 13
1 14
1 15
1 16
1 17
1 18
1 19
1 20
1 21
1 22
1 23
1 24
1 25
1 26
1 27
1 28
1 29
1 30
1 31
1 32
1 33
1 34
1 35
1 36
1 37
1 38
1 39
1 40
1 41
1 42
1 43
1 44
1 45
1 46
1 47
1 48
1 49
1 50
1 51
1 52
1 53
1 54
1 55
1 56
1 57
1 58
1 59
1 60
1 61
1 62
1 63
1 64
1 65
1 66
1 67
1 68
1 69
1 70
1 71
1 72
1 73
1 74
1 75
1 76
1 77
1 78
1 79
1 80
1 81
1 82
1 83
1 84
1 85
POINT_DATA 86
VECTORS i float
0.0 0.0 0.0
0.0 0.0 0.0
0.0 0.0 0.0
0.0 0.0 0.0
0.0 0.0 0.0
0.0 0.0 0.0
0.0 0.0 0.0
0.0 0.0 0.0
0.0 0.0 0.0
0.0 0.0 0.0
0.0 0.0 0.0
0.0 0.0 0.0
0.0 0.0 0.0
0.0 0.0 0.0
0.0 0.0 0.0
0.0 0.0 0.0
0.0 0.0 0.0
0.0 0.0 0.0
0.0 0.0 0.0
0.0 0.0 0.0
0.0 0.0 0.0
0.0 0.0 0.0
0.0 0.0 0.0
0.0 0.0 0.0
0.0 0.0 0.0
0.0 0.0 0.0
0.0 0.0 0.0
0.0 0.0 0.0
0.0 0.0 0.0
0.0 0.0 0.0
0.0 0.0 0.0
0.0 0.0 0.0
0.0 0.0 0.0
0.0 0.0 0.0
0.0 0.0 0.0
0.0 0.0 0.0
0.0 0.0 0.0
0.0 0.0 0.0
0.0 0.0 0.0
0.0 0.0 0.0
0.0 0.0 0.0
0.0 0.0 0.0
0.0 0.0 0.0
0.0 0.0 0.0
0.0 0.0 0.0
0.0 0.0 0.0
0.0 0.0 0.0
0.0 0.0 0.0
0.0 0.0 0.0
0.0 0.0 0.0
0.0 0.0 0.0
0.0 0.0 0.0
0.0 0.0 0.0
0.0 0.0 0.0
0.0 0.0 0.0
0.0 0.0 0.0
0.0 0.0 0.0
0.0 0.0 0.0
0.0 0.0 0.0
0.0 0.0 0.0
0.0 0.0 0.0
0.0 0.0 0.0
0.0 0.0 0.0
0.0 0.0 0.0
0.0 0.0 0.0
0.0 0.0 0.0
0.0 0.0 0.0
0.0 0.0 0.0
0.0 0.0 0.0
0.0 0.0 0.0
0.0 0.0 0.0
0.0 0.0 0.0
0.0 0.0 0.0
0.0 0.0 0.0
0.0 0.0 0.0
0.0 0.0 0.0
0.0 0.0 0.0
0.0 0.0 0.0
0.0 0.0 0.0
0.0 0.0 0.0
0.0 0.0 0.0
0.0 0.0 0.0
0.0 0.0 0.0
0.0 0.0 0.0
0.0 0.0 0.0
0.0 0.0 0.0
VECTORS f float
0.0 0.0 -1.60516
0.0 0.0 -1.60516
0.0 0.0 -1.60516
0.0 0.0 -1.60516
0.0 0.0 -1.60516
0.0 0.0 -1.60516
0.0 0.0 -1.60516
0.0 0.0 -1.60516
0.0 0.0 -1.60516
0.0 0.0 -1.60516
0.0 0.0 -1.60516
0.0 0.0 -1.60516
0.0 0.0 -1.60516
0.0 0.0 -1.60516
0.0 0.0 -1.60516
0.0 0.0 -1.60516
0.0 0.0 -1.60516
0.0 0.0 -1.60516
0.0 0.0 -1.60516
0.0 0.0 -1.60516
0.142775 -0.155411 -0.136599
-982.132 -195.51 418.14
0.0 0.0 -1.60516
0.0 0.0 -1.60516
-0.0234318 0.101141 0.360625
-0.0188658 0.0373638 -0.597013
0.0 0.0 -1.60516
0.0 0.0 -1.60516
0.0 0.0 -0.821841
-267.392 -3123.8 390.835
5000.94 -644.612 -3950.88
0.0 0.0 -0.821841
0.0 0.0 -0.821841
-0.00939499 0.0364467 2.84005e-07
0.0 0.0 -0.821841
267.392 3123.8 -392.479
0.0 0.0 -0.821841
0.0 0.0 -0.821841
0.0 0.0 -0.821841
0.0425169 -0.147766 -0.109218
0.0 0.0 -0.821841
5.20276e-14 -2.31854e-14 0.0
0.0 0.0 -0.821841
-110.192 -400.469 -60.1926
0.0 0.0 -0.821841
0.0 0.0 -0.821841
0.188991 -0.455637 0.000288446
0.0 0.0 -0.821841
0.0 0.0 -0.821841
0.0 0.0 -0.821841
-4.91646e-14 -1.07068e-13 0.0
8.29276e-05 -0.000249428 0.237981
-0.0215869 0.033106 6.87024e-07
0.0 0.0 -0.821841
-6.67582e-15 1.38883e-14 0.0
0.0 0.0 -0.821841
0.0 0.0 -0.821841
0.0 0.0 -0.821841
0.0 0.0 -0.821841
0.0 0.0 -0.821841
0.0 0.0 -0.821841
0.0 0.0 -0.821841
0.0 0.0 -0.821841
0.0 0.0 -0.821841
0.0 0.0 -0.821841
0.0 0.0 -0.821841
0.0 0.0 -0.821841
0.0 0.0 -0.821841
0.0 0.0 -0.821841
0.0 0.0 -0.821841
0.0 0.0 -0.821841
0.0 0.0 -0.821841
0.0 0.0 -0.821841
1.3143e-14 -6.67582e-15 0.0
0.0 0.0 -0.821841
0.0 0.0 -0.821841
0.0 0.0 -0.821841
0.0343415 -0.0627943 0.106469
0.0 0.0 -0.821841
4.73265e-14 -2.03253e-14 0.0
110.192 400.469 58.5489
0.0 0.0 -0.821841
0.0 0.0 -0.821841
3535.31 261.326 -2165.36
0.0 0.0 -0.821841
0.0 0.0 -0.821841
VECTORS omega float
84.8899 -91.1583 166.287
1.82898 4.12218 10.5747
-1.2304 -0.018392 3.1091
3.03621 -2.88578 -8.62327
15.5156 70.5727 -19.6851
-32.0872 -34.3 -14.8384
8.4412 -75.7915 -1.98464
-1.45718 -4.2381 -4.01685
-151.47 -290.867 -70.5365
2.01992 0.737607 11.9945
-38.5496 17.0287 26.7273
-1.20753 -1.60387 -10.9473
-100.243 44.6648 -38.9935
-9.27354 1.69843 -10.2287
-3.89386 -37.3486 -56.2673
1.56248 34.1454 -6.42255
36.9393 30.1272 44.5468
32.9589 25.4677 -164.867
20.9897 -59.4194 -29.4787
-25.5338 -85.1853 -163.129
2.22852 1.62719 -2.60321
-29.335 -4.42009 38.4352
170.787 420.721 253.401
47.5799 45.1214 75.8867
-2.05815 -2.3571 2.53135
-3.26434 8.66857 0.765917
-11.9501 -7.3483 8.15948
-10.5254 -2.07353 -2.68093
-146.629 -623.873 35.3538
-8.03169 -104.295 -34.4402
54.6808 112.852 66.0859
-26.1032 76.5944 88.014
0.498484 4.9325 0.719046
-0.363436 1.82036 1.054
-1.44141 0.993391 -4.55515
-1.07398 -45.3568 24.8591
97.2889 106.603 167.603
7.01122 -4.40401 6.50961
58.3439 131.241 214.256
5.61723 2.34302 -1.35279
69.8953 16.2997 34.738
3.31156 4.00086 11.0693
148.347 6.67803 26.8122
66.7882 25.4032 -65.3909
21.2176 -46.3022 -73.0259
46.0893 243.438 292.744
3.64422 1.54996 7.68356
4.9728 9.30638 -25.4762
-16.6494 29.4093 -12.6891
0.0 0.0 0.0
-9.13007 4.94689 1.4277
-3.39688 -0.227573 -3.39155
1.38239 3.00472 -1.90502
45.0894 -158.643 19.9808
-3.40134 -0.936173 23.2313
34.834 -5.33969 -1.83755
40.7447 20.235 -152.367
-96.3504 7.5466 172.02
-7.84811 24.2773 5.36888
-198.321 -115.676 -236.585
0.954704 58.2643 -54.3369
16.0495 38.1897 55.5838
-44.138 -20.2792 139.058
57.1775 87.3175 -77.0603
-8.26967 -4.94903 -7.82195
-63.3931 18.2802 51.8135
3.44819 2.28581 -6.95858
-10.9577 242.293 7.71373
-99.4234 141.784 -180.265
26.8282 86.1586 28.4496
-8.86103 9.80052 0.224199
12.0967 -15.9253 -9.67866
-116.963 -32.42 126.131
0.898636 1.07383 7.58879
49.5074 2.95282 84.0708
3.987 -82.9783 -54.9825
-3.36506 11.2701 -5.94421
-0.56968 1.75203 0.857108
-73.6675 5.38951 4.34586
-4.28074 -10.308 -14.1124
-17.3683 15.8137 -50.7581
13.429 0.258831 12.7517
-20.1688 -211.385 41.5371
-70.6065 4.40256 -32.7491
11.3951 -3.51366 3.98795
-40.4952 14.8317 -8.78423
VECTORS v float
2.05552 -0.909037 -1.52487
0.103052 -0.0457357 0.00831209
-0.000530824 0.0310584 -0.00380813
-0.0712749 -0.0748065 0.0468047
-1.14854 0.449127 1.71292
0.111223 -0.187587 -1.03568
-0.0500851 -0.26961 -0.6992
-0.434895 -0.0586146 0.00946659
0.96937 -0.781488 2.04003
0.0183005 -0.0503643 0.00284108
-0.265411 -0.669694 0.426713
-0.0345827 -0.109664 0.0221269
-0.282281 -2.01543 1.45537
-0.12488 0.107635 -1.1533
-0.081589 -1.01637 1.2827
-0.509613 -0.859077 -0.0658763
3.69694 -0.537036 -0.0908236
1.20075 -0.525963 1.43842
0.952416 -0.309986 1.0308
4.38757 -1.79083 1.04992
0.139526 -0.12608 -0.0319611
0.00229252 -1.01826 0.0124288
-0.887878 -0.155489 9.15931
5.07963 -4.27534 2.11847
-0.0589293 0.0514589 4.0197e-05
0.0705924 0.0742398 -0.147263
-0.358694 0.205124 0.145778
-0.0517708 0.230813 0.266182
6.13067 -3.76217 3.88459
-0.223075 1.42659 -0.177776
3.15668 1.7716 -1.14578
1.44816 -0.113226 0.0801754
0.0974815 -0.0103531 0.0139865
0.0364069 0.00726875 2.71e-07
0.0197111 0.027775 -0.0026588
-0.279246 1.02644 0.482934
-3.0979 -3.02356 1.90018
-0.0881917 -0.143082 0.0136114
0.495682 -2.39813 -0.959757
0.112605 -0.0919592 -0.0428139
0.334009 -1.41676 0.1956
0.0800168 -0.0662309 3.36788e-13
-0.0478549 -4.42203 0.834466
0.806553 -0.668858 -0.304318
-0.416365 -0.995605 0.105592
4.00697 -0.730336 0.828412
0.0220798 -0.051381 1.19676e-06
-0.220021 0.138673 0.0708096
-0.10975 0.244655 0.564429
0.0 0.0 -0.200076
0.0989373 0.182601 -3.20563e-13
-0.00455123 0.0679365 6.18981e-05
0.0600937 -0.0276473 3.33329e-07
1.28528 1.78995 2.28778
-0.0187234 0.0680265 8.1125e-15
-0.0478136 0.412972 -1.09821
-1.53864 -2.85851 0.160723
3.37773 -0.484632 3.03993
0.0642082 -0.214379 -0.0961981
0.244619 -0.608772 -2.42614
-0.19223 1.08771 1.15621
-0.733304 0.139785 0.461661
0.339669 -1.51975 0.31547
-0.526076 1.4105 1.62752
-0.414801 -0.598361 0.0530996
0.43188 0.713029 -0.885879
0.0418219 -0.0600343 -0.0107489
2.36484 -2.61661 5.92955
1.19148 1.47345 0.731183
1.32652 -0.458997 0.118404
0.180606 -0.14661 -0.228847
-0.320101 -0.22781 0.0197926
1.71373 -2.39056 1.29524
0.0214766 -0.0179726 8.1125e-15
0.48268 -1.49103 0.214686
1.59903 -0.981795 0.0492212
0.097171 -0.0744353 -0.367004
0.0350357 0.0114071 6.87799e-05
-0.615185 -0.72691 -0.0392175
-0.206159 0.0856144 8.1125e-15
3.29244 -1.17336 0.246255
-0.181007 0.222162 0.0917736
3.03987 -0.210676 6.44727
0.244204 1.37637 -0.339239
-0.0842994 -0.238837 -0.0612117
0.182932 -0.631006 -0.391904
SCALARS radius float 1
LOOKUP_TABLE default
0.025
0.025
0.025
0.025
0.025
0.025
0.025
0.025
0.025
0.025
0.025
0.025
0.025
0.025
0.025
0.025
0.025
0.025
0.025
0.025
0.025
0.025
0.025
0.025
0.025
0.025
0.025
0.025
0.02
0.02
0.02
0.02
0.02
0.02
0.02
0.02
0.02
0.02
0.02
0.02
0.02
0.02
0.02
0.02
0.02
0.02
0.02
0.02
0.02
0.02
0.02
0.02
0.02
0.02
0.02
0.02
0.02
0.02
0.02
0.02
0.02
0.02
0.02
0.02
0.02
0.02
0.02
0.02
0.02
0.02
0.02
0.02
0.02
0.02
0.02
0.02
0.02
0.02
0.02
0.02
0.02
0.02
0.02
0.02
0.02
0.02
SCALARS type float 1
LOOKUP_TABLE default
1.0
1.0
1.0
1.0
1.0
1.0
1.0
1.0
1.0
1.0
1.0
1.0
1.0
1.0
1.0
1.0
1.0
1.0
1.0
1.0
1.0
1.0
1.0
1.0
1.0
1.0
1.0
1.0
1.0
1.0
1.0
1.0
1.0
1.0
1.0
1.0
1.0
1.0
1.0
1.0
1.0
1.0
1.0
1.0
1.0
1.0
1.0
1.0
1.0
1.0
1.0
1.0
1.0
1.0
1.0
1.0
1.0
1.0
1.0
1.0
1.0
1.0
1.0
1.0
1.0
1.0
1.0
1.0
1.0
1.0
1.0
1.0
1.0
1.0
1.0
1.0
1.0
1.0
1.0
1.0
1.0
1.0
1.0
1.0
1.0
1.0
SCALARS id float 1
LOOKUP_TABLE default
1.0
2.0
3.0
4.0
5.0
6.0
7.0
8.0
9.0
10.0
11.0
12.0
13.0
14.0
15.0
16.0
17.0
18.0
19.0
20.0
21.0
22.0
23.0
24.0
25.0
26.0
27.0
28.0
29.0
30.0
31.0
32.0
33.0
34.0
35.0
36.0
37.0
38.0
39.0
40.0
41.0
42.0
43.0
44.0
45.0
46.0
47.0
48.0
49.0
50.0
51.0
52.0
53.0
54.0
55.0
56.0
57.0
58.0
59.0
60.0
61.0
62.0
63.0
64.0
65.0
66.0
67.0
68.0
69.0
70.0
71.0
72.0
73.0
74.0
75.0
76.0
77.0
78.0
79.0
80.0
81.0
82.0
83.0
84.0
85.0
86.0

