# vtk DataFile Version 2.0
Generated by lpp.py
ASCII
DATASET POLYDATA
POINTS 86 float
0.0813298 0.0856438 -0.0583112
0.0589217 0.127654 -0.0745769
-0.0749177 -0.148285 -0.0750002
-0.0306087 -0.171638 -0.0723244
0.2475 0.0763526 -0.0311032
0.194704 -0.124398 0.0663205
0.0176599 0.167907 -0.0520004
0.0266919 -0.0650038 -0.0710424
0.191781 -0.0323309 -0.0403274
0.103286 -0.0917088 -0.0750014
0.273096 0.0650876 -0.0748202
0.0838931 -0.133089 -0.0546932
0.274722 0.142147 -0.0748071
0.136142 0.159022 -0.00187443
0.222795 -0.165065 -0.00474671
0.0911657 -0.00162342 -0.071595
0.262778 -0.0748141 -0.0750003
0.122439 0.109529 -0.074038
0.171863 0.154495 -0.043185
0.09372 -0.0429819 -0.0362071
-0.0692056 0.10985 -0.0358485
0.275 -0.121439 -0.0617069
0.208008 0.0495688 -0.0571987
0.223446 -0.0748642 -0.043902
-0.0680118 0.014432 -0.0750003
-0.0526908 -0.0316851 -0.0632325
-0.0219399 0.0173578 0.0692534
0.0136902 0.107447 -0.0657122
0.143631 0.0495028 -0.0350618
0.233984 -0.0111604 -0.0800002
0.121546 0.00267723 -0.0382527
0.187012 0.133058 -0.0799807
-0.0153941 -0.106389 -0.0791799
-0.0782449 -0.065748 -0.0799956
-0.0644191 -0.103372 -0.0800002
0.240471 0.0283273 -0.0800003
0.255485 0.00176271 0.0677389
0.0849389 -0.172021 -0.080001
0.172599 -0.0148762 -0.0800002
-0.0758967 -0.0773243 -0.041665
0.248135 0.103531 -0.0800002
0.0952954 0.156829 -0.0799881
0.204959 -0.116672 -0.047424
0.223273 -0.141735 -0.0799591
0.259415 -0.159485 -0.0800003
0.208274 -0.0456898 -0.0800053
0.0427901 0.0761411 -0.0799962
0.195501 -0.16555 -0.0463541
0.279997 0.0168277 -0.0800003
0.188783 0.179478 0.215537
0.176221 -0.154742 -0.0800002
-0.0796149 0.0578937 -0.0800002
-0.0754076 0.115945 -0.0800003
0.240397 0.152126 -0.0469562
0.00821233 0.053563 -0.0800002
0.138211 0.116258 0.0335713
0.13509 0.152427 -0.0799943
0.249549 0.00166666 -0.045269
0.0600436 0.178943 -0.0785227
0.0886704 0.0410203 -0.0357212
0.275843 -0.0317936 -0.0800002
0.240861 -0.18 -0.0511064
0.164389 0.179989 -0.0799756
0.277574 0.0302924 -0.0424126
0.0534751 -0.101423 -0.0800002
0.0203108 0.0837208 0.065843
0.0596994 0.0357861 -0.0799165
0.247376 -0.0376887 -0.0525259
0.190498 0.0841883 -0.0800004
0.204371 0.178579 -0.0784537
-0.0545924 0.176175 -0.0406158
-0.0297462 0.074069 -0.0778838
0.238457 -0.139199 -0.0423666
0.00867813 -0.142168 -0.0800002
0.127122 -0.0331891 -0.0794825
0.249724 0.179226 -0.0799927
-0.0762111 0.17352 -0.00263972
-0.0381432 -0.0709877 -0.079992
0.211602 -0.179994 -0.0800005
0.155407 -0.118969 -0.0799963
0.22374 -0.101735 -0.0799981
0.0750721 -0.0569169 -0.0799885
0.157344 0.0964527 -0.0470017
0.121891 0.0639436 -0.0796213
-0.063506 0.169218 -0.079425
0.0596601 0.0493364 0.0945978
VERTICES 86 172
1 0
1 1
1 2
1 3
1 4
1 5
1 6
1 7
1 8
1 9
1 10
1 11
1 12
1 13
1 14
1 15
1 16
1 17
1 18
1 19
1 20
1 21
1 22
1 23
1 24
1 25
1 26
1 27
1 28
1 29
1 30
1 31
1 32
1 33
1 34
1 35
1 36
1 37
1 38
1 39
1 40
1 41
1 42
1 43
1 44
1 45
1 46
1 47
1 48
1 49
1 50
1 51
1 52
1 53
1 54
1 55
1 56
1 57
1 58
1 59
1 60
1 61
1 62
1 63
1 64
1 65
1 66
1 67
1 68
1 69
1 70
1 71
1 72
1 73
1 74
1 75
1 76
1 77
1 78
1 79
1 80
1 81
1 82
1 83
1 84
1 85
POINT_DATA 86
VECTORS i float
0.0 0.0 0.0
0.0 0.0 0.0
0.0 0.0 0.0
0.0 0.0 0.0
0.0 0.0 0.0
0.0 0.0 0.0
0.0 0.0 0.0
0.0 0.0 0.0
0.0 0.0 0.0
0.0 0.0 0.0
0.0 0.0 0.0
0.0 0.0 0.0
0.0 0.0 0.0
0.0 0.0 0.0
0.0 0.0 0.0
0.0 0.0 0.0
0.0 0.0 0.0
0.0 0.0 0.0
0.0 0.0 0.0
0.0 0.0 0.0
0.0 0.0 0.0
0.0 0.0 0.0
0.0 0.0 0.0
0.0 0.0 0.0
0.0 0.0 0.0
0.0 0.0 0.0
0.0 0.0 0.0
0.0 0.0 0.0
0.0 0.0 0.0
0.0 0.0 0.0
0.0 0.0 0.0
0.0 0.0 0.0
0.0 0.0 0.0
0.0 0.0 0.0
0.0 0.0 0.0
0.0 0.0 0.0
0.0 0.0 0.0
0.0 0.0 0.0
0.0 0.0 0.0
0.0 0.0 0.0
0.0 0.0 0.0
0.0 0.0 0.0
0.0 0.0 0.0
0.0 0.0 0.0
0.0 0.0 0.0
0.0 0.0 0.0
0.0 0.0 0.0
0.0 0.0 0.0
0.0 0.0 0.0
0.0 0.0 0.0
0.0 0.0 0.0
0.0 0.0 0.0
0.0 0.0 0.0
0.0 0.0 0.0
0.0 0.0 0.0
0.0 0.0 0.0
0.0 0.0 0.0
0.0 0.0 0.0
0.0 0.0 0.0
0.0 0.0 0.0
0.0 0.0 0.0
0.0 0.0 0.0
0.0 0.0 0.0
0.0 0.0 0.0
0.0 0.0 0.0
0.0 0.0 0.0
0.0 0.0 0.0
0.0 0.0 0.0
0.0 0.0 0.0
0.0 0.0 0.0
0.0 0.0 0.0
0.0 0.0 0.0
0.0 0.0 0.0
0.0 0.0 0.0
0.0 0.0 0.0
0.0 0.0 0.0
0.0 0.0 0.0
0.0 0.0 0.0
0.0 0.0 0.0
0.0 0.0 0.0
0.0 0.0 0.0
0.0 0.0 0.0
0.0 0.0 0.0
0.0 0.0 0.0
0.0 0.0 0.0
0.0 0.0 0.0
VECTORS f float
0.0 0.0 -1.60516
0.0 0.0 -1.60516
1.03801e-15 -3.05978e-14 0.0
0.0 0.0 -1.60516
0.0 0.0 -1.60516
0.0 0.0 -1.60516
0.0 0.0 -1.60516
0.0 0.0 -1.60516
-26.0089 21.2382 106.776
-9.39641 -18.869 33.5268
0.0 0.0 -1.60516
0.0 0.0 -1.60516
0.0 0.0 -1.60516
0.0 0.0 -1.60516
0.0 0.0 -1.60516
0.0 0.0 -1.60516
0.0850989 -0.326891 0.419662
0.0 0.0 -1.60516
0.0 0.0 -1.60516
0.0 0.0 -1.60516
0.120169 -0.123439 -0.0772425
140.034 -11.565 -18.9825
0.0167291 -0.436487 0.373096
0.0 0.0 -1.60516
-0.0117708 0.0378 0.11899
0.0736484 -0.224383 -1.37247
0.0 0.0 -1.60516
0.0 0.0 -1.60516
0.0 0.0 -0.821841
-3.20297e-15 1.14943e-14 -7.21645e-15
0.0 0.0 -0.821841
0.0 0.0 -0.821841
0.0 0.0 -0.821841
0.0 0.0 -0.821841
-1.08354e-09 8.72088e-10 0.000122806
-0.0207401 0.0181431 0.0644034
0.0 0.0 -0.821841
-0.00156939 0.0185147 7.77636
-9.01236e-14 -2.50343e-14 0.0
0.0 0.0 -0.821841
-7.60724e-15 -2.77174e-15 0.0
0.0 0.0 -0.821841
0.0 0.0 -0.821841
0.0 0.0 -0.821841
0.231222 0.521635 0.693167
3.65305 -3.38525 15.4153
0.0 0.0 -0.821841
-1.04854 2.87924 2.49427
0.00779931 -0.0403472 0.0441569
0.0 0.0 -0.821841
-1.73176e-11 -3.19711e-11 -1.3617e-07
3.31955e-15 -2.79583e-14 0.0
-0.0196291 0.0268475 0.000635183
0.0 0.0 -0.821841
-6.8359e-12 2.48599e-11 3.25461e-07
0.0 0.0 -0.821841
0.0 0.0 -0.821841
0.0 0.0 -0.821841
0.0 0.0 -0.821841
0.0 0.0 -0.821841
0.0430319 0.0100938 -3.11201e-05
-0.141977 -0.0304423 -0.145637
0.0 0.0 -0.821841
-0.0300492 0.164831 -0.0440878
5.25721e-14 4.44662e-14 0.0
0.0 0.0 -0.821841
0.0 0.0 -0.821841
-0.248214 -0.0523826 -0.318168
0.039022 -0.0866076 0.340796
0.0 0.0 -0.821841
0.0 0.0 -0.821841
0.0 0.0 -0.821841
-143.515 6.99894 26.0878
1.3143e-14 -6.67582e-15 0.0
0.0 0.0 -0.821841
0.0 0.0 -0.821841
0.0 0.0 -0.821841
0.0 0.0 -0.821841
-0.470891 -2.17023 -0.455145
0.0 0.0 -0.821841
0.0 0.0 -0.821841
0.0 0.0 -0.821841
0.0 0.0 -0.821841
0.0 0.0 -0.821841
0.0 0.0 -0.821841
0.0 0.0 -0.821841
VECTORS omega float
12.0977 0.829868 -2.18886
1.51382 4.16761 10.5747
-2.56459 0.057559 4.07862
3.32892 -3.11732 -8.62327
-1.49458 1.89343 10.35
-32.0872 -34.3 -14.8384
8.4412 -75.7915 -1.98464
0.565228 -7.85174 3.02475
-4.85183 5.35531 3.16378
-4.137 -4.06304 4.78293
-2.68742 -2.19266 -1.02278
2.53973 5.7681 0.0392968
-0.670182 -1.18063 -3.78239
-9.27354 1.69843 -10.2287
-32.3245 50.2553 -1.27376
-26.4959 38.7384 45.3957
-3.6606 5.21594 -5.19155
-1.30189 0.836294 1.62109
5.85708 -7.37311 -6.58172
75.3458 41.6577 -15.958
0.925118 0.253815 -2.6166
1.64404 0.460195 -1.57259
8.9768 -10.63 -6.15599
-2.52403 -3.93908 0.803904
-2.08641 -2.47718 2.93484
-2.37057 8.80754 0.770483
-11.9501 -7.3483 8.15948
-24.5422 -2.10013 -2.68093
51.789 9.06372 29.1574
1.01306 -2.39103 -7.90257
-0.454372 23.2403 -15.6684
2.62796 4.59674 -22.3211
0.37828 5.29818 0.719046
0.113624 1.91556 1.03899
0.946593 1.17623 -2.18818
1.26307 -0.0967842 6.20489
54.6499 5.22539 22.5806
-0.323694 -3.03751 3.48238
2.06151 -11.4316 17.2111
2.37978 1.48466 -1.3678
-1.98422 -0.624603 -13.5251
-1.46745 -2.73615 11.0693
0.603182 4.80016 -13.1014
-1.08338 1.29505 -3.29677
-1.05654 3.41669 8.34528
-1.93604 -0.349357 16.5182
8.28134 3.18567 7.46563
6.97598 -4.34454 -18.2743
-2.38703 -0.0356559 -2.47332
0.0 0.0 0.0
-9.13007 4.94689 1.4277
-3.00994 0.297049 -2.07179
1.7757 3.27568 -1.93773
0.76157 -5.43898 23.1602
-3.40134 -0.936173 23.2313
34.834 -5.33969 -1.83755
-2.04982 4.78959 -4.12892
-2.66741 1.43491 -2.23306
-7.84811 24.2773 5.36888
-8.08755 78.6637 22.6287
-2.69347 2.35283 0.467746
-0.715819 -7.28138 -3.29549
-1.10066 5.6037 5.81686
-1.92602 -0.327223 3.05795
-7.03762 -5.20871 -9.44528
-63.3931 18.2802 51.8135
-3.13058 -0.597122 -7.17651
-0.661612 -4.63294 2.9339
1.00706 -0.802749 9.81367
0.0720418 1.74385 -1.70483
-8.86103 9.80052 0.224199
18.9995 -15.128 -9.67866
-19.8994 -15.4791 7.65673
0.898636 1.07383 7.58879
1.76985 -10.5434 3.83284
0.115608 1.17712 1.99
-3.36506 -10.9546 -14.7278
-1.39328 1.31435 1.20294
-0.211841 -0.488658 0.453165
-4.27847 -10.3087 -14.1124
-0.435817 5.43596 0.186467
-9.04409 -1.74884 -10.5577
-3.39524 -21.1872 -8.0972
-7.57923 19.9559 9.49845
5.94973 3.46175 3.98795
-40.4952 14.8317 -8.78423
VECTORS v float
0.120012 -0.12904 -0.155661
0.102598 -0.0488873 -0.0406039
0.00143897 0.0641145 -1.14919e-13
-0.0689593 -0.0718792 -0.133836
-0.147767 0.0692871 -0.124029
0.111223 -0.187587 -0.819858
-0.0500851 -0.26961 -0.48338
-0.203038 0.0299191 0.20413
-0.0177654 0.0310757 0.0392459
-0.0862703 0.134154 -0.0148592
-0.0546362 0.06693 0.0160755
-0.0412941 0.0535609 -0.115333
-0.00297886 -0.0475419 0.0245792
-0.12488 0.107635 -0.937485
0.0244174 0.454637 -0.992982
0.954968 0.524216 0.947321
0.130406 0.0914838 1.11945e-05
0.079585 0.0503634 -0.03761
0.255782 0.0467499 0.0196811
5.45305 -1.24933 -0.0801955
0.121907 -0.107408 -0.0178479
0.0110833 0.0535967 -0.0125117
-0.125618 -0.128837 -0.0794061
0.0747702 0.0268453 -0.0581451
-0.0619271 0.0521533 1.26664e-05
0.0724723 0.0738515 -0.0899257
-0.358694 0.205124 0.361598
-0.0515048 0.0906195 -0.401171
0.0529848 -0.0660418 -0.999587
-0.0478203 -0.0202611 -3.2054e-13
0.206402 -0.0332094 -0.339463
0.0867609 -0.0499541 -0.0318551
0.0945559 -0.0113147 0.0332705
0.0382495 -0.00233319 0.0103054
0.0235246 -0.0189318 -5.50988e-08
-0.00196433 -0.0252424 0.000118171
-0.271386 -0.418036 -0.812687
-0.0607474 0.00646482 0.00858059
-0.228632 -0.0412301 6.65464e-13
0.103134 -0.0526407 -0.0328568
-0.012492 0.0396842 -3.20563e-13
0.133914 -0.104464 -0.021369
0.034889 -0.00433069 0.038069
0.0431211 -0.0110858 -0.0547625
0.0683689 0.0212146 1.26709e-05
-0.000527829 0.0340715 0.025076
0.0875098 -0.203119 0.0173055
0.0386152 0.0344947 0.0118203
-0.000713133 0.0477404 -4.91699e-06
0.0 0.0 0.0157441
0.0989373 0.182601 -1.88409e-10
0.00594095 0.0601985 -3.20563e-13
0.065513 -0.0355136 -1.1459e-06
-0.126698 -0.208299 -0.182151
-0.0187234 0.0680265 3.91703e-10
-0.0478136 0.412972 -0.882387
0.211759 0.0271248 0.0114799
0.0174133 0.0789426 -0.1999
0.0642082 -0.214379 0.119622
5.95764 0.319674 -2.51352
0.0470562 0.0538692 1.24764e-07
0.0643405 -1.58077e-05 -0.017664
0.116013 -0.0134738 0.012501
-0.0114691 0.128091 -0.0294806
-0.104174 0.140752 -6.49239e-13
0.43188 0.713029 -0.670059
-0.00466741 0.0550892 0.0745504
0.0257607 0.0515397 -0.0225652
-0.0160214 -0.0202056 0.00112597
0.145008 0.0137552 -0.0456417
0.180606 -0.14661 -0.0130266
-0.32648 -0.172585 -0.271454
0.0985799 -0.0206924 -0.0643258
0.0214766 -0.0179726 8.1125e-15
-0.197437 -0.0424247 0.173676
0.0243692 0.0127957 0.00949213
-0.200067 -0.0041559 -0.329008
0.0261558 0.0282028 -0.0121863
-0.00777687 0.00496139 -0.000305831
-0.206153 0.0856326 -0.0205457
0.0889015 -0.0432462 -0.0395331
-0.0340537 0.179756 0.00042923
-0.0145468 -0.128848 0.107805
0.398887 0.152158 -0.0152936
-0.140108 -0.282404 -0.234224
0.182932 -0.631006 -0.176084
SCALARS radius float 1
LOOKUP_TABLE default
0.025
0.025
0.025
0.025
0.025
0.025
0.025
0.025
0.025
0.025
0.025
0.025
0.025
0.025
0.025
0.025
0.025
0.025
0.025
0.025
0.025
0.025
0.025
0.025
0.025
0.025
0.025
0.025
0.02
0.02
0.02
0.02
0.02
0.02
0.02
0.02
0.02
0.02
0.02
0.02
0.02
0.02
0.02
0.02
0.02
0.02
0.02
0.02
0.02
0.02
0.02
0.02
0.02
0.02
0.02
0.02
0.02
0.02
0.02
0.02
0.02
0.02
0.02
0.02
0.02
0.02
0.02
0.02
0.02
0.02
0.02
0.02
0.02
0.02
0.02
0.02
0.02
0.02
0.02
0.02
0.02
0.02
0.02
0.02
0.02
0.02
SCALARS type float 1
LOOKUP_TABLE default
1.0
1.0
1.0
1.0
1.0
1.0
1.0
1.0
1.0
1.0
1.0
1.0
1.0
1.0
1.0
1.0
1.0
1.0
1.0
1.0
1.0
1.0
1.0
1.0
1.0
1.0
1.0
1.0
1.0
1.0
1.0
1.0
1.0
1.0
1.0
1.0
1.0
1.0
1.0
1.0
1.0
1.0
1.0
1.0
1.0
1.0
1.0
1.0
1.0
1.0
1.0
1.0
1.0
1.0
1.0
1.0
1.0
1.0
1.0
1.0
1.0
1.0
1.0
1.0
1.0
1.0
1.0
1.0
1.0
1.0
1.0
1.0
1.0
1.0
1.0
1.0
1.0
1.0
1.0
1.0
1.0
1.0
1.0
1.0
1.0
1.0
SCALARS id float 1
LOOKUP_TABLE default
1.0
2.0
3.0
4.0
5.0
6.0
7.0
8.0
9.0
10.0
11.0
12.0
13.0
14.0
15.0
16.0
17.0
18.0
19.0
20.0
21.0
22.0
23.0
24.0
25.0
26.0
27.0
28.0
29.0
30.0
31.0
32.0
33.0
34.0
35.0
36.0
37.0
38.0
39.0
40.0
41.0
42.0
43.0
44.0
45.0
46.0
47.0
48.0
49.0
50.0
51.0
52.0
53.0
54.0
55.0
56.0
57.0
58.0
59.0
60.0
61.0
62.0
63.0
64.0
65.0
66.0
67.0
68.0
69.0
70.0
71.0
72.0
73.0
74.0
75.0
76.0
77.0
78.0
79.0
80.0
81.0
82.0
83.0
84.0
85.0
86.0

