# vtk DataFile Version 2.0
Generated by lpp.py
ASCII
DATASET POLYDATA
POINTS 86 float
0.0780691 0.0879889 -0.0343785
0.0573201 0.115402 -0.0729486
-0.0741285 -0.160907 -0.0748066
-0.0281411 -0.169378 -0.0553376
0.265771 0.0875981 -0.00902693
0.135025 -0.0828971 0.133943
0.00081846 0.166766 0.0453659
0.0401374 -0.0998746 -0.0434176
0.186093 -0.0179766 -0.00382938
0.117456 -0.114321 -0.068265
0.273931 0.058078 -0.0586439
0.0882471 -0.15005 -0.0418083
0.251602 0.147779 -0.0585502
0.151876 0.14546 0.0383769
0.25316 -0.0973444 0.0488628
0.109632 0.00293567 -0.0743034
0.2441 -0.0798112 -0.0745702
0.111756 0.0897866 -0.07218
0.137531 0.133734 -0.0375071
0.0919445 -0.0523675 -0.0184257
-0.0556117 0.122382 -0.0402561
0.26421 -0.116822 -0.0442116
0.196006 0.0755331 -0.0419434
0.199481 -0.0874741 -0.0378381
-0.0555008 0.0121018 -0.0709915
-0.0600147 -0.0387987 -0.0507253
-0.056065 -0.00576477 0.13415
0.00410075 0.126571 -0.0286091
0.136955 0.057824 0.0130143
0.245577 -0.0064954 -0.0674059
0.106364 0.0147671 -0.0291334
0.150386 0.126379 -0.0800002
-0.0190509 -0.0986575 -0.0617662
-0.079998 -0.066525 -0.0799994
-0.0683961 -0.110008 -0.0799063
0.244515 0.0314693 -0.0799954
0.260767 0.063607 0.0838302
0.0917574 -0.173593 -0.0800004
0.191613 0.00796337 -0.0742063
-0.0541447 -0.0900015 -0.0438056
0.249649 0.0893772 -0.079992
0.0782153 0.16707 -0.0753133
0.175326 -0.124397 -0.0107828
0.216447 -0.1392 -0.06782
0.25792 -0.144361 -0.0796027
0.209193 -0.0511681 -0.0787562
0.0377862 0.0265405 -0.0574513
0.170335 -0.171876 -0.0316749
0.279998 0.0149743 -0.0713385
0.188783 0.179478 0.135682
0.173312 -0.175202 -0.0773199
-0.0756168 0.0544337 -0.079791
-0.0795662 0.123324 -0.079129
0.181183 0.178109 -0.0228604
0.00438816 0.0260618 -0.0799266
0.144236 0.0642238 0.0668803
0.114103 0.147071 -0.0783034
0.221812 0.0369351 -0.0287116
0.0078009 0.173074 -0.079712
0.0742617 0.0173444 -0.00399164
0.278737 -0.0471956 -0.0691073
0.224785 -0.179838 -0.0415474
0.148869 0.175062 -0.079855
0.279481 -0.0022398 -0.0296477
0.0660722 -0.116951 -0.0792087
-0.0341061 -0.00612081 0.0723986
0.0440635 -0.00618373 -0.0797879
0.240526 -0.04253 -0.0423767
0.18229 0.0959366 -0.0799094
0.188455 0.167981 -0.0670852
-0.0514329 0.109477 0.0315784
-0.0212921 0.0644067 -0.0783049
0.233314 -0.144484 -0.0238319
0.025119 -0.151471 -0.0784892
0.158581 -0.0249691 -0.0563472
0.228428 0.179839 -0.0800001
-0.0755361 0.173057 0.0410505
-0.0323805 -0.061465 -0.0789261
0.21346 -0.179099 -0.0799767
0.170967 -0.127804 -0.0798105
0.205399 -0.102383 -0.0799413
0.0757715 -0.0775266 -0.0779631
0.21353 0.121795 -0.00544369
0.0730612 0.0484088 -0.0567587
-0.0695319 0.170464 -0.0270029
0.0366107 0.128843 0.0389126
VERTICES 86 172
1 0
1 1
1 2
1 3
1 4
1 5
1 6
1 7
1 8
1 9
1 10
1 11
1 12
1 13
1 14
1 15
1 16
1 17
1 18
1 19
1 20
1 21
1 22
1 23
1 24
1 25
1 26
1 27
1 28
1 29
1 30
1 31
1 32
1 33
1 34
1 35
1 36
1 37
1 38
1 39
1 40
1 41
1 42
1 43
1 44
1 45
1 46
1 47
1 48
1 49
1 50
1 51
1 52
1 53
1 54
1 55
1 56
1 57
1 58
1 59
1 60
1 61
1 62
1 63
1 64
1 65
1 66
1 67
1 68
1 69
1 70
1 71
1 72
1 73
1 74
1 75
1 76
1 77
1 78
1 79
1 80
1 81
1 82
1 83
1 84
1 85
POINT_DATA 86
VECTORS i float
0.0 0.0 0.0
0.0 0.0 0.0
0.0 0.0 0.0
0.0 0.0 0.0
0.0 0.0 0.0
0.0 0.0 0.0
0.0 0.0 0.0
0.0 0.0 0.0
0.0 0.0 0.0
0.0 0.0 0.0
0.0 0.0 0.0
0.0 0.0 0.0
0.0 0.0 0.0
0.0 0.0 0.0
0.0 0.0 0.0
0.0 0.0 0.0
0.0 0.0 0.0
0.0 0.0 0.0
0.0 0.0 0.0
0.0 0.0 0.0
0.0 0.0 0.0
0.0 0.0 0.0
0.0 0.0 0.0
0.0 0.0 0.0
0.0 0.0 0.0
0.0 0.0 0.0
0.0 0.0 0.0
0.0 0.0 0.0
0.0 0.0 0.0
0.0 0.0 0.0
0.0 0.0 0.0
0.0 0.0 0.0
0.0 0.0 0.0
0.0 0.0 0.0
0.0 0.0 0.0
0.0 0.0 0.0
0.0 0.0 0.0
0.0 0.0 0.0
0.0 0.0 0.0
0.0 0.0 0.0
0.0 0.0 0.0
0.0 0.0 0.0
0.0 0.0 0.0
0.0 0.0 0.0
0.0 0.0 0.0
0.0 0.0 0.0
0.0 0.0 0.0
0.0 0.0 0.0
0.0 0.0 0.0
0.0 0.0 0.0
0.0 0.0 0.0
0.0 0.0 0.0
0.0 0.0 0.0
0.0 0.0 0.0
0.0 0.0 0.0
0.0 0.0 0.0
0.0 0.0 0.0
0.0 0.0 0.0
0.0 0.0 0.0
0.0 0.0 0.0
0.0 0.0 0.0
0.0 0.0 0.0
0.0 0.0 0.0
0.0 0.0 0.0
0.0 0.0 0.0
0.0 0.0 0.0
0.0 0.0 0.0
0.0 0.0 0.0
0.0 0.0 0.0
0.0 0.0 0.0
0.0 0.0 0.0
0.0 0.0 0.0
0.0 0.0 0.0
0.0 0.0 0.0
0.0 0.0 0.0
0.0 0.0 0.0
0.0 0.0 0.0
0.0 0.0 0.0
0.0 0.0 0.0
0.0 0.0 0.0
0.0 0.0 0.0
0.0 0.0 0.0
0.0 0.0 0.0
0.0 0.0 0.0
0.0 0.0 0.0
0.0 0.0 0.0
VECTORS f float
0.0 0.0 -1.60516
0.0 0.0 -1.60516
0.0 0.0 -1.60516
0.0 0.0 -1.60516
0.0 0.0 -1.60516
0.0 0.0 -1.60516
0.0 0.0 -1.60516
0.0 0.0 -1.60516
0.0 0.0 -1.60516
0.0 0.0 -1.60516
0.0 0.0 -1.60516
0.0 0.0 -1.60516
0.0 0.0 -1.60516
0.0 0.0 -1.60516
0.0 0.0 -1.60516
0.0 0.0 -1.60516
0.0 0.0 -1.60516
0.0 0.0 -1.60516
0.153289 0.159909 -1.00859
0.0 0.0 -1.60516
0.0 0.0 -1.60516
0.0 0.0 -1.60516
0.0 0.0 -1.60516
0.0 0.0 -1.60516
0.0 0.0 -1.60516
0.0 0.0 -1.60516
0.0 0.0 -1.60516
0.0 0.0 -1.60516
0.0 0.0 -0.821841
0.0 0.0 -0.821841
0.0 0.0 -0.821841
-0.334612 -0.152436 1.37937e-05
0.0 0.0 -0.821841
0.0 0.0 -0.821841
0.0 0.0 -0.821841
0.0 0.0 -0.821841
0.0 0.0 -0.821841
-0.00501223 0.0345951 0.622417
0.0 0.0 -0.821841
0.0 0.0 -0.821841
0.0 0.0 -0.821841
0.0 0.0 -0.821841
0.0 0.0 -0.821841
0.0 0.0 -0.821841
0.0 0.0 -0.821841
0.0 0.0 -0.821841
0.0 0.0 -0.821841
0.0 0.0 -0.821841
0.0 0.0 -0.821841
0.0 0.0 -0.821841
0.0 0.0 -0.821841
0.0 0.0 -0.821841
0.0 0.0 -0.821841
0.0 0.0 -0.821841
0.0 0.0 -0.821841
0.0 0.0 -0.821841
0.0 0.0 -0.821841
0.0 0.0 -0.821841
0.0 0.0 -0.821841
0.0 0.0 -0.821841
0.0 0.0 -0.821841
0.0 0.0 -0.821841
0.0 0.0 -0.821841
0.0 0.0 -0.821841
0.0 0.0 -0.821841
0.0 0.0 -0.821841
0.0 0.0 -0.821841
0.0 0.0 -0.821841
0.0 0.0 -0.821841
0.0 0.0 -0.821841
0.0 0.0 -0.821841
0.0 0.0 -0.821841
0.0 0.0 -0.821841
0.0 0.0 -0.821841
0.0 0.0 -0.821841
-0.267752 0.370544 -1.19447
0.0 0.0 -0.821841
0.0 0.0 -0.821841
0.0 0.0 -0.821841
0.0 0.0 -0.821841
0.0 0.0 -0.821841
0.0 0.0 -0.821841
0.0 0.0 -0.821841
0.0 0.0 -0.821841
0.0 0.0 -0.821841
0.0 0.0 -0.821841
VECTORS omega float
11.3422 -25.4426 4.66692
5.21957 13.1388 18.0881
-5.48633 -2.83558 6.44761
-0.538738 -18.9915 -12.0166
15.6619 13.8107 13.0728
-26.0803 -50.5733 -1.45208
29.9813 -99.0088 11.3468
-12.7165 27.942 4.04226
-6.19893 15.0278 -11.3492
-10.0244 -27.7569 7.05505
6.85272 12.1588 6.68172
-9.40895 0.597927 0.130138
-0.764993 -3.9699 7.30591
-9.27354 1.69843 -10.2287
20.3494 33.9821 23.8601
3.3197 -7.39494 2.32745
2.02351 3.39516 -4.31396
-15.2614 -2.85894 1.24587
-11.9074 -27.0742 -25.4732
-32.8138 3.90956 6.22557
-1.91473 -22.1339 1.40567
-20.5206 1.09887 -1.89673
6.7342 1.05925 -5.04912
-4.93266 -7.38499 -8.23922
4.59899 -8.20367 2.00475
7.73055 1.09604 -3.42461
-14.2654 -16.5103 7.3168
47.3475 -20.3895 -10.3552
51.789 9.06372 29.1574
26.9299 20.8953 -3.98971
6.89802 19.6735 -17.2392
5.48058 25.983 -31.3173
-17.8905 -1.98778 11.5271
-6.0695 -0.134254 5.96706
-2.14438 10.1246 14.5182
-6.83004 -1.28979 -7.67879
54.6499 -24.416 -9.64789
-0.670059 -2.74098 2.86933
19.7114 -46.5994 20.4426
24.134 -57.588 -31.8019
-11.3164 -0.707066 -25.4722
18.4465 43.2301 48.8495
-23.6819 45.0345 -21.9833
5.32157 -5.79074 -17.263
9.57089 -1.48653 18.5093
6.43799 9.90685 16.6176
25.5498 -11.187 -4.50546
31.2294 -72.4385 -18.6543
-0.415956 -21.0131 -7.16801
0.0 0.0 0.0
-6.49501 7.30812 0.234956
3.93879 -5.88941 -5.19176
3.39077 0.433448 -2.58028
-6.20594 -20.6477 33.9274
-24.8471 -1.29297 13.2874
34.834 -5.33969 -1.83755
-42.4267 -26.4647 3.33748
-59.3404 34.5984 6.56802
1.32742 18.1812 -25.1824
-52.1258 -7.70632 27.5056
-4.26214 3.55065 -1.96426
0.404524 19.7547 -6.56109
20.0551 8.63239 9.49029
-13.4249 -5.48283 9.07874
-7.48481 -0.752054 -19.3039
-63.3931 18.2802 51.8135
-28.0954 7.916 12.7795
-14.8252 8.75786 8.10548
13.4103 6.16132 33.2179
-18.2088 -9.46966 -1.73412
-58.2175 -1.87261 35.946
-6.3757 8.39542 -38.66
7.00703 1.16376 18.1513
-7.69128 -11.2728 -1.82556
-19.3417 -21.0496 12.2605
0.757327 -4.39088 -3.77243
-14.5476 1.10021 -18.3635
4.79995 -8.01544 -17.173
-2.82192 -2.20335 0.350315
-4.65101 -0.175416 -21.0806
-7.10479 3.45058 4.8933
-1.40433 -5.39457 -11.4192
-15.1823 -67.0945 6.92827
-12.9399 40.3868 5.20283
12.4938 -19.7411 -0.456119
-40.4952 14.8317 -8.78423
VECTORS v float
0.133421 0.0351719 -0.106546
-0.0719271 0.294846 -0.231337
0.114102 0.158001 -0.0138598
-0.262261 0.0624576 -0.0605586
-0.24094 -0.328647 -0.0274652
0.934564 -0.509511 -0.344303
0.138172 0.718813 -0.845349
0.194861 0.714797 -0.0961409
0.0542784 -0.143223 -0.340117
0.0800471 0.157263 -0.407902
0.09083 0.132724 -0.265547
-0.120139 0.220682 -0.137381
-0.043496 -0.0395763 -0.0780283
-0.12488 0.107635 0.298575
-0.681398 -0.59658 0.536711
-0.176095 -0.0893406 0.16934
0.163798 -0.0124594 -0.0116114
-0.0626987 0.375415 -0.0330194
0.273226 0.359205 -0.155686
-0.280657 0.0796731 0.0185498
-0.321493 -0.100202 0.0857686
-0.226952 0.219724 -0.249573
0.644808 -0.503345 -0.225662
0.287455 0.0481383 -0.0877716
-0.196584 -0.348255 -0.507762
0.0083698 0.0891166 0.0367126
0.358811 0.180481 -0.105785
-0.30904 -0.124499 0.344244
0.0529848 -0.0660418 0.236473
-0.173391 -0.0791759 -0.480358
0.013397 -0.166684 -0.193578
0.519655 -0.109611 2.63564e-06
-0.402175 -0.231538 0.0249667
0.0112163 0.119778 0.00160017
0.202154 0.0436579 0.00914367
-0.0740453 0.106042 0.0173883
0.541289 -0.675966 0.660598
-0.0548269 0.0134578 0.0027402
0.207445 -0.444857 -0.772612
0.0350929 0.470979 -0.331042
-0.0142407 0.22645 -0.00559688
0.427527 -0.172372 -0.260201
0.105485 0.0411779 -0.271403
-0.123599 -0.0866808 -0.162928
-0.0151785 -0.183483 0.0851918
0.190037 -0.112676 0.0258981
0.0179984 0.393768 -0.0570252
0.385979 0.0973345 -0.196573
-0.00206106 0.0276815 -0.523423
0.0 0.0 1.2518
-0.116266 0.0791719 -0.0478551
-0.141253 -0.0400316 0.0451574
-0.00214736 -0.0649087 0.0562111
0.673134 -0.14215 -0.0418714
-0.0251808 0.496954 0.0209548
-0.0478136 0.412972 0.353673
0.498629 -0.10351 -0.289278
-0.183475 -0.0552494 -0.266721
0.363494 -0.027348 0.0233458
0.0805177 0.0787492 -0.0581642
-0.0352855 0.305886 -0.799582
0.0546808 -0.066617 -0.17396
0.152982 0.278325 -0.362684
-0.0154493 0.835785 -0.700963
-0.043375 0.150281 -0.0279903
0.43188 0.713029 0.566001
0.197615 0.348088 -0.077417
0.19913 0.227493 -0.322965
0.227877 -0.234934 -0.0782956
0.52139 0.350033 -0.256524
0.504286 0.707406 -0.557868
0.197085 0.119812 -0.239562
0.0763624 0.0229181 -0.0684851
-0.222116 0.129127 -0.0941817
-0.444824 -0.0660754 -0.389031
-0.0871711 -0.0160409 0.00338222
0.0281889 -0.00136821 0.168997
-0.160553 -0.0982402 0.0870191
-0.0409036 0.0619476 -0.00527864
-0.00763296 0.0890366 -0.0717535
0.0648257 0.154572 0.0168994
-0.113081 0.0341495 0.0061628
-0.425251 -0.336841 -0.276767
0.296592 0.142998 -0.512341
0.105361 0.170287 -0.143453
0.182932 -0.631006 1.05998
SCALARS radius float 1
LOOKUP_TABLE default
0.025
0.025
0.025
0.025
0.025
0.025
0.025
0.025
0.025
0.025
0.025
0.025
0.025
0.025
0.025
0.025
0.025
0.025
0.025
0.025
0.025
0.025
0.025
0.025
0.025
0.025
0.025
0.025
0.02
0.02
0.02
0.02
0.02
0.02
0.02
0.02
0.02
0.02
0.02
0.02
0.02
0.02
0.02
0.02
0.02
0.02
0.02
0.02
0.02
0.02
0.02
0.02
0.02
0.02
0.02
0.02
0.02
0.02
0.02
0.02
0.02
0.02
0.02
0.02
0.02
0.02
0.02
0.02
0.02
0.02
0.02
0.02
0.02
0.02
0.02
0.02
0.02
0.02
0.02
0.02
0.02
0.02
0.02
0.02
0.02
0.02
SCALARS type float 1
LOOKUP_TABLE default
1.0
1.0
1.0
1.0
1.0
1.0
1.0
1.0
1.0
1.0
1.0
1.0
1.0
1.0
1.0
1.0
1.0
1.0
1.0
1.0
1.0
1.0
1.0
1.0
1.0
1.0
1.0
1.0
1.0
1.0
1.0
1.0
1.0
1.0
1.0
1.0
1.0
1.0
1.0
1.0
1.0
1.0
1.0
1.0
1.0
1.0
1.0
1.0
1.0
1.0
1.0
1.0
1.0
1.0
1.0
1.0
1.0
1.0
1.0
1.0
1.0
1.0
1.0
1.0
1.0
1.0
1.0
1.0
1.0
1.0
1.0
1.0
1.0
1.0
1.0
1.0
1.0
1.0
1.0
1.0
1.0
1.0
1.0
1.0
1.0
1.0
SCALARS id float 1
LOOKUP_TABLE default
1.0
2.0
3.0
4.0
5.0
6.0
7.0
8.0
9.0
10.0
11.0
12.0
13.0
14.0
15.0
16.0
17.0
18.0
19.0
20.0
21.0
22.0
23.0
24.0
25.0
26.0
27.0
28.0
29.0
30.0
31.0
32.0
33.0
34.0
35.0
36.0
37.0
38.0
39.0
40.0
41.0
42.0
43.0
44.0
45.0
46.0
47.0
48.0
49.0
50.0
51.0
52.0
53.0
54.0
55.0
56.0
57.0
58.0
59.0
60.0
61.0
62.0
63.0
64.0
65.0
66.0
67.0
68.0
69.0
70.0
71.0
72.0
73.0
74.0
75.0
76.0
77.0
78.0
79.0
80.0
81.0
82.0
83.0
84.0
85.0
86.0

