# vtk DataFile Version 2.0
Generated by lpp.py
ASCII
DATASET POLYDATA
POINTS 86 float
0.193185 0.0535927 -0.0737209
0.0622161 0.126167 -0.0750002
-0.0748941 -0.146691 -0.0750002
-0.0328585 -0.173993 -0.0742835
0.256613 0.0977898 0.00968326
0.198263 -0.1304 0.0350623
0.0161592 0.161417 -0.0715432
0.0166984 -0.0656833 -0.0692562
0.265337 -0.0515535 -0.00126839
0.10168 -0.093663 -0.0749478
0.274991 0.0956524 -0.041164
0.0819634 -0.136041 -0.056411
0.269138 0.152622 -0.0441139
0.132145 0.162467 -0.0368967
0.215867 -0.175 0.0174302
0.0818402 -0.024573 -0.0714828
0.274662 -0.100068 -0.0561666
0.224181 0.105922 -0.0301021
0.198437 0.147184 -0.0174689
0.234451 -0.10182 -0.0259755
-0.0648954 0.105979 -0.0367472
0.273751 -0.150052 -0.0524084
0.216613 0.0230227 0.164297
0.273607 -0.118175 0.0015302
-0.0699899 0.0162099 -0.0750003
-0.05044 -0.029239 -0.0677754
-0.0334181 0.0239218 0.0758018
0.0119366 0.110059 -0.0729303
0.277929 -0.0193435 0.0444291
0.250025 -0.0293666 -0.0794248
0.244869 0.000877521 -0.0419094
0.218066 0.142482 -0.0735399
-0.012323 -0.106736 -0.0799586
-0.0770615 -0.0656019 -0.0800003
-0.0637141 -0.103326 -0.0800002
0.245973 0.0611277 -0.0384736
0.248052 -0.0645243 0.0902419
0.0825254 -0.174383 -0.0799997
0.177754 -0.0639662 -0.0741179
-0.0723784 -0.0799221 -0.0429462
0.255036 0.126723 -0.0796404
0.0980503 0.154575 -0.0799996
0.211481 -0.145082 -0.0184608
0.210205 -0.139007 -0.0787745
0.252343 -0.179977 -0.0784308
0.218379 -0.0603363 -0.0797869
0.0443109 0.0725596 -0.0800002
0.179488 -0.177066 -0.034901
0.279599 0.0220998 -0.0446244
0.188783 0.179478 0.211019
0.164256 -0.152743 -0.0769235
-0.0795622 0.0599243 -0.0800002
-0.0734371 0.114991 -0.0800003
0.259065 0.178943 -0.00643419
0.00761318 0.0557399 -0.0800002
0.136681 0.129473 0.000312172
0.117801 0.0888635 -0.074343
0.278056 -0.00581681 0.0034335
0.062087 0.172086 -0.0797102
0.161167 -0.000817419 -0.0716003
0.278395 -0.0565923 -0.0671671
0.230385 -0.178901 -0.0427298
0.173791 0.144771 -0.0708191
0.273931 0.0543596 -0.00619657
0.0466514 -0.105222 -0.0798977
0.0341309 0.106538 0.0393784
0.0604331 0.0353724 -0.0799947
0.276332 -0.0715375 0.0424445
0.235386 0.0812511 -0.0763266
0.238267 0.179263 -0.0791991
-0.0487589 0.171515 -0.0453965
-0.0400335 0.0671606 -0.0789049
0.252923 -0.159236 -0.00532096
0.00936538 -0.142743 -0.0800002
0.137474 -0.0651263 -0.0744868
0.279474 0.179601 -0.0793859
-0.0787469 0.172473 -0.0158788
-0.037115 -0.0704457 -0.0800002
0.196307 -0.179621 -0.0800002
0.14754 -0.115459 -0.0799497
0.227495 -0.100466 -0.079993
0.0621048 -0.0673793 -0.0798214
0.263899 0.0558934 0.0815761
0.247009 0.0189779 -0.0774632
-0.0662536 0.161525 -0.0799702
0.0655139 0.0291442 0.0839403
VERTICES 86 172
1 0
1 1
1 2
1 3
1 4
1 5
1 6
1 7
1 8
1 9
1 10
1 11
1 12
1 13
1 14
1 15
1 16
1 17
1 18
1 19
1 20
1 21
1 22
1 23
1 24
1 25
1 26
1 27
1 28
1 29
1 30
1 31
1 32
1 33
1 34
1 35
1 36
1 37
1 38
1 39
1 40
1 41
1 42
1 43
1 44
1 45
1 46
1 47
1 48
1 49
1 50
1 51
1 52
1 53
1 54
1 55
1 56
1 57
1 58
1 59
1 60
1 61
1 62
1 63
1 64
1 65
1 66
1 67
1 68
1 69
1 70
1 71
1 72
1 73
1 74
1 75
1 76
1 77
1 78
1 79
1 80
1 81
1 82
1 83
1 84
1 85
POINT_DATA 86
VECTORS i float
0.0 0.0 0.0
0.0 0.0 0.0
0.0 0.0 0.0
0.0 0.0 0.0
0.0 0.0 0.0
0.0 0.0 0.0
0.0 0.0 0.0
0.0 0.0 0.0
0.0 0.0 0.0
0.0 0.0 0.0
0.0 0.0 0.0
0.0 0.0 0.0
0.0 0.0 0.0
0.0 0.0 0.0
0.0 0.0 0.0
0.0 0.0 0.0
0.0 0.0 0.0
0.0 0.0 0.0
0.0 0.0 0.0
0.0 0.0 0.0
0.0 0.0 0.0
0.0 0.0 0.0
0.0 0.0 0.0
0.0 0.0 0.0
0.0 0.0 0.0
0.0 0.0 0.0
0.0 0.0 0.0
0.0 0.0 0.0
0.0 0.0 0.0
0.0 0.0 0.0
0.0 0.0 0.0
0.0 0.0 0.0
0.0 0.0 0.0
0.0 0.0 0.0
0.0 0.0 0.0
0.0 0.0 0.0
0.0 0.0 0.0
0.0 0.0 0.0
0.0 0.0 0.0
0.0 0.0 0.0
0.0 0.0 0.0
0.0 0.0 0.0
0.0 0.0 0.0
0.0 0.0 0.0
0.0 0.0 0.0
0.0 0.0 0.0
0.0 0.0 0.0
0.0 0.0 0.0
0.0 0.0 0.0
0.0 0.0 0.0
0.0 0.0 0.0
0.0 0.0 0.0
0.0 0.0 0.0
0.0 0.0 0.0
0.0 0.0 0.0
0.0 0.0 0.0
0.0 0.0 0.0
0.0 0.0 0.0
0.0 0.0 0.0
0.0 0.0 0.0
0.0 0.0 0.0
0.0 0.0 0.0
0.0 0.0 0.0
0.0 0.0 0.0
0.0 0.0 0.0
0.0 0.0 0.0
0.0 0.0 0.0
0.0 0.0 0.0
0.0 0.0 0.0
0.0 0.0 0.0
0.0 0.0 0.0
0.0 0.0 0.0
0.0 0.0 0.0
0.0 0.0 0.0
0.0 0.0 0.0
0.0 0.0 0.0
0.0 0.0 0.0
0.0 0.0 0.0
0.0 0.0 0.0
0.0 0.0 0.0
0.0 0.0 0.0
0.0 0.0 0.0
0.0 0.0 0.0
0.0 0.0 0.0
0.0 0.0 0.0
0.0 0.0 0.0
VECTORS f float
0.0 0.0 -1.60516
-1.47409e-08 6.54168e-09 0.000157619
6.12018e-13 -3.71386e-11 6.99633e-07
0.0 0.0 -1.60516
0.0 0.0 -1.60516
0.0 0.0 -1.60516
0.0 0.0 -1.60516
0.0 0.0 -1.60516
0.0 0.0 -1.60516
0.0 0.0 -1.60516
0.0 0.0 -1.60516
0.0 0.0 -1.60516
0.0 0.0 -1.60516
0.0 0.0 -1.60516
-20.5132 -111.655 -105.462
0.0 0.0 -1.60516
0.0 0.0 -1.60516
0.0 0.0 -1.60516
0.0 0.0 -1.60516
0.0 0.0 -1.60516
0.154221 -0.171593 -0.175145
0.0 0.0 -1.60516
0.0 0.0 -1.60516
0.0 0.0 -1.60516
-0.01187 0.0406238 1.46315e-05
-0.0199354 0.0645581 -1.20543
0.0 0.0 -1.60516
0.0 0.0 -1.60516
0.0 0.0 -0.821841
0.0 0.0 -0.821841
442.254 663.774 -594.247
0.0 0.0 -0.821841
0.0 0.0 -0.821841
-0.0102124 0.0361985 7.66297e-07
6.06191e-13 8.61936e-13 2.65738e-08
4620.02 2856.88 -2421.19
0.0 0.0 -0.821841
0.0 0.0 -0.821841
0.0 0.0 -0.821841
0.0490327 -0.153545 -0.137203
0.0 0.0 -0.821841
0.0 0.0 -0.821841
0.0 0.0 -0.821841
0.0 0.0 -0.821841
0.0 0.0 -0.821841
0.0 0.0 -0.821841
-9.97016e-15 -2.34143e-14 1.11133e-13
0.0 0.0 -0.821841
0.0 0.0 -0.821841
0.0 0.0 -0.821841
0.0 0.0 -0.821841
9.46252e-15 -1.46979e-13 -5.34487e-11
-0.022156 0.0358247 8.49133e-07
0.0 0.0 -0.821841
-6.67582e-15 -6.13921e-15 0.0
0.0 0.0 -0.821841
0.0 0.0 -0.821841
0.0 0.0 -0.821841
0.0 0.0 -0.821841
0.0 0.0 -0.821841
0.0 0.0 -0.821841
0.0 0.0 -0.821841
0.0 0.0 -0.821841
0.0 0.0 -0.821841
0.0 0.0 -0.821841
0.0 0.0 -0.821841
0.0 0.0 -0.821841
0.0 0.0 -0.821841
0.0 0.0 -0.821841
0.0 0.0 -0.821841
0.0 0.0 -0.821841
0.0 0.0 -0.821841
0.0 0.0 -0.821841
1.3143e-14 -6.67582e-15 0.0
0.0 0.0 -0.821841
0.0 0.0 -0.821841
0.0 0.0 -0.821841
0.0212462 -0.0386853 9.88035e-06
0.000109344 -3.15018e-06 -0.0330852
0.0 0.0 -0.821841
0.0 0.0 -0.821841
0.0 0.0 -0.821841
0.0 0.0 -0.821841
-442.254 -663.774 592.604
0.0 0.0 -0.821841
0.0 0.0 -0.821841
VECTORS omega float
42.6993 104.331 272.784
1.82931 4.12213 10.5747
-1.23893 -0.0204213 3.1091
3.03621 -2.88578 -8.62327
16.1862 42.0939 -32.4332
-32.0872 -34.3 -14.8384
-6.31656 -74.4768 -3.35979
-3.25034 -2.06482 -10.5887
-110.071 -130.753 -10.0477
7.83079 -1.55846 5.22854
-144.141 26.9383 -54.0582
-2.07578 1.96928 -2.05973
7.639 13.8436 -49.6557
-9.27354 1.69843 -10.2287
68.6597 -23.6522 14.4441
2.7871 33.7254 -7.14808
62.282 48.724 61.7572
108.521 -19.4545 -8.09382
-21.7405 -90.161 -15.7754
-148.083 -22.6984 -6.8152
2.93235 2.34717 -2.5941
30.5929 66.9592 -47.2704
170.787 420.721 253.401
-119.509 126.895 71.4078
-2.20823 -2.39719 2.59147
-3.7133 8.6354 0.766059
-11.9501 -7.3483 8.15948
-25.2832 -0.758878 -4.05608
-146.629 -32.4596 146.439
-23.0267 22.0532 -314.643
-204.462 272.04 107.185
-63.5419 -22.6687 24.5098
0.510884 4.89475 0.719046
-0.580623 1.76161 1.0595
-1.4038 0.987795 -4.55515
265.032 73.5261 105.242
97.2889 106.603 167.603
18.5244 -6.17105 10.2818
84.9433 -17.3736 43.2921
7.10536 2.82108 -1.34729
88.7689 -106.836 39.4593
3.17424 4.23394 10.198
43.6782 29.0226 -36.7421
37.3301 81.8268 85.1236
41.0507 -48.5883 30.0982
-9.29196 18.5121 109.167
2.87625 1.23141 7.68356
67.9205 53.4938 48.45
685.612 -570.376 -132.791
0.0 0.0 0.0
9.32756 -56.8041 -26.5859
-3.39685 -0.227565 -3.39155
1.17655 2.87399 -1.88279
-71.1041 -158.643 53.1577
-3.40134 -0.936173 23.2313
34.834 -5.33969 -1.83755
40.7447 20.235 -152.367
-10.4094 90.5668 158.969
-9.22056 21.4834 4.49759
-24.4487 -18.4607 -236.585
-136.3 55.3983 113.117
17.0338 7.14714 10.3284
-43.0603 17.461 85.4492
57.1775 87.3175 -77.0603
-8.26967 -4.94903 -7.82195
-63.3931 18.2802 51.8135
3.13224 2.14802 -6.95858
-1.26854 145.685 -7.72294
-138.657 124.403 -32.4609
5.76423 1.02231 -35.016
-12.8583 16.669 0.21049
12.0967 -15.9253 -9.67866
101.81 1.60279 -79.5886
0.898636 1.07383 7.58879
35.3745 2.30643 -39.1525
-186.31 -3.60974 -28.3026
-3.36506 11.2701 -5.94421
-0.279324 1.90755 0.710673
-2.17079 -68.58 70.3167
-3.97905 -15.7729 -52.2687
-21.996 -68.6099 -131.688
21.7303 -7.30861 -5.06375
-20.1688 -211.385 41.5371
208.397 -111.219 69.8488
10.6604 -2.04494 3.97425
-40.4952 14.8317 -8.78423
VECTORS v float
2.64211 1.86401 -1.38509
0.103053 -0.0457324 -1.03417e-07
-0.000510531 0.0309731 -8.57529e-10
-0.0712749 -0.0748065 -0.0512953
-0.900813 0.237151 2.10121
0.111223 -0.187587 -1.13378
-0.0299106 0.151534 -0.611309
-0.546525 -0.133361 -0.0828926
5.15042 -2.91127 2.76381
-0.282322 -0.301618 0.0434321
-0.277967 3.40639 0.515623
-0.3045 -0.395156 0.142721
-0.530851 3.10802 2.44614
-0.12488 0.107635 -1.2514
-0.326908 0.266247 1.88945
-0.268191 -0.327351 -0.0644141
-0.146848 -1.0037 1.22979
0.774378 0.857017 1.46276
-0.684164 2.58767 2.33488
0.217219 -2.71543 1.82727
0.1486 -0.13607 -0.0414408
0.00994088 -1.18213 1.28135
-0.887878 -0.155489 9.06121
-0.840133 -1.67148 2.99898
-0.0599285 0.0552032 2.20232e-06
0.0694293 0.0776524 -0.208808
-0.358694 0.205124 0.0476778
-0.0719453 -0.190331 -0.0179087
-2.963 -2.87108 -0.957633
0.880537 0.983217 0.241094
2.22535 -1.22376 -3.93094
-0.795153 -0.530336 0.29143
0.0977835 -0.0102539 0.0128057
0.0352319 0.0116125 3.56476e-07
0.0197558 0.0280759 3.30319e-11
2.47259 0.779314 -1.91457
-3.0979 -3.02356 1.80208
-0.123883 -0.363973 0.0450984
0.175249 -1.20044 0.757309
0.118074 -0.109945 -0.057448
2.4808 5.03524 -0.0586287
0.0942796 -0.0673821 0.0116125
-0.291953 1.40031 2.02462
-1.05895 0.37059 0.213498
-0.84141 -0.103428 0.471907
-0.119856 0.896636 0.11246
0.0246282 -0.0575248 7.75728e-15
-1.03713 1.0802 1.31432
-0.695741 2.563 -11.4164
0.0 0.0 -0.298176
-1.86978 -0.609479 0.473347
-0.00455129 0.0679367 -2.45039e-12
0.0574792 -0.0235306 4.24799e-07
1.01959 -0.907221 1.25917
-0.0187234 0.0680265 8.1125e-15
-0.0478136 0.412972 -1.19631
-1.53864 -2.85851 0.0626226
0.0380924 0.970823 2.418
0.0257286 -0.203347 -0.16906
-0.534092 0.783979 1.10723
-0.555463 -1.45208 0.618112
-0.127549 0.619908 0.280775
-2.34288 -1.5717 0.131117
-0.526076 1.4105 1.52942
-0.414801 -0.598361 -0.0450004
0.43188 0.713029 -0.983979
0.0429242 -0.0625619 -0.00239234
1.06037 -2.44007 6.42487
2.70642 2.80501 0.756263
0.116979 -0.150585 0.355119
0.199683 -0.135276 -0.153196
-0.320101 -0.22781 -0.0783074
0.974381 -1.70632 3.13069
0.0214766 -0.0179726 8.1125e-15
0.434448 -0.676804 0.353215
0.744468 1.04487 -1.06482
0.097171 -0.0744353 -0.465104
0.0381499 0.00558902 3.39156e-06
-1.37159 0.0434157 -8.94252e-05
-0.698583 0.384777 0.00974851
-0.87029 0.637124 -0.0262901
-0.339713 -0.592853 -0.0203269
3.03987 -0.210676 6.34917
1.38261 3.64313 -7.13054
-0.0601757 -0.224068 -0.0114747
0.182932 -0.631006 -0.490004
SCALARS radius float 1
LOOKUP_TABLE default
0.025
0.025
0.025
0.025
0.025
0.025
0.025
0.025
0.025
0.025
0.025
0.025
0.025
0.025
0.025
0.025
0.025
0.025
0.025
0.025
0.025
0.025
0.025
0.025
0.025
0.025
0.025
0.025
0.02
0.02
0.02
0.02
0.02
0.02
0.02
0.02
0.02
0.02
0.02
0.02
0.02
0.02
0.02
0.02
0.02
0.02
0.02
0.02
0.02
0.02
0.02
0.02
0.02
0.02
0.02
0.02
0.02
0.02
0.02
0.02
0.02
0.02
0.02
0.02
0.02
0.02
0.02
0.02
0.02
0.02
0.02
0.02
0.02
0.02
0.02
0.02
0.02
0.02
0.02
0.02
0.02
0.02
0.02
0.02
0.02
0.02
SCALARS type float 1
LOOKUP_TABLE default
1.0
1.0
1.0
1.0
1.0
1.0
1.0
1.0
1.0
1.0
1.0
1.0
1.0
1.0
1.0
1.0
1.0
1.0
1.0
1.0
1.0
1.0
1.0
1.0
1.0
1.0
1.0
1.0
1.0
1.0
1.0
1.0
1.0
1.0
1.0
1.0
1.0
1.0
1.0
1.0
1.0
1.0
1.0
1.0
1.0
1.0
1.0
1.0
1.0
1.0
1.0
1.0
1.0
1.0
1.0
1.0
1.0
1.0
1.0
1.0
1.0
1.0
1.0
1.0
1.0
1.0
1.0
1.0
1.0
1.0
1.0
1.0
1.0
1.0
1.0
1.0
1.0
1.0
1.0
1.0
1.0
1.0
1.0
1.0
1.0
1.0
SCALARS id float 1
LOOKUP_TABLE default
1.0
2.0
3.0
4.0
5.0
6.0
7.0
8.0
9.0
10.0
11.0
12.0
13.0
14.0
15.0
16.0
17.0
18.0
19.0
20.0
21.0
22.0
23.0
24.0
25.0
26.0
27.0
28.0
29.0
30.0
31.0
32.0
33.0
34.0
35.0
36.0
37.0
38.0
39.0
40.0
41.0
42.0
43.0
44.0
45.0
46.0
47.0
48.0
49.0
50.0
51.0
52.0
53.0
54.0
55.0
56.0
57.0
58.0
59.0
60.0
61.0
62.0
63.0
64.0
65.0
66.0
67.0
68.0
69.0
70.0
71.0
72.0
73.0
74.0
75.0
76.0
77.0
78.0
79.0
80.0
81.0
82.0
83.0
84.0
85.0
86.0

