# vtk DataFile Version 2.0
Generated by lpp.py
ASCII
DATASET POLYDATA
POINTS 86 float
0.0540477 0.0423754 0.573852
0.0838694 0.0924291 0.567701
-0.0471576 -0.170755 0.57127
0.00898122 -0.164523 0.57047
0.241781 0.108672 0.587116
0.00219469 -0.00983473 0.520038
-0.0152175 0.0645357 0.538816
-0.0044103 -0.111429 0.589942
0.179347 -0.0107411 0.589389
0.13197 -0.11791 0.522519
0.24361 0.0574967 0.58741
0.0823301 -0.160553 0.59231
0.274436 0.140358 0.523812
0.162553 0.132438 0.536783
0.0455952 -0.0672861 0.583202
0.142434 -0.0165617 0.529267
0.21904 -0.088424 0.532553
0.103454 0.0501108 0.492189
0.113052 0.156584 0.583026
0.100029 -0.0692646 0.498297
-0.0464708 0.144238 0.57227
0.260616 -0.122628 0.571416
0.200035 0.085947 0.563275
0.135242 -0.0671011 0.59174
-0.0631264 0.0448574 0.556323
-0.0637205 -0.0175652 0.588683
-0.0227657 -0.0533601 0.583114
0.0359849 0.0986761 0.518196
0.132325 0.082203 0.576302
0.245152 -0.0357403 0.515154
0.0941252 -0.0121962 0.567531
0.0620239 0.136269 0.492645
0.0551037 -0.108719 0.527085
-0.0655034 -0.063686 0.513822
-0.0765379 -0.11804 0.507122
0.248915 0.0223543 0.524903
0.221483 0.163431 0.578121
0.0849835 -0.150749 0.496091
0.17202 0.0473367 0.505748
-0.0222955 -0.0735886 0.471806
0.268529 0.0736419 0.516353
0.0250405 0.155213 0.535767
0.166471 -0.147136 0.583472
0.202476 -0.14552 0.562721
0.27306 -0.172849 0.47288
0.175632 -0.047499 0.522906
0.0616244 0.00358391 0.490164
0.131649 -0.177762 0.540244
0.253436 -0.00591787 0.581994
0.188783 0.179478 0.522849
0.19306 -0.177243 0.473153
-0.0760294 0.0888848 0.572165
-0.0760474 0.120846 0.498925
0.125 0.169667 0.478058
-0.0553798 -0.0144958 0.480708
0.118898 0.0261041 0.579385
0.0502908 0.138151 0.584773
0.208909 0.0299761 0.574378
-0.012895 0.173977 0.524071
0.045937 -0.0344447 0.51399
0.268068 -0.0823996 0.480073
0.265396 -0.174891 0.578748
0.0662625 0.174477 0.573894
0.278232 -0.0621294 0.583987
0.0809825 -0.102295 0.584842
-0.0596725 -0.0881033 0.584472
0.0107661 -0.131182 0.47648
0.219019 -0.0512545 0.58183
0.12609 0.0988676 0.472516
0.22943 0.128218 0.484775
-0.030565 0.0131801 0.576173
-0.0117798 0.116579 0.519039
0.17824 -0.0934721 0.577237
0.0443106 -0.17176 0.479296
0.198079 0.0108947 0.479567
0.229885 0.178675 0.472046
-0.0782994 0.174701 0.582463
-0.0317267 -0.134488 0.509858
0.231099 -0.171271 0.523165
0.162764 -0.151253 0.488303
0.166972 -0.0858798 0.475002
0.0323207 -0.0781611 0.479703
0.260634 0.167245 0.587452
0.0220594 0.0384506 0.471406
-0.0758881 0.167109 0.489596
0.00478546 0.129269 0.587414
VERTICES 86 172
1 0
1 1
1 2
1 3
1 4
1 5
1 6
1 7
1 8
1 9
1 10
1 11
1 12
1 13
1 14
1 15
1 16
1 17
1 18
1 19
1 20
1 21
1 22
1 23
1 24
1 25
1 26
1 27
1 28
1 29
1 30
1 31
1 32
1 33
1 34
1 35
1 36
1 37
1 38
1 39
1 40
1 41
1 42
1 43
1 44
1 45
1 46
1 47
1 48
1 49
1 50
1 51
1 52
1 53
1 54
1 55
1 56
1 57
1 58
1 59
1 60
1 61
1 62
1 63
1 64
1 65
1 66
1 67
1 68
1 69
1 70
1 71
1 72
1 73
1 74
1 75
1 76
1 77
1 78
1 79
1 80
1 81
1 82
1 83
1 84
1 85
POINT_DATA 86
VECTORS i float
0.0 0.0 0.0
0.0 0.0 0.0
0.0 0.0 0.0
0.0 0.0 0.0
0.0 0.0 0.0
0.0 0.0 0.0
0.0 0.0 0.0
0.0 0.0 0.0
0.0 0.0 0.0
0.0 0.0 0.0
0.0 0.0 0.0
0.0 0.0 0.0
0.0 0.0 0.0
0.0 0.0 0.0
0.0 0.0 0.0
0.0 0.0 0.0
0.0 0.0 0.0
0.0 0.0 0.0
0.0 0.0 0.0
0.0 0.0 0.0
0.0 0.0 0.0
0.0 0.0 0.0
0.0 0.0 0.0
0.0 0.0 0.0
0.0 0.0 0.0
0.0 0.0 0.0
0.0 0.0 0.0
0.0 0.0 0.0
0.0 0.0 0.0
0.0 0.0 0.0
0.0 0.0 0.0
0.0 0.0 0.0
0.0 0.0 0.0
0.0 0.0 0.0
0.0 0.0 0.0
0.0 0.0 0.0
0.0 0.0 0.0
0.0 0.0 0.0
0.0 0.0 0.0
0.0 0.0 0.0
0.0 0.0 0.0
0.0 0.0 0.0
0.0 0.0 0.0
0.0 0.0 0.0
0.0 0.0 0.0
0.0 0.0 0.0
0.0 0.0 0.0
0.0 0.0 0.0
0.0 0.0 0.0
0.0 0.0 0.0
0.0 0.0 0.0
0.0 0.0 0.0
0.0 0.0 0.0
0.0 0.0 0.0
0.0 0.0 0.0
0.0 0.0 0.0
0.0 0.0 0.0
0.0 0.0 0.0
0.0 0.0 0.0
0.0 0.0 0.0
0.0 0.0 0.0
0.0 0.0 0.0
0.0 0.0 0.0
0.0 0.0 0.0
0.0 0.0 0.0
0.0 0.0 0.0
0.0 0.0 0.0
0.0 0.0 0.0
0.0 0.0 0.0
0.0 0.0 0.0
0.0 0.0 0.0
0.0 0.0 0.0
0.0 0.0 0.0
0.0 0.0 0.0
0.0 0.0 0.0
0.0 0.0 0.0
0.0 0.0 0.0
0.0 0.0 0.0
0.0 0.0 0.0
0.0 0.0 0.0
0.0 0.0 0.0
0.0 0.0 0.0
0.0 0.0 0.0
0.0 0.0 0.0
0.0 0.0 0.0
0.0 0.0 0.0
VECTORS f float
0.0 0.0 -1.60516
0.0 0.0 -1.60516
0.0 0.0 -1.60516
0.0 0.0 -1.60516
0.0 0.0 -1.60516
0.0 0.0 -1.60516
0.0 0.0 -1.60516
0.0 0.0 -1.60516
0.0 0.0 -1.60516
0.0 0.0 -1.60516
0.0 0.0 -1.60516
0.0 0.0 -1.60516
0.0 0.0 -1.60516
0.0 0.0 -1.60516
0.0 0.0 -1.60516
0.0 0.0 -1.60516
0.0 0.0 -1.60516
0.0 0.0 -1.60516
0.0 0.0 -1.60516
0.0 0.0 -1.60516
0.0 0.0 -1.60516
0.0 0.0 -1.60516
0.0 0.0 -1.60516
0.0 0.0 -1.60516
0.0 0.0 -1.60516
0.0 0.0 -1.60516
0.0 0.0 -1.60516
0.0 0.0 -1.60516
0.0 0.0 -0.821841
0.0 0.0 -0.821841
0.0 0.0 -0.821841
0.0 0.0 -0.821841
0.0 0.0 -0.821841
0.0 0.0 -0.821841
0.0 0.0 -0.821841
0.0 0.0 -0.821841
0.0 0.0 -0.821841
0.0 0.0 -0.821841
0.0 0.0 -0.821841
0.0 0.0 -0.821841
0.0 0.0 -0.821841
0.0 0.0 -0.821841
0.0 0.0 -0.821841
0.0 0.0 -0.821841
0.0 0.0 -0.821841
0.0 0.0 -0.821841
0.0 0.0 -0.821841
0.0 0.0 -0.821841
0.0 0.0 -0.821841
0.0 0.0 -0.821841
0.0 0.0 -0.821841
0.0 0.0 -0.821841
0.0 0.0 -0.821841
0.0 0.0 -0.821841
0.0 0.0 -0.821841
0.0 0.0 -0.821841
0.0 0.0 -0.821841
0.0 0.0 -0.821841
0.0 0.0 -0.821841
0.0 0.0 -0.821841
0.0 0.0 -0.821841
0.0 0.0 -0.821841
0.0 0.0 -0.821841
0.0 0.0 -0.821841
0.0 0.0 -0.821841
0.0 0.0 -0.821841
0.0 0.0 -0.821841
0.0 0.0 -0.821841
0.0 0.0 -0.821841
0.0 0.0 -0.821841
0.0 0.0 -0.821841
0.0 0.0 -0.821841
0.0 0.0 -0.821841
0.0 0.0 -0.821841
0.0 0.0 -0.821841
0.0 0.0 -0.821841
0.0 0.0 -0.821841
0.0 0.0 -0.821841
0.0 0.0 -0.821841
0.0 0.0 -0.821841
0.0 0.0 -0.821841
0.0 0.0 -0.821841
0.0 0.0 -0.821841
0.0 0.0 -0.821841
0.0 0.0 -0.821841
0.0 0.0 -0.821841
VECTORS omega float
0.0 0.0 0.0
0.0 0.0 0.0
0.0 0.0 0.0
0.0 0.0 0.0
0.0 0.0 0.0
0.0 0.0 0.0
0.0 0.0 0.0
0.0 0.0 0.0
0.0 0.0 0.0
0.0 0.0 0.0
0.0 0.0 0.0
0.0 0.0 0.0
0.0 0.0 0.0
0.0 0.0 0.0
0.0 0.0 0.0
0.0 0.0 0.0
0.0 0.0 0.0
0.0 0.0 0.0
0.0 0.0 0.0
0.0 0.0 0.0
0.0 0.0 0.0
0.0 0.0 0.0
0.0 0.0 0.0
0.0 0.0 0.0
0.0 0.0 0.0
0.0 0.0 0.0
0.0 0.0 0.0
0.0 0.0 0.0
0.0 0.0 0.0
0.0 0.0 0.0
0.0 0.0 0.0
0.0 0.0 0.0
0.0 0.0 0.0
0.0 0.0 0.0
0.0 0.0 0.0
0.0 0.0 0.0
0.0 0.0 0.0
0.0 0.0 0.0
0.0 0.0 0.0
0.0 0.0 0.0
0.0 0.0 0.0
0.0 0.0 0.0
0.0 0.0 0.0
0.0 0.0 0.0
0.0 0.0 0.0
0.0 0.0 0.0
0.0 0.0 0.0
0.0 0.0 0.0
0.0 0.0 0.0
0.0 0.0 0.0
0.0 0.0 0.0
0.0 0.0 0.0
0.0 0.0 0.0
0.0 0.0 0.0
0.0 0.0 0.0
0.0 0.0 0.0
0.0 0.0 0.0
0.0 0.0 0.0
0.0 0.0 0.0
0.0 0.0 0.0
0.0 0.0 0.0
0.0 0.0 0.0
0.0 0.0 0.0
0.0 0.0 0.0
0.0 0.0 0.0
0.0 0.0 0.0
0.0 0.0 0.0
0.0 0.0 0.0
0.0 0.0 0.0
0.0 0.0 0.0
0.0 0.0 0.0
0.0 0.0 0.0
0.0 0.0 0.0
0.0 0.0 0.0
0.0 0.0 0.0
0.0 0.0 0.0
0.0 0.0 0.0
0.0 0.0 0.0
0.0 0.0 0.0
0.0 0.0 0.0
0.0 0.0 0.0
0.0 0.0 0.0
0.0 0.0 0.0
0.0 0.0 0.0
0.0 0.0 0.0
0.0 0.0 0.0
VECTORS v float
0.0 0.0 -3.07972
0.0 0.0 -3.07972
0.0 0.0 -3.07972
0.0 0.0 -3.07972
0.0 0.0 -3.07972
0.0 0.0 -3.22751
0.0 0.0 -3.16992
0.0 0.0 -3.07972
0.0 0.0 -3.07972
0.0 0.0 -3.21995
0.0 0.0 -3.07972
0.0 0.0 -3.07972
0.0 0.0 -3.21603
0.0 0.0 -3.1762
0.0 0.0 -3.07972
0.0 0.0 -3.19935
0.0 0.0 -3.18925
0.0 0.0 -3.31109
0.0 0.0 -3.07972
0.0 0.0 -3.29294
0.0 0.0 -3.07972
0.0 0.0 -3.07972
0.0 0.0 -3.09331
0.0 0.0 -3.07972
0.0 0.0 -3.11528
0.0 0.0 -3.07972
0.0 0.0 -3.07972
0.0 0.0 -3.2331
0.0 0.0 -3.07972
0.0 0.0 -3.24232
0.0 0.0 -3.07977
0.0 0.0 -3.30972
0.0 0.0 -3.20602
0.0 0.0 -3.24634
0.0 0.0 -3.26655
0.0 0.0 -3.21269
0.0 0.0 -3.07972
0.0 0.0 -3.29951
0.0 0.0 -3.27067
0.0 0.0 -3.37093
0.0 0.0 -3.23869
0.0 0.0 -3.17934
0.0 0.0 -3.07972
0.0 0.0 -3.09507
0.0 0.0 -3.36779
0.0 0.0 -3.21878
0.0 0.0 -3.31707
0.0 0.0 -3.16551
0.0 0.0 -3.07972
0.0 0.0 -3.21897
0.0 0.0 -3.36701
0.0 0.0 -3.07972
0.0 0.0 -3.29108
0.0 0.0 -3.35268
0.0 0.0 -3.34493
0.0 0.0 -3.07972
0.0 0.0 -3.07972
0.0 0.0 -3.07972
0.0 0.0 -3.21525
0.0 0.0 -3.24585
0.0 0.0 -3.3468
0.0 0.0 -3.07972
0.0 0.0 -3.07972
0.0 0.0 -3.07972
0.0 0.0 -3.07972
0.0 0.0 -3.07972
0.0 0.0 -3.35729
0.0 0.0 -3.07972
0.0 0.0 -3.36887
0.0 0.0 -3.33297
0.0 0.0 -3.07972
0.0 0.0 -3.23055
0.0 0.0 -3.07972
0.0 0.0 -3.34905
0.0 0.0 -3.34827
0.0 0.0 -3.37024
0.0 0.0 -3.07972
0.0 0.0 -3.25831
0.0 0.0 -3.21799
0.0 0.0 -3.32257
0.0 0.0 -3.36161
0.0 0.0 -3.34788
0.0 0.0 -3.07972
0.0 0.0 -3.37211
0.0 0.0 -3.31874
0.0 0.0 -3.07972
SCALARS radius float 1
LOOKUP_TABLE default
0.025
0.025
0.025
0.025
0.025
0.025
0.025
0.025
0.025
0.025
0.025
0.025
0.025
0.025
0.025
0.025
0.025
0.025
0.025
0.025
0.025
0.025
0.025
0.025
0.025
0.025
0.025
0.025
0.02
0.02
0.02
0.02
0.02
0.02
0.02
0.02
0.02
0.02
0.02
0.02
0.02
0.02
0.02
0.02
0.02
0.02
0.02
0.02
0.02
0.02
0.02
0.02
0.02
0.02
0.02
0.02
0.02
0.02
0.02
0.02
0.02
0.02
0.02
0.02
0.02
0.02
0.02
0.02
0.02
0.02
0.02
0.02
0.02
0.02
0.02
0.02
0.02
0.02
0.02
0.02
0.02
0.02
0.02
0.02
0.02
0.02
SCALARS type float 1
LOOKUP_TABLE default
1.0
1.0
1.0
1.0
1.0
1.0
1.0
1.0
1.0
1.0
1.0
1.0
1.0
1.0
1.0
1.0
1.0
1.0
1.0
1.0
1.0
1.0
1.0
1.0
1.0
1.0
1.0
1.0
1.0
1.0
1.0
1.0
1.0
1.0
1.0
1.0
1.0
1.0
1.0
1.0
1.0
1.0
1.0
1.0
1.0
1.0
1.0
1.0
1.0
1.0
1.0
1.0
1.0
1.0
1.0
1.0
1.0
1.0
1.0
1.0
1.0
1.0
1.0
1.0
1.0
1.0
1.0
1.0
1.0
1.0
1.0
1.0
1.0
1.0
1.0
1.0
1.0
1.0
1.0
1.0
1.0
1.0
1.0
1.0
1.0
1.0
SCALARS id float 1
LOOKUP_TABLE default
1.0
2.0
3.0
4.0
5.0
6.0
7.0
8.0
9.0
10.0
11.0
12.0
13.0
14.0
15.0
16.0
17.0
18.0
19.0
20.0
21.0
22.0
23.0
24.0
25.0
26.0
27.0
28.0
29.0
30.0
31.0
32.0
33.0
34.0
35.0
36.0
37.0
38.0
39.0
40.0
41.0
42.0
43.0
44.0
45.0
46.0
47.0
48.0
49.0
50.0
51.0
52.0
53.0
54.0
55.0
56.0
57.0
58.0
59.0
60.0
61.0
62.0
63.0
64.0
65.0
66.0
67.0
68.0
69.0
70.0
71.0
72.0
73.0
74.0
75.0
76.0
77.0
78.0
79.0
80.0
81.0
82.0
83.0
84.0
85.0
86.0

