# vtk DataFile Version 2.0
Generated by lpp.py
ASCII
DATASET POLYDATA
POINTS 86 float
0.0590825 0.0445042 0.110784
0.0838694 0.0924291 0.075713
-0.0471576 -0.170755 0.0792819
0.00898122 -0.164523 0.0784818
0.241781 0.108672 0.0951286
0.00606982 -0.0125571 0.0880244
-0.0182493 0.0675702 0.0686133
-0.0044103 -0.111429 0.0979538
0.179347 -0.0107411 0.0974013
0.13197 -0.11791 0.0120203
0.24361 0.0574967 0.0954223
0.0823301 -0.160553 0.100323
0.274436 0.140358 0.0138318
0.162553 0.132438 0.0320596
0.0455952 -0.0672861 0.0912144
0.142434 -0.0165617 0.0214874
0.21904 -0.088424 0.0261078
0.103454 0.0501108 -0.0303399
0.113052 0.156584 0.0910386
0.105779 -0.0676849 -0.0220797
-0.0464708 0.144238 0.0802825
0.260616 -0.122628 0.079428
0.200035 0.085947 0.0694942
0.135242 -0.0671011 0.0997521
-0.0711863 0.0418229 0.0647081
-0.064281 -0.0177666 0.0970086
-0.0227657 -0.0533601 0.0911258
0.0375534 0.105624 0.0132947
0.132325 0.082203 0.0843144
0.245152 -0.0357403 0.00170311
0.0941252 -0.0121962 0.0755365
0.0620239 0.136269 -0.0297019
0.0655942 -0.131534 0.0508707
-0.0626589 -0.0543329 0.0526556
-0.0765379 -0.11804 -0.00952748
0.248915 0.0223543 0.0153623
0.221483 0.163431 0.0861334
0.0849835 -0.150749 -0.0249095
0.17202 0.0473367 -0.011445
-0.0184114 -0.086371 0.052802
0.268529 0.0736419 0.00338129
0.0250405 0.155213 0.0306296
0.166471 -0.147136 0.0914841
0.202476 -0.14552 0.0687062
0.27306 -0.172849 -0.0571329
0.175632 -0.047499 0.0125627
0.0616244 0.00358391 -0.0331547
0.131649 -0.177762 0.0369324
0.253436 -0.00591787 0.0900067
0.188783 0.179478 0.0124795
0.19306 -0.177243 -0.0567568
-0.0760294 0.0888848 0.0801771
-0.0760474 0.120846 -0.0209617
0.125 0.169667 -0.0499611
-0.0762391 -0.0144958 -0.00324052
0.118898 0.0261041 0.0873972
0.0502908 0.138151 0.0927849
0.208909 0.0299761 0.0823902
-0.012895 0.173977 0.0141943
0.0688529 -0.0344447 0.0296014
0.268068 -0.0823996 -0.0471689
0.265396 -0.174891 0.08676
0.0662625 0.174477 0.0819059
0.278232 -0.0621294 0.0919997
0.0809825 -0.102295 0.0928542
-0.0596725 -0.0881033 0.0924839
0.0107661 -0.131182 -0.0521471
0.219019 -0.0512545 0.0898424
0.12609 0.0988676 -0.0576396
0.22943 0.128218 -0.0406411
-0.0370388 0.0188905 0.0937661
-0.0117798 0.116579 0.00714176
0.17824 -0.0934721 0.0852497
0.0443106 -0.17176 -0.0482438
0.198079 0.0108947 -0.0478691
0.229885 0.178675 -0.0582909
-0.0782994 0.174701 0.0904748
-0.0317267 -0.134488 -0.00570408
0.231099 -0.171271 0.0129255
0.162764 -0.151253 -0.0357406
0.166972 -0.0858798 -0.0541957
0.0665216 -0.0727794 0.0158074
0.260634 0.167245 0.0954642
0.0561011 0.0342929 0.0359745
-0.0758881 0.167109 -0.0339421
0.00478546 0.129269 0.095426
VERTICES 86 172
1 0
1 1
1 2
1 3
1 4
1 5
1 6
1 7
1 8
1 9
1 10
1 11
1 12
1 13
1 14
1 15
1 16
1 17
1 18
1 19
1 20
1 21
1 22
1 23
1 24
1 25
1 26
1 27
1 28
1 29
1 30
1 31
1 32
1 33
1 34
1 35
1 36
1 37
1 38
1 39
1 40
1 41
1 42
1 43
1 44
1 45
1 46
1 47
1 48
1 49
1 50
1 51
1 52
1 53
1 54
1 55
1 56
1 57
1 58
1 59
1 60
1 61
1 62
1 63
1 64
1 65
1 66
1 67
1 68
1 69
1 70
1 71
1 72
1 73
1 74
1 75
1 76
1 77
1 78
1 79
1 80
1 81
1 82
1 83
1 84
1 85
POINT_DATA 86
VECTORS i float
0.0 0.0 0.0
0.0 0.0 0.0
0.0 0.0 0.0
0.0 0.0 0.0
0.0 0.0 0.0
0.0 0.0 0.0
0.0 0.0 0.0
0.0 0.0 0.0
0.0 0.0 0.0
0.0 0.0 0.0
0.0 0.0 0.0
0.0 0.0 0.0
0.0 0.0 0.0
0.0 0.0 0.0
0.0 0.0 0.0
0.0 0.0 0.0
0.0 0.0 0.0
0.0 0.0 0.0
0.0 0.0 0.0
0.0 0.0 0.0
0.0 0.0 0.0
0.0 0.0 0.0
0.0 0.0 0.0
0.0 0.0 0.0
0.0 0.0 0.0
0.0 0.0 0.0
0.0 0.0 0.0
0.0 0.0 0.0
0.0 0.0 0.0
0.0 0.0 0.0
0.0 0.0 0.0
0.0 0.0 0.0
0.0 0.0 0.0
0.0 0.0 0.0
0.0 0.0 0.0
0.0 0.0 0.0
0.0 0.0 0.0
0.0 0.0 0.0
0.0 0.0 0.0
0.0 0.0 0.0
0.0 0.0 0.0
0.0 0.0 0.0
0.0 0.0 0.0
0.0 0.0 0.0
0.0 0.0 0.0
0.0 0.0 0.0
0.0 0.0 0.0
0.0 0.0 0.0
0.0 0.0 0.0
0.0 0.0 0.0
0.0 0.0 0.0
0.0 0.0 0.0
0.0 0.0 0.0
0.0 0.0 0.0
0.0 0.0 0.0
0.0 0.0 0.0
0.0 0.0 0.0
0.0 0.0 0.0
0.0 0.0 0.0
0.0 0.0 0.0
0.0 0.0 0.0
0.0 0.0 0.0
0.0 0.0 0.0
0.0 0.0 0.0
0.0 0.0 0.0
0.0 0.0 0.0
0.0 0.0 0.0
0.0 0.0 0.0
0.0 0.0 0.0
0.0 0.0 0.0
0.0 0.0 0.0
0.0 0.0 0.0
0.0 0.0 0.0
0.0 0.0 0.0
0.0 0.0 0.0
0.0 0.0 0.0
0.0 0.0 0.0
0.0 0.0 0.0
0.0 0.0 0.0
0.0 0.0 0.0
0.0 0.0 0.0
0.0 0.0 0.0
0.0 0.0 0.0
0.0 0.0 0.0
0.0 0.0 0.0
0.0 0.0 0.0
VECTORS f float
0.0 0.0 -1.60516
0.0 0.0 -1.60516
0.0 0.0 -1.60516
0.0 0.0 -1.60516
0.0 0.0 -1.60516
0.0 0.0 -1.60516
0.0 0.0 -1.60516
0.0 0.0 -1.60516
0.0 0.0 -1.60516
0.0 0.0 -1.60516
0.0 0.0 -1.60516
0.0 0.0 -1.60516
0.0 0.0 -1.60516
0.0 0.0 -1.60516
0.0 0.0 -1.60516
0.0 0.0 -1.60516
0.0 0.0 -1.60516
0.0 0.0 -1.60516
0.0 0.0 -1.60516
0.0 0.0 -1.60516
0.0 0.0 -1.60516
0.0 0.0 -1.60516
0.0 0.0 -1.60516
0.0 0.0 -1.60516
0.0 0.0 -1.60516
0.0 0.0 -1.60516
0.0 0.0 -1.60516
0.0 0.0 -1.60516
0.0 0.0 -0.821841
0.0 0.0 -0.821841
0.0 0.0 -0.821841
0.0 0.0 -0.821841
0.0 0.0 -0.821841
0.0 0.0 -0.821841
0.0 0.0 -0.821841
0.0 0.0 -0.821841
0.0 0.0 -0.821841
0.0 0.0 -0.821841
0.0 0.0 -0.821841
0.0 0.0 -0.821841
0.0 0.0 -0.821841
0.0 0.0 -0.821841
0.0 0.0 -0.821841
0.0 0.0 -0.821841
0.0 0.0 -0.821841
0.0 0.0 -0.821841
0.0 0.0 -0.821841
0.0 0.0 -0.821841
0.0 0.0 -0.821841
0.0 0.0 -0.821841
0.0 0.0 -0.821841
0.0 0.0 -0.821841
0.0 0.0 -0.821841
0.0 0.0 -0.821841
0.0 0.0 -0.821841
0.0 0.0 -0.821841
0.0 0.0 -0.821841
0.0 0.0 -0.821841
0.0 0.0 -0.821841
0.0 0.0 -0.821841
0.0 0.0 -0.821841
0.0 0.0 -0.821841
0.0 0.0 -0.821841
0.0 0.0 -0.821841
0.0 0.0 -0.821841
0.0 0.0 -0.821841
0.0 0.0 -0.821841
0.0 0.0 -0.821841
0.0 0.0 -0.821841
0.0 0.0 -0.821841
0.0 0.0 -0.821841
0.0 0.0 -0.821841
0.0 0.0 -0.821841
0.0 0.0 -0.821841
0.0 0.0 -0.821841
0.0 0.0 -0.821841
0.0 0.0 -0.821841
0.0 0.0 -0.821841
0.0 0.0 -0.821841
0.0 0.0 -0.821841
0.0 0.0 -0.821841
0.0 0.0 -0.821841
0.0 0.0 -0.821841
0.0 0.0 -0.821841
0.0 0.0 -0.821841
0.0 0.0 -0.821841
VECTORS omega float
-4.39195 -19.2614 2.17751
0.0 0.0 0.0
0.0 0.0 0.0
0.0 0.0 0.0
0.0 0.0 0.0
-32.3417 -46.0358 8.61642e-08
29.9813 -99.0088 11.3468
0.0 0.0 0.0
0.0 0.0 0.0
0.0 0.0 0.0
0.0 0.0 0.0
0.0 0.0 0.0
0.0 0.0 0.0
0.0 0.0 0.0
0.0 0.0 0.0
0.0 0.0 0.0
0.0 0.0 0.0
0.0 0.0 0.0
0.0 0.0 0.0
-5.54031 19.9228 -1.50937
0.0 0.0 0.0
0.0 0.0 0.0
0.0 0.0 0.0
0.0 0.0 0.0
29.9813 -60.6541 11.3468
10.0749 -5.73921 14.3137
0.0 0.0 0.0
-93.9705 21.2123 -2.09729e-15
0.0 0.0 0.0
0.0 0.0 0.0
0.0 0.0 0.0
0.0 0.0 0.0
29.4222 -48.9779 -43.8717
-21.6472 71.9359 21.8888
0.0 0.0 0.0
0.0 0.0 0.0
0.0 0.0 0.0
0.0 0.0 0.0
0.0 0.0 0.0
-3.47295 -69.9455 19.7299
0.0 0.0 0.0
0.0 0.0 0.0
0.0 0.0 0.0
0.0 0.0 0.0
0.0 0.0 0.0
0.0 0.0 0.0
0.0 0.0 0.0
0.0 0.0 0.0
0.0 0.0 0.0
0.0 0.0 0.0
0.0 0.0 0.0
0.0 0.0 0.0
0.0 0.0 0.0
0.0 0.0 0.0
-1.40651e-07 43.1149 7.3731e-08
0.0 0.0 0.0
0.0 0.0 0.0
0.0 0.0 0.0
0.0 0.0 0.0
-1.75803e-07 116.391 -1.93606e-10
0.0 0.0 0.0
0.0 0.0 0.0
0.0 0.0 0.0
0.0 0.0 0.0
0.0 0.0 0.0
0.0 0.0 0.0
0.0 0.0 0.0
0.0 0.0 0.0
0.0 0.0 0.0
0.0 0.0 0.0
-54.3395 -126.369 34.944
0.0 0.0 0.0
0.0 0.0 0.0
0.0 0.0 0.0
0.0 0.0 0.0
0.0 0.0 0.0
0.0 0.0 0.0
0.0 0.0 0.0
0.0 0.0 0.0
0.0 0.0 0.0
0.0 0.0 0.0
39.7361 92.5694 -47.5562
0.0 0.0 0.0
-10.7204 5.74584 5.31517
0.0 0.0 0.0
0.0 0.0 0.0
VECTORS v float
0.524996 0.222569 -1.35376
0.0 0.0 -4.37464
0.0 0.0 -4.37464
0.0 0.0 -4.37464
0.0 0.0 -4.37464
0.876465 -0.615747 1.09092
0.138172 0.718813 0.508431
0.0 0.0 -4.37464
0.0 0.0 -4.37464
0.0 0.0 -4.51487
0.0 0.0 -4.37464
0.0 0.0 -4.37464
0.0 0.0 -4.51095
0.0 0.0 -4.47112
0.0 0.0 -4.37464
0.0 0.0 -4.49427
0.0 0.0 -4.48417
0.0 0.0 -4.60601
0.0 0.0 -4.37464
0.586376 0.161072 -4.61309
0.0 0.0 -4.37464
0.0 0.0 -4.37464
0.0 0.0 -4.38823
0.0 0.0 -4.37464
-1.90668 -0.718813 -3.21663
-0.277165 -0.0991209 -4.21927
0.0 0.0 -4.37464
0.276129 1.22325 -3.23621
0.0 0.0 -4.37464
0.0 0.0 -4.53724
0.0 0.0 -4.37469
0.0 0.0 -4.60464
0.75142 -1.63743 -2.17333
1.30948 0.41409 -1.47644
0.0 0.0 -4.56147
0.0 0.0 -4.50761
0.0 0.0 -4.37464
0.0 0.0 -4.59443
0.0 0.0 -4.56559
0.264777 -0.801248 -0.252866
0.0 0.0 -4.53361
0.0 0.0 -4.47426
0.0 0.0 -4.37464
0.0 0.0 -4.38999
0.0 0.0 -4.66271
0.0 0.0 -4.5137
0.0 0.0 -4.61199
0.0 0.0 -4.46043
0.0 0.0 -4.37464
0.0 0.0 -4.51389
0.0 0.0 -4.66193
0.0 0.0 -4.37464
0.0 0.0 -4.586
0.0 0.0 -4.6476
1.05893 1.35941e-09 -0.591504
0.0 0.0 -4.37464
0.0 0.0 -4.37464
0.0 0.0 -4.37464
0.0 0.0 -4.51017
2.6896 4.02269e-09 -1.08216
0.0 0.0 -4.64172
0.0 0.0 -4.37464
0.0 0.0 -4.37464
0.0 0.0 -4.37464
0.0 0.0 -4.37464
0.0 0.0 -4.37464
0.0 0.0 -4.65221
0.0 0.0 -4.37464
0.0 0.0 -4.66379
0.0 0.0 -4.62789
-1.17051 1.39623 -2.37944
0.0 0.0 -4.52547
0.0 0.0 -4.37464
0.0 0.0 -4.64397
0.0 0.0 -4.64319
0.0 0.0 -4.66516
0.0 0.0 -4.37464
0.0 0.0 -4.55323
0.0 0.0 -4.51291
0.0 0.0 -4.61749
0.0 0.0 -4.65653
0.704099 0.655553 -2.48458
0.0 0.0 -4.37464
0.720953 -0.434705 -4.53411
0.0 0.0 -4.61366
0.0 0.0 -4.37464
SCALARS radius float 1
LOOKUP_TABLE default
0.025
0.025
0.025
0.025
0.025
0.025
0.025
0.025
0.025
0.025
0.025
0.025
0.025
0.025
0.025
0.025
0.025
0.025
0.025
0.025
0.025
0.025
0.025
0.025
0.025
0.025
0.025
0.025
0.02
0.02
0.02
0.02
0.02
0.02
0.02
0.02
0.02
0.02
0.02
0.02
0.02
0.02
0.02
0.02
0.02
0.02
0.02
0.02
0.02
0.02
0.02
0.02
0.02
0.02
0.02
0.02
0.02
0.02
0.02
0.02
0.02
0.02
0.02
0.02
0.02
0.02
0.02
0.02
0.02
0.02
0.02
0.02
0.02
0.02
0.02
0.02
0.02
0.02
0.02
0.02
0.02
0.02
0.02
0.02
0.02
0.02
SCALARS type float 1
LOOKUP_TABLE default
1.0
1.0
1.0
1.0
1.0
1.0
1.0
1.0
1.0
1.0
1.0
1.0
1.0
1.0
1.0
1.0
1.0
1.0
1.0
1.0
1.0
1.0
1.0
1.0
1.0
1.0
1.0
1.0
1.0
1.0
1.0
1.0
1.0
1.0
1.0
1.0
1.0
1.0
1.0
1.0
1.0
1.0
1.0
1.0
1.0
1.0
1.0
1.0
1.0
1.0
1.0
1.0
1.0
1.0
1.0
1.0
1.0
1.0
1.0
1.0
1.0
1.0
1.0
1.0
1.0
1.0
1.0
1.0
1.0
1.0
1.0
1.0
1.0
1.0
1.0
1.0
1.0
1.0
1.0
1.0
1.0
1.0
1.0
1.0
1.0
1.0
SCALARS id float 1
LOOKUP_TABLE default
1.0
2.0
3.0
4.0
5.0
6.0
7.0
8.0
9.0
10.0
11.0
12.0
13.0
14.0
15.0
16.0
17.0
18.0
19.0
20.0
21.0
22.0
23.0
24.0
25.0
26.0
27.0
28.0
29.0
30.0
31.0
32.0
33.0
34.0
35.0
36.0
37.0
38.0
39.0
40.0
41.0
42.0
43.0
44.0
45.0
46.0
47.0
48.0
49.0
50.0
51.0
52.0
53.0
54.0
55.0
56.0
57.0
58.0
59.0
60.0
61.0
62.0
63.0
64.0
65.0
66.0
67.0
68.0
69.0
70.0
71.0
72.0
73.0
74.0
75.0
76.0
77.0
78.0
79.0
80.0
81.0
82.0
83.0
84.0
85.0
86.0

