# vtk DataFile Version 2.0
Generated by lpp.py
ASCII
DATASET POLYDATA
POINTS 86 float
0.085808 0.0853626 -0.0104233
0.0633025 0.105098 -0.0572385
-0.0643459 -0.167895 -0.0739032
-0.0150281 -0.172501 -0.0645721
0.269428 0.102806 -0.0177367
0.0882965 -0.0574215 0.138895
-0.00609016 0.130826 0.0753709
0.028796 -0.137106 -0.0318829
0.183379 -0.0108154 0.000913949
0.113607 -0.11692 -0.064916
0.272776 0.0546678 -0.0346738
0.0933535 -0.163209 -0.0341504
0.25742 0.143856 -0.0570564
0.158121 0.140079 0.0111856
0.25043 -0.0690358 0.0198723
0.116292 0.00631069 -0.0729006
0.234092 -0.0781683 -0.0720689
0.119024 0.0681605 -0.0664975
0.122317 0.117111 -0.0367186
0.105977 -0.0563511 -0.0316157
-0.0356205 0.127283 -0.0508964
0.271241 -0.118952 -0.0405645
0.172887 0.0954625 -0.0387803
0.18378 -0.0885233 -0.0371542
-0.039535 0.0209894 -0.054209
-0.0665089 -0.0308875 -0.0469239
-0.0740055 -0.0147888 0.127177
0.0169709 0.133733 -0.0613424
0.134306 0.0611261 -0.0110719
0.252329 -0.0193092 -0.0473176
0.114847 0.0268648 -0.0204572
0.118149 0.129954 -0.0796584
0.00601222 -0.104085 -0.0742702
-0.0793996 -0.0643948 -0.0790898
-0.0765201 -0.120937 -0.0769848
0.247735 0.0249683 -0.0787192
0.233702 0.0974053 0.0385378
0.0956517 -0.177383 -0.0791195
0.181241 0.0302062 -0.0478382
-0.0558994 -0.11355 -0.039516
0.258025 0.0850385 -0.0743388
0.0527935 0.176476 -0.0753722
0.170052 -0.126456 -0.00947513
0.214167 -0.14313 -0.0648233
0.267365 -0.160636 -0.0741608
0.200876 -0.0478925 -0.0747855
0.0425429 0.00143315 -0.0491623
0.151036 -0.176743 -0.0341088
0.278658 0.0114806 -0.0522148
0.188783 0.179478 0.0608292
0.17773 -0.179163 -0.0709954
-0.073709 0.0668818 -0.07459
-0.0776136 0.126224 -0.0722003
0.146512 0.169574 -0.0397386
-0.00693565 -0.00504431 -0.0719904
0.146627 0.0435752 0.0369342
0.0828627 0.146829 -0.0676052
0.228077 0.0390883 -0.0264093
-0.0103012 0.174925 -0.0769211
0.0623974 0.0138622 -0.0111987
0.278743 -0.0633653 -0.0429985
0.23034 -0.17679 -0.0409393
0.114307 0.174967 -0.0658482
0.279766 -0.0440608 -0.00428608
0.0671544 -0.125449 -0.078486
-0.0557 -0.0417723 0.0318361
0.0289546 -0.02781 -0.0748934
0.228499 -0.0547316 -0.0317735
0.157965 0.115236 -0.0764705
0.184619 0.144737 -0.0567738
-0.0766472 0.0741068 0.0472093
-0.0311464 0.0584161 -0.0785893
0.22835 -0.127111 -0.0218763
0.0357089 -0.158183 -0.0777047
0.180822 -0.0216653 -0.0491582
0.234777 0.179423 -0.0771645
-0.0769455 0.173125 0.0203382
-0.0163586 -0.0615963 -0.0794143
0.220928 -0.179998 -0.0799835
0.169319 -0.13393 -0.0782939
0.194384 -0.102467 -0.0795925
0.0844949 -0.0828122 -0.0719996
0.234793 0.138637 -0.00386784
0.064992 0.0423069 -0.0397464
-0.0748 0.161949 -0.0320928
0.0274821 0.16446 -0.0220946
VERTICES 86 172
1 0
1 1
1 2
1 3
1 4
1 5
1 6
1 7
1 8
1 9
1 10
1 11
1 12
1 13
1 14
1 15
1 16
1 17
1 18
1 19
1 20
1 21
1 22
1 23
1 24
1 25
1 26
1 27
1 28
1 29
1 30
1 31
1 32
1 33
1 34
1 35
1 36
1 37
1 38
1 39
1 40
1 41
1 42
1 43
1 44
1 45
1 46
1 47
1 48
1 49
1 50
1 51
1 52
1 53
1 54
1 55
1 56
1 57
1 58
1 59
1 60
1 61
1 62
1 63
1 64
1 65
1 66
1 67
1 68
1 69
1 70
1 71
1 72
1 73
1 74
1 75
1 76
1 77
1 78
1 79
1 80
1 81
1 82
1 83
1 84
1 85
POINT_DATA 86
VECTORS i float
0.0 0.0 0.0
0.0 0.0 0.0
0.0 0.0 0.0
0.0 0.0 0.0
0.0 0.0 0.0
0.0 0.0 0.0
0.0 0.0 0.0
0.0 0.0 0.0
0.0 0.0 0.0
0.0 0.0 0.0
0.0 0.0 0.0
0.0 0.0 0.0
0.0 0.0 0.0
0.0 0.0 0.0
0.0 0.0 0.0
0.0 0.0 0.0
0.0 0.0 0.0
0.0 0.0 0.0
0.0 0.0 0.0
0.0 0.0 0.0
0.0 0.0 0.0
0.0 0.0 0.0
0.0 0.0 0.0
0.0 0.0 0.0
0.0 0.0 0.0
0.0 0.0 0.0
0.0 0.0 0.0
0.0 0.0 0.0
0.0 0.0 0.0
0.0 0.0 0.0
0.0 0.0 0.0
0.0 0.0 0.0
0.0 0.0 0.0
0.0 0.0 0.0
0.0 0.0 0.0
0.0 0.0 0.0
0.0 0.0 0.0
0.0 0.0 0.0
0.0 0.0 0.0
0.0 0.0 0.0
0.0 0.0 0.0
0.0 0.0 0.0
0.0 0.0 0.0
0.0 0.0 0.0
0.0 0.0 0.0
0.0 0.0 0.0
0.0 0.0 0.0
0.0 0.0 0.0
0.0 0.0 0.0
0.0 0.0 0.0
0.0 0.0 0.0
0.0 0.0 0.0
0.0 0.0 0.0
0.0 0.0 0.0
0.0 0.0 0.0
0.0 0.0 0.0
0.0 0.0 0.0
0.0 0.0 0.0
0.0 0.0 0.0
0.0 0.0 0.0
0.0 0.0 0.0
0.0 0.0 0.0
0.0 0.0 0.0
0.0 0.0 0.0
0.0 0.0 0.0
0.0 0.0 0.0
0.0 0.0 0.0
0.0 0.0 0.0
0.0 0.0 0.0
0.0 0.0 0.0
0.0 0.0 0.0
0.0 0.0 0.0
0.0 0.0 0.0
0.0 0.0 0.0
0.0 0.0 0.0
0.0 0.0 0.0
0.0 0.0 0.0
0.0 0.0 0.0
0.0 0.0 0.0
0.0 0.0 0.0
0.0 0.0 0.0
0.0 0.0 0.0
0.0 0.0 0.0
0.0 0.0 0.0
0.0 0.0 0.0
0.0 0.0 0.0
VECTORS f float
0.0 0.0 -1.60516
0.0 0.0 -1.60516
0.0 0.0 -1.60516
0.0 0.0 -1.60516
0.0 0.0 -1.60516
0.0 0.0 -1.60516
0.0 0.0 -1.60516
0.0 0.0 -1.60516
0.0 0.0 -1.60516
0.0 0.0 -1.60516
0.0 0.0 -1.60516
0.0 0.0 -1.60516
0.0 0.0 -1.60516
0.0 0.0 -1.60516
0.0 0.0 -1.60516
0.0 0.0 -1.60516
0.0 0.0 -1.60516
0.0 0.0 -1.60516
0.0 0.0 -1.60516
0.0 0.0 -1.60516
0.0 0.0 -1.60516
0.0 0.0 -1.60516
0.0 0.0 -1.60516
0.0 0.0 -1.60516
0.0 0.0 -1.60516
0.0 0.0 -1.60516
0.0 0.0 -1.60516
0.0 0.0 -1.60516
0.0 0.0 -0.821841
0.0 0.0 -0.821841
0.0 0.0 -0.821841
0.0 0.0 -0.821841
0.0 0.0 -0.821841
0.0 0.0 -0.821841
0.0 0.0 -0.821841
0.0 0.0 -0.821841
0.0 0.0 -0.821841
0.0 0.0 -0.821841
0.0 0.0 -0.821841
0.0 0.0 -0.821841
0.0 0.0 -0.821841
0.0 0.0 -0.821841
0.0 0.0 -0.821841
0.0 0.0 -0.821841
0.0 0.0 -0.821841
0.0 0.0 -0.821841
0.0 0.0 -0.821841
0.0 0.0 -0.821841
0.0 0.0 -0.821841
0.0 0.0 -0.821841
0.0 0.0 -0.821841
0.0 0.0 -0.821841
0.0 0.0 -0.821841
0.0 0.0 -0.821841
0.0 0.0 -0.821841
0.0 0.0 -0.821841
0.0 0.0 -0.821841
0.0 0.0 -0.821841
0.0 0.0 -0.821841
0.0 0.0 -0.821841
0.0 0.0 -0.821841
0.0 0.0 -0.821841
0.0 0.0 -0.821841
0.0 0.0 -0.821841
0.0 0.0 -0.821841
0.0 0.0 -0.821841
0.0 0.0 -0.821841
0.0 0.0 -0.821841
0.0 0.0 -0.821841
0.0 0.0 -0.821841
0.0 0.0 -0.821841
0.0 0.0 -0.821841
0.0 0.0 -0.821841
0.0 0.0 -0.821841
0.0 0.0 -0.821841
0.0 0.0 -0.821841
0.0 0.0 -0.821841
0.0 0.0 -0.821841
0.0 0.0 -0.821841
0.0 0.0 -0.821841
0.0 0.0 -0.821841
0.0 0.0 -0.821841
0.0 0.0 -0.821841
0.0 0.0 -0.821841
0.0 0.0 -0.821841
0.0 0.0 -0.821841
VECTORS omega float
1.51013 -22.3111 -6.86827
-0.380108 10.7529 -3.65358
-5.82904 1.07404 8.5317
-0.538738 -18.9915 -12.0166
15.6619 32.7101 23.6904
-26.0803 -50.5733 -1.45208
29.9813 -99.0088 11.3468
-20.2797 40.3712 3.2624
-6.19893 15.0278 -11.3492
-13.4996 -20.0978 15.3736
0.419672 -8.37697 -1.93337
-10.0857 7.77183 8.89727
-13.023 -13.51 6.02681
-9.27354 1.69843 -10.2287
20.3494 90.7001 32.3918
0.771043 -5.45391 0.733697
17.7183 -19.9881 -3.68187
-2.43645 15.7041 1.24587
-3.54206 -10.8338 -26.1305
-32.8138 3.90956 6.22557
-1.32417 -23.0387 0.391856
-32.385 -8.38466 4.45428
11.997 14.8531 -2.80173
-0.756068 -6.73507 -7.69293
2.99703 -7.84809 5.5182
18.2177 5.86905 -14.6794
-14.2654 -16.5103 7.3168
25.4166 -48.5707 -23.6824
51.789 9.06372 29.1574
-5.28565 25.6622 -16.4836
4.67762 21.9008 -24.9985
-6.62386 50.3324 -84.71
-41.0916 -25.5439 6.93402
7.5421 16.578 2.28119
-20.2667 4.78007 22.5017
-6.09462 -2.52948 0.358807
54.6499 -24.416 -9.64789
2.39612 -6.16384 3.9646
19.7114 -46.5994 20.4426
24.134 -57.588 -31.8019
3.30238 -14.304 -56.5427
12.7467 38.3505 72.6868
-23.6819 45.0345 -21.9833
0.753949 -12.0745 -29.1125
-21.9169 -16.301 8.19549
14.5515 13.9845 16.6176
44.8047 -37.2303 13.1211
31.2294 -72.4385 -18.6543
4.1784 -15.4217 -3.12065
0.0 0.0 0.0
-18.6769 31.0712 8.73811
16.75 17.0205 3.38583
10.4692 0.24544 -0.659403
16.7187 -20.6477 30.4635
-36.0118 23.5544 28.2632
34.834 -5.33969 -1.83755
-61.7232 3.49651 10.1163
-69.0571 52.421 -7.6213
-3.0997 18.8448 -25.1824
-53.781 -18.0158 23.6372
24.9856 18.0696 -2.53218
1.59917 8.70633 -0.298385
22.3251 -55.9842 49.8166
15.8228 2.43703 8.26424
-9.68658 -15.2103 -24.4633
-63.3931 18.2802 51.8135
-73.2678 34.0443 -14.4803
-21.2118 23.1501 -12.3814
9.30882 -1.55343 47.6738
-18.4696 -16.2006 -5.10657
-58.2175 -1.87261 35.946
-6.3757 8.39542 -38.66
13.394 -8.99137 35.6702
-10.082 -8.96825 -4.43941
-19.3417 -21.0496 12.2605
-3.2525 14.5923 -2.80803
-14.5476 1.10021 -18.3635
29.1249 -9.80397 -35.3382
2.1669 -7.85212 6.1119
-9.2131 4.08412 -23.824
8.55017 7.58687 13.1154
13.4544 7.35105 -11.4192
-15.1823 -67.0945 6.92827
13.3939 18.932 7.09395
12.4938 -19.7411 -0.456119
-60.4493 -6.41019 11.6152
VECTORS v float
-0.446706 0.030468 -0.617662
-0.342191 0.489286 -0.267806
-0.330745 0.13373 -0.049159
-0.262261 0.0624576 0.429941
0.483639 -0.222442 0.27399
0.934564 -0.509511 0.146197
0.138172 0.718813 -0.354849
0.284064 0.811167 -0.797203
0.0542784 -0.143223 0.150383
0.0750953 -0.0128884 0.237192
-0.311323 0.0416983 -0.295175
-0.0945791 0.306408 -0.018038
-0.152961 0.140995 0.117029
-0.12488 0.107635 0.789075
1.3797 -0.511216 0.459721
-0.122584 -0.0434796 0.251125
0.378519 0.0653698 -0.641327
-0.24838 0.5037 -0.273042
1.10307 0.0114407 -0.0622766
-0.280657 0.0796731 0.50905
-0.683703 -0.0938096 0.278315
0.523103 0.0520119 0.24793
-0.422119 0.0399871 0.245914
0.329039 0.00573179 0.135263
-0.352904 -0.131161 -0.110407
0.25013 -0.382798 -0.177866
0.358811 0.180481 0.384715
0.0876951 -0.24752 1.35775
0.0529848 -0.0660418 0.726973
-0.230633 0.232338 0.0187655
-0.294622 -0.286055 -0.0587799
1.00551 0.152727 0.0940665
-0.578126 0.859989 0.668052
0.0487814 -0.207817 -0.669567
0.11659 0.412045 0.0179114
-0.0557648 0.124471 0.11333
0.541289 -0.675966 1.1511
-0.0771688 0.148225 -0.101574
0.207445 -0.444857 -0.282112
0.0350929 0.470979 0.159458
-0.256524 -0.0845545 0.00344313
0.790084 -0.242906 0.30256
0.105485 0.0411779 0.219097
0.157077 0.044442 0.156732
-0.290448 0.431999 -0.0347152
0.157414 -0.0477644 0.0348244
-0.195193 0.83482 0.0124196
0.385979 0.0973345 0.293927
0.149064 0.104666 -0.167688
0.0 0.0 1.7423
-0.19277 0.0343967 -0.251651
-0.0122949 -0.330248 -0.00965424
-0.866926 -0.0674686 -0.270378
0.700852 0.285311 0.632069
0.44009 0.726312 -0.177658
-0.0478136 0.412972 0.844173
1.34636 -0.260011 -0.46533
0.571238 0.101528 -0.0966479
0.358185 -0.0627667 -0.206626
0.346415 0.0632876 0.359553
0.142146 0.452772 0.284258
-0.214271 -0.0158814 0.0331628
0.844702 -0.513126 -0.695919
-0.0404509 0.748882 -0.871432
-0.289061 0.187261 0.20729
0.43188 0.713029 1.0565
0.518991 0.615735 -0.122485
0.38613 0.30297 -0.43628
0.00839311 -0.240466 -0.227563
0.0151774 0.480801 0.011997
0.504286 0.707406 -0.0673683
0.197085 0.119812 0.250938
0.123146 -0.48637 0.107288
-0.185929 0.213319 0.1204
-0.444824 -0.0660754 0.101469
-0.244306 0.0335476 -0.242919
0.0281889 -0.00136821 0.659497
-0.213218 -0.645886 0.34575
-0.120459 0.0340503 0.0496172
0.129856 0.203865 0.0871771
0.365013 0.162726 -0.0655046
-0.215066 0.153042 -0.118193
-0.425251 -0.336841 0.213733
-0.106281 -0.301015 -0.348546
0.105361 0.170287 0.347047
0.180995 -1.29807 0.853694
SCALARS radius float 1
LOOKUP_TABLE default
0.025
0.025
0.025
0.025
0.025
0.025
0.025
0.025
0.025
0.025
0.025
0.025
0.025
0.025
0.025
0.025
0.025
0.025
0.025
0.025
0.025
0.025
0.025
0.025
0.025
0.025
0.025
0.025
0.02
0.02
0.02
0.02
0.02
0.02
0.02
0.02
0.02
0.02
0.02
0.02
0.02
0.02
0.02
0.02
0.02
0.02
0.02
0.02
0.02
0.02
0.02
0.02
0.02
0.02
0.02
0.02
0.02
0.02
0.02
0.02
0.02
0.02
0.02
0.02
0.02
0.02
0.02
0.02
0.02
0.02
0.02
0.02
0.02
0.02
0.02
0.02
0.02
0.02
0.02
0.02
0.02
0.02
0.02
0.02
0.02
0.02
SCALARS type float 1
LOOKUP_TABLE default
1.0
1.0
1.0
1.0
1.0
1.0
1.0
1.0
1.0
1.0
1.0
1.0
1.0
1.0
1.0
1.0
1.0
1.0
1.0
1.0
1.0
1.0
1.0
1.0
1.0
1.0
1.0
1.0
1.0
1.0
1.0
1.0
1.0
1.0
1.0
1.0
1.0
1.0
1.0
1.0
1.0
1.0
1.0
1.0
1.0
1.0
1.0
1.0
1.0
1.0
1.0
1.0
1.0
1.0
1.0
1.0
1.0
1.0
1.0
1.0
1.0
1.0
1.0
1.0
1.0
1.0
1.0
1.0
1.0
1.0
1.0
1.0
1.0
1.0
1.0
1.0
1.0
1.0
1.0
1.0
1.0
1.0
1.0
1.0
1.0
1.0
SCALARS id float 1
LOOKUP_TABLE default
1.0
2.0
3.0
4.0
5.0
6.0
7.0
8.0
9.0
10.0
11.0
12.0
13.0
14.0
15.0
16.0
17.0
18.0
19.0
20.0
21.0
22.0
23.0
24.0
25.0
26.0
27.0
28.0
29.0
30.0
31.0
32.0
33.0
34.0
35.0
36.0
37.0
38.0
39.0
40.0
41.0
42.0
43.0
44.0
45.0
46.0
47.0
48.0
49.0
50.0
51.0
52.0
53.0
54.0
55.0
56.0
57.0
58.0
59.0
60.0
61.0
62.0
63.0
64.0
65.0
66.0
67.0
68.0
69.0
70.0
71.0
72.0
73.0
74.0
75.0
76.0
77.0
78.0
79.0
80.0
81.0
82.0
83.0
84.0
85.0
86.0

