# vtk DataFile Version 2.0
Generated by lpp.py
ASCII
DATASET POLYDATA
POINTS 86 float
0.0622325 0.0458396 0.102485
0.0838694 0.0924291 0.0492886
-0.0471576 -0.170755 0.0528574
0.00898122 -0.164523 0.0520574
0.241781 0.108672 0.0687042
0.0116623 -0.0156417 0.093926
-0.0174203 0.071883 0.0714873
-0.0027878 -0.11695 0.0807343
0.179347 -0.0107411 0.0709768
0.13197 -0.11791 -0.0152455
0.24361 0.0574967 0.0689978
0.0825359 -0.161115 0.0747763
0.274436 0.140358 -0.0134105
0.162553 0.132438 0.00505628
0.0455952 -0.0672861 0.06479
0.142434 -0.0165617 -0.00565478
0.21904 -0.088424 -0.00097379
0.103454 0.0501108 -0.0581526
0.113052 0.156584 0.0646141
0.109297 -0.0667184 -0.0499348
-0.0464708 0.144238 0.053858
0.260616 -0.122628 0.0530036
0.200035 0.085947 0.0429883
0.135242 -0.0671011 0.0733277
-0.0726839 0.0394467 0.0496676
-0.065944 -0.0183613 0.0715164
-0.0217198 -0.0527936 0.0695491
0.0392102 0.112964 -0.00629918
0.132325 0.082203 0.0578899
0.245152 -0.0357403 -0.0256969
0.0958483 -0.0107027 0.0516594
0.0620239 0.136269 -0.0575063
0.0697008 -0.140262 0.0359393
-0.0594405 -0.0522222 0.0403705
-0.0765379 -0.11804 -0.0370729
0.248915 0.0223543 -0.0118599
0.221483 0.163431 0.059709
0.0849835 -0.150749 -0.0526527
0.17202 0.0473367 -0.0390151
-0.0210377 -0.0939391 0.0465819
0.268529 0.0736419 -0.023997
0.0250405 0.155213 0.00360741
0.166471 -0.147136 0.0650597
0.202476 -0.14552 0.0421897
0.27306 -0.172849 -0.0776668
0.175632 -0.047499 -0.0146961
0.0616244 0.00358391 -0.0610033
0.131649 -0.177762 0.00999329
0.253436 -0.00591787 0.0635823
0.188783 0.179478 -0.0147804
0.19306 -0.177243 -0.0777961
-0.0760294 0.0888848 0.0537526
-0.0760474 0.120846 -0.0486543
0.125 0.169667 -0.0780233
-0.0698856 -0.0144958 -0.00696613
0.118898 0.0261041 0.0609728
0.0502908 0.138151 0.0663605
0.208909 0.0299761 0.0559658
-0.012895 0.173977 -0.0130433
0.0832674 -0.0359382 0.0203843
0.268068 -0.0823996 -0.0751958
0.265396 -0.174891 0.0603356
0.0662625 0.174477 0.0554814
0.278232 -0.0621294 0.0655753
0.0809825 -0.102295 0.0664298
-0.0596725 -0.0881033 0.0660594
0.0107661 -0.131182 -0.0800853
0.219019 -0.0512545 0.063418
0.12609 0.0988676 -0.0772469
0.22943 0.128218 -0.068585
-0.0413241 0.0258139 0.0816917
-0.0117798 0.116579 -0.0201876
0.17824 -0.0934721 0.0588253
0.0443106 -0.17176 -0.0762842
0.198079 0.0108947 -0.0759049
0.229885 0.178675 -0.0769171
-0.0782994 0.174701 0.0640504
-0.0317267 -0.134488 -0.0332
0.231099 -0.171271 -0.0143286
0.162764 -0.151253 -0.0636221
0.166972 -0.0858798 -0.0790796
0.0707462 -0.068846 0.00072332
0.260634 0.167245 0.0690398
0.0604268 0.0316847 0.00859327
-0.0758881 0.167109 -0.0618006
0.00478546 0.129269 0.0690016
VERTICES 86 172
1 0
1 1
1 2
1 3
1 4
1 5
1 6
1 7
1 8
1 9
1 10
1 11
1 12
1 13
1 14
1 15
1 16
1 17
1 18
1 19
1 20
1 21
1 22
1 23
1 24
1 25
1 26
1 27
1 28
1 29
1 30
1 31
1 32
1 33
1 34
1 35
1 36
1 37
1 38
1 39
1 40
1 41
1 42
1 43
1 44
1 45
1 46
1 47
1 48
1 49
1 50
1 51
1 52
1 53
1 54
1 55
1 56
1 57
1 58
1 59
1 60
1 61
1 62
1 63
1 64
1 65
1 66
1 67
1 68
1 69
1 70
1 71
1 72
1 73
1 74
1 75
1 76
1 77
1 78
1 79
1 80
1 81
1 82
1 83
1 84
1 85
POINT_DATA 86
VECTORS i float
0.0 0.0 0.0
0.0 0.0 0.0
0.0 0.0 0.0
0.0 0.0 0.0
0.0 0.0 0.0
0.0 0.0 0.0
0.0 0.0 0.0
0.0 0.0 0.0
0.0 0.0 0.0
0.0 0.0 0.0
0.0 0.0 0.0
0.0 0.0 0.0
0.0 0.0 0.0
0.0 0.0 0.0
0.0 0.0 0.0
0.0 0.0 0.0
0.0 0.0 0.0
0.0 0.0 0.0
0.0 0.0 0.0
0.0 0.0 0.0
0.0 0.0 0.0
0.0 0.0 0.0
0.0 0.0 0.0
0.0 0.0 0.0
0.0 0.0 0.0
0.0 0.0 0.0
0.0 0.0 0.0
0.0 0.0 0.0
0.0 0.0 0.0
0.0 0.0 0.0
0.0 0.0 0.0
0.0 0.0 0.0
0.0 0.0 0.0
0.0 0.0 0.0
0.0 0.0 0.0
0.0 0.0 0.0
0.0 0.0 0.0
0.0 0.0 0.0
0.0 0.0 0.0
0.0 0.0 0.0
0.0 0.0 0.0
0.0 0.0 0.0
0.0 0.0 0.0
0.0 0.0 0.0
0.0 0.0 0.0
0.0 0.0 0.0
0.0 0.0 0.0
0.0 0.0 0.0
0.0 0.0 0.0
0.0 0.0 0.0
0.0 0.0 0.0
0.0 0.0 0.0
0.0 0.0 0.0
0.0 0.0 0.0
0.0 0.0 0.0
0.0 0.0 0.0
0.0 0.0 0.0
0.0 0.0 0.0
0.0 0.0 0.0
0.0 0.0 0.0
0.0 0.0 0.0
0.0 0.0 0.0
0.0 0.0 0.0
0.0 0.0 0.0
0.0 0.0 0.0
0.0 0.0 0.0
0.0 0.0 0.0
0.0 0.0 0.0
0.0 0.0 0.0
0.0 0.0 0.0
0.0 0.0 0.0
0.0 0.0 0.0
0.0 0.0 0.0
0.0 0.0 0.0
0.0 0.0 0.0
0.0 0.0 0.0
0.0 0.0 0.0
0.0 0.0 0.0
0.0 0.0 0.0
0.0 0.0 0.0
0.0 0.0 0.0
0.0 0.0 0.0
0.0 0.0 0.0
0.0 0.0 0.0
0.0 0.0 0.0
0.0 0.0 0.0
VECTORS f float
0.0 0.0 -1.60516
0.0 0.0 -1.60516
0.0 0.0 -1.60516
0.0 0.0 -1.60516
0.0 0.0 -1.60516
0.0 0.0 -1.60516
0.0 0.0 -1.60516
0.0 0.0 -1.60516
0.0 0.0 -1.60516
0.0 0.0 -1.60516
0.0 0.0 -1.60516
0.0 0.0 -1.60516
0.0 0.0 -1.60516
0.0 0.0 -1.60516
0.0 0.0 -1.60516
0.0 0.0 -1.60516
0.0 0.0 -1.60516
0.0 0.0 -1.60516
0.0 0.0 -1.60516
0.0 0.0 -1.60516
0.0 0.0 -1.60516
0.0 0.0 -1.60516
0.0 0.0 -1.60516
0.0 0.0 -1.60516
0.0 0.0 -1.60516
0.0 0.0 -1.60516
0.0 0.0 -1.60516
0.0 0.0 -1.60516
0.0 0.0 -0.821841
0.0 0.0 -0.821841
0.0 0.0 -0.821841
0.0 0.0 -0.821841
0.0 0.0 -0.821841
0.0 0.0 -0.821841
0.0 0.0 -0.821841
0.0 0.0 -0.821841
0.0 0.0 -0.821841
0.0 0.0 -0.821841
0.0 0.0 -0.821841
0.0 0.0 -0.821841
0.0 0.0 -0.821841
0.0 0.0 -0.821841
0.0 0.0 -0.821841
0.0 0.0 -0.821841
0.0 0.0 -0.821841
0.0 0.0 -0.821841
0.0 0.0 -0.821841
0.0 0.0 -0.821841
0.0 0.0 -0.821841
0.0 0.0 -0.821841
0.0 0.0 -0.821841
0.0 0.0 -0.821841
0.0 0.0 -0.821841
0.0 0.0 -0.821841
0.0 0.0 -0.821841
0.0 0.0 -0.821841
0.0 0.0 -0.821841
0.0 0.0 -0.821841
0.0 0.0 -0.821841
0.0 0.0 -0.821841
0.0 0.0 -0.821841
0.0 0.0 -0.821841
0.0 0.0 -0.821841
0.0 0.0 -0.821841
0.0 0.0 -0.821841
0.0 0.0 -0.821841
0.0 0.0 7437.56
0.0 0.0 -0.821841
0.0 0.0 -0.821841
0.0 0.0 -0.821841
0.0 0.0 -0.821841
0.0 0.0 -0.821841
0.0 0.0 -0.821841
0.0 0.0 -0.821841
0.0 0.0 -0.821841
0.0 0.0 -0.821841
0.0 0.0 -0.821841
0.0 0.0 -0.821841
0.0 0.0 -0.821841
0.0 0.0 -0.821841
0.0 0.0 -0.821841
0.0 0.0 -0.821841
0.0 0.0 -0.821841
0.0 0.0 -0.821841
0.0 0.0 -0.821841
0.0 0.0 -0.821841
VECTORS omega float
-4.39195 -19.2614 2.17751
0.0 0.0 0.0
0.0 0.0 0.0
0.0 0.0 0.0
0.0 0.0 0.0
-26.0803 -50.5733 -1.45208
29.9813 -99.0088 11.3468
8.29234 41.3782 24.0839
0.0 0.0 0.0
0.0 0.0 0.0
0.0 0.0 0.0
-9.36224 9.60372 8.34078
0.0 0.0 0.0
0.0 0.0 0.0
0.0 0.0 0.0
0.0 0.0 0.0
0.0 0.0 0.0
0.0 0.0 0.0
0.0 0.0 0.0
-5.54031 19.9228 -1.50937
0.0 0.0 0.0
0.0 0.0 0.0
0.0 0.0 0.0
0.0 0.0 0.0
24.3436 76.821 -15.2089
10.0749 -5.73921 14.3137
-33.3082 -4.49731 -29.6989
-93.9705 21.2123 -2.09729e-15
0.0 0.0 0.0
0.0 0.0 0.0
-25.1222 -46.2542 44.0285
0.0 0.0 0.0
6.56484 -25.5311 -23.5081
-6.24191 46.4583 2.86146
0.0 0.0 0.0
0.0 0.0 0.0
0.0 0.0 0.0
0.0 0.0 0.0
0.0 0.0 0.0
63.4838 -44.0902 -9.1518
0.0 0.0 0.0
0.0 0.0 0.0
0.0 0.0 0.0
0.0 0.0 0.0
0.0 0.0 0.0
0.0 0.0 0.0
0.0 0.0 0.0
0.0 0.0 0.0
0.0 0.0 0.0
0.0 0.0 0.0
0.0 0.0 0.0
0.0 0.0 0.0
0.0 0.0 0.0
0.0 0.0 0.0
-1.40651e-07 43.1149 7.3731e-08
0.0 0.0 0.0
0.0 0.0 0.0
0.0 0.0 0.0
0.0 0.0 0.0
-25.1222 70.1363 44.0285
0.0 0.0 0.0
0.0 0.0 0.0
0.0 0.0 0.0
0.0 0.0 0.0
0.0 0.0 0.0
0.0 0.0 0.0
0.0 0.0 0.0
0.0 0.0 0.0
0.0 0.0 0.0
0.0 0.0 0.0
-68.1029 -138.408 43.4293
0.0 0.0 0.0
0.0 0.0 0.0
0.0 0.0 0.0
0.0 0.0 0.0
0.0 0.0 0.0
0.0 0.0 0.0
0.0 0.0 0.0
0.0 0.0 0.0
0.0 0.0 0.0
0.0 0.0 0.0
39.7361 92.5694 -47.5562
0.0 0.0 0.0
-10.7204 5.74584 5.31517
0.0 0.0 0.0
0.0 0.0 0.0
VECTORS v float
0.524996 0.222569 -1.41262
0.0 0.0 -4.4335
0.0 0.0 -4.4335
0.0 0.0 -4.4335
0.0 0.0 -4.4335
0.934564 -0.509511 0.950617
0.138172 0.718813 0.449571
0.437915 -1.54413 -1.90081
0.0 0.0 -4.4335
0.0 0.0 -4.57373
0.0 0.0 -4.4335
0.280504 -0.741535 -3.26413
0.0 0.0 -4.56981
0.0 0.0 -4.52998
0.0 0.0 -4.4335
0.0 0.0 -4.55313
0.0 0.0 -4.54303
0.0 0.0 -4.66487
0.0 0.0 -4.4335
0.586376 0.161072 -4.67195
0.0 0.0 -4.4335
0.0 0.0 -4.4335
0.0 0.0 -4.44709
0.0 0.0 -4.4335
0.114171 0.0302445 -2.58714
-0.277165 -0.0991209 -4.27813
0.681746 0.278737 -2.77911
0.276129 1.22325 -3.29507
0.0 0.0 -4.4335
0.0 0.0 -4.5961
1.27759 1.1235 -2.52774
0.0 0.0 -4.6635
0.20356 -0.189121 -4.5161
-0.731597 0.253224 -2.97018
0.0 0.0 -4.62033
0.0 0.0 -4.56647
0.0 0.0 -4.4335
0.0 0.0 -4.65329
0.0 0.0 -4.62445
-0.84369 -1.69696 -1.40441
0.0 0.0 -4.59247
0.0 0.0 -4.53312
0.0 0.0 -4.4335
0.0 0.0 -4.44885
0.0 0.0 2.25075
0.0 0.0 -4.57256
0.0 0.0 -4.67085
0.0 0.0 -4.51929
0.0 0.0 -4.4335
0.0 0.0 -4.57275
0.0 0.0 2.30543
0.0 0.0 -4.4335
0.0 0.0 -4.64486
0.0 0.0 -4.70646
1.05893 1.35941e-09 -0.650364
0.0 0.0 -4.4335
0.0 0.0 -4.4335
0.0 0.0 -4.4335
0.0 0.0 -4.56903
1.41201 -1.1235 -3.04683
0.0 0.0 -4.70058
0.0 0.0 -4.4335
0.0 0.0 -4.4335
0.0 0.0 -4.4335
0.0 0.0 -4.4335
0.0 0.0 -4.4335
0.0 0.0 1.70198
0.0 0.0 -4.4335
0.0 0.0 2.40059
0.0 0.0 -4.68675
0.48298 0.520424 -0.998282
0.0 0.0 -4.58433
0.0 0.0 -4.4335
0.0 0.0 -4.70283
0.0 0.0 -4.70205
0.0 0.0 2.39526
0.0 0.0 -4.4335
0.0 0.0 -4.61209
0.0 0.0 -4.57177
0.0 0.0 -4.67635
0.0 0.0 2.27574
0.704099 0.655553 -2.54344
0.0 0.0 -4.4335
0.720953 -0.434705 -4.59297
0.0 0.0 -4.67252
0.0 0.0 -4.4335
SCALARS radius float 1
LOOKUP_TABLE default
0.025
0.025
0.025
0.025
0.025
0.025
0.025
0.025
0.025
0.025
0.025
0.025
0.025
0.025
0.025
0.025
0.025
0.025
0.025
0.025
0.025
0.025
0.025
0.025
0.025
0.025
0.025
0.025
0.02
0.02
0.02
0.02
0.02
0.02
0.02
0.02
0.02
0.02
0.02
0.02
0.02
0.02
0.02
0.02
0.02
0.02
0.02
0.02
0.02
0.02
0.02
0.02
0.02
0.02
0.02
0.02
0.02
0.02
0.02
0.02
0.02
0.02
0.02
0.02
0.02
0.02
0.02
0.02
0.02
0.02
0.02
0.02
0.02
0.02
0.02
0.02
0.02
0.02
0.02
0.02
0.02
0.02
0.02
0.02
0.02
0.02
SCALARS type float 1
LOOKUP_TABLE default
1.0
1.0
1.0
1.0
1.0
1.0
1.0
1.0
1.0
1.0
1.0
1.0
1.0
1.0
1.0
1.0
1.0
1.0
1.0
1.0
1.0
1.0
1.0
1.0
1.0
1.0
1.0
1.0
1.0
1.0
1.0
1.0
1.0
1.0
1.0
1.0
1.0
1.0
1.0
1.0
1.0
1.0
1.0
1.0
1.0
1.0
1.0
1.0
1.0
1.0
1.0
1.0
1.0
1.0
1.0
1.0
1.0
1.0
1.0
1.0
1.0
1.0
1.0
1.0
1.0
1.0
1.0
1.0
1.0
1.0
1.0
1.0
1.0
1.0
1.0
1.0
1.0
1.0
1.0
1.0
1.0
1.0
1.0
1.0
1.0
1.0
SCALARS id float 1
LOOKUP_TABLE default
1.0
2.0
3.0
4.0
5.0
6.0
7.0
8.0
9.0
10.0
11.0
12.0
13.0
14.0
15.0
16.0
17.0
18.0
19.0
20.0
21.0
22.0
23.0
24.0
25.0
26.0
27.0
28.0
29.0
30.0
31.0
32.0
33.0
34.0
35.0
36.0
37.0
38.0
39.0
40.0
41.0
42.0
43.0
44.0
45.0
46.0
47.0
48.0
49.0
50.0
51.0
52.0
53.0
54.0
55.0
56.0
57.0
58.0
59.0
60.0
61.0
62.0
63.0
64.0
65.0
66.0
67.0
68.0
69.0
70.0
71.0
72.0
73.0
74.0
75.0
76.0
77.0
78.0
79.0
80.0
81.0
82.0
83.0
84.0
85.0
86.0

