# vtk DataFile Version 2.0
Generated by pizza.py
ASCII
DATASET RECTILINEAR_GRID
DIMENSIONS 2 2 2
X_COORDINATES 2 float
-0.10004 0.30004
Y_COORDINATES 2 float
-0.20004 0.20004
Z_COORDINATES 2 float
-0.10013 1.2
