# vtk DataFile Version 2.0
Generated by lpp.py
ASCII
DATASET POLYDATA
POINTS 86 float
0.0773255 0.0876486 -0.0336511
0.0576947 0.113762 -0.0720019
-0.0748131 -0.161855 -0.0749
-0.0265676 -0.169753 -0.0551508
0.267216 0.08957 -0.00903872
0.129417 -0.07984 0.135832
-1.05752e-05 0.162454 0.0502615
0.0389682 -0.104163 -0.0430173
0.185768 -0.0171172 -0.00196526
0.116976 -0.115265 -0.0659942
0.273684 0.0577557 -0.0565233
0.0889631 -0.151345 -0.0410603
0.251907 0.147956 -0.0581298
0.152626 0.144815 0.0364089
0.257249 -0.0937649 0.0454659
0.110622 0.00352003 -0.0741357
0.243117 -0.0797364 -0.0746771
0.112132 0.0875341 -0.0721585
0.135911 0.131596 -0.0366795
0.0936284 -0.0528455 -0.0187136
-0.0536827 0.122983 -0.0409473
0.265572 -0.11814 -0.0428908
0.192496 0.0783426 -0.0404903
0.197757 -0.087763 -0.0374881
-0.0543213 0.0141913 -0.0681215
-0.0597733 -0.0392119 -0.0509363
-0.0582178 -0.00684765 0.134608
0.00595499 0.127318 -0.0308511
0.136637 0.0582203 0.0114189
0.246536 -0.00676913 -0.0641356
0.106284 0.0157672 -0.0281485
0.14719 0.127004 -0.0800003
-0.0166378 -0.0972683 -0.0620925
-0.0799705 -0.0670549 -0.0799587
-0.0696071 -0.110275 -0.0798191
0.24502 0.0305916 -0.0799372
0.257519 0.0676628 0.07969
0.0920882 -0.173677 -0.0800019
0.190368 0.0106325 -0.0697472
-0.0543553 -0.0928274 -0.0419959
0.2498 0.0879645 -0.0799156
0.0756502 0.168105 -0.0739287
0.174693 -0.124644 -0.00933093
0.217618 -0.139716 -0.0667171
0.257889 -0.143327 -0.0795155
0.208053 -0.050492 -0.0790882
0.037625 0.024456 -0.0567746
0.168019 -0.17246 -0.0306721
0.28 0.0148031 -0.068374
0.188783 0.179478 0.127994
0.173874 -0.175722 -0.0772383
-0.0745679 0.0543415 -0.0796437
-0.0795533 0.123714 -0.0796428
0.177144 0.178962 -0.0227858
0.0045302 0.0230798 -0.079755
0.144523 0.061746 0.0645817
0.111111 0.147692 -0.0767443
0.222913 0.0372665 -0.0272878
0.00561999 0.173239 -0.0799712
0.0737786 0.0168719 -0.00381924
0.278949 -0.0490309 -0.0644864
0.224413 -0.179888 -0.0408591
0.147951 0.173392 -0.0778555
0.279573 -0.00725451 -0.0256185
0.0663325 -0.117853 -0.0792174
-0.0366973 -0.010399 0.068826
0.0429315 -0.00855207 -0.0800074
0.239331 -0.043895 -0.0406155
0.180211 0.0977563 -0.0797423
0.185326 0.165881 -0.0657226
-0.0544586 0.105233 0.034749
-0.0224747 0.0636878 -0.0770441
0.2329 -0.144172 -0.0234187
0.0264517 -0.152245 -0.0781007
0.16125 -0.0245727 -0.0541896
0.22897 0.179908 -0.0799914
-0.0757052 0.173065 0.0398599
-0.0314171 -0.0608755 -0.0796248
0.213772 -0.179547 -0.079881
0.171012 -0.128338 -0.0795565
0.204658 -0.102559 -0.0799236
0.07645 -0.0777315 -0.0781766
0.216082 0.123816 -0.00395967
0.0712817 0.0475508 -0.0538612
-0.0701641 0.169442 -0.0263188
0.0355131 0.132629 0.0323762
VERTICES 86 172
1 0
1 1
1 2
1 3
1 4
1 5
1 6
1 7
1 8
1 9
1 10
1 11
1 12
1 13
1 14
1 15
1 16
1 17
1 18
1 19
1 20
1 21
1 22
1 23
1 24
1 25
1 26
1 27
1 28
1 29
1 30
1 31
1 32
1 33
1 34
1 35
1 36
1 37
1 38
1 39
1 40
1 41
1 42
1 43
1 44
1 45
1 46
1 47
1 48
1 49
1 50
1 51
1 52
1 53
1 54
1 55
1 56
1 57
1 58
1 59
1 60
1 61
1 62
1 63
1 64
1 65
1 66
1 67
1 68
1 69
1 70
1 71
1 72
1 73
1 74
1 75
1 76
1 77
1 78
1 79
1 80
1 81
1 82
1 83
1 84
1 85
POINT_DATA 86
VECTORS i float
0.0 0.0 0.0
0.0 0.0 0.0
0.0 0.0 0.0
0.0 0.0 0.0
0.0 0.0 0.0
0.0 0.0 0.0
0.0 0.0 0.0
0.0 0.0 0.0
0.0 0.0 0.0
0.0 0.0 0.0
0.0 0.0 0.0
0.0 0.0 0.0
0.0 0.0 0.0
0.0 0.0 0.0
0.0 0.0 0.0
0.0 0.0 0.0
0.0 0.0 0.0
0.0 0.0 0.0
0.0 0.0 0.0
0.0 0.0 0.0
0.0 0.0 0.0
0.0 0.0 0.0
0.0 0.0 0.0
0.0 0.0 0.0
0.0 0.0 0.0
0.0 0.0 0.0
0.0 0.0 0.0
0.0 0.0 0.0
0.0 0.0 0.0
0.0 0.0 0.0
0.0 0.0 0.0
0.0 0.0 0.0
0.0 0.0 0.0
0.0 0.0 0.0
0.0 0.0 0.0
0.0 0.0 0.0
0.0 0.0 0.0
0.0 0.0 0.0
0.0 0.0 0.0
0.0 0.0 0.0
0.0 0.0 0.0
0.0 0.0 0.0
0.0 0.0 0.0
0.0 0.0 0.0
0.0 0.0 0.0
0.0 0.0 0.0
0.0 0.0 0.0
0.0 0.0 0.0
0.0 0.0 0.0
0.0 0.0 0.0
0.0 0.0 0.0
0.0 0.0 0.0
0.0 0.0 0.0
0.0 0.0 0.0
0.0 0.0 0.0
0.0 0.0 0.0
0.0 0.0 0.0
0.0 0.0 0.0
0.0 0.0 0.0
0.0 0.0 0.0
0.0 0.0 0.0
0.0 0.0 0.0
0.0 0.0 0.0
0.0 0.0 0.0
0.0 0.0 0.0
0.0 0.0 0.0
0.0 0.0 0.0
0.0 0.0 0.0
0.0 0.0 0.0
0.0 0.0 0.0
0.0 0.0 0.0
0.0 0.0 0.0
0.0 0.0 0.0
0.0 0.0 0.0
0.0 0.0 0.0
0.0 0.0 0.0
0.0 0.0 0.0
0.0 0.0 0.0
0.0 0.0 0.0
0.0 0.0 0.0
0.0 0.0 0.0
0.0 0.0 0.0
0.0 0.0 0.0
0.0 0.0 0.0
0.0 0.0 0.0
0.0 0.0 0.0
VECTORS f float
0.0 0.0 -1.60516
0.0 0.0 -1.60516
0.0 0.0 -1.60516
0.0 0.0 -1.60516
0.0 0.0 -1.60516
0.0 0.0 -1.60516
0.0 0.0 -1.60516
0.0 0.0 -1.60516
0.0 0.0 -1.60516
0.0 0.0 -1.60516
0.0 0.0 -1.60516
-1.54841 11.1312 29.841
0.0 0.0 -1.60516
0.0 0.0 -1.60516
0.0 0.0 -1.60516
0.0 0.0 -1.60516
0.0 0.0 -1.60516
0.0 0.0 -1.60516
0.204461 0.140765 -0.905967
0.0 0.0 -1.60516
0.0 0.0 -1.60516
0.0 0.0 -1.60516
0.0 0.0 -1.60516
0.0 0.0 -1.60516
0.0 0.0 -1.60516
0.0 0.0 -1.60516
0.0 0.0 -1.60516
0.0 0.0 -1.60516
0.0 0.0 -0.821841
0.0 0.0 -0.821841
0.0 0.0 -0.821841
-0.411821 -0.146378 2.69794e-05
0.0 0.0 -0.821841
0.0 0.0 -0.821841
0.0 0.0 -0.821841
0.0 0.0 -0.821841
0.0 0.0 -0.821841
-0.606856 4.38427 2.30917
0.0 0.0 -0.821841
0.0 0.0 -0.821841
0.0 0.0 -0.821841
0.0 0.0 -0.821841
0.0 0.0 -0.821841
0.0 0.0 -0.821841
0.0 0.0 -0.821841
0.0 0.0 -0.821841
0.0 0.0 -0.821841
0.0 0.0 -0.821841
0.0 0.0 -0.821841
0.0 0.0 -0.821841
0.0 0.0 -0.821841
0.0 0.0 -0.821841
0.0 0.0 -0.821841
0.0 0.0 -0.821841
0.0 0.0 -0.821841
0.0 0.0 -0.821841
0.0 0.0 -0.821841
0.0 0.0 -0.821841
0.0 0.0 -0.821841
0.0 0.0 -0.821841
0.0 0.0 -0.821841
0.0 0.0 -0.821841
0.0 0.0 -0.821841
0.0 0.0 -0.821841
0.0 0.0 -0.821841
0.0 0.0 -0.821841
-40.675 152.869 300.198
0.0 0.0 -0.821841
0.0 0.0 -0.821841
0.0 0.0 -0.821841
0.0 0.0 -0.821841
0.0 0.0 -0.821841
0.0 0.0 -0.821841
0.0 0.0 -0.821841
0.0 0.0 -0.821841
0.0 0.0 -0.821841
0.0 0.0 -0.821841
0.0 0.0 -0.821841
0.0 0.0 -0.821841
0.0 0.0 -0.821841
0.0 0.0 -0.821841
0.0 0.0 -0.821841
0.0 0.0 -0.821841
0.0 0.0 -0.821841
0.0 0.0 -0.821841
0.0 0.0 -0.821841
VECTORS omega float
3.95712 -36.7483 0.735964
-2.16556 1.83305 14.1572
-5.48633 -2.83558 6.44761
-0.538738 -18.9915 -12.0166
15.6619 13.8107 13.0728
-26.0803 -50.5733 -1.45208
29.9813 -99.0088 11.3468
-12.7165 27.942 4.04226
-6.19893 15.0278 -11.3492
-10.0244 -27.7569 7.05505
6.37814 3.58891 10.8924
-8.39416 0.732473 0.137106
-4.02345 -6.30394 7.32107
-9.27354 1.69843 -10.2287
20.3494 33.9821 23.8601
1.00254 -10.5891 2.32745
2.02351 3.39516 -4.31396
-15.2614 -2.85894 1.24587
-12.1297 -25.8026 -25.7113
-32.8138 3.90956 6.22557
-1.91473 -22.1339 1.40567
-20.5206 1.09887 -1.89673
8.17467 6.74444 -2.58263
-4.93266 -7.38499 -8.23922
4.59899 -8.20367 2.00475
9.14463 3.65091 -6.83136
-14.2654 -16.5103 7.3168
47.3475 -20.3895 -10.3552
51.789 9.06372 29.1574
15.0407 19.6797 -6.39112
6.89802 19.6735 -17.2392
4.93177 27.3293 -31.8986
-17.8905 -1.98778 11.5271
-3.37335 -1.16658 11.3525
-1.89225 10.2345 14.5182
-6.02701 -1.96507 0.704971
54.6499 -24.416 -9.64789
-0.720933 -2.76575 2.88634
19.7114 -46.5994 20.4426
24.134 -57.588 -31.8019
-11.4935 -1.55734 -26.5765
18.4465 43.2301 48.8495
-23.6819 45.0345 -21.9833
7.23523 -4.03648 -13.9664
13.7349 -9.13803 18.5093
6.43799 9.90685 16.6176
32.9516 -9.86269 -4.4549
31.2294 -72.4385 -18.6543
-0.213583 -20.8488 -6.96032
0.0 0.0 0.0
-6.45855 1.73627 8.73811
20.5003 4.14772 -5.19176
3.39077 0.433448 -2.58028
-6.20594 -20.6477 33.9274
-24.8345 -1.61563 13.2874
34.834 -5.33969 -1.83755
-42.4267 -26.4647 3.33748
-59.3404 34.5984 6.56802
1.0568 18.2227 -25.1824
-52.1258 -7.70632 27.5056
-4.26214 3.55065 -1.96426
-1.59747 18.7664 -3.5876
20.0551 8.63239 9.49029
-13.4249 -5.48283 9.07874
-7.48481 -0.752054 -19.3039
-63.3931 18.2802 51.8135
-18.6795 9.77612 12.8301
-14.8252 8.75786 8.10548
17.0568 18.9878 39.2395
-18.2088 -9.46966 -1.73412
-58.2175 -1.87261 35.946
-6.3757 8.39542 -38.66
5.00503 0.17543 21.1248
-7.69128 -11.2728 -1.82556
-19.3417 -21.0496 12.2605
3.82418 -2.17148 -3.7354
-14.5476 1.10021 -18.3635
4.79995 -8.01544 -17.173
2.1273 -10.5942 8.85347
-4.65101 -0.175416 -21.0806
4.66512 7.46205 8.18991
-1.40433 -5.39457 -11.4192
-15.1823 -67.0945 6.92827
-12.9399 40.3868 5.20283
12.4938 -19.7411 -0.456119
-40.4952 14.8317 -8.78423
VECTORS v float
0.040659 0.25809 -0.514458
0.0208354 0.071928 0.294295
0.114102 0.158001 0.0450002
-0.262261 0.0624576 -0.00169858
-0.24094 -0.328647 0.0313948
0.934564 -0.509511 -0.285443
0.138172 0.718813 -0.786489
0.194861 0.714797 -0.0372809
0.0542784 -0.143223 -0.281257
0.0800471 0.157263 -0.349042
0.00730175 0.0235667 -0.416635
-0.118497 0.210238 -0.116122
-0.0657342 -0.00896502 -0.0858137
-0.12488 0.107635 0.357435
-0.681398 -0.59658 0.595571
-0.144151 -0.112514 -0.399898
0.163798 -0.0124594 0.0472486
-0.0626987 0.375415 0.0258406
0.266641 0.35356 -0.120819
-0.280657 0.0796731 0.0774098
-0.321493 -0.100202 0.144629
-0.226952 0.219724 -0.190713
0.554672 -0.450498 -0.235969
0.287455 0.0481383 -0.0289116
-0.196584 -0.348255 -0.448902
-0.0667029 0.0615242 0.0436705
0.358811 0.180481 -0.0469248
-0.30904 -0.124499 0.403104
0.0529848 -0.0660418 0.295333
-0.163296 0.214796 -0.635778
0.013397 -0.166684 -0.134718
0.546582 -0.098635 9.59594e-07
-0.402175 -0.231538 0.0838267
-0.0230474 0.0579947 0.0376706
0.201275 0.045675 -0.0686425
-0.0669052 0.132449 -0.0379914
0.541289 -0.675966 0.719458
-0.0552082 0.0136271 -0.00872663
0.207445 -0.444857 -0.713752
0.0350929 0.470979 -0.272182
-0.0261839 0.223966 0.0083441
0.427527 -0.172372 -0.201341
0.105485 0.0411779 -0.212543
-0.248961 0.215301 -0.1919
0.0460379 -0.150169 -0.230084
0.190037 -0.112676 0.0847581
0.0300095 0.33106 -0.113537
0.385979 0.0973345 -0.137713
-0.00181552 0.0308741 -0.463512
0.0 0.0 1.31066
0.0419679 0.132168 0.0450524
-0.221561 0.0924774 -0.133899
-0.00214736 -0.0649087 0.115071
0.673134 -0.14215 0.0169886
-0.0225994 0.497055 -0.0522993
-0.0478136 0.412972 0.412533
0.498629 -0.10351 -0.230418
-0.183475 -0.0552494 -0.207861
0.363162 -0.0295131 -0.15695
0.0805177 0.0787492 0.00069582
-0.0352855 0.305886 -0.740722
0.0724069 0.119408 -0.0413206
0.152982 0.278325 -0.303824
-0.0154493 0.835785 -0.642103
-0.043375 0.150281 0.0308697
0.43188 0.713029 0.624861
0.181317 0.426909 -0.0625613
0.19913 0.227493 -0.264105
0.41235 -0.337111 -0.198625
0.52139 0.350033 -0.197664
0.504286 0.707406 -0.499008
0.197085 0.119812 -0.180702
0.0586363 -0.163107 -0.0834047
-0.222116 0.129127 -0.0353217
-0.444824 -0.0660754 -0.330171
-0.107081 0.0123512 -0.0638789
0.0281889 -0.00136821 0.227857
-0.160553 -0.0982402 0.145879
-0.176584 0.0482559 -0.0495055
-0.00763296 0.0890366 -0.0128935
0.172128 -0.0685544 -0.0228778
-0.113081 0.0341495 0.0650228
-0.425251 -0.336841 -0.217907
0.296592 0.142998 -0.453481
0.105361 0.170287 -0.084593
0.182932 -0.631006 1.11884
SCALARS radius float 1
LOOKUP_TABLE default
0.025
0.025
0.025
0.025
0.025
0.025
0.025
0.025
0.025
0.025
0.025
0.025
0.025
0.025
0.025
0.025
0.025
0.025
0.025
0.025
0.025
0.025
0.025
0.025
0.025
0.025
0.025
0.025
0.02
0.02
0.02
0.02
0.02
0.02
0.02
0.02
0.02
0.02
0.02
0.02
0.02
0.02
0.02
0.02
0.02
0.02
0.02
0.02
0.02
0.02
0.02
0.02
0.02
0.02
0.02
0.02
0.02
0.02
0.02
0.02
0.02
0.02
0.02
0.02
0.02
0.02
0.02
0.02
0.02
0.02
0.02
0.02
0.02
0.02
0.02
0.02
0.02
0.02
0.02
0.02
0.02
0.02
0.02
0.02
0.02
0.02
SCALARS type float 1
LOOKUP_TABLE default
1.0
1.0
1.0
1.0
1.0
1.0
1.0
1.0
1.0
1.0
1.0
1.0
1.0
1.0
1.0
1.0
1.0
1.0
1.0
1.0
1.0
1.0
1.0
1.0
1.0
1.0
1.0
1.0
1.0
1.0
1.0
1.0
1.0
1.0
1.0
1.0
1.0
1.0
1.0
1.0
1.0
1.0
1.0
1.0
1.0
1.0
1.0
1.0
1.0
1.0
1.0
1.0
1.0
1.0
1.0
1.0
1.0
1.0
1.0
1.0
1.0
1.0
1.0
1.0
1.0
1.0
1.0
1.0
1.0
1.0
1.0
1.0
1.0
1.0
1.0
1.0
1.0
1.0
1.0
1.0
1.0
1.0
1.0
1.0
1.0
1.0
SCALARS id float 1
LOOKUP_TABLE default
1.0
2.0
3.0
4.0
5.0
6.0
7.0
8.0
9.0
10.0
11.0
12.0
13.0
14.0
15.0
16.0
17.0
18.0
19.0
20.0
21.0
22.0
23.0
24.0
25.0
26.0
27.0
28.0
29.0
30.0
31.0
32.0
33.0
34.0
35.0
36.0
37.0
38.0
39.0
40.0
41.0
42.0
43.0
44.0
45.0
46.0
47.0
48.0
49.0
50.0
51.0
52.0
53.0
54.0
55.0
56.0
57.0
58.0
59.0
60.0
61.0
62.0
63.0
64.0
65.0
66.0
67.0
68.0
69.0
70.0
71.0
72.0
73.0
74.0
75.0
76.0
77.0
78.0
79.0
80.0
81.0
82.0
83.0
84.0
85.0
86.0

