# vtk DataFile Version 2.0
Generated by lpp.py
ASCII
DATASET POLYDATA
POINTS 86 float
0.205675 0.0637643 -0.0688144
0.0630405 0.125802 -0.0750002
-0.0748994 -0.146473 -0.0750003
-0.0334287 -0.174591 -0.0750062
0.26507 0.111696 0.0237637
0.195178 -0.124526 0.0341186
0.0145212 0.162634 -0.0742519
0.0123262 -0.0667502 -0.0702333
0.231863 -0.0467428 -0.00365157
0.0994217 -0.0960759 -0.0749143
0.275029 0.111544 -0.0517541
0.0795274 -0.139202 -0.0555831
0.271538 0.169395 -0.0315545
0.131146 0.163328 -0.0472218
0.213557 -0.173968 0.0275938
0.0796947 -0.0271919 -0.072312
0.274505 -0.109843 -0.0470876
0.230376 0.112778 -0.0187139
0.192964 0.167886 0.000896207
0.237224 -0.114237 -0.0139
-0.0636759 0.104856 -0.0371154
0.273843 -0.159865 -0.0426523
0.20951 0.0217787 0.236473
0.273052 -0.127536 0.0251004
-0.0703749 0.0165716 -0.0750002
-0.049869 -0.0286938 -0.069468
-0.0362877 0.0255628 0.0758693
0.011361 0.108537 -0.0733875
0.279628 -0.0349241 0.0580475
0.253289 -0.0293008 -0.07997
0.27269 -0.00425395 -0.0501777
0.211705 0.138239 -0.0715224
-0.0115406 -0.106818 -0.0800008
-0.0767782 -0.0654464 -0.0800002
-0.063576 -0.103207 -0.0800002
0.254311 0.0721473 -0.0620364
0.223269 -0.0887128 0.104345
0.0815344 -0.177295 -0.0799529
0.180452 -0.0729651 -0.068427
-0.0714007 -0.0808327 -0.0434716
0.260833 0.143664 -0.0800083
0.098956 0.154081 -0.0800002
0.201987 -0.144857 -0.00891237
0.201734 -0.136042 -0.0773805
0.247424 -0.178858 -0.0755337
0.217421 -0.0531632 -0.0792011
0.044508 0.0720994 -0.0800002
0.171191 -0.168425 -0.0247004
0.279836 0.0306004 -0.0700619
0.188783 0.179478 0.208319
0.149298 -0.157619 -0.0734506
-0.07998 0.0603167 -0.0799542
-0.0729857 0.114817 -0.0800003
0.259181 0.175222 0.0125118
0.0074634 0.0562841 -0.0800002
0.136299 0.132777 -0.00957221
0.105492 0.0659954 -0.074156
0.281271 -0.00135507 0.0342556
0.0627555 0.171157 -0.0795506
0.156894 0.00545442 -0.0630564
0.272583 -0.0656531 -0.0634252
0.227992 -0.174695 -0.0395863
0.155048 0.132198 -0.0700841
0.281755 0.0569559 -0.0287645
0.0434753 -0.109665 -0.0799888
0.037586 0.112242 0.0311926
0.0607766 0.0348718 -0.0800002
0.277716 -0.0883451 0.0898923
0.23711 0.105899 -0.078878
0.238185 0.178437 -0.0767985
-0.047141 0.170448 -0.0467691
-0.0402666 0.0656982 -0.0790601
0.260532 -0.172581 0.0187224
0.00953719 -0.142887 -0.0800002
0.139653 -0.0711453 -0.0719213
0.278714 0.179467 -0.0797629
-0.0779695 0.171878 -0.0199136
-0.0367853 -0.0704419 -0.0800001
0.185334 -0.179274 -0.0800002
0.142043 -0.112454 -0.0800008
0.220228 -0.0954888 -0.0800002
0.0595586 -0.0719819 -0.0799546
0.27626 0.0537508 0.12429
0.240882 0.0359953 -0.0785223
-0.0666729 0.159761 -0.0800001
0.0669774 0.0240961 0.0797064
VERTICES 86 172
1 0
1 1
1 2
1 3
1 4
1 5
1 6
1 7
1 8
1 9
1 10
1 11
1 12
1 13
1 14
1 15
1 16
1 17
1 18
1 19
1 20
1 21
1 22
1 23
1 24
1 25
1 26
1 27
1 28
1 29
1 30
1 31
1 32
1 33
1 34
1 35
1 36
1 37
1 38
1 39
1 40
1 41
1 42
1 43
1 44
1 45
1 46
1 47
1 48
1 49
1 50
1 51
1 52
1 53
1 54
1 55
1 56
1 57
1 58
1 59
1 60
1 61
1 62
1 63
1 64
1 65
1 66
1 67
1 68
1 69
1 70
1 71
1 72
1 73
1 74
1 75
1 76
1 77
1 78
1 79
1 80
1 81
1 82
1 83
1 84
1 85
POINT_DATA 86
VECTORS i float
0.0 0.0 0.0
0.0 0.0 0.0
0.0 0.0 0.0
0.0 0.0 0.0
0.0 0.0 0.0
0.0 0.0 0.0
0.0 0.0 0.0
0.0 0.0 0.0
0.0 0.0 0.0
0.0 0.0 0.0
0.0 0.0 0.0
0.0 0.0 0.0
0.0 0.0 0.0
0.0 0.0 0.0
0.0 0.0 0.0
0.0 0.0 0.0
0.0 0.0 0.0
0.0 0.0 0.0
0.0 0.0 0.0
0.0 0.0 0.0
0.0 0.0 0.0
0.0 0.0 0.0
0.0 0.0 0.0
0.0 0.0 0.0
0.0 0.0 0.0
0.0 0.0 0.0
0.0 0.0 0.0
0.0 0.0 0.0
0.0 0.0 0.0
0.0 0.0 0.0
0.0 0.0 0.0
0.0 0.0 0.0
0.0 0.0 0.0
0.0 0.0 0.0
0.0 0.0 0.0
0.0 0.0 0.0
0.0 0.0 0.0
0.0 0.0 0.0
0.0 0.0 0.0
0.0 0.0 0.0
0.0 0.0 0.0
0.0 0.0 0.0
0.0 0.0 0.0
0.0 0.0 0.0
0.0 0.0 0.0
0.0 0.0 0.0
0.0 0.0 0.0
0.0 0.0 0.0
0.0 0.0 0.0
0.0 0.0 0.0
0.0 0.0 0.0
0.0 0.0 0.0
0.0 0.0 0.0
0.0 0.0 0.0
0.0 0.0 0.0
0.0 0.0 0.0
0.0 0.0 0.0
0.0 0.0 0.0
0.0 0.0 0.0
0.0 0.0 0.0
0.0 0.0 0.0
0.0 0.0 0.0
0.0 0.0 0.0
0.0 0.0 0.0
0.0 0.0 0.0
0.0 0.0 0.0
0.0 0.0 0.0
0.0 0.0 0.0
0.0 0.0 0.0
0.0 0.0 0.0
0.0 0.0 0.0
0.0 0.0 0.0
0.0 0.0 0.0
0.0 0.0 0.0
0.0 0.0 0.0
0.0 0.0 0.0
0.0 0.0 0.0
0.0 0.0 0.0
0.0 0.0 0.0
0.0 0.0 0.0
0.0 0.0 0.0
0.0 0.0 0.0
0.0 0.0 0.0
0.0 0.0 0.0
0.0 0.0 0.0
0.0 0.0 0.0
VECTORS f float
0.0 0.0 -1.60516
3.60018e-14 4.26533e-14 -5.73127e-10
0.038003 0.0377907 1.05376
-0.720111 -0.912145 279.383
0.0 0.0 -1.60516
0.0 0.0 -1.60516
0.0 0.0 -1.60516
0.0 0.0 -1.60516
0.0 0.0 -1.60516
0.0 0.0 -1.60516
-1454.87 616.698 419.183
0.0 0.0 -1.60516
0.0 0.0 -1.60516
0.0 0.0 -1.60516
0.0 0.0 -1.60516
0.0 0.0 -1.60516
0.0 0.0 -1.60516
0.0 0.0 -1.60516
0.0 0.0 -1.60516
0.0 0.0 -1.60516
0.16341 -0.18479 -0.213135
0.0 0.0 -1.60516
0.0 0.0 -1.60516
0.0 0.0 -1.60516
0.0021243 -0.00497294 -0.242132
0.0 0.0 -1.60516
0.0 0.0 -1.60516
0.0 0.0 -1.60516
0.0 0.0 -0.821841
0.0 0.0 -0.821841
0.0 0.0 -0.821841
0.0 0.0 -0.821841
-0.000950263 -0.000561054 4.74294
-0.0109151 0.0312168 -0.0988999
-0.000494706 -0.00219183 0.0810987
0.0 0.0 -0.821841
0.0 0.0 -0.821841
0.0 0.0 -0.821841
0.0 0.0 -0.821841
0.0465504 -0.133071 -0.263282
5.98729 35.2066 58.6983
4.55101e-06 -2.36176e-06 0.0316817
0.0 0.0 -0.821841
0.0 0.0 -0.821841
0.0 0.0 -0.821841
0.0 0.0 -0.821841
-1.62537e-15 -2.34143e-14 0.0
0.0 0.0 -0.821841
0.0 0.0 -0.821841
0.0 0.0 -0.821841
0.0 0.0 -0.821841
0.0 0.0 -0.821841
-0.0222493 0.0377043 9.96555e-07
0.0 0.0 -0.821841
-6.67582e-15 2.05641e-14 0.0
0.0 0.0 -0.821841
0.0 0.0 -0.821841
-23686.4 645.096 -134090.0
0.0 0.0 -0.821841
0.0 0.0 -0.821841
0.0 0.0 -0.821841
0.0 0.0 -0.821841
0.0 0.0 -0.821841
121089.0 701.297 155380.0
0.0 0.0 -0.821841
0.0 0.0 -0.821841
1.68271e-09 -2.45291e-09 -5.65676e-05
0.0 0.0 -0.821841
0.0 0.0 -0.821841
0.0 0.0 -0.821841
0.0 0.0 -0.821841
0.0 0.0 -0.821841
0.0 0.0 -0.821841
1.3143e-14 -6.67582e-15 0.0
0.0 0.0 -0.821841
0.0 0.0 -0.821841
0.0 0.0 -0.821841
0.00098216 -0.00305565 -0.831883
-2.68182e-11 8.3947e-13 -2.50358e-08
2.42746 -1.93369 4.35067
-0.461371 -0.181272 0.00433392
0.0 0.0 -0.821841
0.0 0.0 -0.821841
0.0 0.0 -0.821841
-0.00462498 -0.00251548 -0.498338
0.0 0.0 -0.821841
VECTORS omega float
-84.6821 158.394 -23.6315
1.82931 4.12213 10.5747
-0.625539 -0.0797715 2.72633
2.99623 -2.85418 -8.62327
63.5185 12.6523 127.646
-62.5304 -41.2903 -25.5982
-6.12633 -19.5506 -3.35979
-3.25034 -2.06482 -10.5887
-557.63 -4563.41 907.285
7.83079 -1.55846 5.22854
67.3611 35.6163 -137.613
-2.07578 1.96928 -2.05973
52.2458 29.1082 -51.5135
-9.27354 1.69843 -10.2287
31.7835 -11.9817 20.6269
2.7871 33.7254 -7.14808
64.6876 42.7091 53.2843
108.521 -19.4545 -8.09382
-21.7405 -90.161 -15.7754
-123.926 -37.5733 -19.8104
3.55171 2.97151 -2.58496
23.7495 67.0614 -47.9237
170.787 420.721 253.401
-85.179 99.5911 94.0019
-1.33159 -1.52207 0.993165
-2.84456 9.43473 1.22483
-11.9501 -7.3483 8.15948
-25.2832 -0.758878 -4.05608
28.7277 134.802 30.4906
16.1108 -3.37846 -280.884
-91.3477 91.0486 62.944
-63.5419 -22.6687 24.5098
0.512189 4.89086 0.719046
-1.09692 1.73042 2.40784
-0.658865 0.727538 -3.92774
-448.461 242.52 -81.2612
97.2889 106.603 167.603
18.5244 -6.17105 10.2818
85.1863 -18.8463 32.6018
8.95549 2.91132 -1.56088
-94.2676 -30.6641 76.9904
2.98291 5.81822 7.27743
20.7641 79.5119 10.098
37.3301 81.8268 85.1236
9.11142 -31.4496 23.586
-9.29196 18.5121 109.167
2.87625 1.23141 7.68356
67.9205 53.4938 48.45
23.9123 -186.091 49.1003
0.0 0.0 0.0
9.32756 -56.8041 -26.5859
-2.89983 -1.36367 -0.900257
1.00087 2.76782 -1.86049
-126.527 -82.7112 -3.84402
-3.40134 -0.936173 23.2313
34.834 -5.33969 -1.83755
40.7447 20.235 -152.367
1.61106 -2963.68 -11.5776
4.33822 5.1208 1.57701
-24.4487 -18.4607 -236.585
-132.65 48.9845 89.0628
-4.41045 24.2858 -3.3198
-43.0603 17.461 85.4492
-46.7663 -1008.64 19.636
-1.14484 -7.89531 -7.82195
-63.3931 18.2802 51.8135
3.12929 2.14674 -6.95858
-1.26854 246.699 67.6222
-389.915 -204.534 -201.369
7.25472 14.7495 -5.84132
-13.936 18.8713 0.128412
9.73929 -2.65033 -8.48636
115.348 -27.4137 -89.0473
0.898636 1.07383 7.58879
35.6175 0.833672 -49.8428
44.568 -25.2916 -121.101
-3.36506 11.2701 -5.94421
0.236355 2.21882 0.33082
-2.17079 -68.58 70.3167
-7.69098 -20.4327 -52.2687
-24.9994 -60.9666 -131.688
26.5819 -13.2417 -5.06375
-20.1688 151.916 20.1488
-2.47314 -170.274 221.933
10.9357 -2.36584 3.89217
-40.4952 14.8317 -8.78423
VECTORS v float
-3.79386 2.24673 1.71027
0.103053 -0.0457324 -3.45815e-13
-0.00197638 0.0156562 -0.000366598
-0.0715909 -0.0752063 -0.0615853
1.55867 2.12114 1.6432
-0.578127 1.10977 0.437289
-0.579391 0.153437 0.297561
-0.546525 -0.133361 -0.161373
-200.031 71.7794 -6.07973
-0.282322 -0.301618 -0.0350479
-0.409689 3.07733 0.644173
-0.3045 -0.395156 0.0642415
0.410691 2.0458 1.51143
-0.12488 0.107635 -1.32988
-0.362561 0.198406 1.24736
-0.268191 -0.327351 -0.142894
-0.144941 -1.22549 1.08489
0.774378 0.857017 1.38428
-0.684164 2.58767 2.2564
0.324063 -1.28084 1.45856
0.156365 -0.144782 -0.0509046
0.0138284 -1.2978 1.14404
-0.887878 -0.155489 8.98273
0.193713 -0.962628 2.8711
-0.0380505 0.033287 0.000158776
0.0737431 0.0573593 -0.211982
-0.358694 0.205124 -0.0308022
-0.0719453 -0.190331 -0.0963887
-2.0293 -0.556525 2.34287
-0.0731478 -0.864053 -0.173452
3.93282 -0.158609 -0.84496
-0.795153 -0.530336 0.21295
0.0978146 -0.0102434 0.00703715
0.0346102 0.0219328 7.27951e-05
0.0145507 0.013177 -0.000107968
-5.11365 0.314244 7.80534
-3.0979 -3.02356 1.7236
-0.123883 -0.363973 -0.0333816
0.364674 -1.11224 0.671001
0.125905 -0.119322 -0.0728614
-0.750221 1.14957 0.276355
0.116364 -0.0596579 4.16432e-05
-1.0789 -0.335496 -0.14309
-1.05895 0.37059 0.135018
-0.470512 0.223459 0.200627
-0.119856 0.896636 0.0339801
0.0246282 -0.0575248 8.1125e-15
-1.03713 1.0802 1.23584
-0.351315 -0.958932 -3.70283
0.0 0.0 -0.376656
-1.86978 -0.609479 0.394867
0.014895 0.0283977 0.0100756
0.0553557 -0.020017 5.12829e-07
-0.0310256 -0.763767 2.25041
-0.0187234 0.0680265 8.1125e-15
-0.0478136 0.412972 -1.27479
-1.53864 -2.85851 -0.0158574
-9.11113 -0.0708356 5.90388
0.0982338 -0.0927902 0.0421689
-0.534092 0.783979 1.02875
-0.727264 -1.13115 0.427997
-0.441354 0.447671 0.479063
-2.34288 -1.5717 0.0526371
10.8882 -0.370287 -4.83037
-0.391229 -0.541359 -0.0270591
0.43188 0.713029 -1.06246
0.0429345 -0.0625855 4.52255e-08
-0.51646 -1.83696 5.53781
-4.13538 7.80052 5.26958
-0.455547 0.0616345 0.206071
0.207003 -0.129813 -0.180799
0.0414882 -0.174681 -0.0394776
0.940577 -1.65209 2.92958
0.0214766 -0.0179726 8.1125e-15
0.245023 -0.765002 0.282564
0.307377 2.44122 -0.193344
0.097171 -0.0744353 -0.543584
0.0443736 -0.00471846 0.000590236
-1.37159 0.0434157 2.18853e-11
-0.661303 0.355081 0.00770049
-0.931438 0.613097 2.40152e-05
-0.292246 -0.554037 -0.00402464
-1.43372 -0.382008 3.36045
-1.92334 0.0782741 3.68079
-0.04731 -0.218709 0.000940594
0.182932 -0.631006 -0.568484
SCALARS radius float 1
LOOKUP_TABLE default
0.025
0.025
0.025
0.025
0.025
0.025
0.025
0.025
0.025
0.025
0.025
0.025
0.025
0.025
0.025
0.025
0.025
0.025
0.025
0.025
0.025
0.025
0.025
0.025
0.025
0.025
0.025
0.025
0.02
0.02
0.02
0.02
0.02
0.02
0.02
0.02
0.02
0.02
0.02
0.02
0.02
0.02
0.02
0.02
0.02
0.02
0.02
0.02
0.02
0.02
0.02
0.02
0.02
0.02
0.02
0.02
0.02
0.02
0.02
0.02
0.02
0.02
0.02
0.02
0.02
0.02
0.02
0.02
0.02
0.02
0.02
0.02
0.02
0.02
0.02
0.02
0.02
0.02
0.02
0.02
0.02
0.02
0.02
0.02
0.02
0.02
SCALARS type float 1
LOOKUP_TABLE default
1.0
1.0
1.0
1.0
1.0
1.0
1.0
1.0
1.0
1.0
1.0
1.0
1.0
1.0
1.0
1.0
1.0
1.0
1.0
1.0
1.0
1.0
1.0
1.0
1.0
1.0
1.0
1.0
1.0
1.0
1.0
1.0
1.0
1.0
1.0
1.0
1.0
1.0
1.0
1.0
1.0
1.0
1.0
1.0
1.0
1.0
1.0
1.0
1.0
1.0
1.0
1.0
1.0
1.0
1.0
1.0
1.0
1.0
1.0
1.0
1.0
1.0
1.0
1.0
1.0
1.0
1.0
1.0
1.0
1.0
1.0
1.0
1.0
1.0
1.0
1.0
1.0
1.0
1.0
1.0
1.0
1.0
1.0
1.0
1.0
1.0
SCALARS id float 1
LOOKUP_TABLE default
1.0
2.0
3.0
4.0
5.0
6.0
7.0
8.0
9.0
10.0
11.0
12.0
13.0
14.0
15.0
16.0
17.0
18.0
19.0
20.0
21.0
22.0
23.0
24.0
25.0
26.0
27.0
28.0
29.0
30.0
31.0
32.0
33.0
34.0
35.0
36.0
37.0
38.0
39.0
40.0
41.0
42.0
43.0
44.0
45.0
46.0
47.0
48.0
49.0
50.0
51.0
52.0
53.0
54.0
55.0
56.0
57.0
58.0
59.0
60.0
61.0
62.0
63.0
64.0
65.0
66.0
67.0
68.0
69.0
70.0
71.0
72.0
73.0
74.0
75.0
76.0
77.0
78.0
79.0
80.0
81.0
82.0
83.0
84.0
85.0
86.0

