# vtk DataFile Version 2.0
Generated by lpp.py
ASCII
DATASET POLYDATA
POINTS 86 float
0.0781305 0.0899485 -0.0502446
0.0568324 0.127825 -0.0750002
-0.0749897 -0.151491 -0.0750002
-0.0280038 -0.168518 -0.0701953
0.252759 0.0726175 -0.0258141
0.189143 -0.115018 0.0950509
0.0141643 0.162245 -0.0289286
0.0374003 -0.0701398 -0.0562844
0.190193 -0.0318572 -0.0380551
0.109901 -0.100725 -0.0743007
0.274963 0.0639296 -0.0749894
0.0841805 -0.137488 -0.0485413
0.264342 0.143225 -0.0718683
0.142386 0.153641 0.0327373
0.218283 -0.149286 0.045715
0.0941628 -0.00265681 -0.0748338
0.255382 -0.0771212 -0.0750002
0.117963 0.107285 -0.0750002
0.160548 0.153294 -0.0415763
0.0803948 -0.0349994 -0.0389439
-0.0747763 0.114302 -0.0351246
0.270006 -0.119044 -0.0519221
0.213358 0.0568338 -0.0537962
0.216102 -0.0748364 -0.0427733
-0.0649222 0.0126343 -0.0750002
-0.0562244 -0.0335672 -0.0579753
-0.0287953 0.00795182 0.0977789
0.00143023 0.115384 -0.047799
0.140982 0.0528049 0.00265499
0.238289 -0.0107941 -0.0798401
0.111226 0.00433771 -0.0335421
0.175753 0.127672 -0.0800002
-0.0175987 -0.110351 -0.0774142
-0.0791594 -0.065411 -0.0799986
-0.0638721 -0.106263 -0.0795483
0.240579 0.0322525 -0.0800049
0.269054 0.0226645 0.0961107
0.0877948 -0.172592 -0.0800002
0.184131 -0.0138467 -0.0790349
-0.0740585 -0.076566 -0.0419246
0.248759 0.101547 -0.0800002
0.0905749 0.157487 -0.0798952
0.189303 -0.119918 -0.0398439
0.218105 -0.140484 -0.076372
0.256543 -0.158427 -0.0800002
0.208735 -0.0479512 -0.0800002
0.0439241 0.0617748 -0.0721852
0.192734 -0.167241 -0.0457174
0.279319 0.0171835 -0.0800001
0.188783 0.179478 0.202488
0.172149 -0.163954 -0.0800002
-0.0799119 0.0548837 -0.0800002
-0.0780917 0.118348 -0.0800002
0.228606 0.16511 -0.0417433
0.00719012 0.0470614 -0.0800002
0.140602 0.0956097 0.0654282
0.130324 0.150264 -0.0800002
0.243678 0.00456841 -0.040628
0.0354288 0.171011 -0.0800002
0.0754889 0.0266928 -0.0301788
0.275215 -0.0359843 -0.0787972
0.234206 -0.17997 -0.0484782
0.157527 0.179982 -0.0790666
0.279024 0.0303743 -0.0420343
0.0586779 -0.108453 -0.0797597
-0.00128321 0.0480694 0.0870834
0.0584918 0.0252431 -0.0800002
0.245206 -0.0390862 -0.0521878
0.190214 0.086453 -0.0799294
0.19772 0.179542 -0.0739593
-0.0483888 0.160662 -0.00868545
-0.014422 0.083123 -0.0770321
0.237205 -0.143265 -0.0328441
0.00817767 -0.141209 -0.0800002
0.134179 -0.0295914 -0.0718189
0.239239 0.179721 -0.0799355
-0.0733937 0.172953 0.025563
-0.039253 -0.0695478 -0.0799755
0.209324 -0.179767 -0.0799528
0.165947 -0.122624 -0.0783162
0.215891 -0.100553 -0.0798214
0.0753118 -0.0651123 -0.0800002
0.178211 0.100197 -0.0424291
0.101811 0.0566963 -0.0790464
-0.062213 0.178331 -0.0635639
0.0505135 0.0808867 0.0911395
VERTICES 86 172
1 0
1 1
1 2
1 3
1 4
1 5
1 6
1 7
1 8
1 9
1 10
1 11
1 12
1 13
1 14
1 15
1 16
1 17
1 18
1 19
1 20
1 21
1 22
1 23
1 24
1 25
1 26
1 27
1 28
1 29
1 30
1 31
1 32
1 33
1 34
1 35
1 36
1 37
1 38
1 39
1 40
1 41
1 42
1 43
1 44
1 45
1 46
1 47
1 48
1 49
1 50
1 51
1 52
1 53
1 54
1 55
1 56
1 57
1 58
1 59
1 60
1 61
1 62
1 63
1 64
1 65
1 66
1 67
1 68
1 69
1 70
1 71
1 72
1 73
1 74
1 75
1 76
1 77
1 78
1 79
1 80
1 81
1 82
1 83
1 84
1 85
POINT_DATA 86
VECTORS i float
0.0 0.0 0.0
0.0 0.0 0.0
0.0 0.0 0.0
0.0 0.0 0.0
0.0 0.0 0.0
0.0 0.0 0.0
0.0 0.0 0.0
0.0 0.0 0.0
0.0 0.0 0.0
0.0 0.0 0.0
0.0 0.0 0.0
0.0 0.0 0.0
0.0 0.0 0.0
0.0 0.0 0.0
0.0 0.0 0.0
0.0 0.0 0.0
0.0 0.0 0.0
0.0 0.0 0.0
0.0 0.0 0.0
0.0 0.0 0.0
0.0 0.0 0.0
0.0 0.0 0.0
0.0 0.0 0.0
0.0 0.0 0.0
0.0 0.0 0.0
0.0 0.0 0.0
0.0 0.0 0.0
0.0 0.0 0.0
0.0 0.0 0.0
0.0 0.0 0.0
0.0 0.0 0.0
0.0 0.0 0.0
0.0 0.0 0.0
0.0 0.0 0.0
0.0 0.0 0.0
0.0 0.0 0.0
0.0 0.0 0.0
0.0 0.0 0.0
0.0 0.0 0.0
0.0 0.0 0.0
0.0 0.0 0.0
0.0 0.0 0.0
0.0 0.0 0.0
0.0 0.0 0.0
0.0 0.0 0.0
0.0 0.0 0.0
0.0 0.0 0.0
0.0 0.0 0.0
0.0 0.0 0.0
0.0 0.0 0.0
0.0 0.0 0.0
0.0 0.0 0.0
0.0 0.0 0.0
0.0 0.0 0.0
0.0 0.0 0.0
0.0 0.0 0.0
0.0 0.0 0.0
0.0 0.0 0.0
0.0 0.0 0.0
0.0 0.0 0.0
0.0 0.0 0.0
0.0 0.0 0.0
0.0 0.0 0.0
0.0 0.0 0.0
0.0 0.0 0.0
0.0 0.0 0.0
0.0 0.0 0.0
0.0 0.0 0.0
0.0 0.0 0.0
0.0 0.0 0.0
0.0 0.0 0.0
0.0 0.0 0.0
0.0 0.0 0.0
0.0 0.0 0.0
0.0 0.0 0.0
0.0 0.0 0.0
0.0 0.0 0.0
0.0 0.0 0.0
0.0 0.0 0.0
0.0 0.0 0.0
0.0 0.0 0.0
0.0 0.0 0.0
0.0 0.0 0.0
0.0 0.0 0.0
0.0 0.0 0.0
0.0 0.0 0.0
VECTORS f float
0.0 0.0 -1.60516
-4.57749e-06 1.66741e-05 -0.324146
-4.46926e-13 -1.99152e-11 -1.73056e-06
0.0 0.0 -1.60516
0.0 0.0 -1.60516
0.0 0.0 -1.60516
0.0 0.0 -1.60516
-0.117217 -0.00236612 -1.37999
0.0 0.0 -1.60516
0.0 0.0 -1.60516
0.0 0.0 -1.60516
0.0 0.0 -1.60516
0.0 0.0 -1.60516
0.0 0.0 -1.60516
0.0 0.0 -1.60516
0.0 0.0 -1.60516
-8.31008e-10 2.22775e-11 -2.26167e-05
0.00651618 -0.00203507 -0.470355
0.0 0.0 -1.60516
0.0 0.0 -1.60516
0.0 0.0 -1.60516
0.0 0.0 -1.60516
0.0 0.0 -1.60516
0.0 0.0 -1.60516
-4.52941e-08 1.4318e-08 -0.00023475
0.0 0.0 -1.60516
0.0 0.0 -1.60516
0.0 0.0 -1.60516
0.0 0.0 -0.821841
0.0 0.0 -0.821841
0.0 0.0 -0.821841
-2.22326e-13 -1.72021e-13 9.72183e-10
0.0 0.0 -0.821841
0.0 0.0 -0.821841
0.0 0.0 -0.821841
66.1338 60.6187 258.431
0.0 0.0 -0.821841
2.65966e-14 -6.98654e-15 0.0
0.0 0.0 -0.821841
0.0 0.0 -0.821841
-1.49758e-15 5.66172e-16 -3.71225e-12
0.0 0.0 -0.821841
0.0 0.0 -0.821841
0.0 0.0 -0.821841
6.67583e-15 -4.16057e-14 0.0
3.28576e-15 -1.27855e-14 0.0
0.0 0.0 -0.821841
0.0 0.0 -0.821841
-1.14775e-05 1.65185e-05 -0.421445
0.0 0.0 -0.821841
2.63709e-08 8.34755e-08 -0.000159761
-2.23872e-15 -2.61405e-14 -7.39613e-11
5.43728e-07 -1.43788e-06 0.00461455
0.0 0.0 -0.821841
-2.79504e-14 -1.66022e-14 0.0
0.0 0.0 -0.821841
-3.90057e-06 -2.27703e-05 -0.0330117
0.0 0.0 -0.821841
-2.10289e-13 1.33516e-14 0.0
0.0 0.0 -0.821841
0.0 0.0 -0.821841
0.0 0.0 -0.821841
0.0 0.0 -0.821841
0.0 0.0 -0.821841
0.0 0.0 -0.821841
0.0 0.0 -0.821841
-3.16495e-15 2.16226e-13 -4.44089e-16
0.0 0.0 -0.821841
0.0 0.0 -0.821841
0.0 0.0 -0.821841
0.0 0.0 -0.821841
0.0 0.0 -0.821841
0.0 0.0 -0.821841
-1.1182e-13 5.34066e-14 0.0
0.0 0.0 -0.821841
0.0 0.0 -0.821841
0.0 0.0 -0.821841
0.0 0.0 -0.821841
0.0 0.0 -0.821841
0.0 0.0 -0.821841
0.0 0.0 -0.821841
-0.00765141 -0.0153877 9.02139e-06
0.0 0.0 -0.821841
0.0 0.0 -0.821841
0.0 0.0 -0.821841
0.0 0.0 -0.821841
VECTORS omega float
18.485 -15.3861 3.89927
-3.62553 -1.30749 8.33257
-2.56459 0.057559 4.07862
3.61806 -2.92645 -12.0963
12.9292 19.1781 13.4723
-32.0872 -34.3 -14.8384
-2.15868 -81.9747 -2.41617
10.805 -6.06535 3.00661
-2.94505 11.7494 3.48703
-7.3588 -5.6537 7.05505
1.84063 -0.423086 2.09945
1.6053 14.7548 1.01249
-0.599249 1.37309 -4.83095
-9.27354 1.69843 -10.2287
14.3425 50.2553 10.4737
-1.29405 -5.69835 2.24088
0.193209 7.20754 0.237333
-1.34067 3.13811 4.42892
0.291333 -1.34505 -13.3391
1.95552 -5.03786 1.12432
-0.332793 -3.64099 -2.86359
-0.856468 11.6312 -12.2119
5.68444 -3.37392 -11.8844
-3.3636 -2.76028 4.11773
-0.850497 -2.66051 1.67276
-0.616836 2.52886 1.85621
-14.2654 -16.5103 7.3168
-44.2219 12.001 -24.6771
51.789 9.06372 29.1574
3.35166 -7.69672 1.16632
-0.454372 23.2403 -15.6684
-6.73578 12.4355 -35.9986
-1.67986 8.84743 -11.5266
1.07776 2.41307 3.78772
-4.85512 -1.29283 -0.816406
8.4497 -0.518965 8.88937
54.6499 5.22539 22.5806
-0.792033 -2.58321 2.63456
6.30763 -10.3492 18.1202
-6.631 -17.1156 -15.8355
-1.98422 -0.624603 -13.5251
-0.800422 2.05664 9.33869
-17.606 42.3716 -23.6163
-1.8736 0.911727 -9.03839
9.28755 -0.966822 18.5093
-2.08523 -0.2972 16.3982
11.5604 -6.71537 -5.96463
12.6685 -11.8752 -21.2233
5.21844 2.21343 -1.56827
0.0 0.0 0.0
-11.4571 3.61942 -10.266
-3.00994 0.297049 -2.07179
3.14246 1.20392 -2.54073
4.10955 -25.9284 36.0491
-11.3041 2.65172 22.0983
34.834 -5.33969 -1.83755
-1.61932 3.90786 -6.98138
-29.7447 24.0567 -4.61677
1.35598 18.1766 -25.1824
-49.7516 -11.8837 31.4145
-4.57826 -4.19825 -3.41458
-4.87154 2.99969 -4.96701
-2.25555 7.02541 9.34339
2.21412 4.27652 7.76848
-7.10784 -5.26535 -9.44528
-63.3931 18.2802 51.8135
-20.8738 9.58099 12.0719
-0.997375 1.92507 16.1284
4.10133 1.57662 10.6638
-2.93609 -3.35204 0.979009
-79.91 11.2541 11.9498
8.09214 -10.965 -15.6708
-2.16081 -16.3244 6.47925
-6.80924 -11.1535 -1.82556
-2.14978 -18.0175 3.83284
-1.36505 18.7887 10.2998
-14.5476 1.10021 -18.3635
5.50837 0.590866 -13.0475
-1.12817 3.55046 -3.66241
-0.443066 -12.0421 -22.7136
3.80209 11.0733 5.05362
-7.94766 0.164273 -8.27865
-16.6464 -48.6294 0.58558
-26.7881 12.7296 9.49845
29.2389 -19.7411 3.85755
-40.4952 14.8317 -8.78423
VECTORS v float
-0.0237452 -0.0493828 -0.224863
-0.032687 0.0906379 0.000206127
0.00143897 0.0641145 -1.93665e-10
0.0567269 -0.00872069 -0.496562
-0.0373435 0.0836664 -0.223179
0.111223 -0.187587 -0.329358
0.319119 0.539195 -0.634638
-0.217012 0.132742 -0.357706
0.045303 -0.0172038 -0.070295
-0.141044 0.183926 0.0652943
-0.00988029 -0.0464212 -0.00854734
0.0243768 0.0672858 -0.132995
0.35885 -0.0115176 -0.273199
-0.12488 0.107635 -0.446985
0.141943 -0.918503 -0.969354
-0.185383 0.00943688 0.116283
0.180188 -0.0048302 -2.91759e-09
0.0784508 0.0335191 -0.000103097
0.218882 0.0483468 0.0943558
-0.259876 -0.0281104 0.297001
0.112659 -0.0752336 0.0650212
0.197759 -0.129009 -0.272012
-0.0380078 -0.244121 -0.0704573
0.237203 0.086847 0.00290076
-0.0665123 0.0212623 4.84956e-07
0.0469676 0.0488764 -0.0855301
0.358811 0.180481 -0.851345
0.289972 -0.243393 -0.213062
0.0529848 -0.0660418 -0.509087
-0.164409 -0.00783101 -0.0463708
0.206402 -0.0332094 0.151037
0.24871 0.134715 -1.4571e-12
0.168395 0.000978338 0.166509
0.0490376 -0.0203312 0.00623184
-0.0312636 0.106469 -0.0641715
-0.023721 -0.18121 -0.169037
-0.271386 -0.418036 -0.322187
-0.051664 0.0158406 -3.20563e-13
-0.230569 0.0409552 -0.191988
-0.299814 0.0561281 0.0786256
-0.012492 0.0396842 -3.08693e-13
0.0443741 0.0187107 -0.0660311
0.405632 0.109012 -0.0134677
0.171136 0.0633595 -0.0690742
-0.0193364 -0.18575 8.11284e-15
-0.00594398 0.0417044 -6.49239e-13
0.0950517 0.503346 -0.461275
0.0720852 0.0452716 -0.00423665
0.0442685 -0.104369 -0.000370079
0.0 0.0 0.506244
0.0723882 0.229141 4.07702e-07
0.00594095 0.0601985 -8.40691e-14
0.0240783 -0.062849 2.5342e-05
0.427128 -0.286938 0.0459241
0.0530341 0.226081 -3.20563e-13
-0.0478136 0.412972 -0.391887
0.0781569 0.0323863 5.31361e-05
0.309273 -0.141666 -0.0189075
0.363531 -0.0271195 -6.49239e-13
0.00521566 0.130509 -0.702691
-0.0918557 0.0864507 0.0311898
0.23235 -0.00686938 -0.101754
0.113601 0.00347898 -0.0186439
-0.149031 -0.160657 0.00898312
-0.103721 0.14019 0.0390255
0.43188 0.713029 -0.179559
0.191619 0.417474 -3.20562e-13
0.00583405 -0.0128763 -0.0380228
0.0293404 -0.0736615 -0.0245178
0.157192 -0.0299297 -0.0673617
-0.281767 0.650124 -0.624589
-0.195671 -0.0870935 0.279529
0.0751663 0.0678031 -0.229105
-0.22307 0.136184 3.36788e-13
-0.137638 -0.073785 0.0572685
0.260243 -0.0244523 -0.072349
0.0281889 -0.00136821 -0.576563
0.0103852 -0.110205 0.00694149
0.0746204 0.0224424 -0.00909522
-0.234106 0.00626603 -0.011019
0.226708 0.0901453 -0.0151799
0.0032822 0.158952 5.52033e-06
-0.643009 -0.044737 -0.0953927
0.45671 -0.00154627 -0.340005
0.0708466 -0.0842001 -0.755032
0.182932 -0.631006 0.314416
SCALARS radius float 1
LOOKUP_TABLE default
0.025
0.025
0.025
0.025
0.025
0.025
0.025
0.025
0.025
0.025
0.025
0.025
0.025
0.025
0.025
0.025
0.025
0.025
0.025
0.025
0.025
0.025
0.025
0.025
0.025
0.025
0.025
0.025
0.02
0.02
0.02
0.02
0.02
0.02
0.02
0.02
0.02
0.02
0.02
0.02
0.02
0.02
0.02
0.02
0.02
0.02
0.02
0.02
0.02
0.02
0.02
0.02
0.02
0.02
0.02
0.02
0.02
0.02
0.02
0.02
0.02
0.02
0.02
0.02
0.02
0.02
0.02
0.02
0.02
0.02
0.02
0.02
0.02
0.02
0.02
0.02
0.02
0.02
0.02
0.02
0.02
0.02
0.02
0.02
0.02
0.02
SCALARS type float 1
LOOKUP_TABLE default
1.0
1.0
1.0
1.0
1.0
1.0
1.0
1.0
1.0
1.0
1.0
1.0
1.0
1.0
1.0
1.0
1.0
1.0
1.0
1.0
1.0
1.0
1.0
1.0
1.0
1.0
1.0
1.0
1.0
1.0
1.0
1.0
1.0
1.0
1.0
1.0
1.0
1.0
1.0
1.0
1.0
1.0
1.0
1.0
1.0
1.0
1.0
1.0
1.0
1.0
1.0
1.0
1.0
1.0
1.0
1.0
1.0
1.0
1.0
1.0
1.0
1.0
1.0
1.0
1.0
1.0
1.0
1.0
1.0
1.0
1.0
1.0
1.0
1.0
1.0
1.0
1.0
1.0
1.0
1.0
1.0
1.0
1.0
1.0
1.0
1.0
SCALARS id float 1
LOOKUP_TABLE default
1.0
2.0
3.0
4.0
5.0
6.0
7.0
8.0
9.0
10.0
11.0
12.0
13.0
14.0
15.0
16.0
17.0
18.0
19.0
20.0
21.0
22.0
23.0
24.0
25.0
26.0
27.0
28.0
29.0
30.0
31.0
32.0
33.0
34.0
35.0
36.0
37.0
38.0
39.0
40.0
41.0
42.0
43.0
44.0
45.0
46.0
47.0
48.0
49.0
50.0
51.0
52.0
53.0
54.0
55.0
56.0
57.0
58.0
59.0
60.0
61.0
62.0
63.0
64.0
65.0
66.0
67.0
68.0
69.0
70.0
71.0
72.0
73.0
74.0
75.0
76.0
77.0
78.0
79.0
80.0
81.0
82.0
83.0
84.0
85.0
86.0

