# vtk DataFile Version 2.0
Generated by lpp.py
ASCII
DATASET POLYDATA
POINTS 86 float
0.0784318 0.0895046 -0.0400089
0.0576825 0.121133 -0.0739513
-0.0749526 -0.156277 -0.0748966
-0.0299908 -0.168487 -0.0567118
0.259024 0.078396 -0.0136415
0.161193 -0.0971634 0.120457
0.00531208 0.169222 0.0187517
0.0444675 -0.0804608 -0.0473804
0.187613 -0.0219868 -0.0171982
0.116639 -0.109549 -0.072256
0.274787 0.0619834 -0.0646109
0.0847437 -0.143092 -0.0471207
0.253118 0.145287 -0.0620961
0.14838 0.148474 0.0428915
0.234081 -0.114049 0.0600452
0.104633 4.43014e-05 -0.0749073
0.247625 -0.0787805 -0.0750008
0.11347 0.0997165 -0.0744505
0.14604 0.143359 -0.0405792
0.0840861 -0.0501366 -0.0217518
-0.0638767 0.119526 -0.0378297
0.263445 -0.116403 -0.0461156
0.209558 0.0657287 -0.0514174
0.205833 -0.0837414 -0.0389357
-0.0602389 0.00902718 -0.0725586
-0.059088 -0.0360238 -0.0503167
-0.0460182 -0.000711286 0.127342
-0.00455236 0.123085 -0.0228158
0.138439 0.0559749 0.01579
0.241656 -0.00775277 -0.0797624
0.107943 0.0105276 -0.0310106
0.162445 0.12406 -0.0794538
-0.0218032 -0.104967 -0.0650364
-0.0796393 -0.0655041 -0.0800002
-0.0635269 -0.109256 -0.0782496
0.242113 0.0346791 -0.0800011
0.275923 0.04468 0.0984814
0.0902737 -0.173314 -0.0800003
0.190762 -0.00419615 -0.0734381
-0.0613468 -0.0809976 -0.0479792
0.249365 0.0959241 -0.0800002
0.0865198 0.162442 -0.0786268
0.17828 -0.123244 -0.0222276
0.214661 -0.140512 -0.071386
0.257469 -0.149513 -0.0798123
0.209012 -0.0499459 -0.0796869
0.0393255 0.0383149 -0.0599356
0.181143 -0.169151 -0.0410245
0.278493 0.0180271 -0.0791004
0.188783 0.179478 0.166887
0.170468 -0.172925 -0.0794521
-0.0794717 0.0531474 -0.0800003
-0.0794587 0.121486 -0.0800003
0.20003 0.174129 -0.0278783
0.00465069 0.0361895 -0.0800002
0.142897 0.075787 0.0729376
0.124839 0.149282 -0.0798861
0.228636 0.0224774 -0.0334432
0.0179793 0.172312 -0.0800002
0.0752386 0.0204284 -0.00775069
0.278988 -0.0398822 -0.0749908
0.228063 -0.180002 -0.0443174
0.152235 0.178425 -0.0799006
0.277475 0.0183824 -0.0381402
0.0634405 -0.114375 -0.0799707
-0.0220134 0.013844 0.0844011
0.0493245 0.0051805 -0.0799994
0.245523 -0.0381799 -0.0518726
0.186592 0.0919726 -0.0799848
0.191498 0.174906 -0.0722922
-0.0373129 0.129285 0.0121126
-0.0175724 0.0720617 -0.0799617
0.234473 -0.144741 -0.0265535
0.0188847 -0.147743 -0.079814
0.146126 -0.0268192 -0.0710856
0.230453 0.179836 -0.0799717
-0.0747468 0.173019 0.0419369
-0.0368758 -0.0642146 -0.079872
0.209993 -0.179343 -0.0799987
0.170782 -0.125283 -0.0800002
0.209205 -0.101833 -0.0800003
0.0749283 -0.0742011 -0.0799704
0.201623 0.112363 -0.0170387
0.0813658 0.0524128 -0.0749497
-0.0665818 0.175232 -0.0348651
0.0417328 0.111175 0.0647464
VERTICES 86 172
1 0
1 1
1 2
1 3
1 4
1 5
1 6
1 7
1 8
1 9
1 10
1 11
1 12
1 13
1 14
1 15
1 16
1 17
1 18
1 19
1 20
1 21
1 22
1 23
1 24
1 25
1 26
1 27
1 28
1 29
1 30
1 31
1 32
1 33
1 34
1 35
1 36
1 37
1 38
1 39
1 40
1 41
1 42
1 43
1 44
1 45
1 46
1 47
1 48
1 49
1 50
1 51
1 52
1 53
1 54
1 55
1 56
1 57
1 58
1 59
1 60
1 61
1 62
1 63
1 64
1 65
1 66
1 67
1 68
1 69
1 70
1 71
1 72
1 73
1 74
1 75
1 76
1 77
1 78
1 79
1 80
1 81
1 82
1 83
1 84
1 85
POINT_DATA 86
VECTORS i float
0.0 0.0 0.0
0.0 0.0 0.0
0.0 0.0 0.0
0.0 0.0 0.0
0.0 0.0 0.0
0.0 0.0 0.0
0.0 0.0 0.0
0.0 0.0 0.0
0.0 0.0 0.0
0.0 0.0 0.0
0.0 0.0 0.0
0.0 0.0 0.0
0.0 0.0 0.0
0.0 0.0 0.0
0.0 0.0 0.0
0.0 0.0 0.0
0.0 0.0 0.0
0.0 0.0 0.0
0.0 0.0 0.0
0.0 0.0 0.0
0.0 0.0 0.0
0.0 0.0 0.0
0.0 0.0 0.0
0.0 0.0 0.0
0.0 0.0 0.0
0.0 0.0 0.0
0.0 0.0 0.0
0.0 0.0 0.0
0.0 0.0 0.0
0.0 0.0 0.0
0.0 0.0 0.0
0.0 0.0 0.0
0.0 0.0 0.0
0.0 0.0 0.0
0.0 0.0 0.0
0.0 0.0 0.0
0.0 0.0 0.0
0.0 0.0 0.0
0.0 0.0 0.0
0.0 0.0 0.0
0.0 0.0 0.0
0.0 0.0 0.0
0.0 0.0 0.0
0.0 0.0 0.0
0.0 0.0 0.0
0.0 0.0 0.0
0.0 0.0 0.0
0.0 0.0 0.0
0.0 0.0 0.0
0.0 0.0 0.0
0.0 0.0 0.0
0.0 0.0 0.0
0.0 0.0 0.0
0.0 0.0 0.0
0.0 0.0 0.0
0.0 0.0 0.0
0.0 0.0 0.0
0.0 0.0 0.0
0.0 0.0 0.0
0.0 0.0 0.0
0.0 0.0 0.0
0.0 0.0 0.0
0.0 0.0 0.0
0.0 0.0 0.0
0.0 0.0 0.0
0.0 0.0 0.0
0.0 0.0 0.0
0.0 0.0 0.0
0.0 0.0 0.0
0.0 0.0 0.0
0.0 0.0 0.0
0.0 0.0 0.0
0.0 0.0 0.0
0.0 0.0 0.0
0.0 0.0 0.0
0.0 0.0 0.0
0.0 0.0 0.0
0.0 0.0 0.0
0.0 0.0 0.0
0.0 0.0 0.0
0.0 0.0 0.0
0.0 0.0 0.0
0.0 0.0 0.0
0.0 0.0 0.0
0.0 0.0 0.0
0.0 0.0 0.0
VECTORS f float
0.0 0.0 -1.60516
0.0 0.0 -1.60516
0.0 0.0 -1.60516
0.0 0.0 -1.60516
0.0 0.0 -1.60516
0.0 0.0 -1.60516
0.0 0.0 -1.60516
0.0 0.0 -1.60516
0.0 0.0 -1.60516
0.0 0.0 -1.60516
0.0 0.0 -1.60516
-0.0532532 0.253717 -0.900152
0.0 0.0 -1.60516
0.0 0.0 -1.60516
0.0 0.0 -1.60516
0.0 0.0 -1.60516
5.18309 -10.1517 17.3921
0.0 0.0 -1.60516
0.0 0.0 -1.60516
0.0 0.0 -1.60516
0.19734 -0.0261723 -0.579444
0.0 0.0 -1.60516
0.0 0.0 -1.60516
-0.0521692 0.313869 -0.32914
0.0 0.0 -1.60516
0.0 0.0 -1.60516
0.0 0.0 -1.60516
0.0 0.0 -1.60516
0.0 0.0 -0.821841
0.0 0.0 -0.821841
0.0 0.0 -0.821841
0.0 0.0 -0.821841
0.0 0.0 -0.821841
0.00382579 -0.000809631 0.379346
0.0 0.0 -0.821841
0.539981 -0.41701 11.89
0.0 0.0 -0.821841
0.00394678 0.024559 1.33547e-06
0.0 0.0 -0.821841
0.0 0.0 -0.821841
-3.48367e-16 9.1797e-14 0.0
0.0 0.0 -0.821841
0.0 0.0 -0.821841
0.0190638 -0.126859 -0.700542
0.0 0.0 -0.821841
0.0 0.0 -0.821841
0.0 0.0 -0.821841
0.0 0.0 -0.821841
0.0 0.0 -0.821841
0.0 0.0 -0.821841
0.0 0.0 -0.821841
-0.000258876 -4.91569e-05 0.301014
-0.0206615 0.0044582 -0.0387205
0.0 0.0 -0.821841
-1.37393e-09 -6.02436e-09 -2.64532e-05
0.0 0.0 -0.821841
-62.0353 -33.9039 33.009
0.0 0.0 -0.821841
1.0647e-05 -7.94271e-07 -0.0166728
0.0 0.0 -0.821841
0.0 0.0 -0.821841
-11.2009 -25.7351 2.99814
62.0353 33.9039 -34.6526
0.0 0.0 -0.821841
0.0 0.0 -0.821841
0.0 0.0 -0.821841
0.0 0.0 -0.821841
0.0 0.0 -0.821841
0.0 0.0 -0.821841
0.0 0.0 -0.821841
0.0 0.0 -0.821841
0.0 0.0 -0.821841
14.7446 53.4639 -4.8936
0.0 0.0 -0.821841
0.0 0.0 -0.821841
0.0 0.0 -0.821841
0.0 0.0 -0.821841
0.0 0.0 -0.821841
0.0 0.0 -0.821841
2.23073e-11 -3.11664e-10 -1.5207e-06
-0.00125002 -0.0395479 -0.012094
0.0 0.0 -0.821841
0.0 0.0 -0.821841
0.0 0.0 -0.821841
0.0 0.0 -0.821841
0.0 0.0 -0.821841
VECTORS omega float
14.7175 -18.0803 8.44041
-7.18413 1.46309 18.0881
-5.28305 3.32215 6.22409
2.24255 -8.10541 -12.7974
15.6619 13.8107 13.0728
-26.0803 -50.5733 -1.45208
35.4193 -99.0088 7.57596
-11.1661 11.8492 1.17294
-6.19893 15.0278 -11.3492
-7.36881 -5.73205 7.05505
-0.242095 8.73002 2.4259
-14.4139 -0.155189 0.0683448
5.10561 -3.54289 1.43586
-9.27354 1.69843 -10.2287
20.3494 33.9821 23.8601
2.09673 -5.94525 2.18358
-0.849792 6.11603 -4.96734
-12.4024 3.51819 5.01936
-10.2728 -16.678 -23.1688
-32.8138 3.90956 6.22557
-1.34046 -14.2061 1.41514
-2.72382 5.85293 -9.00592
11.5657 2.03892 -12.0867
-5.17954 -3.8055 -9.4396
0.468474 -5.74027 5.9705
0.652819 4.07363 3.77996
-14.2654 -16.5103 7.3168
47.3475 -20.3895 -10.3552
51.789 9.06372 29.1574
-3.45118 -1.24627 -3.18928
0.541978 16.8381 -13.6815
-3.5964 15.8824 -37.156
-18.378 14.8455 1.63759
1.77481 1.7627 -0.678506
0.108728 6.4288 18.7919
-6.45214 -5.31563 -2.95341
54.6499 -24.416 -9.64789
-0.489632 -2.58373 2.71846
21.4901 -6.64631 20.4426
-10.6319 -34.1316 -20.9057
-11.7049 -0.498902 -24.6241
5.02042 7.68942 28.8162
-23.6819 45.0345 -21.9833
0.874559 -3.83654 -12.2901
9.31081 -1.00922 18.5093
-2.19513 -0.426545 16.3982
17.6522 -8.0031 -5.55435
31.2294 -72.4385 -18.6543
-6.00948 -4.38966 -3.65629
0.0 0.0 0.0
-4.28837 1.50028 -2.85582
2.5551 -6.72747 -5.19176
3.37257 1.73248 -2.55717
-6.20594 -20.6477 33.9274
-11.4125 2.60275 22.3347
34.834 -5.33969 -1.83755
-6.02819 1.82815 -8.02263
-50.8394 33.5771 -10.8996
1.35598 18.1766 -25.1824
-49.7516 -11.8837 31.4145
-6.63577 -6.62937 6.16678
-4.77649 17.2025 -4.2888
-4.22566 1.9514 6.74834
-16.5946 5.05942 10.8288
-4.15169 -4.82958 -11.8341
-63.3931 18.2802 51.8135
-20.8789 9.49196 12.2459
-2.70395 3.74586 17.0369
6.43228 8.70107 26.3752
-13.5072 -12.6842 -4.4705
-58.2175 -1.87261 35.946
1.48161 14.2989 -29.0974
7.34745 -7.91356 11.1105
-6.89797 -11.1657 -1.82556
-19.3417 -21.0496 12.2605
-0.0562365 7.54857 -4.77379
-14.5476 1.10021 -18.3635
4.87266 -8.02344 -17.173
2.14243 -5.87978 1.70831
-4.50875 -0.322724 -21.0806
-0.868633 6.31297 4.49999
-7.54648 -8.38855 -10.9542
-15.1823 -67.0945 6.92827
-12.9399 40.3868 5.20283
12.4938 -19.7411 -0.456119
-40.4952 14.8317 -8.78423
VECTORS v float
-0.0798459 0.056487 -0.260039
0.0448537 0.170784 -0.0469948
-0.0263178 0.171296 -0.0682369
-0.00370138 0.0178083 -0.105033
-0.24094 -0.328647 -0.302145
0.934564 -0.509511 -0.618983
0.175886 -0.352659 -1.06564
0.0114007 0.618937 0.0624255
0.0542784 -0.143223 -0.614797
-0.140261 0.183826 0.132803
-0.0126281 0.143153 -0.244974
-0.129929 0.273347 -0.255409
0.0888126 -0.110356 -0.226581
-0.12488 0.107635 0.023895
-0.681398 -0.59658 0.262031
-0.174266 -0.0998379 -0.112453
0.138088 0.0502532 -0.0125027
0.160421 0.348937 -0.0494921
0.343027 0.309159 -0.0201698
-0.280657 0.0796731 -0.25613
-0.266378 -0.104717 0.109587
0.053333 -0.0134614 -0.049077
0.472667 -0.342054 -0.428243
0.21336 0.162307 -0.0569998
-0.142794 0.148808 -0.0204119
0.0587495 0.103896 -0.0344301
0.358811 0.180481 -0.380465
-0.30904 -0.124499 0.0695639
0.0529848 -0.0660418 -0.0382067
-0.0241776 0.0641815 0.0604399
0.0675475 -0.151982 -0.0309597
0.31306 -0.0110656 0.00659272
-0.0872756 -0.225132 -0.254305
0.0352646 -0.0354988 -0.000338626
0.128895 -2.68961e-05 0.112442
-0.107364 0.129853 0.00328091
0.541289 -0.675966 0.385918
-0.0516742 0.00979272 1.67124e-06
-0.112281 -0.430624 0.215369
-0.24225 0.130654 0.238091
-0.009978 0.234097 6.65464e-13
0.12712 -0.183666 0.102749
0.105485 0.0411779 -0.546083
-0.0121637 -0.0231636 -0.0945492
-0.0189971 -0.185564 -0.00417555
-0.00490919 0.0408251 -0.00777995
0.0886409 0.451339 -0.112049
0.385979 0.0973345 -0.471253
-0.0885914 0.161115 0.0117141
0.0 0.0 0.977124
-0.102803 0.0770584 0.00483422
-0.134548 -0.0511015 0.00176828
0.034658 -0.0674519 7.88451e-05
0.673134 -0.14215 -0.316551
0.0520547 0.228249 -2.8215e-08
-0.0478136 0.412972 0.0789927
0.271142 0.0373597 -0.0360504
0.317212 -0.596075 -0.265844
0.363531 -0.0271195 3.33001e-05
0.00521566 0.130509 -0.231811
0.238721 0.146651 0.068478
0.0808424 0.000160569 -0.0952314
0.168045 0.190674 0.0790639
-0.122441 0.643828 0.105706
-0.0971074 0.0828233 -0.0167383
0.43188 0.713029 0.291321
0.189811 0.417669 0.00170838
-0.00556536 -0.115704 0.133566
0.174582 -0.128059 -0.0262596
0.0831045 0.237627 -0.144209
0.504286 0.707406 -0.832548
0.0707389 0.430915 -0.127755
0.0404559 -0.0183259 -0.0865309
-0.222973 0.135474 -0.0748223
-0.444824 -0.0660754 -0.663711
0.148312 0.00229317 0.00140855
0.0281889 -0.00136821 -0.105683
-0.160489 -0.0976585 0.0666262
-0.119976 -0.0429183 -0.0140543
-0.00645446 0.0901747 -3.76193e-09
0.126262 0.017358 -0.000258116
0.0292047 0.204319 -0.033302
-0.425251 -0.336841 -0.551447
0.296592 0.142998 -0.787021
0.105361 0.170287 -0.418133
0.182932 -0.631006 0.785296
SCALARS radius float 1
LOOKUP_TABLE default
0.025
0.025
0.025
0.025
0.025
0.025
0.025
0.025
0.025
0.025
0.025
0.025
0.025
0.025
0.025
0.025
0.025
0.025
0.025
0.025
0.025
0.025
0.025
0.025
0.025
0.025
0.025
0.025
0.02
0.02
0.02
0.02
0.02
0.02
0.02
0.02
0.02
0.02
0.02
0.02
0.02
0.02
0.02
0.02
0.02
0.02
0.02
0.02
0.02
0.02
0.02
0.02
0.02
0.02
0.02
0.02
0.02
0.02
0.02
0.02
0.02
0.02
0.02
0.02
0.02
0.02
0.02
0.02
0.02
0.02
0.02
0.02
0.02
0.02
0.02
0.02
0.02
0.02
0.02
0.02
0.02
0.02
0.02
0.02
0.02
0.02
SCALARS type float 1
LOOKUP_TABLE default
1.0
1.0
1.0
1.0
1.0
1.0
1.0
1.0
1.0
1.0
1.0
1.0
1.0
1.0
1.0
1.0
1.0
1.0
1.0
1.0
1.0
1.0
1.0
1.0
1.0
1.0
1.0
1.0
1.0
1.0
1.0
1.0
1.0
1.0
1.0
1.0
1.0
1.0
1.0
1.0
1.0
1.0
1.0
1.0
1.0
1.0
1.0
1.0
1.0
1.0
1.0
1.0
1.0
1.0
1.0
1.0
1.0
1.0
1.0
1.0
1.0
1.0
1.0
1.0
1.0
1.0
1.0
1.0
1.0
1.0
1.0
1.0
1.0
1.0
1.0
1.0
1.0
1.0
1.0
1.0
1.0
1.0
1.0
1.0
1.0
1.0
SCALARS id float 1
LOOKUP_TABLE default
1.0
2.0
3.0
4.0
5.0
6.0
7.0
8.0
9.0
10.0
11.0
12.0
13.0
14.0
15.0
16.0
17.0
18.0
19.0
20.0
21.0
22.0
23.0
24.0
25.0
26.0
27.0
28.0
29.0
30.0
31.0
32.0
33.0
34.0
35.0
36.0
37.0
38.0
39.0
40.0
41.0
42.0
43.0
44.0
45.0
46.0
47.0
48.0
49.0
50.0
51.0
52.0
53.0
54.0
55.0
56.0
57.0
58.0
59.0
60.0
61.0
62.0
63.0
64.0
65.0
66.0
67.0
68.0
69.0
70.0
71.0
72.0
73.0
74.0
75.0
76.0
77.0
78.0
79.0
80.0
81.0
82.0
83.0
84.0
85.0
86.0

