# vtk DataFile Version 2.0
Generated by lpp.py
ASCII
DATASET POLYDATA
POINTS 86 float
0.0885734 0.080951 2.75633e-06
0.0674088 0.0992263 -0.0547311
-0.062491 -0.169974 -0.074468
-0.00976691 -0.172776 -0.0699893
0.263624 0.105475 -0.0217309
0.0770817 -0.0513074 0.136435
-0.00774823 0.1222 0.0789228
0.0253873 -0.14684 -0.0230228
0.182728 -0.00909674 -0.00159697
0.115208 -0.11958 -0.0682001
0.272082 0.0542516 -0.0316388
0.0944885 -0.166886 -0.0346402
0.259256 0.142164 -0.0591671
0.159619 0.138787 0.00101042
0.221325 -0.0674391 0.0210849
0.117515 0.00726807 -0.0721648
0.231066 -0.0797598 -0.0662833
0.122004 0.0621161 -0.0639273
0.112795 0.119263 -0.0359272
0.109345 -0.0573072 -0.0384306
-0.0285153 0.128821 -0.0525257
0.266642 -0.11996 -0.0454126
0.179049 0.094156 -0.0417655
0.17967 -0.0883378 -0.0379849
-0.0410419 0.0210585 -0.0555225
-0.0695105 -0.026294 -0.0454958
-0.0684078 -0.0196853 0.121267
0.0200554 0.134278 -0.063964
0.140212 0.0680324 -0.018068
0.254126 -0.0234004 -0.0484372
0.111841 0.0241836 -0.022892
0.102841 0.131457 -0.0792403
0.0137581 -0.114864 -0.0741825
-0.079985 -0.061901 -0.0717613
-0.0779192 -0.125882 -0.077906
0.248859 0.0232466 -0.0786769
0.227207 0.105517 0.0240183
0.0965777 -0.179162 -0.0786069
0.178751 0.0355445 -0.0451592
-0.0563205 -0.119202 -0.0421358
0.261103 0.0860532 -0.0750864
0.0433124 0.17939 -0.0797092
0.168786 -0.12695 -0.0128106
0.211564 -0.141373 -0.0675041
0.270851 -0.16582 -0.0744506
0.199111 -0.0495808 -0.0772405
0.0448852 -0.0085847 -0.0500177
0.146405 -0.177911 -0.0383422
0.277839 0.0115277 -0.0507208
0.188783 0.179478 0.0392152
0.180043 -0.179575 -0.068682
-0.0735615 0.0708447 -0.0751805
-0.0730721 0.126281 -0.0697012
0.142977 0.166491 -0.0446404
-0.0120822 -0.0150762 -0.0714717
0.1472 0.0386195 0.0260978
0.0667063 0.149949 -0.0627275
0.221223 0.03787 -0.0259558
-0.0145994 0.175678 -0.0751479
0.0578932 0.0113767 -0.0145437
0.277037 -0.0687986 -0.047116
0.233553 -0.176731 -0.0410961
0.0987099 0.17852 -0.0614948
0.27768 -0.0443087 -0.00733894
0.0703784 -0.127591 -0.0770957
-0.0608826 -0.0503286 0.0184517
0.0227267 -0.0351988 -0.0741299
0.221499 -0.057438 -0.0242135
0.154208 0.118986 -0.0759427
0.185952 0.139717 -0.0574401
-0.0745716 0.0661345 0.0491122
-0.0330178 0.0641294 -0.0799998
0.223595 -0.120526 -0.0215916
0.03794 -0.160743 -0.0798558
0.185441 -0.0179639 -0.0504307
0.237709 0.179021 -0.0749558
-0.0772838 0.173142 0.0117179
-0.0151468 -0.0588246 -0.0728425
0.222549 -0.179292 -0.0800002
0.166852 -0.137885 -0.0791694
0.190834 -0.102908 -0.0798677
0.0821887 -0.0791499 -0.071812
0.239896 0.142679 -0.00713895
0.0666146 0.0476451 -0.0379462
-0.0760643 0.159906 -0.0369637
0.0253105 0.180039 -0.0330436
VERTICES 86 172
1 0
1 1
1 2
1 3
1 4
1 5
1 6
1 7
1 8
1 9
1 10
1 11
1 12
1 13
1 14
1 15
1 16
1 17
1 18
1 19
1 20
1 21
1 22
1 23
1 24
1 25
1 26
1 27
1 28
1 29
1 30
1 31
1 32
1 33
1 34
1 35
1 36
1 37
1 38
1 39
1 40
1 41
1 42
1 43
1 44
1 45
1 46
1 47
1 48
1 49
1 50
1 51
1 52
1 53
1 54
1 55
1 56
1 57
1 58
1 59
1 60
1 61
1 62
1 63
1 64
1 65
1 66
1 67
1 68
1 69
1 70
1 71
1 72
1 73
1 74
1 75
1 76
1 77
1 78
1 79
1 80
1 81
1 82
1 83
1 84
1 85
POINT_DATA 86
VECTORS i float
0.0 0.0 0.0
0.0 0.0 0.0
0.0 0.0 0.0
0.0 0.0 0.0
0.0 0.0 0.0
0.0 0.0 0.0
0.0 0.0 0.0
0.0 0.0 0.0
0.0 0.0 0.0
0.0 0.0 0.0
0.0 0.0 0.0
0.0 0.0 0.0
0.0 0.0 0.0
0.0 0.0 0.0
0.0 0.0 0.0
0.0 0.0 0.0
0.0 0.0 0.0
0.0 0.0 0.0
0.0 0.0 0.0
0.0 0.0 0.0
0.0 0.0 0.0
0.0 0.0 0.0
0.0 0.0 0.0
0.0 0.0 0.0
0.0 0.0 0.0
0.0 0.0 0.0
0.0 0.0 0.0
0.0 0.0 0.0
0.0 0.0 0.0
0.0 0.0 0.0
0.0 0.0 0.0
0.0 0.0 0.0
0.0 0.0 0.0
0.0 0.0 0.0
0.0 0.0 0.0
0.0 0.0 0.0
0.0 0.0 0.0
0.0 0.0 0.0
0.0 0.0 0.0
0.0 0.0 0.0
0.0 0.0 0.0
0.0 0.0 0.0
0.0 0.0 0.0
0.0 0.0 0.0
0.0 0.0 0.0
0.0 0.0 0.0
0.0 0.0 0.0
0.0 0.0 0.0
0.0 0.0 0.0
0.0 0.0 0.0
0.0 0.0 0.0
0.0 0.0 0.0
0.0 0.0 0.0
0.0 0.0 0.0
0.0 0.0 0.0
0.0 0.0 0.0
0.0 0.0 0.0
0.0 0.0 0.0
0.0 0.0 0.0
0.0 0.0 0.0
0.0 0.0 0.0
0.0 0.0 0.0
0.0 0.0 0.0
0.0 0.0 0.0
0.0 0.0 0.0
0.0 0.0 0.0
0.0 0.0 0.0
0.0 0.0 0.0
0.0 0.0 0.0
0.0 0.0 0.0
0.0 0.0 0.0
0.0 0.0 0.0
0.0 0.0 0.0
0.0 0.0 0.0
0.0 0.0 0.0
0.0 0.0 0.0
0.0 0.0 0.0
0.0 0.0 0.0
0.0 0.0 0.0
0.0 0.0 0.0
0.0 0.0 0.0
0.0 0.0 0.0
0.0 0.0 0.0
0.0 0.0 0.0
0.0 0.0 0.0
0.0 0.0 0.0
VECTORS f float
0.0 0.0 -1.60516
0.0 0.0 -1.60516
0.0 0.0 -1.60516
0.0 0.0 -1.60516
0.0 0.0 -1.60516
0.0 0.0 -1.60516
0.0 0.0 -1.60516
0.0 0.0 -1.60516
0.0 0.0 -1.60516
0.0 0.0 -1.60516
0.0 0.0 -1.60516
0.0 0.0 -1.60516
0.0 0.0 -1.60516
0.0 0.0 -1.60516
0.0 0.0 -1.60516
0.0 0.0 -1.60516
0.0 0.0 -1.60516
0.0 0.0 -1.60516
0.0 0.0 -1.60516
0.0 0.0 -1.60516
0.0 0.0 -1.60516
0.0 0.0 -1.60516
0.0 0.0 -1.60516
0.0 0.0 -1.60516
0.0 0.0 -1.60516
0.0 0.0 -1.60516
0.0 0.0 -1.60516
0.0 0.0 -1.60516
0.0 0.0 -0.821841
0.0 0.0 -0.821841
0.0 0.0 -0.821841
0.0 0.0 -0.821841
0.0 0.0 -0.821841
0.0 0.0 -0.821841
0.0 0.0 -0.821841
0.0 0.0 -0.821841
0.0 0.0 -0.821841
0.0 0.0 -0.821841
0.0 0.0 -0.821841
0.0 0.0 -0.821841
0.0 0.0 -0.821841
0.0 0.0 -0.821841
0.0 0.0 -0.821841
0.0 0.0 -0.821841
0.0 0.0 -0.821841
0.0 0.0 -0.821841
0.0 0.0 -0.821841
0.0 0.0 -0.821841
0.0 0.0 -0.821841
0.0 0.0 -0.821841
0.0 0.0 -0.821841
0.0 0.0 -0.821841
0.0 0.0 -0.821841
0.0 0.0 -0.821841
0.0 0.0 -0.821841
0.0 0.0 -0.821841
0.0 0.0 -0.821841
0.0 0.0 -0.821841
0.0 0.0 -0.821841
0.0 0.0 -0.821841
0.0 0.0 -0.821841
0.0 0.0 -0.821841
0.0 0.0 -0.821841
0.0 0.0 -0.821841
0.0 0.0 -0.821841
0.0 0.0 -0.821841
0.0 0.0 -0.821841
0.0 0.0 -0.821841
0.0 0.0 -0.821841
0.0 0.0 -0.821841
0.0 0.0 -0.821841
0.0 0.0 -0.821841
0.0 0.0 -0.821841
0.0 0.0 -0.821841
0.0 0.0 -0.821841
0.0 0.0 -0.821841
0.0 0.0 -0.821841
0.0 0.0 -0.821841
1.81053e-11 -1.51327e-12 3.2758e-07
0.0 0.0 -0.821841
0.0 0.0 -0.821841
0.0 0.0 -0.821841
0.0 0.0 -0.821841
0.0 0.0 -0.821841
0.0 0.0 -0.821841
342.762 -1408.3 1586.91
VECTORS omega float
2.29635 -15.0543 1.56848
-0.380108 10.7529 -3.65358
-7.07273 0.00237441 15.537
-1.78243 -20.0632 -5.0113
15.6619 32.7101 23.6904
-26.0803 -50.5733 -1.45208
29.9813 -99.0088 11.3468
-20.2797 40.3712 3.2624
-6.19893 15.0278 -11.3492
-11.5066 -18.2519 16.1646
0.419672 -4.11585 -3.73485
-10.0857 7.77183 8.89727
-13.023 -13.51 6.02681
-9.27354 1.69843 -10.2287
4.96355 82.3609 1.40594
-8.89149 -10.942 0.733697
22.2882 -37.5294 5.75267
-2.43645 15.7041 1.24587
9.94214 14.2459 -13.9321
-32.8138 3.90956 6.22557
-12.1134 10.2177 -10.1135
-37.7942 -2.49573 -5.26006
15.464 20.9592 -0.945525
7.71793 0.820646 -8.07117
40.3124 18.6853 -25.4006
18.2177 5.86905 -14.6794
-14.2654 -10.0516 -22.768
104.365 -32.0607 -38.2457
60.4324 11.8181 -1.03671
-0.259756 21.8374 -15.9031
13.3211 24.6553 -55.1926
-4.03556 3.75576 -75.5267
-25.9179 1.17566 6.93402
7.5421 16.578 2.28119
-20.2667 4.78007 22.5017
1.95118 13.531 0.358807
54.6499 -24.416 -9.64789
2.39612 -6.16384 3.9646
19.7114 -46.5994 20.4426
24.134 -57.588 -31.8019
3.30238 -14.304 -56.5427
12.7467 38.3505 72.6868
-23.6819 45.0345 -21.9833
-24.9419 -19.7576 -25.9168
-21.9169 -16.301 8.19549
-18.4208 5.11862 1.50997
44.8047 -37.2303 13.1211
31.2294 -72.4385 -18.6543
9.2043 -19.2465 -2.54017
0.0 0.0 0.0
-18.6769 31.0712 8.73811
16.75 17.0205 3.38583
4.73835 44.3662 9.24705
3.82015 -22.9192 49.2713
-33.4521 35.7545 10.9383
34.834 -5.33969 -1.83755
-61.7232 3.49651 10.1163
-69.0571 52.421 -7.6213
-3.0997 18.8448 -25.1824
-54.4408 -19.1259 22.355
24.9856 18.0696 -2.53218
7.62746 18.1655 -2.6471
1.45139 -58.2556 20.9276
-21.7377 2.63282 -65.8925
-12.063 -20.7753 -24.4633
-63.3931 18.2802 51.8135
-73.2678 34.0443 -14.4803
-5.51078 -14.6366 11.4606
5.72414 41.1203 38.3598
-30.5185 11.566 -18.9522
-58.2175 -44.9089 48.2916
16.2415 -8.97203 -39.4677
0.18886 5.38496 11.9551
-10.082 -8.96825 -4.43941
-47.7691 -24.8786 -2.0376
-3.2525 14.5923 -2.80803
-14.5476 1.10021 -18.3635
89.8443 -26.229 -35.3382
-0.630374 -7.53492 5.09757
-17.5549 10.6571 -21.1545
-0.683109 15.6684 14.8614
18.32 11.8577 -9.48799
-15.1823 -67.0945 6.92827
12.7342 17.8218 5.81177
12.4938 -19.7411 -0.456119
-82.283 -6.41019 16.3286
VECTORS v float
0.139327 0.946289 -1.34194
-0.342191 0.489286 -0.150086
-0.104628 0.184671 0.116559
-0.488378 0.0115166 0.499663
0.483639 -0.222442 0.39171
0.934564 -0.509511 0.263917
0.138172 0.718813 -0.237129
0.284064 0.811167 -0.679483
0.0542784 -0.143223 0.268103
-0.155657 0.246707 0.330258
0.62196 0.0236804 -0.220073
-0.0945791 0.306408 0.099682
-0.152961 0.140995 0.234749
-0.12488 0.107635 0.906795
2.58294 -0.0737138 -0.143827
-0.067694 -0.140122 -0.604803
0.129359 0.181885 -0.269508
-0.24838 0.5037 -0.155322
0.255018 -0.53922 0.0674911
-0.280657 0.0796731 0.62677
-0.206883 -0.159189 -0.149048
0.206347 0.124846 0.586173
-0.520625 0.114284 0.303223
0.383925 -0.0817772 -0.265532
0.893434 -0.066659 0.61378
0.25013 -0.382798 -0.0601456
-0.726947 0.481433 0.567044
-0.850416 0.63475 -3.99668
-0.542837 -0.622169 0.623088
-0.0903319 0.420736 0.163945
0.301199 0.270072 0.280545
2.23834 -0.78791 -0.885249
-0.791914 0.981397 -1.51411
0.0487814 -0.207817 -0.551847
0.11659 0.412045 0.135631
-0.184271 0.188849 -0.355948
0.541289 -0.675966 1.26882
-0.0771688 0.148225 0.0161459
0.207445 -0.444857 -0.164392
0.0350929 0.470979 0.277178
-0.256524 -0.0845545 0.121163
0.790084 -0.242906 0.42028
0.105485 0.0411779 0.336817
0.310331 -0.458832 0.310627
-0.290448 0.431999 0.0830048
0.0958096 0.35665 0.315798
-0.195193 0.83482 0.13014
0.385979 0.0973345 0.411647
0.0087628 -0.0837319 -0.0774273
0.0 0.0 1.86002
-0.19277 0.0343967 -0.133931
-0.0122949 -0.330248 0.108066
0.00810321 0.0450198 -0.14738
0.128121 0.244699 0.351508
0.413478 0.985439 0.118605
-0.0478136 0.412972 0.961893
1.34636 -0.260011 -0.34761
0.571238 0.101528 0.0210721
0.358185 -0.0627667 -0.0889064
0.381245 0.236176 0.309362
0.142146 0.452772 0.401978
-0.340506 0.0188041 -0.0353233
1.79914 0.962034 -0.243743
0.188368 -0.093715 0.490564
-0.244536 0.168248 -0.499501
0.43188 0.713029 1.17422
0.518991 0.615735 -0.00476519
0.820222 0.132441 -0.8747
0.790231 -0.0944662 0.0786908
-0.574266 0.18969 0.0591746
-1.03723 0.60861 -0.294051
0.131776 -0.959925 0.00149053
0.741811 -0.628624 -0.205701
-0.185929 0.213319 0.23812
-0.330671 -0.527529 0.115787
-0.244306 0.0335476 -0.125199
0.0281889 -0.00136821 0.777217
-0.0817536 -0.159893 -0.650338
-0.150698 0.0126074 -1.43583e-10
0.222241 0.357361 0.115598
0.300958 0.00747266 -0.0416553
0.235622 -0.35398 0.0476805
-0.425251 -0.336841 0.331453
-0.141111 -0.473903 -0.0629137
0.105361 0.170287 0.464767
0.143264 -1.30755 0.79663
SCALARS radius float 1
LOOKUP_TABLE default
0.025
0.025
0.025
0.025
0.025
0.025
0.025
0.025
0.025
0.025
0.025
0.025
0.025
0.025
0.025
0.025
0.025
0.025
0.025
0.025
0.025
0.025
0.025
0.025
0.025
0.025
0.025
0.025
0.02
0.02
0.02
0.02
0.02
0.02
0.02
0.02
0.02
0.02
0.02
0.02
0.02
0.02
0.02
0.02
0.02
0.02
0.02
0.02
0.02
0.02
0.02
0.02
0.02
0.02
0.02
0.02
0.02
0.02
0.02
0.02
0.02
0.02
0.02
0.02
0.02
0.02
0.02
0.02
0.02
0.02
0.02
0.02
0.02
0.02
0.02
0.02
0.02
0.02
0.02
0.02
0.02
0.02
0.02
0.02
0.02
0.02
SCALARS type float 1
LOOKUP_TABLE default
1.0
1.0
1.0
1.0
1.0
1.0
1.0
1.0
1.0
1.0
1.0
1.0
1.0
1.0
1.0
1.0
1.0
1.0
1.0
1.0
1.0
1.0
1.0
1.0
1.0
1.0
1.0
1.0
1.0
1.0
1.0
1.0
1.0
1.0
1.0
1.0
1.0
1.0
1.0
1.0
1.0
1.0
1.0
1.0
1.0
1.0
1.0
1.0
1.0
1.0
1.0
1.0
1.0
1.0
1.0
1.0
1.0
1.0
1.0
1.0
1.0
1.0
1.0
1.0
1.0
1.0
1.0
1.0
1.0
1.0
1.0
1.0
1.0
1.0
1.0
1.0
1.0
1.0
1.0
1.0
1.0
1.0
1.0
1.0
1.0
1.0
SCALARS id float 1
LOOKUP_TABLE default
1.0
2.0
3.0
4.0
5.0
6.0
7.0
8.0
9.0
10.0
11.0
12.0
13.0
14.0
15.0
16.0
17.0
18.0
19.0
20.0
21.0
22.0
23.0
24.0
25.0
26.0
27.0
28.0
29.0
30.0
31.0
32.0
33.0
34.0
35.0
36.0
37.0
38.0
39.0
40.0
41.0
42.0
43.0
44.0
45.0
46.0
47.0
48.0
49.0
50.0
51.0
52.0
53.0
54.0
55.0
56.0
57.0
58.0
59.0
60.0
61.0
62.0
63.0
64.0
65.0
66.0
67.0
68.0
69.0
70.0
71.0
72.0
73.0
74.0
75.0
76.0
77.0
78.0
79.0
80.0
81.0
82.0
83.0
84.0
85.0
86.0

