solid LIGGGHTS_STL_EXPORT
  facet normal 1.7949e-09 -1 1.7949e-09
    outer loop
      vertex -0.10238 -9.98852e-10 0.145884
      vertex -0.125 -1.07694e-09 0.125
      vertex 0.17532 -5.37895e-10 0.125
    endloop
  endfacet
  facet normal 3.18692e-13 -1.7949e-09 -1
    outer loop
      vertex -0.125 0.4 0.125
      vertex 0.17532 -5.37895e-10 0.125
      vertex -0.125 -1.07694e-09 0.125
    endloop
  endfacet
  facet normal 1.7949e-09 -1 1.7949e-09
    outer loop
      vertex 0.17532 -5.00409e-10 0.145884
      vertex -0.10238 -9.98852e-10 0.145884
      vertex 0.17532 -5.37895e-10 0.125
    endloop
  endfacet
  facet normal 1 1.7949e-09 3.16826e-13
    outer loop
      vertex 0.17532 0.4 0.125
      vertex 0.17532 -5.00409e-10 0.145884
      vertex 0.17532 -5.37895e-10 0.125
    endloop
  endfacet
  facet normal 3.18741e-13 -1.7949e-09 -1
    outer loop
      vertex -0.125 0.4 0.125
      vertex 0.17532 0.4 0.125
      vertex 0.17532 -5.37895e-10 0.125
    endloop
  endfacet
  facet normal 1.7949e-09 -1 1.7949e-09
    outer loop
      vertex -0.10238 -9.98852e-10 0.145884
      vertex -0.125 -8.27986e-10 0.2637
      vertex -0.125 -1.07694e-09 0.125
    endloop
  endfacet
  facet normal -1 -1.7949e-09 -3.17669e-13
    outer loop
      vertex -0.125 0.4 0.2637
      vertex -0.125 -1.07694e-09 0.125
      vertex -0.125 -8.27986e-10 0.2637
    endloop
  endfacet
  facet normal -1 -1.7949e-09 -3.19473e-13
    outer loop
      vertex -0.125 0.4 0.125
      vertex -0.125 -1.07694e-09 0.125
      vertex -0.125 0.4 0.2637
    endloop
  endfacet
  facet normal 1.7949e-09 -1 1.7949e-09
    outer loop
      vertex 0.17532 -1.40104e-10 0.346623
      vertex 0.17532 -9.20006e-11 0.373423
      vertex -0.125 -8.27986e-10 0.2637
    endloop
  endfacet
  facet normal -0.343168 1.06995e-09 0.939274
    outer loop
      vertex 0.17532 0.4 0.373423
      vertex -0.125 -8.27986e-10 0.2637
      vertex 0.17532 -9.20006e-11 0.373423
    endloop
  endfacet
  facet normal 1.7949e-09 -1 1.7949e-09
    outer loop
      vertex -0.10238 -8.20655e-10 0.245164
      vertex 0.17532 -1.40104e-10 0.346623
      vertex -0.125 -8.27986e-10 0.2637
    endloop
  endfacet
  facet normal 1.7949e-09 -1 1.7949e-09
    outer loop
      vertex -0.10238 -9.98852e-10 0.145884
      vertex -0.10238 -8.20655e-10 0.245164
      vertex -0.125 -8.27986e-10 0.2637
    endloop
  endfacet
  facet normal -0.343168 1.06995e-09 0.939274
    outer loop
      vertex -0.125 0.4 0.2637
      vertex -0.125 -8.27986e-10 0.2637
      vertex 0.17532 0.4 0.373423
    endloop
  endfacet
  facet normal 1 1.7949e-09 3.18734e-13
    outer loop
      vertex 0.17532 0.4 0.346623
      vertex 0.17532 -9.20006e-11 0.373423
      vertex 0.17532 -1.40104e-10 0.346623
    endloop
  endfacet
  facet normal 1 1.7949e-09 3.18735e-13
    outer loop
      vertex 0.17532 0.4 0.373423
      vertex 0.17532 -9.20006e-11 0.373423
      vertex 0.17532 0.4 0.346623
    endloop
  endfacet
  facet normal 0.343168 -1.06995e-09 -0.939274
    outer loop
      vertex -0.10238 0.4 0.245164
      vertex 0.17532 -1.40104e-10 0.346623
      vertex -0.10238 -8.20655e-10 0.245164
    endloop
  endfacet
  facet normal 0.343168 -1.06995e-09 -0.939274
    outer loop
      vertex 0.17532 0.4 0.346623
      vertex 0.17532 -1.40104e-10 0.346623
      vertex -0.10238 0.4 0.245164
    endloop
  endfacet
  facet normal 1 1.7949e-09 3.18645e-13
    outer loop
      vertex -0.10238 0.4 0.145884
      vertex -0.10238 -8.20655e-10 0.245164
      vertex -0.10238 -9.98852e-10 0.145884
    endloop
  endfacet
  facet normal 1 1.7949e-09 3.18654e-13
    outer loop
      vertex -0.10238 0.4 0.245164
      vertex -0.10238 -8.20655e-10 0.245164
      vertex -0.10238 0.4 0.145884
    endloop
  endfacet
  facet normal -3.18661e-13 1.7949e-09 1
    outer loop
      vertex 0.17532 0.4 0.145884
      vertex -0.10238 -9.98852e-10 0.145884
      vertex 0.17532 -5.00409e-10 0.145884
    endloop
  endfacet
  facet normal -3.1876e-13 1.7949e-09 1
    outer loop
      vertex -0.10238 0.4 0.145884
      vertex -0.10238 -9.98852e-10 0.145884
      vertex 0.17532 0.4 0.145884
    endloop
  endfacet
  facet normal 1 1.7949e-09 3.19418e-13
    outer loop
      vertex 0.17532 0.4 0.145884
      vertex 0.17532 -5.00409e-10 0.145884
      vertex 0.17532 0.4 0.125
    endloop
  endfacet
  facet normal -1.7949e-09 1 -1.7949e-09
    outer loop
      vertex -0.125 0.4 0.125
      vertex 0.17532 0.4 0.145884
      vertex 0.17532 0.4 0.125
    endloop
  endfacet
  facet normal -1.7949e-09 1 -1.7949e-09
    outer loop
      vertex -0.125 0.4 0.125
      vertex -0.10238 0.4 0.145884
      vertex 0.17532 0.4 0.145884
    endloop
  endfacet
  facet normal -1.7949e-09 1 -1.7949e-09
    outer loop
      vertex -0.125 0.4 0.125
      vertex -0.10238 0.4 0.245164
      vertex -0.10238 0.4 0.145884
    endloop
  endfacet
  facet normal -1.7949e-09 1 -1.7949e-09
    outer loop
      vertex 0.17532 0.4 0.373423
      vertex 0.17532 0.4 0.346623
      vertex -0.10238 0.4 0.245164
    endloop
  endfacet
  facet normal -1.7949e-09 1 -1.7949e-09
    outer loop
      vertex -0.125 0.4 0.2637
      vertex 0.17532 0.4 0.373423
      vertex -0.10238 0.4 0.245164
    endloop
  endfacet
  facet normal -1.7949e-09 1 -1.7949e-09
    outer loop
      vertex -0.125 0.4 0.125
      vertex -0.125 0.4 0.2637
      vertex -0.10238 0.4 0.245164
    endloop
  endfacet
endsolid LIGGGHTS_STL_EXPORT
