solid LIGGGHTS_STL_EXPORT
  facet normal -1.7949e-09 -1 1.7949e-09
    outer loop
      vertex -0.145884 -9.98852e-10 -0.10238
      vertex -0.125 -1.07694e-09 -0.125
      vertex -0.125 -5.37895e-10 0.17532
    endloop
  endfacet
  facet normal 1 -1.7949e-09 1.44259e-13
    outer loop
      vertex -0.125 0.4 -0.125
      vertex -0.125 -5.37895e-10 0.17532
      vertex -0.125 -1.07694e-09 -0.125
    endloop
  endfacet
  facet normal -1.7949e-09 -1 1.7949e-09
    outer loop
      vertex -0.145884 -5.00409e-10 0.17532
      vertex -0.145884 -9.98852e-10 -0.10238
      vertex -0.125 -5.37895e-10 0.17532
    endloop
  endfacet
  facet normal -1.43413e-13 1.7949e-09 1
    outer loop
      vertex -0.125 0.4 0.17532
      vertex -0.145884 -5.00409e-10 0.17532
      vertex -0.125 -5.37895e-10 0.17532
    endloop
  endfacet
  facet normal 1 -1.7949e-09 1.44408e-13
    outer loop
      vertex -0.125 0.4 -0.125
      vertex -0.125 0.4 0.17532
      vertex -0.125 -5.37895e-10 0.17532
    endloop
  endfacet
  facet normal -1.7949e-09 -1 1.7949e-09
    outer loop
      vertex -0.145884 -9.98852e-10 -0.10238
      vertex -0.2637 -8.27986e-10 -0.125
      vertex -0.125 -1.07694e-09 -0.125
    endloop
  endfacet
  facet normal 1.43371e-13 -1.7949e-09 -1
    outer loop
      vertex -0.2637 0.4 -0.125
      vertex -0.125 -1.07694e-09 -0.125
      vertex -0.2637 -8.27986e-10 -0.125
    endloop
  endfacet
  facet normal 1.44953e-13 -1.7949e-09 -1
    outer loop
      vertex -0.125 0.4 -0.125
      vertex -0.125 -1.07694e-09 -0.125
      vertex -0.2637 0.4 -0.125
    endloop
  endfacet
  facet normal -1.7949e-09 -1 1.7949e-09
    outer loop
      vertex -0.346623 -1.40104e-10 0.17532
      vertex -0.373423 -9.20006e-11 0.17532
      vertex -0.2637 -8.27986e-10 -0.125
    endloop
  endfacet
  facet normal -0.939274 1.06995e-09 -0.343168
    outer loop
      vertex -0.373423 0.4 0.17532
      vertex -0.2637 -8.27986e-10 -0.125
      vertex -0.373423 -9.20006e-11 0.17532
    endloop
  endfacet
  facet normal -1.7949e-09 -1 1.7949e-09
    outer loop
      vertex -0.245164 -8.20655e-10 -0.10238
      vertex -0.346623 -1.40104e-10 0.17532
      vertex -0.2637 -8.27986e-10 -0.125
    endloop
  endfacet
  facet normal -1.7949e-09 -1 1.7949e-09
    outer loop
      vertex -0.145884 -9.98852e-10 -0.10238
      vertex -0.245164 -8.20655e-10 -0.10238
      vertex -0.2637 -8.27986e-10 -0.125
    endloop
  endfacet
  facet normal -0.939274 1.06995e-09 -0.343168
    outer loop
      vertex -0.2637 0.4 -0.125
      vertex -0.2637 -8.27986e-10 -0.125
      vertex -0.373423 0.4 0.17532
    endloop
  endfacet
  facet normal -1.44637e-13 1.7949e-09 1
    outer loop
      vertex -0.346623 0.4 0.17532
      vertex -0.373423 -9.20006e-11 0.17532
      vertex -0.346623 -1.40104e-10 0.17532
    endloop
  endfacet
  facet normal -1.42559e-13 1.7949e-09 1
    outer loop
      vertex -0.373423 0.4 0.17532
      vertex -0.373423 -9.20006e-11 0.17532
      vertex -0.346623 0.4 0.17532
    endloop
  endfacet
  facet normal 0.939274 -1.06995e-09 0.343168
    outer loop
      vertex -0.245164 0.4 -0.10238
      vertex -0.346623 -1.40104e-10 0.17532
      vertex -0.245164 -8.20655e-10 -0.10238
    endloop
  endfacet
  facet normal 0.939274 -1.06995e-09 0.343168
    outer loop
      vertex -0.346623 0.4 0.17532
      vertex -0.346623 -1.40104e-10 0.17532
      vertex -0.245164 0.4 -0.10238
    endloop
  endfacet
  facet normal -1.44193e-13 1.7949e-09 1
    outer loop
      vertex -0.145884 0.4 -0.10238
      vertex -0.245164 -8.20655e-10 -0.10238
      vertex -0.145884 -9.98852e-10 -0.10238
    endloop
  endfacet
  facet normal -1.44762e-13 1.7949e-09 1
    outer loop
      vertex -0.245164 0.4 -0.10238
      vertex -0.245164 -8.20655e-10 -0.10238
      vertex -0.145884 0.4 -0.10238
    endloop
  endfacet
  facet normal -1 1.7949e-09 -1.44423e-13
    outer loop
      vertex -0.145884 0.4 0.17532
      vertex -0.145884 -9.98852e-10 -0.10238
      vertex -0.145884 -5.00409e-10 0.17532
    endloop
  endfacet
  facet normal -1 1.7949e-09 -1.44422e-13
    outer loop
      vertex -0.145884 0.4 -0.10238
      vertex -0.145884 -9.98852e-10 -0.10238
      vertex -0.145884 0.4 0.17532
    endloop
  endfacet
  facet normal -1.43368e-13 1.7949e-09 1
    outer loop
      vertex -0.145884 0.4 0.17532
      vertex -0.145884 -5.00409e-10 0.17532
      vertex -0.125 0.4 0.17532
    endloop
  endfacet
  facet normal 1.7949e-09 1 -1.7949e-09
    outer loop
      vertex -0.125 0.4 -0.125
      vertex -0.145884 0.4 0.17532
      vertex -0.125 0.4 0.17532
    endloop
  endfacet
  facet normal 1.79489e-09 1 -1.7949e-09
    outer loop
      vertex -0.125 0.4 -0.125
      vertex -0.145884 0.4 -0.10238
      vertex -0.145884 0.4 0.17532
    endloop
  endfacet
  facet normal 1.7949e-09 1 -1.79489e-09
    outer loop
      vertex -0.125 0.4 -0.125
      vertex -0.245164 0.4 -0.10238
      vertex -0.145884 0.4 -0.10238
    endloop
  endfacet
  facet normal 1.7949e-09 1 -1.7949e-09
    outer loop
      vertex -0.373423 0.4 0.17532
      vertex -0.346623 0.4 0.17532
      vertex -0.245164 0.4 -0.10238
    endloop
  endfacet
  facet normal 1.7949e-09 1 -1.7949e-09
    outer loop
      vertex -0.2637 0.4 -0.125
      vertex -0.373423 0.4 0.17532
      vertex -0.245164 0.4 -0.10238
    endloop
  endfacet
  facet normal 1.7949e-09 1 -1.7949e-09
    outer loop
      vertex -0.125 0.4 -0.125
      vertex -0.2637 0.4 -0.125
      vertex -0.245164 0.4 -0.10238
    endloop
  endfacet
endsolid LIGGGHTS_STL_EXPORT
