# vtk DataFile Version 2.0
Generated by lpp.py
ASCII
DATASET POLYDATA
POINTS 767 float
0.117083 0.186218 -0.155526
0.00622035 0.064644 -0.213484
0.747911 0.329241 -0.28839
-0.356488 0.311378 -0.424494
-0.833369 -0.280169 -0.254677
-0.426891 0.0157034 -0.303846
0.0106642 -0.341132 -0.135465
-0.0892873 0.243652 -0.346907
-0.806406 0.217767 -0.462084
0.70076 0.123196 -0.160795
0.770126 -0.131983 -0.160402
-0.479307 -0.318054 -0.212511
0.223427 0.147947 -0.171708
-0.178291 -0.059336 -0.439752
-0.616702 -0.229268 -0.0772077
0.385793 0.18676 -0.457749
-0.544989 0.251096 -0.148654
-0.704843 -0.217423 -0.150854
-0.592122 0.180867 -0.362209
0.328112 -0.276136 -0.397983
-0.589675 0.0611119 -0.316019
-0.369246 0.211521 -0.367326
0.314138 0.137911 -0.094123
-0.680504 -0.0110466 -0.296548
0.543109 0.104766 -0.259156
0.369846 0.267091 -0.133489
0.643118 -0.0510578 -0.0892437
-0.26687 0.140042 -0.205718
0.320315 -0.120227 -0.16584
-0.110753 -0.0974666 -0.0843776
0.370221 -0.127775 -0.458954
0.337265 0.0961463 -0.302089
0.545868 -0.0844407 -0.254833
-0.133117 0.0468095 -0.0542243
-0.528711 0.249896 -0.253155
-0.273868 -0.131558 -0.196675
0.795127 0.225442 -0.132344
0.13447 -0.341821 -0.374156
0.323801 0.317803 -0.434526
-0.0909412 -0.110259 -0.462892
0.561318 0.118298 -0.111902
-0.0311292 0.271773 -0.454166
0.247328 0.28878 -0.307563
0.0675788 -0.0012771 -0.173622
0.63359 -0.0257128 -0.35559
-0.619462 -0.0433049 -0.149818
0.455764 -0.342079 -0.0849952
0.796586 -0.0776538 -0.462217
0.074884 0.166874 -0.349626
-0.562703 -0.0653342 -0.0531852
-0.606703 0.0661009 -0.409422
0.281775 -0.000553812 -0.0758959
0.552343 0.279103 -0.457946
0.132775 -0.198218 -0.418544
-0.822377 0.225946 -0.340028
-0.235759 -0.268257 -0.133619
-0.0152219 -0.104395 -0.35867
0.749021 -0.176354 -0.248662
-0.119237 -0.270271 -0.284124
-0.129378 -0.0216049 -0.204739
0.358375 0.179505 -0.170925
-0.354518 -0.172318 -0.348188
0.570446 0.303349 -0.269017
-0.480828 0.324119 -0.0909616
-0.197471 0.135056 -0.0803168
-0.533491 -0.259404 -0.130154
0.582644 0.218002 -0.280351
-0.649935 0.333382 -0.28988
0.796531 0.312683 -0.221308
0.777599 -0.310843 -0.461275
-0.824327 0.063483 -0.408838
-0.663656 -0.276137 -0.389393
-0.755859 0.30381 -0.424056
0.720253 0.131938 -0.328382
0.460705 -0.234105 -0.384764
0.0134671 -0.203403 -0.3768
-0.059421 0.138565 -0.217171
-0.379061 -0.299339 -0.125334
0.428808 -0.095902 -0.149268
-0.0516414 -0.15013 -0.276019
0.641391 -0.149171 -0.207556
-0.398966 -0.190249 -0.208539
-0.672376 -0.0962528 -0.333864
-0.0664893 0.140031 -0.318253
-0.509238 0.102462 -0.460035
-0.25607 0.0171489 -0.120376
-0.067293 -0.263614 -0.361169
0.0975486 -0.133763 -0.359664
-0.485968 0.3307 -0.461254
-0.0671953 -0.334234 -0.179623
-0.690225 0.175517 -0.0574459
-0.26367 0.0473898 -0.457901
-0.762741 0.0909753 -0.119272
0.220561 0.339984 -0.437393
-0.11837 -0.200549 -0.404733
-0.404553 -0.171187 -0.417437
0.792851 0.0178461 -0.295818
-0.0210569 0.309353 -0.200154
-0.258235 -0.160238 -0.460034
-0.191732 -0.196388 -0.195623
-0.530873 0.0995761 -0.273884
0.350958 -0.0223738 -0.280856
0.109316 -0.237501 -0.0556179
-0.119616 0.0939038 -0.357778
-0.676888 -0.203837 -0.435046
-0.563979 0.00323749 -0.250622
0.14213 0.0805902 -0.208665
0.709383 -0.265215 -0.178065
0.584524 -0.138818 -0.452078
0.573597 -0.159271 -0.305152
0.197709 0.0453116 -0.288474
0.156143 -0.0440876 -0.371548
0.472128 0.290839 -0.181673
0.485769 -0.210009 -0.272187
-0.345147 0.232063 -0.0773697
-0.421252 -0.259133 -0.291483
0.559196 0.272092 -0.105908
0.850973 -0.223335 -0.254749
0.281605 0.327968 -0.159828
-0.456818 -0.329683 -0.373972
-0.225435 0.0533489 -0.361692
-0.352318 0.265982 -0.287176
0.587778 0.173742 -0.207206
0.382213 -0.150684 -0.100681
0.311892 0.163203 -0.417813
0.563115 -0.0550897 -0.441242
-0.771314 0.0590156 -0.336648
0.690273 0.188208 -0.247087
-0.190194 0.0910375 -0.462163
-0.197675 0.209759 -0.369446
-0.156511 -0.300914 -0.175425
0.481445 0.287923 -0.308952
-0.00832472 0.216187 -0.346557
0.551768 -0.0154076 -0.105465
-0.789508 0.153594 -0.352408
-0.641975 -0.207011 -0.280466
-0.211518 0.00671039 -0.269981
-0.313116 0.295548 -0.210579
0.135395 0.167598 -0.242641
0.665923 -0.101453 -0.459221
-0.311558 -0.0716184 -0.0649941
-0.692059 0.0742559 -0.246414
-0.763611 -0.00466069 -0.216115
0.551532 -0.176435 -0.0934564
0.0538236 -0.349772 -0.396664
0.0105158 0.15041 -0.294703
0.779253 0.0467125 -0.0729437
-0.819929 0.110385 -0.22868
-0.659806 0.193994 -0.461028
-0.261847 0.0632312 -0.0539551
0.229894 -0.340114 -0.442046
-0.102447 0.342732 -0.0702764
0.218577 -0.0759402 -0.46222
0.114707 0.0392181 -0.296545
0.824309 -0.197884 -0.403138
0.690416 -0.345583 -0.396347
-0.761699 -0.125513 -0.189762
-0.277323 -0.342373 -0.174822
-0.838168 -0.126142 -0.300864
-0.676742 0.0905527 -0.0585134
0.169121 0.0962272 -0.452318
-0.170158 0.156412 -0.244494
0.841104 -0.341335 -0.266632
-0.494357 0.0622754 -0.0947056
-0.398297 0.00624883 -0.118386
0.670338 0.0725746 -0.407438
0.273979 0.163877 -0.332288
0.141086 0.277806 -0.0748307
0.203691 -0.0717236 -0.170199
0.383619 -0.048379 -0.449686
-0.733212 -0.130195 -0.377307
-0.591383 0.0994467 -0.132823
-0.819649 -0.197714 -0.117713
0.393083 0.244203 -0.0593379
-0.550834 -0.207397 -0.331638
-0.125435 -0.171766 -0.0561306
0.658867 -0.00672807 -0.432627
0.287912 0.23948 -0.168689
-0.698004 -0.334611 -0.134045
0.260688 0.0799716 -0.206258
0.579354 -0.350849 -0.209133
-0.583901 -0.0109665 -0.454889
-0.281134 -0.00762326 -0.335994
0.68615 -0.213971 -0.384895
-0.495023 -0.108878 -0.452376
0.546798 -0.340066 -0.435582
-0.206829 -0.165917 -0.11208
-0.5995 0.267875 -0.395367
-0.380315 -0.0694876 -0.181828
0.69681 0.215311 -0.0528208
0.370787 0.0995597 -0.445899
-0.337042 -0.0287039 -0.274475
0.457328 0.136373 -0.247248
0.844784 -0.0530785 -0.31523
0.611813 -0.290743 -0.336167
-0.811942 -0.223592 -0.450366
-0.234584 -0.289939 -0.381837
0.182501 0.0381925 -0.0702741
0.504236 0.129261 -0.454646
0.195328 -0.144952 -0.392552
-0.651969 0.3358 -0.389536
0.532581 -0.136383 -0.378599
0.638423 0.0814108 -0.0888312
0.0983058 -0.0772895 -0.136155
-0.652696 -0.293872 -0.200626
-0.422764 -0.352966 -0.446067
0.141553 -0.229898 -0.198402
-0.340834 -0.357199 -0.411462
-0.76958 0.21202 -0.122442
0.739234 0.313743 -0.0882467
0.268664 -0.339232 -0.17413
0.814412 0.275998 -0.0730603
-0.660858 0.33483 -0.083362
0.260858 -0.251856 -0.348301
-0.596406 0.182688 -0.239931
0.638839 -0.0109947 -0.250561
-0.802314 -0.308531 -0.183451
-0.101932 0.193331 -0.437347
0.230773 -0.18012 -0.306741
0.413514 0.0570824 -0.14358
-0.292203 -0.293828 -0.238678
0.645409 0.261762 -0.113736
0.783489 -0.311333 -0.116449
0.253942 0.091471 -0.413096
0.698556 -0.342233 -0.198425
0.379604 0.358038 -0.2979
0.15062 0.29515 -0.396164
-0.34181 0.356176 -0.35577
-0.241784 0.324635 -0.17331
0.419657 0.342985 -0.413455
0.848016 0.0888664 -0.272722
-0.387246 0.156381 -0.0710762
0.571652 -0.285583 -0.124367
-0.0726504 -0.282664 -0.461933
-0.294014 -0.220749 -0.0927908
-0.0339448 0.039977 -0.324695
-0.0364885 0.239205 -0.0552145
0.422229 0.358575 -0.15218
0.164059 -0.11362 -0.267126
0.791565 0.01779 -0.386102
0.255294 -0.212375 -0.12449
0.822447 0.294633 -0.32217
0.0705914 0.102308 -0.0749319
0.415153 0.300924 -0.24316
-0.211118 -0.204643 -0.409161
-0.104806 0.322113 -0.166169
0.0653475 0.130973 -0.461848
0.430098 -0.0656924 -0.31599
-0.83723 -0.324515 -0.0908465
-0.377426 -0.230061 -0.462045
-0.729625 0.265891 -0.242913
0.0517252 -0.0242304 -0.284137
0.833229 0.0373707 -0.203065
-0.612829 -0.0931211 -0.437513
-0.697661 -0.16996 -0.0769621
0.372981 -0.312305 -0.325267
-0.109101 0.243246 -0.107629
-0.666351 0.104043 -0.35073
0.0791859 0.300932 -0.155364
-0.236757 0.279355 -0.309397
-0.437464 0.239655 -0.335663
-0.845178 0.310902 -0.425755
0.253314 0.196269 -0.0725296
-0.849887 0.332487 -0.192457
0.852368 -0.19905 -0.149943
-0.747095 0.168553 -0.218729
-0.759234 -0.0922642 -0.449107
-0.446312 -0.249125 -0.160894
-0.372246 0.202991 -0.462278
-0.463353 -0.341984 -0.0905729
-0.0777444 0.0664115 -0.147481
-0.319828 -0.247568 -0.302921
0.158143 -0.310148 -0.168484
0.674219 0.265178 -0.229626
-0.567747 -0.146791 -0.211052
0.30861 -0.353074 -0.085191
-0.246844 0.130941 -0.304372
0.722288 0.129451 -0.452184
0.193935 -0.149303 -0.0891995
0.214489 -0.212642 -0.433503
0.411884 -0.119771 -0.382601
0.580032 -0.0887159 -0.163663
0.202027 0.295882 -0.200863
-0.0345635 0.218011 -0.185375
0.302509 -0.324864 -0.255669
0.84563 -0.128846 -0.20763
-0.504568 -0.212292 -0.256029
0.170733 0.140602 -0.317326
-0.669489 -0.130467 -0.231666
0.44368 -0.21233 -0.151762
0.534167 -0.290497 -0.249086
-0.447416 0.302639 -0.220797
-0.436204 0.051014 -0.388309
0.579312 0.134794 -0.333767
-0.359126 -0.192852 -0.0533376
-0.168436 0.220822 -0.160138
-0.743652 0.287323 -0.109094
0.471426 -0.152384 -0.460848
-0.729952 0.223945 -0.36121
0.742709 -0.128958 -0.381054
0.724085 -0.0480623 -0.123224
0.296524 -0.23442 -0.194438
0.83679 0.235092 -0.258772
0.196847 0.00269451 -0.454323
0.33497 -0.249137 -0.289313
0.532968 0.350458 -0.419996
-0.415352 -0.183482 -0.124394
-0.60936 0.217878 -0.0912917
-0.559479 0.0152958 -0.0854566
-0.816091 -0.0184872 -0.454734
0.125242 0.329905 -0.313612
0.0309406 -0.0808888 -0.444261
0.0267557 -0.14056 -0.24939
-0.753252 -0.226243 -0.30146
0.368465 0.348969 -0.0609282
0.777688 0.354937 -0.366897
-0.850054 -0.116376 -0.219144
-0.162211 0.317808 -0.385952
0.812696 0.256161 -0.448659
0.763139 -0.322446 -0.352261
0.565804 0.0267853 -0.395783
-0.573122 -0.293223 -0.385208
-0.300933 0.0939957 -0.392587
-0.457752 -0.107148 -0.281828
0.620386 -0.254939 -0.23669
0.800447 -0.0363122 -0.195468
0.00321587 0.0218602 -0.130444
-0.469811 0.215499 -0.0747373
-0.839802 -0.335347 -0.367762
-0.851201 0.120912 -0.153289
-0.435467 -0.0432792 -0.379769
-0.578541 0.0303289 -0.172002
0.828634 0.115304 -0.0608173
0.451508 -0.137324 -0.261323
0.859231 -0.136613 -0.289332
-0.583303 -0.342517 -0.181723
0.690845 -0.341098 -0.284441
0.472156 -0.3015 -0.324764
0.347208 -0.0311399 -0.363498
0.826499 0.164688 -0.316901
-0.489235 -0.0769094 -0.143764
0.00355019 0.119104 -0.141274
-0.00602666 -0.217818 -0.295832
0.149212 0.1818 -0.0634889
-0.407933 0.0326092 -0.219074
0.44149 0.228655 -0.381268
0.00895398 -0.315732 -0.330804
0.00687956 0.146166 -0.403293
0.122409 -0.0304438 -0.0510747
0.347342 0.164218 -0.253563
-0.700304 0.0823765 -0.444624
-0.678027 0.0915922 -0.139241
-0.353704 0.312597 -0.125026
-0.35465 -0.354515 -0.211907
-0.237514 0.22146 -0.462138
-0.627401 -0.14393 -0.155474
-0.031612 -0.134261 -0.0883243
-0.825617 0.0224354 -0.0880718
0.0484064 -0.0151942 -0.364435
-0.48979 -0.224697 -0.0630192
-0.373248 -0.0819355 -0.439386
-0.103278 -0.266822 -0.054812
-0.791303 0.345708 -0.308306
-0.508724 -0.0559741 -0.231619
0.422992 -0.342257 -0.450583
-0.735701 -0.320633 -0.311816
0.649842 -0.221689 -0.462896
-0.563616 0.313459 -0.0667515
-0.334242 0.087437 -0.286957
-0.56723 -0.279219 -0.278651
-0.156511 -0.300082 -0.428162
0.82248 -0.253734 -0.0703176
-0.57332 -0.172326 -0.431437
0.480775 0.0839364 -0.0587034
-0.459261 -0.178078 -0.353798
-0.147928 -0.190115 -0.296134
0.596798 0.351844 -0.356696
0.741326 -0.0573173 -0.340634
-0.403666 -0.0950843 -0.0591979
0.837713 -0.0667206 -0.116654
0.453034 0.0660153 -0.308782
-0.118342 0.0107062 -0.296478
0.84823 0.0913311 -0.381973
0.441036 0.044583 -0.442362
-0.1183 0.327242 -0.28427
0.0667882 -0.307093 -0.0775681
-0.456214 0.182619 -0.455473
0.0298199 0.348089 -0.297946
-0.50523 -0.356855 -0.293207
0.725099 0.329585 -0.174952
0.229223 0.247072 -0.425938
0.817715 0.147519 -0.165954
-0.10257 0.223528 -0.233153
0.0121999 -0.0693462 -0.197374
-0.720342 0.00748476 -0.135684
0.426103 -0.303775 -0.227951
0.294195 -0.0277681 -0.445244
0.488178 0.183891 -0.100599
-0.791997 -0.0445394 -0.116887
0.459905 0.187012 -0.311704
-0.200907 0.0668375 -0.171902
0.542801 0.202567 -0.415737
-0.426333 0.190884 -0.145678
0.222479 0.269853 -0.117229
0.0872149 0.276028 -0.261363
-0.699468 -0.0685243 -0.0637535
-0.328374 -0.0843566 -0.372331
-0.664699 -0.355676 -0.412035
-0.595536 0.280697 -0.216677
0.625746 -0.217613 -0.151282
-0.121517 0.295906 -0.453495
-0.277393 -0.0638473 -0.434472
0.404153 -0.268966 -0.079764
0.701771 -0.324132 -0.0646413
-0.308004 0.0775486 -0.158475
0.0880734 0.289099 -0.458926
-0.513921 0.323425 -0.382074
-0.700271 0.332914 -0.202328
-0.155555 -0.359953 -0.344438
0.128438 0.206467 -0.451448
0.627414 0.241315 -0.392044
0.685739 -0.0822954 -0.220661
0.0136077 0.0464891 -0.419798
0.691086 -0.140257 -0.0720522
-0.827207 0.151192 -0.081605
0.054052 -0.243229 -0.229589
0.696612 0.33351 -0.445443
-0.659943 -0.0310972 -0.414718
0.326324 -0.0287863 -0.140698
-0.173354 0.281948 -0.0740781
0.278865 -0.137581 -0.457347
-0.279498 0.211856 -0.342341
-0.340678 0.0133127 -0.416716
-0.0438046 -0.0104653 -0.190211
0.127944 -0.285883 -0.27558
0.605113 0.0584105 -0.192317
-0.0701547 -0.0396639 -0.402801
0.77932 -0.249463 -0.215807
0.258218 0.0302641 -0.353334
-0.287817 -0.32549 -0.326603
0.825748 0.156011 -0.460662
-0.239178 -0.204824 -0.302669
-0.416059 0.132566 -0.230244
0.584831 -0.239487 -0.41765
-0.768972 -0.0527933 -0.318634
0.765085 -0.186418 -0.459722
-0.542462 -0.0699792 -0.346583
0.171499 0.260176 -0.274902
-0.241995 0.353062 -0.0603354
0.748837 0.0462236 -0.208051
0.279884 0.272906 -0.0512249
-0.169799 -0.357277 -0.23203
-0.38485 -0.342339 -0.318738
0.619642 -0.211417 -0.0651914
-0.768685 -0.309232 -0.0485221
-0.818081 0.31498 -0.0898839
0.207951 -0.251992 -0.271726
-0.244197 -0.0986359 -0.36678
-0.855604 0.0292679 -0.317965
0.72506 0.037774 -0.462684
0.64249 0.0547798 -0.33104
-0.205003 -0.128043 -0.267396
-0.508694 0.167159 -0.359773
0.728298 0.225087 -0.361883
0.498614 -0.267012 -0.0485561
0.168855 -0.29224 -0.0611548
0.294889 0.352662 -0.26229
-0.299812 -0.329322 -0.0838222
0.15425 0.211616 -0.36746
0.498828 -0.262243 -0.454854
0.513202 -0.097273 -0.0504529
-0.034014 0.322854 -0.374963
0.493686 -0.275497 -0.18106
0.145662 0.062154 -0.369672
-0.673514 0.201054 -0.307391
0.784785 -0.232575 -0.311167
0.233593 0.086882 -0.11772
-0.211202 -0.0324559 -0.187707
0.442317 0.0105224 -0.226782
0.0675082 0.270925 -0.359854
0.477599 0.35528 -0.262283
0.341977 0.0925873 -0.186742
0.314854 -0.109147 -0.28083
-0.383939 0.0617559 -0.0515594
0.599904 0.349303 -0.0518582
0.423141 -0.0311126 -0.0764894
0.819711 -0.142684 -0.0677453
-0.0162384 0.30265 -0.111889
-0.22556 -0.0860909 -0.0896342
0.0877979 -0.169343 -0.100923
-0.057098 -0.109566 -0.185287
-0.0581617 -0.0552659 -0.292229
-0.489046 -0.261338 -0.454503
-0.20226 0.359564 -0.266064
0.112991 0.0198319 -0.436783
-0.838648 0.2825 -0.272735
0.253927 -0.0253736 -0.292198
0.0654032 -0.252533 -0.454692
-0.379294 0.357948 -0.23931
0.533196 -0.340933 -0.0491859
0.00598884 -0.0647206 -0.108178
0.853365 0.0455807 -0.461686
-0.250044 0.228145 -0.238202
-0.655588 -0.297857 -0.0588464
-0.514904 0.181884 -0.185351
-0.311414 0.20859 -0.155007
-0.0648961 0.0408709 -0.435157
0.257812 0.200633 -0.237335
0.300284 -0.143302 -0.0535319
-0.126102 -0.354452 -0.060104
0.390458 -0.168497 -0.212719
-0.0807972 -0.337199 -0.325806
0.851705 -0.352628 -0.394327
-0.19474 -0.264555 -0.239679
-0.515337 0.149336 -0.0734399
0.349635 -0.307911 -0.169634
0.523651 0.354106 -0.0977561
0.63312 -0.337323 -0.129057
-0.271664 0.328655 -0.444534
-0.310995 0.13277 -0.0949361
-0.827452 -0.0832652 -0.407186
-0.381255 0.110679 -0.14779
-0.0167538 -0.347492 -0.443689
0.147476 0.0130991 -0.160313
0.715124 0.214066 -0.131255
0.660626 0.32786 -0.288954
0.340819 0.239791 -0.403735
-0.376972 0.10251 -0.459726
0.408652 -0.261529 -0.452043
0.364729 -0.355056 -0.395742
-0.73673 -0.0127209 -0.383934
0.0106801 -0.222371 -0.131082
-0.305994 -0.109672 -0.293497
-0.855099 -0.20216 -0.323316
-0.538892 0.197566 -0.447584
0.260667 -0.0741452 -0.107585
-0.849695 0.168594 -0.281223
0.400565 0.131536 -0.0582054
0.552414 0.00927984 -0.279534
0.504536 -0.0273324 -0.367981
-0.852295 -0.0521967 -0.0522326
-0.299266 -0.247439 -0.447946
0.271697 -0.0840213 -0.350133
-0.513529 0.0492097 -0.34095
-0.81228 -0.354521 -0.276185
0.510346 0.168652 -0.177419
-0.524093 0.344951 -0.266628
-0.0416611 0.0004955 -0.053527
-0.439518 0.097717 -0.302941
-0.0882782 -0.218709 -0.161867
0.0124824 -0.35942 -0.23776
-0.49696 -0.183723 -0.151282
-0.254311 0.351844 -0.358633
0.246733 -0.162402 -0.190119
0.716824 0.118874 -0.0617786
0.337977 -0.184458 -0.378531
0.404223 0.253366 -0.309776
-0.596985 -0.144568 -0.358767
-0.76365 -0.292608 -0.427553
-0.0651016 0.10545 -0.0725884
-0.552672 -0.338887 -0.0528261
0.0589419 0.282712 -0.0499678
-0.236626 -0.343019 -0.45697
0.0311962 0.228727 -0.128876
0.0999019 -0.154642 -0.180001
-0.174578 -0.0619814 -0.33466
-0.749719 -0.231043 -0.217815
-0.328043 -0.00779914 -0.183588
0.120795 -0.0875041 -0.433846
0.690331 -0.177835 -0.305039
-0.165113 0.241896 -0.297228
0.61923 -0.0876813 -0.295916
-0.741274 -0.350231 -0.216213
-0.683365 0.21497 -0.134445
-0.160452 -0.139239 -0.375037
0.293203 -0.237111 -0.459875
-0.13796 -0.130507 -0.156055
0.446831 0.128412 -0.37
0.530505 0.354527 -0.178041
-0.620299 0.107245 -0.213746
-0.377341 -0.251715 -0.367384
0.414185 0.271725 -0.455171
0.605684 0.326205 -0.180669
-0.652167 -0.340767 -0.299362
0.150962 -0.34497 -0.454979
0.642395 0.147063 -0.452213
0.260736 -0.358669 -0.354536
-0.272743 0.272522 -0.0832295
-0.0279788 -0.195224 -0.462332
0.515577 0.0420382 -0.173636
-0.125928 0.145714 -0.123099
-0.494046 -0.0149146 -0.426925
0.562138 -0.157073 -0.216646
0.229237 0.3513 -0.0711583
-0.856219 0.235965 -0.0886469
-0.735528 0.167149 -0.462724
-0.130994 -0.0948189 -0.271257
-0.606265 0.132821 -0.0547092
-0.575712 0.357882 -0.432007
-0.774488 0.350338 -0.171687
0.396448 -0.223867 -0.336606
-0.0411146 0.125021 -0.462722
0.740552 -0.239264 -0.0727801
0.0813586 -0.269708 -0.368117
-0.484088 -0.031874 -0.0746514
-0.820234 0.233194 -0.204298
0.203761 -0.348046 -0.259899
0.528777 0.244949 -0.219198
0.473947 0.278899 -0.0943101
0.854027 0.192892 -0.0521028
0.242215 -0.307189 -0.0900694
0.361781 0.0234509 -0.421126
0.217325 0.16587 -0.400479
0.821275 0.33903 -0.462887
-0.832586 -0.0300828 -0.259657
-0.698073 -0.0523531 -0.195434
0.0937582 0.353 -0.217856
0.33675 0.249993 -0.239104
-0.0133101 -0.223506 -0.0485648
0.629479 -0.3305 -0.458251
0.489432 -0.0482583 -0.181289
-0.431678 0.259495 -0.421399
0.533853 -0.237719 -0.349785
0.831558 0.354531 -0.133709
-0.409721 0.275476 -0.0523171
0.0504641 0.155701 -0.216023
-0.295892 0.153251 -0.451219
-0.207496 -0.350838 -0.0955489
-0.496609 0.0394195 -0.181191
-0.16493 0.00919979 -0.120372
-0.780977 -0.123738 -0.0526293
-0.801022 -0.25776 -0.365125
-0.851429 0.0159531 -0.180834
-0.31977 0.189682 -0.266435
-0.571321 0.358621 -0.165904
-0.305151 -0.206621 -0.182067
-0.821439 0.146993 -0.430629
0.680833 0.0677815 -0.255923
0.522329 0.0792439 -0.35057
0.704093 0.215702 -0.440572
-0.688549 -0.12673 -0.462828
0.139197 -0.22677 -0.332879
0.854715 -0.268565 -0.363049
-0.566999 -0.152966 -0.0710972
0.104613 -0.167361 -0.284546
0.219492 0.358653 -0.335111
0.833852 -0.112965 -0.380798
0.600312 0.199746 -0.0520531
0.856066 0.222468 -0.373399
-0.0472997 0.281975 -0.285093
-0.601687 -0.0666401 -0.27119
0.310553 -0.241358 -0.0732676
-0.743063 -0.115334 -0.273258
0.314166 0.348941 -0.353548
0.390366 -0.0547818 -0.206967
0.689396 0.0332359 -0.135739
0.348826 0.0558985 -0.0792618
0.548083 -0.344436 -0.343906
0.00473514 0.170471 -0.0638053
0.0765152 0.35146 -0.38602
-0.435628 0.352624 -0.158863
-0.545604 -0.344304 -0.451916
0.316614 0.234182 -0.323781
0.843578 -0.263527 -0.448759
-0.455785 0.189872 -0.273716
0.850102 -0.330091 -0.157149
-0.190483 0.336745 -0.462891
0.695366 -0.173108 -0.144969
0.0335695 0.356499 -0.462852
-0.456408 0.329951 -0.325431
0.600509 0.0689996 -0.460293
0.171833 0.353901 -0.247851
0.616825 0.342599 -0.461261
0.205623 -0.0430105 -0.0565041
0.767379 0.147464 -0.237654
0.768846 -0.0889631 -0.260695
0.0408025 -0.0145933 -0.0519051
0.701459 -0.260654 -0.2663
-0.0249929 -0.291593 -0.259469
0.856554 -0.133725 -0.455502
0.416104 0.204537 -0.223627
0.650538 0.177681 -0.330757
0.64857 -0.127053 -0.366147
0.757686 -0.251147 -0.402028
0.382829 -0.349787 -0.0523306
0.0919511 -0.345853 -0.230017
0.0159894 0.237329 -0.264982
0.223055 -0.230884 -0.0511195
-0.119245 -0.0115344 -0.462837
-0.143511 0.00555741 -0.381284
0.463603 -0.186524 -0.0777341
-0.85833 -0.332785 -0.455664
-0.847714 -0.237358 -0.0525597
0.772922 -0.0411059 -0.0503711
0.236793 -0.00965826 -0.212387
-0.208765 -0.230456 -0.0553869
-0.436728 0.136408 -0.376642
-0.662686 0.279293 -0.461895
-0.346373 -0.130267 -0.132732
0.732867 -0.0454254 -0.423774
0.160052 0.355958 -0.138737
0.356715 -0.219374 -0.140699
-0.389807 0.227814 -0.210492
0.467479 -0.0386688 -0.450208
-0.336884 0.351826 -0.0494983
0.430553 0.13819 -0.162115
-0.275797 -0.142778 -0.0520795
0.187705 -0.283467 -0.399079
0.75336 0.232854 -0.274582
-0.101307 0.0589302 -0.233245
-0.274595 0.0370353 -0.225749
0.0922854 -0.248409 -0.136243
-0.24555 0.199312 -0.109684
-0.569261 -0.256484 -0.458245
0.778198 0.162397 -0.381648
0.855723 0.0612728 -0.126052
-0.22039 0.138262 -0.399396
0.150146 -0.0396958 -0.237997
0.138597 0.0881196 -0.117072
0.429571 0.00175115 -0.363743
-0.582754 -0.244273 -0.191726
0.075804 -0.161286 -0.46247
-0.221622 -0.264671 -0.462592
-0.829611 -0.210764 -0.200295
0.408317 -0.359173 -0.150421
0.859352 -0.0295741 -0.415416
0.481455 0.359794 -0.347817
0.853404 0.334706 -0.385834
0.685791 0.307195 -0.369299
-0.737046 0.0291502 -0.0540459
-0.63113 0.00268526 -0.0514717
-0.486245 -0.142637 -0.0675073
0.714452 -0.00552328 -0.27709
0.608409 -0.119312 -0.0575626
-0.0381714 -0.331653 -0.0649713
-0.0242337 -0.220142 -0.216765
0.313908 0.0194715 -0.222097
-0.169847 0.0792036 -0.27402
0.126756 -0.359739 -0.0949167
-0.757351 0.35392 -0.0517657
0.618556 -0.322322 -0.0501719
0.0618061 0.0774819 -0.359342
0.514024 -0.358031 -0.150598
0.172183 -0.230558 -0.121198
0.829 -0.352072 -0.0558442
-0.641945 0.0152829 -0.221651
-0.607212 0.261553 -0.312136
0.0337656 0.221745 -0.462889
-0.854767 -0.122791 -0.10434
-0.167785 0.281649 -0.21615
-0.15661 -0.239173 -0.117263
-0.47368 0.119342 -0.148505
0.0333556 0.359155 -0.0559237
-0.742329 -0.233645 -0.0541961
0.354115 0.359998 -0.201717
-0.182769 0.35358 -0.122089
0.497666 -0.143358 -0.144556
-0.42657 0.0135464 -0.461536
-0.646985 -0.296224 -0.462938
-0.631949 0.280799 -0.139952
0.778557 -0.354179 -0.188644
0.374544 0.16378 -0.348162
-0.423954 0.357837 -0.399194
0.853193 0.359658 -0.274596
0.0372552 -0.111981 -0.0496697
-0.714733 0.305245 -0.349553
-0.8552 -0.155476 -0.439344
VERTICES 767 1534
1 0
1 1
1 2
1 3
1 4
1 5
1 6
1 7
1 8
1 9
1 10
1 11
1 12
1 13
1 14
1 15
1 16
1 17
1 18
1 19
1 20
1 21
1 22
1 23
1 24
1 25
1 26
1 27
1 28
1 29
1 30
1 31
1 32
1 33
1 34
1 35
1 36
1 37
1 38
1 39
1 40
1 41
1 42
1 43
1 44
1 45
1 46
1 47
1 48
1 49
1 50
1 51
1 52
1 53
1 54
1 55
1 56
1 57
1 58
1 59
1 60
1 61
1 62
1 63
1 64
1 65
1 66
1 67
1 68
1 69
1 70
1 71
1 72
1 73
1 74
1 75
1 76
1 77
1 78
1 79
1 80
1 81
1 82
1 83
1 84
1 85
1 86
1 87
1 88
1 89
1 90
1 91
1 92
1 93
1 94
1 95
1 96
1 97
1 98
1 99
1 100
1 101
1 102
1 103
1 104
1 105
1 106
1 107
1 108
1 109
1 110
1 111
1 112
1 113
1 114
1 115
1 116
1 117
1 118
1 119
1 120
1 121
1 122
1 123
1 124
1 125
1 126
1 127
1 128
1 129
1 130
1 131
1 132
1 133
1 134
1 135
1 136
1 137
1 138
1 139
1 140
1 141
1 142
1 143
1 144
1 145
1 146
1 147
1 148
1 149
1 150
1 151
1 152
1 153
1 154
1 155
1 156
1 157
1 158
1 159
1 160
1 161
1 162
1 163
1 164
1 165
1 166
1 167
1 168
1 169
1 170
1 171
1 172
1 173
1 174
1 175
1 176
1 177
1 178
1 179
1 180
1 181
1 182
1 183
1 184
1 185
1 186
1 187
1 188
1 189
1 190
1 191
1 192
1 193
1 194
1 195
1 196
1 197
1 198
1 199
1 200
1 201
1 202
1 203
1 204
1 205
1 206
1 207
1 208
1 209
1 210
1 211
1 212
1 213
1 214
1 215
1 216
1 217
1 218
1 219
1 220
1 221
1 222
1 223
1 224
1 225
1 226
1 227
1 228
1 229
1 230
1 231
1 232
1 233
1 234
1 235
1 236
1 237
1 238
1 239
1 240
1 241
1 242
1 243
1 244
1 245
1 246
1 247
1 248
1 249
1 250
1 251
1 252
1 253
1 254
1 255
1 256
1 257
1 258
1 259
1 260
1 261
1 262
1 263
1 264
1 265
1 266
1 267
1 268
1 269
1 270
1 271
1 272
1 273
1 274
1 275
1 276
1 277
1 278
1 279
1 280
1 281
1 282
1 283
1 284
1 285
1 286
1 287
1 288
1 289
1 290
1 291
1 292
1 293
1 294
1 295
1 296
1 297
1 298
1 299
1 300
1 301
1 302
1 303
1 304
1 305
1 306
1 307
1 308
1 309
1 310
1 311
1 312
1 313
1 314
1 315
1 316
1 317
1 318
1 319
1 320
1 321
1 322
1 323
1 324
1 325
1 326
1 327
1 328
1 329
1 330
1 331
1 332
1 333
1 334
1 335
1 336
1 337
1 338
1 339
1 340
1 341
1 342
1 343
1 344
1 345
1 346
1 347
1 348
1 349
1 350
1 351
1 352
1 353
1 354
1 355
1 356
1 357
1 358
1 359
1 360
1 361
1 362
1 363
1 364
1 365
1 366
1 367
1 368
1 369
1 370
1 371
1 372
1 373
1 374
1 375
1 376
1 377
1 378
1 379
1 380
1 381
1 382
1 383
1 384
1 385
1 386
1 387
1 388
1 389
1 390
1 391
1 392
1 393
1 394
1 395
1 396
1 397
1 398
1 399
1 400
1 401
1 402
1 403
1 404
1 405
1 406
1 407
1 408
1 409
1 410
1 411
1 412
1 413
1 414
1 415
1 416
1 417
1 418
1 419
1 420
1 421
1 422
1 423
1 424
1 425
1 426
1 427
1 428
1 429
1 430
1 431
1 432
1 433
1 434
1 435
1 436
1 437
1 438
1 439
1 440
1 441
1 442
1 443
1 444
1 445
1 446
1 447
1 448
1 449
1 450
1 451
1 452
1 453
1 454
1 455
1 456
1 457
1 458
1 459
1 460
1 461
1 462
1 463
1 464
1 465
1 466
1 467
1 468
1 469
1 470
1 471
1 472
1 473
1 474
1 475
1 476
1 477
1 478
1 479
1 480
1 481
1 482
1 483
1 484
1 485
1 486
1 487
1 488
1 489
1 490
1 491
1 492
1 493
1 494
1 495
1 496
1 497
1 498
1 499
1 500
1 501
1 502
1 503
1 504
1 505
1 506
1 507
1 508
1 509
1 510
1 511
1 512
1 513
1 514
1 515
1 516
1 517
1 518
1 519
1 520
1 521
1 522
1 523
1 524
1 525
1 526
1 527
1 528
1 529
1 530
1 531
1 532
1 533
1 534
1 535
1 536
1 537
1 538
1 539
1 540
1 541
1 542
1 543
1 544
1 545
1 546
1 547
1 548
1 549
1 550
1 551
1 552
1 553
1 554
1 555
1 556
1 557
1 558
1 559
1 560
1 561
1 562
1 563
1 564
1 565
1 566
1 567
1 568
1 569
1 570
1 571
1 572
1 573
1 574
1 575
1 576
1 577
1 578
1 579
1 580
1 581
1 582
1 583
1 584
1 585
1 586
1 587
1 588
1 589
1 590
1 591
1 592
1 593
1 594
1 595
1 596
1 597
1 598
1 599
1 600
1 601
1 602
1 603
1 604
1 605
1 606
1 607
1 608
1 609
1 610
1 611
1 612
1 613
1 614
1 615
1 616
1 617
1 618
1 619
1 620
1 621
1 622
1 623
1 624
1 625
1 626
1 627
1 628
1 629
1 630
1 631
1 632
1 633
1 634
1 635
1 636
1 637
1 638
1 639
1 640
1 641
1 642
1 643
1 644
1 645
1 646
1 647
1 648
1 649
1 650
1 651
1 652
1 653
1 654
1 655
1 656
1 657
1 658
1 659
1 660
1 661
1 662
1 663
1 664
1 665
1 666
1 667
1 668
1 669
1 670
1 671
1 672
1 673
1 674
1 675
1 676
1 677
1 678
1 679
1 680
1 681
1 682
1 683
1 684
1 685
1 686
1 687
1 688
1 689
1 690
1 691
1 692
1 693
1 694
1 695
1 696
1 697
1 698
1 699
1 700
1 701
1 702
1 703
1 704
1 705
1 706
1 707
1 708
1 709
1 710
1 711
1 712
1 713
1 714
1 715
1 716
1 717
1 718
1 719
1 720
1 721
1 722
1 723
1 724
1 725
1 726
1 727
1 728
1 729
1 730
1 731
1 732
1 733
1 734
1 735
1 736
1 737
1 738
1 739
1 740
1 741
1 742
1 743
1 744
1 745
1 746
1 747
1 748
1 749
1 750
1 751
1 752
1 753
1 754
1 755
1 756
1 757
1 758
1 759
1 760
1 761
1 762
1 763
1 764
1 765
1 766
POINT_DATA 767
VECTORS i float
0.0 0.0 0.0
0.0 0.0 0.0
0.0 0.0 0.0
0.0 0.0 0.0
0.0 0.0 0.0
0.0 0.0 0.0
0.0 0.0 0.0
0.0 0.0 0.0
0.0 0.0 0.0
0.0 0.0 0.0
0.0 0.0 0.0
0.0 0.0 0.0
0.0 0.0 0.0
0.0 0.0 0.0
0.0 0.0 0.0
0.0 0.0 0.0
0.0 0.0 0.0
0.0 0.0 0.0
0.0 0.0 0.0
0.0 0.0 0.0
0.0 0.0 0.0
0.0 0.0 0.0
0.0 0.0 0.0
0.0 0.0 0.0
0.0 0.0 0.0
0.0 0.0 0.0
0.0 0.0 0.0
0.0 0.0 0.0
0.0 0.0 0.0
0.0 0.0 0.0
0.0 0.0 0.0
0.0 0.0 0.0
0.0 0.0 0.0
0.0 0.0 0.0
0.0 0.0 0.0
0.0 0.0 0.0
0.0 0.0 0.0
0.0 0.0 0.0
0.0 0.0 0.0
0.0 0.0 0.0
0.0 0.0 0.0
0.0 0.0 0.0
0.0 0.0 0.0
0.0 0.0 0.0
0.0 0.0 0.0
0.0 0.0 0.0
0.0 0.0 0.0
0.0 0.0 0.0
0.0 0.0 0.0
0.0 0.0 0.0
0.0 0.0 0.0
0.0 0.0 0.0
0.0 0.0 0.0
0.0 0.0 0.0
0.0 0.0 0.0
0.0 0.0 0.0
0.0 0.0 0.0
0.0 0.0 0.0
0.0 0.0 0.0
0.0 0.0 0.0
0.0 0.0 0.0
0.0 0.0 0.0
0.0 0.0 0.0
0.0 0.0 0.0
0.0 0.0 0.0
0.0 0.0 0.0
0.0 0.0 0.0
0.0 0.0 0.0
0.0 0.0 0.0
0.0 0.0 0.0
0.0 0.0 0.0
0.0 0.0 0.0
0.0 0.0 0.0
0.0 0.0 0.0
0.0 0.0 0.0
0.0 0.0 0.0
0.0 0.0 0.0
0.0 0.0 0.0
0.0 0.0 0.0
0.0 0.0 0.0
0.0 0.0 0.0
0.0 0.0 0.0
0.0 0.0 0.0
0.0 0.0 0.0
0.0 0.0 0.0
0.0 0.0 0.0
0.0 0.0 0.0
0.0 0.0 0.0
0.0 0.0 0.0
0.0 0.0 0.0
0.0 0.0 0.0
0.0 0.0 0.0
0.0 0.0 0.0
0.0 0.0 0.0
0.0 0.0 0.0
0.0 0.0 0.0
0.0 0.0 0.0
0.0 0.0 0.0
0.0 0.0 0.0
0.0 0.0 0.0
0.0 0.0 0.0
0.0 0.0 0.0
0.0 0.0 0.0
0.0 0.0 0.0
0.0 0.0 0.0
0.0 0.0 0.0
0.0 0.0 0.0
0.0 0.0 0.0
0.0 0.0 0.0
0.0 0.0 0.0
0.0 0.0 0.0
0.0 0.0 0.0
0.0 0.0 0.0
0.0 0.0 0.0
0.0 0.0 0.0
0.0 0.0 0.0
0.0 0.0 0.0
0.0 0.0 0.0
0.0 0.0 0.0
0.0 0.0 0.0
0.0 0.0 0.0
0.0 0.0 0.0
0.0 0.0 0.0
0.0 0.0 0.0
0.0 0.0 0.0
0.0 0.0 0.0
0.0 0.0 0.0
0.0 0.0 0.0
0.0 0.0 0.0
0.0 0.0 0.0
0.0 0.0 0.0
0.0 0.0 0.0
0.0 0.0 0.0
0.0 0.0 0.0
0.0 0.0 0.0
0.0 0.0 0.0
0.0 0.0 0.0
0.0 0.0 0.0
0.0 0.0 0.0
0.0 0.0 0.0
0.0 0.0 0.0
0.0 0.0 0.0
0.0 0.0 0.0
0.0 0.0 0.0
0.0 0.0 0.0
0.0 0.0 0.0
0.0 0.0 0.0
0.0 0.0 0.0
0.0 0.0 0.0
0.0 0.0 0.0
0.0 0.0 0.0
0.0 0.0 0.0
0.0 0.0 0.0
0.0 0.0 0.0
0.0 0.0 0.0
0.0 0.0 0.0
0.0 0.0 0.0
0.0 0.0 0.0
0.0 0.0 0.0
0.0 0.0 0.0
0.0 0.0 0.0
0.0 0.0 0.0
0.0 0.0 0.0
0.0 0.0 0.0
0.0 0.0 0.0
0.0 0.0 0.0
0.0 0.0 0.0
0.0 0.0 0.0
0.0 0.0 0.0
0.0 0.0 0.0
0.0 0.0 0.0
0.0 0.0 0.0
0.0 0.0 0.0
0.0 0.0 0.0
0.0 0.0 0.0
0.0 0.0 0.0
0.0 0.0 0.0
0.0 0.0 0.0
0.0 0.0 0.0
0.0 0.0 0.0
0.0 0.0 0.0
0.0 0.0 0.0
0.0 0.0 0.0
0.0 0.0 0.0
0.0 0.0 0.0
0.0 0.0 0.0
0.0 0.0 0.0
0.0 0.0 0.0
0.0 0.0 0.0
0.0 0.0 0.0
0.0 0.0 0.0
0.0 0.0 0.0
0.0 0.0 0.0
0.0 0.0 0.0
0.0 0.0 0.0
0.0 0.0 0.0
0.0 0.0 0.0
0.0 0.0 0.0
0.0 0.0 0.0
0.0 0.0 0.0
0.0 0.0 0.0
0.0 0.0 0.0
0.0 0.0 0.0
0.0 0.0 0.0
0.0 0.0 0.0
0.0 0.0 0.0
0.0 0.0 0.0
0.0 0.0 0.0
0.0 0.0 0.0
0.0 0.0 0.0
0.0 0.0 0.0
0.0 0.0 0.0
0.0 0.0 0.0
0.0 0.0 0.0
0.0 0.0 0.0
0.0 0.0 0.0
0.0 0.0 0.0
0.0 0.0 0.0
0.0 0.0 0.0
0.0 0.0 0.0
0.0 0.0 0.0
0.0 0.0 0.0
0.0 0.0 0.0
0.0 0.0 0.0
0.0 0.0 0.0
0.0 0.0 0.0
0.0 0.0 0.0
0.0 0.0 0.0
0.0 0.0 0.0
0.0 0.0 0.0
0.0 0.0 0.0
0.0 0.0 0.0
0.0 0.0 0.0
0.0 0.0 0.0
0.0 0.0 0.0
0.0 0.0 0.0
0.0 0.0 0.0
0.0 0.0 0.0
0.0 0.0 0.0
0.0 0.0 0.0
0.0 0.0 0.0
0.0 0.0 0.0
0.0 0.0 0.0
0.0 0.0 0.0
0.0 0.0 0.0
0.0 0.0 0.0
0.0 0.0 0.0
0.0 0.0 0.0
0.0 0.0 0.0
0.0 0.0 0.0
0.0 0.0 0.0
0.0 0.0 0.0
0.0 0.0 0.0
0.0 0.0 0.0
0.0 0.0 0.0
0.0 0.0 0.0
0.0 0.0 0.0
0.0 0.0 0.0
0.0 0.0 0.0
0.0 0.0 0.0
0.0 0.0 0.0
0.0 0.0 0.0
0.0 0.0 0.0
0.0 0.0 0.0
0.0 0.0 0.0
0.0 0.0 0.0
0.0 0.0 0.0
0.0 0.0 0.0
0.0 0.0 0.0
0.0 0.0 0.0
0.0 0.0 0.0
0.0 0.0 0.0
0.0 0.0 0.0
0.0 0.0 0.0
0.0 0.0 0.0
0.0 0.0 0.0
0.0 0.0 0.0
0.0 0.0 0.0
0.0 0.0 0.0
0.0 0.0 0.0
0.0 0.0 0.0
0.0 0.0 0.0
0.0 0.0 0.0
0.0 0.0 0.0
0.0 0.0 0.0
0.0 0.0 0.0
0.0 0.0 0.0
0.0 0.0 0.0
0.0 0.0 0.0
0.0 0.0 0.0
0.0 0.0 0.0
0.0 0.0 0.0
0.0 0.0 0.0
0.0 0.0 0.0
0.0 0.0 0.0
0.0 0.0 0.0
0.0 0.0 0.0
0.0 0.0 0.0
0.0 0.0 0.0
0.0 0.0 0.0
0.0 0.0 0.0
0.0 0.0 0.0
0.0 0.0 0.0
0.0 0.0 0.0
0.0 0.0 0.0
0.0 0.0 0.0
0.0 0.0 0.0
0.0 0.0 0.0
0.0 0.0 0.0
0.0 0.0 0.0
0.0 0.0 0.0
0.0 0.0 0.0
0.0 0.0 0.0
0.0 0.0 0.0
0.0 0.0 0.0
0.0 0.0 0.0
0.0 0.0 0.0
0.0 0.0 0.0
0.0 0.0 0.0
0.0 0.0 0.0
0.0 0.0 0.0
0.0 0.0 0.0
0.0 0.0 0.0
0.0 0.0 0.0
0.0 0.0 0.0
0.0 0.0 0.0
0.0 0.0 0.0
0.0 0.0 0.0
0.0 0.0 0.0
0.0 0.0 0.0
0.0 0.0 0.0
0.0 0.0 0.0
0.0 0.0 0.0
0.0 0.0 0.0
0.0 0.0 0.0
0.0 0.0 0.0
0.0 0.0 0.0
0.0 0.0 0.0
0.0 0.0 0.0
0.0 0.0 0.0
0.0 0.0 0.0
0.0 0.0 0.0
0.0 0.0 0.0
0.0 0.0 0.0
0.0 0.0 0.0
0.0 0.0 0.0
0.0 0.0 0.0
0.0 0.0 0.0
0.0 0.0 0.0
0.0 0.0 0.0
0.0 0.0 0.0
0.0 0.0 0.0
0.0 0.0 0.0
0.0 0.0 0.0
0.0 0.0 0.0
0.0 0.0 0.0
0.0 0.0 0.0
0.0 0.0 0.0
0.0 0.0 0.0
0.0 0.0 0.0
0.0 0.0 0.0
0.0 0.0 0.0
0.0 0.0 0.0
0.0 0.0 0.0
0.0 0.0 0.0
0.0 0.0 0.0
0.0 0.0 0.0
0.0 0.0 0.0
0.0 0.0 0.0
0.0 0.0 0.0
0.0 0.0 0.0
0.0 0.0 0.0
0.0 0.0 0.0
0.0 0.0 0.0
0.0 0.0 0.0
0.0 0.0 0.0
0.0 0.0 0.0
0.0 0.0 0.0
0.0 0.0 0.0
0.0 0.0 0.0
0.0 0.0 0.0
0.0 0.0 0.0
0.0 0.0 0.0
0.0 0.0 0.0
0.0 0.0 0.0
0.0 0.0 0.0
0.0 0.0 0.0
0.0 0.0 0.0
0.0 0.0 0.0
0.0 0.0 0.0
0.0 0.0 0.0
0.0 0.0 0.0
0.0 0.0 0.0
0.0 0.0 0.0
0.0 0.0 0.0
0.0 0.0 0.0
0.0 0.0 0.0
0.0 0.0 0.0
0.0 0.0 0.0
0.0 0.0 0.0
0.0 0.0 0.0
0.0 0.0 0.0
0.0 0.0 0.0
0.0 0.0 0.0
0.0 0.0 0.0
0.0 0.0 0.0
0.0 0.0 0.0
0.0 0.0 0.0
0.0 0.0 0.0
0.0 0.0 0.0
0.0 0.0 0.0
0.0 0.0 0.0
0.0 0.0 0.0
0.0 0.0 0.0
0.0 0.0 0.0
0.0 0.0 0.0
0.0 0.0 0.0
0.0 0.0 0.0
0.0 0.0 0.0
0.0 0.0 0.0
0.0 0.0 0.0
0.0 0.0 0.0
0.0 0.0 0.0
0.0 0.0 0.0
0.0 0.0 0.0
0.0 0.0 0.0
0.0 0.0 0.0
0.0 0.0 0.0
0.0 0.0 0.0
0.0 0.0 0.0
0.0 0.0 0.0
0.0 0.0 0.0
0.0 0.0 0.0
0.0 0.0 0.0
0.0 0.0 0.0
0.0 0.0 0.0
0.0 0.0 0.0
0.0 0.0 0.0
0.0 0.0 0.0
0.0 0.0 0.0
0.0 0.0 0.0
0.0 0.0 0.0
0.0 0.0 0.0
0.0 0.0 0.0
0.0 0.0 0.0
0.0 0.0 0.0
0.0 0.0 0.0
0.0 0.0 0.0
0.0 0.0 0.0
0.0 0.0 0.0
0.0 0.0 0.0
0.0 0.0 0.0
0.0 0.0 0.0
0.0 0.0 0.0
0.0 0.0 0.0
0.0 0.0 0.0
0.0 0.0 0.0
0.0 0.0 0.0
0.0 0.0 0.0
0.0 0.0 0.0
0.0 0.0 0.0
0.0 0.0 0.0
0.0 0.0 0.0
0.0 0.0 0.0
0.0 0.0 0.0
0.0 0.0 0.0
0.0 0.0 0.0
0.0 0.0 0.0
0.0 0.0 0.0
0.0 0.0 0.0
0.0 0.0 0.0
0.0 0.0 0.0
0.0 0.0 0.0
0.0 0.0 0.0
0.0 0.0 0.0
0.0 0.0 0.0
0.0 0.0 0.0
0.0 0.0 0.0
0.0 0.0 0.0
0.0 0.0 0.0
0.0 0.0 0.0
0.0 0.0 0.0
0.0 0.0 0.0
0.0 0.0 0.0
0.0 0.0 0.0
0.0 0.0 0.0
0.0 0.0 0.0
0.0 0.0 0.0
0.0 0.0 0.0
0.0 0.0 0.0
0.0 0.0 0.0
0.0 0.0 0.0
0.0 0.0 0.0
0.0 0.0 0.0
0.0 0.0 0.0
0.0 0.0 0.0
0.0 0.0 0.0
0.0 0.0 0.0
0.0 0.0 0.0
0.0 0.0 0.0
0.0 0.0 0.0
0.0 0.0 0.0
0.0 0.0 0.0
0.0 0.0 0.0
0.0 0.0 0.0
0.0 0.0 0.0
0.0 0.0 0.0
0.0 0.0 0.0
0.0 0.0 0.0
0.0 0.0 0.0
0.0 0.0 0.0
0.0 0.0 0.0
0.0 0.0 0.0
0.0 0.0 0.0
0.0 0.0 0.0
0.0 0.0 0.0
0.0 0.0 0.0
0.0 0.0 0.0
0.0 0.0 0.0
0.0 0.0 0.0
0.0 0.0 0.0
0.0 0.0 0.0
0.0 0.0 0.0
0.0 0.0 0.0
0.0 0.0 0.0
0.0 0.0 0.0
0.0 0.0 0.0
0.0 0.0 0.0
0.0 0.0 0.0
0.0 0.0 0.0
0.0 0.0 0.0
0.0 0.0 0.0
0.0 0.0 0.0
0.0 0.0 0.0
0.0 0.0 0.0
0.0 0.0 0.0
0.0 0.0 0.0
0.0 0.0 0.0
0.0 0.0 0.0
0.0 0.0 0.0
0.0 0.0 0.0
0.0 0.0 0.0
0.0 0.0 0.0
0.0 0.0 0.0
0.0 0.0 0.0
0.0 0.0 0.0
0.0 0.0 0.0
0.0 0.0 0.0
0.0 0.0 0.0
0.0 0.0 0.0
0.0 0.0 0.0
0.0 0.0 0.0
0.0 0.0 0.0
0.0 0.0 0.0
0.0 0.0 0.0
0.0 0.0 0.0
0.0 0.0 0.0
0.0 0.0 0.0
0.0 0.0 0.0
0.0 0.0 0.0
0.0 0.0 0.0
0.0 0.0 0.0
0.0 0.0 0.0
0.0 0.0 0.0
0.0 0.0 0.0
0.0 0.0 0.0
0.0 0.0 0.0
0.0 0.0 0.0
0.0 0.0 0.0
0.0 0.0 0.0
0.0 0.0 0.0
0.0 0.0 0.0
0.0 0.0 0.0
0.0 0.0 0.0
0.0 0.0 0.0
0.0 0.0 0.0
0.0 0.0 0.0
0.0 0.0 0.0
0.0 0.0 0.0
0.0 0.0 0.0
0.0 0.0 0.0
0.0 0.0 0.0
0.0 0.0 0.0
0.0 0.0 0.0
0.0 0.0 0.0
0.0 0.0 0.0
0.0 0.0 0.0
0.0 0.0 0.0
0.0 0.0 0.0
0.0 0.0 0.0
0.0 0.0 0.0
0.0 0.0 0.0
0.0 0.0 0.0
0.0 0.0 0.0
0.0 0.0 0.0
0.0 0.0 0.0
0.0 0.0 0.0
0.0 0.0 0.0
0.0 0.0 0.0
0.0 0.0 0.0
0.0 0.0 0.0
0.0 0.0 0.0
0.0 0.0 0.0
0.0 0.0 0.0
0.0 0.0 0.0
0.0 0.0 0.0
0.0 0.0 0.0
0.0 0.0 0.0
0.0 0.0 0.0
0.0 0.0 0.0
0.0 0.0 0.0
0.0 0.0 0.0
0.0 0.0 0.0
0.0 0.0 0.0
0.0 0.0 0.0
0.0 0.0 0.0
0.0 0.0 0.0
0.0 0.0 0.0
0.0 0.0 0.0
0.0 0.0 0.0
0.0 0.0 0.0
0.0 0.0 0.0
0.0 0.0 0.0
0.0 0.0 0.0
0.0 0.0 0.0
0.0 0.0 0.0
0.0 0.0 0.0
0.0 0.0 0.0
0.0 0.0 0.0
0.0 0.0 0.0
0.0 0.0 0.0
0.0 0.0 0.0
0.0 0.0 0.0
0.0 0.0 0.0
0.0 0.0 0.0
0.0 0.0 0.0
0.0 0.0 0.0
0.0 0.0 0.0
0.0 0.0 0.0
0.0 0.0 0.0
0.0 0.0 0.0
0.0 0.0 0.0
0.0 0.0 0.0
0.0 0.0 0.0
0.0 0.0 0.0
0.0 0.0 0.0
0.0 0.0 0.0
0.0 0.0 0.0
0.0 0.0 0.0
0.0 0.0 0.0
0.0 0.0 0.0
0.0 0.0 0.0
0.0 0.0 0.0
0.0 0.0 0.0
0.0 0.0 0.0
0.0 0.0 0.0
0.0 0.0 0.0
0.0 0.0 0.0
0.0 0.0 0.0
0.0 0.0 0.0
0.0 0.0 0.0
0.0 0.0 0.0
0.0 0.0 0.0
0.0 0.0 0.0
0.0 0.0 0.0
0.0 0.0 0.0
0.0 0.0 0.0
0.0 0.0 0.0
0.0 0.0 0.0
0.0 0.0 0.0
0.0 0.0 0.0
0.0 0.0 0.0
0.0 0.0 0.0
0.0 0.0 0.0
0.0 0.0 0.0
0.0 0.0 0.0
0.0 0.0 0.0
0.0 0.0 0.0
0.0 0.0 0.0
0.0 0.0 0.0
0.0 0.0 0.0
0.0 0.0 0.0
0.0 0.0 0.0
0.0 0.0 0.0
0.0 0.0 0.0
0.0 0.0 0.0
0.0 0.0 0.0
0.0 0.0 0.0
0.0 0.0 0.0
0.0 0.0 0.0
0.0 0.0 0.0
0.0 0.0 0.0
0.0 0.0 0.0
0.0 0.0 0.0
0.0 0.0 0.0
0.0 0.0 0.0
0.0 0.0 0.0
0.0 0.0 0.0
0.0 0.0 0.0
0.0 0.0 0.0
0.0 0.0 0.0
0.0 0.0 0.0
0.0 0.0 0.0
0.0 0.0 0.0
0.0 0.0 0.0
0.0 0.0 0.0
0.0 0.0 0.0
0.0 0.0 0.0
0.0 0.0 0.0
0.0 0.0 0.0
0.0 0.0 0.0
0.0 0.0 0.0
0.0 0.0 0.0
0.0 0.0 0.0
0.0 0.0 0.0
0.0 0.0 0.0
0.0 0.0 0.0
0.0 0.0 0.0
0.0 0.0 0.0
0.0 0.0 0.0
0.0 0.0 0.0
0.0 0.0 0.0
0.0 0.0 0.0
0.0 0.0 0.0
0.0 0.0 0.0
0.0 0.0 0.0
0.0 0.0 0.0
0.0 0.0 0.0
0.0 0.0 0.0
0.0 0.0 0.0
0.0 0.0 0.0
0.0 0.0 0.0
0.0 0.0 0.0
0.0 0.0 0.0
0.0 0.0 0.0
0.0 0.0 0.0
0.0 0.0 0.0
0.0 0.0 0.0
0.0 0.0 0.0
0.0 0.0 0.0
0.0 0.0 0.0
0.0 0.0 0.0
0.0 0.0 0.0
0.0 0.0 0.0
0.0 0.0 0.0
0.0 0.0 0.0
0.0 0.0 0.0
0.0 0.0 0.0
0.0 0.0 0.0
0.0 0.0 0.0
0.0 0.0 0.0
0.0 0.0 0.0
0.0 0.0 0.0
0.0 0.0 0.0
0.0 0.0 0.0
0.0 0.0 0.0
0.0 0.0 0.0
0.0 0.0 0.0
0.0 0.0 0.0
0.0 0.0 0.0
0.0 0.0 0.0
0.0 0.0 0.0
0.0 0.0 0.0
0.0 0.0 0.0
0.0 0.0 0.0
0.0 0.0 0.0
0.0 0.0 0.0
VECTORS f float
0.0 0.0 -6.57473
0.0 0.0 -6.57473
0.0 0.0 -6.57473
0.0 0.0 -6.57473
0.0 0.0 -6.57473
0.0 0.0 -6.57473
0.0 0.0 -6.57473
0.0 0.0 -6.57473
7.09106 33.3841 83.8435
0.0 0.0 -6.57473
0.0 0.0 -6.57473
0.0 0.0 -6.57473
0.0 0.0 -6.57473
-17.1459 -13.8807 1.35217
0.0 0.0 -6.57473
0.0 0.0 -6.57473
0.0 0.0 -6.57473
0.0 0.0 -6.57473
0.0 0.0 -6.57473
0.0 0.0 -6.57473
0.0 0.0 -6.57473
0.0 0.0 -6.57473
0.0 0.0 -6.57473
0.0 0.0 -6.57473
0.0 0.0 -6.57473
0.0 0.0 -6.57473
0.0 0.0 -6.57473
0.0 0.0 -6.57473
0.0 0.0 -6.57473
0.0 0.0 -6.57473
0.0 0.0 -6.57473
0.0 0.0 -6.57473
0.0 0.0 -6.57473
0.0 0.0 -6.57473
0.0 0.0 -6.57473
0.0 0.0 -6.57473
0.0 0.0 -6.57473
0.0 0.0 -6.57473
0.0 0.0 -6.57473
0.0 0.0 155.576
0.0 0.0 -6.57473
0.0 0.0 -6.57473
0.0 0.0 -6.57473
0.0 0.0 -6.57473
0.0 0.0 -6.57473
0.0 0.0 -6.57473
0.0 0.0 -6.57473
0.0 0.0 124.363
0.0 0.0 -6.57473
0.0 0.0 -6.57473
0.0 0.0 -6.57473
0.0 0.0 -6.57473
0.0 0.0 -6.57473
0.0 0.0 -6.57473
0.0 0.0 -6.57473
0.0 0.0 -6.57473
0.0 0.0 -6.57473
0.0 0.0 -6.57473
0.0 0.0 -6.57473
0.0 0.0 -6.57473
0.0 0.0 -6.57473
0.0 0.0 -6.57473
0.0 0.0 -6.57473
0.0 0.0 -6.57473
0.0 0.0 -6.57473
0.0 0.0 -6.57473
0.0 0.0 -6.57473
0.0 0.0 -6.57473
0.0 0.0 -6.57473
0.0 0.0 55.8437
0.0 0.0 -6.57473
-14.1704 17.0744 67.4834
0.0 0.0 -6.57473
0.0 0.0 -6.57473
0.0 0.0 -6.57473
0.0 0.0 -6.57473
0.0 0.0 -6.57473
0.0 0.0 -6.57473
0.0 0.0 -6.57473
0.0 0.0 -6.57473
0.0 0.0 -6.57473
0.0 0.0 -6.57473
0.0 0.0 -6.57473
0.0 0.0 -6.57473
0.0 0.0 6.9985
0.0 0.0 -6.57473
0.0 0.0 -6.57473
0.0 0.0 -6.57473
0.0 0.0 73.6285
0.0 0.0 -6.57473
0.0 0.0 -6.57473
0.0 0.0 -6.57473
0.0 0.0 -6.57473
0.0 0.0 -6.57473
0.0 0.0 -6.57473
-17.6519 38.3105 25.6711
0.0 0.0 -6.57473
0.0 0.0 -6.57473
0.0 0.0 6.93927
0.0 0.0 -6.57473
0.0 0.0 -6.57473
0.0 0.0 -6.57473
0.0 0.0 -6.57473
0.0 0.0 -6.57473
0.0 0.0 -6.57473
0.0 0.0 -6.57473
0.0 0.0 -6.57473
0.0 0.0 -6.57473
0.0 0.0 -6.57473
0.0 0.0 -6.57473
0.0 0.0 -6.57473
0.0 0.0 -6.57473
0.0 0.0 -6.57473
0.0 0.0 -6.57473
0.0 0.0 -6.57473
0.0 0.0 -6.57473
0.0 0.0 -6.57473
0.0 0.0 -6.57473
0.0 0.0 -6.57473
0.0 0.0 -6.57473
0.0 0.0 -6.57473
0.0 0.0 -6.57473
0.0 0.0 -6.57473
0.0 0.0 -6.57473
0.0 0.0 -6.57473
0.0 0.0 -6.57473
0.0 0.0 -6.57473
0.0 0.0 -6.57473
0.0 0.0 107.499
0.0 0.0 -6.57473
0.0 0.0 -6.57473
0.0 0.0 -6.57473
0.0 0.0 -6.57473
0.0 0.0 -6.57473
0.0 0.0 -6.57473
0.0 0.0 -6.57473
0.0 0.0 -6.57473
0.0 0.0 -6.57473
0.0 0.0 -6.57473
0.0 0.0 -6.57473
0.0 0.0 -6.57473
0.0 0.0 -6.57473
0.0 0.0 -6.57473
0.0 0.0 -6.57473
0.0 0.0 -6.57473
0.0 0.0 -6.57473
0.0 0.0 -6.57473
0.0 0.0 -6.57473
0.0 0.0 41.7683
0.0 0.0 -6.57473
0.0 0.0 -6.57473
0.0 0.0 -6.57473
0.0 0.0 124.509
0.0 0.0 -6.57473
0.0 0.0 -6.57473
0.0 0.0 -6.57473
0.0 0.0 -6.57473
0.0 0.0 -6.57473
0.0 0.0 -6.57473
0.0 0.0 -6.57473
0.0 0.0 -6.57473
0.0 0.0 -6.57473
0.0 0.0 -6.57473
0.0 0.0 -6.57473
0.0 0.0 -6.57473
0.0 0.0 -6.57473
0.0 0.0 -6.57473
0.0 0.0 -6.57473
0.0 0.0 -6.57473
0.0 0.0 -6.57473
0.0 0.0 -6.57473
0.0 0.0 -6.57473
0.0 0.0 -6.57473
0.0 0.0 -6.57473
0.0 0.0 -6.57473
0.0 0.0 -6.57473
0.0 0.0 -6.57473
0.0 0.0 -6.57473
0.0 0.0 -6.57473
0.0 0.0 -6.57473
0.0 0.0 -6.57473
0.0 0.0 -6.57473
0.0 0.0 -6.57473
0.0 0.0 -6.57473
0.0 0.0 -6.57473
0.0 0.0 -6.57473
0.0 0.0 -6.57473
0.0 0.0 -6.57473
0.0 0.0 -6.57473
0.0 0.0 -6.57473
0.0 0.0 -6.57473
0.0 0.0 -6.57473
0.0 0.0 -6.57473
0.0 0.0 -6.57473
0.0 0.0 -6.57473
0.0 0.0 -6.57473
0.0 0.0 -6.57473
0.0 0.0 -6.57473
0.0 0.0 -6.57473
0.0 0.0 -6.57473
0.0 0.0 -6.57473
0.0 0.0 -6.57473
0.0 0.0 -6.57473
0.0 0.0 -6.57473
0.0 0.0 -6.57473
0.0 0.0 -6.57473
0.0 0.0 -6.57473
0.0 0.0 -6.57473
0.0 0.0 -6.57473
0.0 0.0 -6.57473
0.0 0.0 -6.57473
0.0 0.0 -6.57473
0.0 0.0 -6.57473
0.0 0.0 -6.57473
0.0 0.0 -6.57473
0.0 0.0 -6.57473
0.0 0.0 -6.57473
0.0 0.0 -6.57473
0.0 0.0 -6.57473
0.0 0.0 -6.57473
0.0 0.0 -6.57473
0.0 0.0 -6.57473
0.0 0.0 -6.57473
0.0 0.0 -6.57473
0.0 0.0 -6.57473
0.0 0.0 -6.57473
0.0 0.0 -6.57473
0.0 0.0 -6.57473
0.0 0.0 -6.57473
0.0 0.0 -6.57473
0.0 0.0 -6.57473
0.0 0.0 -6.57473
0.0 0.0 -6.57473
0.0 0.0 93.9489
0.0 0.0 -6.57473
0.0 0.0 -6.57473
0.0 0.0 -6.57473
0.0 0.0 -6.57473
0.0 0.0 -6.57473
0.0 0.0 -6.57473
0.0 0.0 -6.57473
0.0 0.0 -6.57473
0.0 0.0 -6.57473
0.0 0.0 -6.57473
0.0 0.0 -6.57473
0.0 0.0 -6.57473
0.0 0.0 88.9284
0.0 0.0 -6.57473
0.0 0.0 -6.57473
16.1428 -35.0351 68.7851
0.0 0.0 -6.57473
0.0 0.0 -6.57473
0.0 0.0 -6.57473
0.0 0.0 -6.57473
0.0 0.0 -6.57473
0.0 0.0 -6.57473
0.0 0.0 -6.57473
0.0 0.0 -6.57473
0.0 0.0 -6.57473
0.0 0.0 -6.57473
0.0 0.0 -6.57473
0.0 0.0 -6.57473
0.0 0.0 -6.57473
0.0 0.0 -6.57473
0.0 0.0 -6.57473
0.0 0.0 -6.57473
-6.62263 3.22917 -4.90631
0.0 0.0 -6.57473
0.0 0.0 127.441
0.0 0.0 -6.57473
0.0 0.0 -6.57473
0.0 0.0 -6.57473
0.0 0.0 -6.57473
0.0 0.0 -6.57473
0.0 0.0 -6.57473
0.0 0.0 -6.57473
0.0 0.0 -6.57473
0.0 0.0 -6.57473
0.0 0.0 -6.57473
0.0 0.0 -6.57473
0.0 0.0 -6.57473
0.0 0.0 -6.57473
0.0 0.0 -6.57473
0.0 0.0 -6.57473
0.0 0.0 -6.57473
0.0 0.0 -6.57473
0.0 0.0 -6.57473
0.0 0.0 -6.57473
0.0 0.0 -6.57473
0.0 0.0 -6.57473
0.0 0.0 -6.57473
0.0 0.0 -6.57473
0.0 0.0 -6.57473
0.0 0.0 -6.57473
0.0 0.0 -6.57473
0.0 0.0 -6.57473
0.0 0.0 -6.57473
0.0 0.0 51.6279
0.0 0.0 -6.57473
0.0 0.0 -6.57473
0.0 0.0 -6.57473
0.0 0.0 -6.57473
0.0 0.0 -6.57473
0.0 0.0 -6.57473
0.0 0.0 -6.57473
0.0 0.0 -6.57473
0.0 0.0 -6.57473
0.0 0.0 -6.57473
0.0 0.0 -6.57473
0.0 0.0 -6.57473
0.0 0.0 -6.57473
0.0 0.0 -6.57473
0.0 0.0 -6.57473
0.0 0.0 -6.57473
0.0 0.0 -6.57473
0.0 0.0 -6.57473
0.0 0.0 -6.57473
0.0 0.0 -6.57473
0.0 0.0 -6.57473
0.0 0.0 -6.57473
0.0 0.0 -6.57473
0.0 0.0 -6.57473
0.0 0.0 -6.57473
0.0 0.0 -6.57473
0.0 0.0 -6.57473
0.0 0.0 -6.57473
0.0 0.0 -6.57473
0.0 0.0 -6.57473
0.0 0.0 -6.57473
0.0 0.0 -6.57473
0.0 0.0 -6.57473
0.0 0.0 -6.57473
0.0 0.0 -6.57473
0.0 0.0 -6.57473
0.0 0.0 -6.57473
0.0 0.0 -6.57473
0.0 0.0 -6.57473
0.0 0.0 -6.57473
0.0 0.0 -6.57473
0.0 0.0 -6.57473
0.0 0.0 -6.57473
0.0 0.0 -6.57473
0.0 0.0 -6.57473
0.0 0.0 -6.57473
0.0 0.0 -6.57473
0.0 0.0 -6.57473
0.0 0.0 -6.57473
18.9329 8.34135 19.3733
0.0 0.0 -6.57473
0.0 0.0 -6.57473
0.0 0.0 -6.57473
0.0 0.0 -6.57473
0.0 0.0 -6.57473
0.0 0.0 -6.57473
0.0 0.0 120.301
0.0 0.0 -6.57473
0.0 0.0 -6.57473
0.0 0.0 -6.57473
0.0 0.0 -6.57473
0.0 0.0 -6.57473
0.0 0.0 -6.57473
0.0 0.0 -6.57473
0.0 0.0 -6.57473
0.0 0.0 -6.57473
0.0 0.0 -6.57473
0.0 0.0 -6.57473
0.0 0.0 155.364
0.0 0.0 -6.57473
0.0 0.0 -6.57473
0.0 0.0 -6.57473
0.0 0.0 -6.57473
0.0 0.0 -6.57473
0.0 0.0 -6.57473
0.0 0.0 -6.57473
0.0 0.0 -6.57473
0.0 0.0 -6.57473
0.0 0.0 -6.57473
0.0 0.0 -6.57473
0.0 0.0 -6.57473
0.0 0.0 -6.57473
0.0 0.0 -6.57473
0.0 0.0 -6.57473
0.0 0.0 -6.57473
0.0 0.0 -6.57473
0.0 0.0 -6.57473
0.0 0.0 -6.57473
0.0 0.0 -6.57473
0.0 0.0 -6.57473
0.0 0.0 -6.57473
0.0 0.0 -6.57473
0.0 0.0 -6.57473
0.0 0.0 -6.57473
0.0 0.0 -6.57473
0.0 0.0 -6.57473
0.0 0.0 -6.57473
0.0 0.0 -6.57473
0.0 0.0 -6.57473
0.0 0.0 -6.57473
0.0 0.0 -6.57473
0.0 0.0 -6.57473
0.0 0.0 -6.57473
0.0 0.0 -6.57473
0.0 0.0 -6.57473
0.0 0.0 -6.57473
0.0 0.0 -6.57473
0.0 0.0 -6.57473
0.0 0.0 -6.57473
0.0 0.0 -6.57473
0.0 0.0 -6.57473
0.0 0.0 -6.57473
0.0 0.0 -6.57473
0.0 0.0 -6.57473
0.0 0.0 -6.57473
0.0 0.0 -6.57473
0.0 0.0 -6.57473
0.0 0.0 -6.57473
0.0 0.0 -6.57473
0.0 0.0 -6.57473
0.0 0.0 -6.57473
0.0 0.0 -6.57473
0.0 0.0 -6.57473
0.0 0.0 -6.57473
0.0 0.0 -6.57473
0.0 0.0 -6.57473
0.0 0.0 -6.57473
0.0 0.0 -6.57473
0.0 0.0 -6.57473
0.0 0.0 -6.57473
0.0 0.0 -6.57473
0.0 0.0 -6.57473
0.0 0.0 -6.57473
0.0 0.0 -6.57473
0.0 0.0 -6.57473
0.0 0.0 -6.57473
0.0 0.0 -6.57473
0.0 0.0 -6.57473
0.0 0.0 -6.57473
0.0 0.0 -6.57473
0.0 0.0 -6.57473
0.0 0.0 -6.57473
0.0 0.0 41.4987
0.0 0.0 -6.57473
0.0 0.0 -6.57473
0.0 0.0 -6.57473
0.0 0.0 -6.57473
0.0 0.0 -6.57473
0.0 0.0 -6.57473
0.0 0.0 -6.57473
0.0 0.0 -6.57473
0.0 0.0 -6.57473
0.0 0.0 -6.57473
0.0 0.0 -6.57473
0.0 0.0 -6.57473
0.0 0.0 -6.57473
0.0 0.0 -6.57473
0.0 0.0 -6.57473
0.0 0.0 -6.57473
0.0 0.0 -6.57473
0.0 0.0 -6.57473
0.0 0.0 139.516
0.0 0.0 -6.57473
0.0 0.0 -6.57473
0.0 0.0 -6.57473
0.0 0.0 -6.57473
0.0 0.0 -6.57473
0.0 0.0 -6.57473
0.0 0.0 -6.57473
0.0 0.0 -6.57473
0.0 0.0 -6.57473
0.0 0.0 -6.57473
0.0 0.0 -6.57473
0.0 0.0 -6.57473
0.0 0.0 -6.57473
0.0 0.0 -6.57473
0.0 0.0 -6.57473
0.0 0.0 -6.57473
0.0 0.0 -6.57473
0.0 0.0 -6.57473
0.0 0.0 -6.57473
0.0 0.0 -6.57473
0.0 0.0 -6.57473
0.0 0.0 -6.57473
0.0 0.0 -6.57473
0.0 0.0 -6.57473
0.0 0.0 -6.57473
0.0 0.0 -6.57473
0.0 0.0 -6.57473
0.0 0.0 -6.57473
0.0 0.0 -6.57473
0.0 0.0 -6.57473
0.0 0.0 -6.57473
0.0 0.0 -6.57473
0.0 0.0 -6.57473
0.0 0.0 -6.57473
0.0 0.0 -6.57473
0.0 0.0 -6.57473
0.0 0.0 -6.57473
0.0 0.0 -6.57473
0.0 0.0 -6.57473
0.0 0.0 -6.57473
0.0 0.0 -6.57473
0.0 0.0 96.6668
0.0 0.0 -6.57473
0.0 0.0 -6.57473
0.0 0.0 -6.57473
0.0 0.0 -6.57473
0.0 0.0 -6.57473
0.0 0.0 -6.57473
0.0 0.0 -6.57473
0.0 0.0 -6.57473
0.0 0.0 -6.57473
0.0 0.0 -6.57473
0.0 0.0 -6.57473
0.0 0.0 -6.57473
0.0 0.0 -6.57473
0.0 0.0 -6.57473
0.0 0.0 -6.57473
0.0 0.0 -6.57473
0.0 0.0 -6.57473
0.0 0.0 -6.57473
0.0 0.0 -6.57473
0.0 0.0 -6.57473
0.0 0.0 -6.57473
0.0 0.0 -6.57473
0.0 0.0 -6.57473
0.0 0.0 -6.57473
0.0 0.0 -6.57473
0.0 0.0 -6.57473
0.0 0.0 -6.57473
0.0 0.0 -6.57473
0.0 0.0 -6.57473
0.0 0.0 -6.57473
0.0 0.0 -6.57473
0.0 0.0 -6.57473
0.0 0.0 -6.57473
0.0 0.0 -6.57473
0.0 0.0 -6.57473
0.0 0.0 -6.57473
0.0 0.0 -6.57473
0.0 0.0 -6.57473
0.0 0.0 -6.57473
0.0 0.0 -6.57473
0.0 0.0 -6.57473
0.0 0.0 -6.57473
0.0 0.0 -6.57473
0.0 0.0 -6.57473
0.0 0.0 -6.57473
0.0 0.0 -6.57473
0.0 0.0 -6.57473
0.0 0.0 -6.57473
0.0 0.0 -6.57473
0.0 0.0 -6.57473
0.0 0.0 -6.57473
0.0 0.0 -6.57473
0.0 0.0 -6.57473
0.0 0.0 -6.57473
0.0 0.0 -6.57473
0.0 0.0 -6.57473
0.0 0.0 -6.57473
0.0 0.0 -6.57473
0.0 0.0 -6.57473
0.0 0.0 -6.57473
-0.328627 -1.71599 -6.36349
0.0 0.0 -6.57473
0.0 0.0 -6.57473
0.0 0.0 -6.57473
0.0 0.0 -6.57473
0.0 0.0 -6.57473
0.0 0.0 -6.57473
0.0 0.0 -6.57473
0.0 0.0 -6.57473
0.0 0.0 -6.57473
0.0 0.0 -6.57473
0.0 0.0 -6.57473
0.0 0.0 -6.57473
0.0 0.0 -6.57473
0.0 0.0 -6.57473
0.0 0.0 -6.57473
0.0 0.0 -6.57473
0.0 0.0 -6.57473
0.0 0.0 -6.57473
0.0 0.0 -6.57473
0.0 0.0 -6.57473
0.0 0.0 -6.57473
0.0 0.0 -6.57473
0.0 0.0 -6.57473
0.0 0.0 -6.57473
0.0 0.0 -6.57473
0.0 0.0 130.183
0.0 0.0 -6.57473
0.0 0.0 -6.57473
0.0 0.0 -6.57473
0.0 0.0 -6.57473
0.0 0.0 -6.57473
0.0 0.0 -6.57473
0.0 0.0 142.114
0.0 0.0 -6.57473
0.0 0.0 -6.57473
0.0 0.0 -6.57473
0.0 0.0 -6.57473
0.0 0.0 -6.57473
-18.3454 -8.08253 116.18
0.0 0.0 -6.57473
0.0 0.0 -6.57473
0.0 0.0 -6.57473
0.0 0.0 -6.57473
0.0 0.0 -6.57473
0.0 0.0 -6.57473
0.0 0.0 -6.57473
0.0 0.0 -6.57473
0.0 0.0 -6.57473
0.0 0.0 -6.57473
0.0 0.0 -6.57473
0.0 0.0 155.585
0.0 0.0 -6.57473
0.0 0.0 -6.57473
0.0 0.0 -6.57473
0.0 0.0 -6.57473
0.0 0.0 -6.57473
0.0 0.0 -6.57473
0.0 0.0 -6.57473
0.0 0.0 -6.57473
0.0 0.0 -6.57473
0.0 0.0 -6.57473
0.0 0.0 -6.57473
0.0 0.0 -6.57473
0.0 0.0 -6.57473
0.0 0.0 -6.57473
0.0 0.0 -6.57473
0.0 0.0 -6.57473
0.0 0.0 -6.57473
0.0 0.0 -6.57473
0.0 0.0 -6.57473
0.0 0.0 -6.57473
0.0 0.0 -6.57473
0.0 0.0 -6.57473
-8.11895 -38.2233 12.7884
0.0 0.0 -6.57473
0.0 0.0 -6.57473
0.0 0.0 -6.57473
6.39475 -3.11805 147.508
0.0 0.0 -6.57473
0.0 0.0 -6.57473
0.0 0.0 -6.57473
0.0 0.0 -6.57473
0.0 0.0 -6.57473
0.0 0.0 -6.57473
0.0 0.0 -6.57473
0.0 0.0 -6.57473
0.0 0.0 -6.57473
0.0 0.0 -6.57473
0.0 0.0 -6.57473
0.0 0.0 -6.57473
0.0 0.0 -6.57473
0.0 0.0 -6.57473
0.0 0.0 -6.57473
0.0 0.0 -6.57473
0.0 0.0 -6.57473
0.0 0.0 -6.57473
0.0 0.0 -6.57473
0.0 0.0 -6.57473
0.0 0.0 -6.57473
0.0 0.0 -6.57473
0.0 0.0 -6.57473
0.0 0.0 -6.57473
0.0 0.0 -6.57473
0.0 0.0 154.331
0.0 0.0 -6.57473
0.0 0.0 154.598
0.0 0.0 -6.57473
0.0 0.0 21.2803
0.0 0.0 -6.57473
0.0 0.0 55.0241
0.0 0.0 -6.57473
0.0 0.0 -6.57473
0.0 0.0 -6.57473
0.0 0.0 -6.57473
0.0 0.0 -6.57473
0.0 0.0 -6.57473
0.0 0.0 -6.57473
0.0 0.0 -6.57473
0.0 0.0 -6.57473
0.0 0.0 -6.57473
0.0 0.0 -6.57473
0.0 0.0 -6.57473
0.0 0.0 -6.57473
0.0 0.0 -6.57473
0.0 0.0 -6.57473
13.5544 10.9732 141.646
0.0 0.0 -6.57473
0.0 0.0 -6.57473
0.0 0.0 -6.57473
0.0 0.0 -6.57473
0.0 0.0 -6.57473
0.0 0.0 -6.57473
0.0 0.0 -6.57473
0.0 0.0 -6.57473
0.0 0.0 107.668
0.0 0.0 -6.57473
0.0 0.0 -6.57473
0.0 0.0 -6.57473
0.0 0.0 -6.57473
0.0 0.0 -6.57473
0.0 0.0 -6.57473
0.0 0.0 -6.57473
0.0 0.0 -6.57473
0.0 0.0 -6.57473
0.0 0.0 -6.57473
0.0 0.0 -6.57473
0.0 0.0 -6.57473
0.0 0.0 -6.57473
0.0 0.0 -6.57473
0.0 0.0 -6.57473
0.0 0.0 -6.57473
0.0 0.0 -6.57473
0.0 0.0 -6.57473
0.0 0.0 -6.57473
0.0 0.0 -6.57473
0.0 0.0 -6.57473
0.0 0.0 -6.57473
0.0 0.0 -6.57473
0.0 0.0 137.115
0.325849 1.70148 133.415
0.0 0.0 -6.57473
0.0 0.0 -6.57473
0.0 0.0 -6.57473
0.0 0.0 -6.57473
0.0 0.0 -6.57473
0.0 0.0 -6.57473
0.0 0.0 -6.57473
0.0 0.0 -6.57473
0.0 0.0 -6.57473
0.0 0.0 -6.57473
0.0 0.0 -6.57473
0.0 0.0 -6.57473
0.0 0.0 -6.57473
0.0 0.0 -6.57473
0.0 0.0 -6.57473
0.0 0.0 -6.57473
0.0 0.0 -6.57473
0.0 0.0 -6.57473
0.0 0.0 -6.57473
0.0 0.0 -6.57473
0.0 0.0 -6.57473
0.0 0.0 -6.57473
0.0 0.0 -6.57473
0.0 0.0 -6.57473
0.0 0.0 155.513
0.0 0.0 -6.57473
0.0 0.0 -6.57473
0.0 0.0 -6.57473
0.0 0.0 -6.57473
0.0 0.0 -6.57473
0.0 0.0 -6.57473
0.0 0.0 -6.57473
0.0 0.0 -6.57473
0.0 0.0 -6.57473
0.0 0.0 88.7097
11.3033 -13.6197 82.2867
0.0 0.0 -6.57473
0.0 0.0 -6.57473
0.0 0.0 -6.57473
0.0 0.0 -6.57473
0.0 0.0 -6.57473
0.0 0.0 -6.57473
0.0 0.0 -6.57473
0.0 0.0 -6.57473
VECTORS omega float
0.0 0.0 0.0
0.0 0.0 0.0
0.0 0.0 0.0
0.0 0.0 0.0
0.0 0.0 0.0
0.0 0.0 0.0
0.0 0.0 0.0
0.0 0.0 0.0
-0.0595714 0.0126535 1.41468e-17
0.0 0.0 0.0
0.0 0.0 0.0
0.0 0.0 0.0
0.0 0.0 0.0
0.134725 -0.166416 -1.53755e-18
0.0 0.0 0.0
0.0 0.0 0.0
0.0 0.0 0.0
0.0 0.0 0.0
0.0 0.0 0.0
0.0 0.0 0.0
0.0 0.0 0.0
0.0 0.0 0.0
0.0 0.0 0.0
0.0 0.0 0.0
0.0 0.0 0.0
0.0 0.0 0.0
0.0 0.0 0.0
0.0 0.0 0.0
0.0 0.0 0.0
0.0 0.0 0.0
0.0 0.0 0.0
0.0 0.0 0.0
0.0 0.0 0.0
0.0 0.0 0.0
0.0 0.0 0.0
0.0 0.0 0.0
0.0 0.0 0.0
0.0 0.0 0.0
0.0 0.0 0.0
0.0 0.0 0.0
0.0 0.0 0.0
0.0 0.0 0.0
0.0 0.0 0.0
0.0 0.0 0.0
0.0 0.0 0.0
0.0 0.0 0.0
0.0 0.0 0.0
0.0 0.0 0.0
0.0 0.0 0.0
0.0 0.0 0.0
0.0 0.0 0.0
0.0 0.0 0.0
0.0 0.0 0.0
0.0 0.0 0.0
0.0 0.0 0.0
0.0 0.0 0.0
0.0 0.0 0.0
0.0 0.0 0.0
0.0 0.0 0.0
0.0 0.0 0.0
0.0 0.0 0.0
0.0 0.0 0.0
0.0 0.0 0.0
0.0 0.0 0.0
0.0 0.0 0.0
0.0 0.0 0.0
0.0 0.0 0.0
0.0 0.0 0.0
0.0 0.0 0.0
0.0 0.0 0.0
0.0 0.0 0.0
-0.443832 -0.368346 1.50175e-16
0.0 0.0 0.0
0.0 0.0 0.0
0.0 0.0 0.0
0.0 0.0 0.0
0.0 0.0 0.0
0.0 0.0 0.0
0.0 0.0 0.0
0.0 0.0 0.0
0.0 0.0 0.0
0.0 0.0 0.0
0.0 0.0 0.0
0.0 0.0 0.0
0.0 0.0 0.0
0.0 0.0 0.0
0.0 0.0 0.0
0.0 0.0 0.0
0.0 0.0 0.0
0.0 0.0 0.0
0.0 0.0 0.0
0.0 0.0 0.0
0.0 0.0 0.0
0.0 0.0 0.0
0.0 0.0 0.0
-0.238351 -0.109823 4.47073e-18
0.0 0.0 0.0
0.0 0.0 0.0
0.0 0.0 0.0
0.0 0.0 0.0
0.0 0.0 0.0
0.0 0.0 0.0
0.0 0.0 0.0
0.0 0.0 0.0
0.0 0.0 0.0
0.0 0.0 0.0
0.0 0.0 0.0
0.0 0.0 0.0
0.0 0.0 0.0
0.0 0.0 0.0
0.0 0.0 0.0
0.0 0.0 0.0
0.0 0.0 0.0
0.0 0.0 0.0
0.0 0.0 0.0
0.0 0.0 0.0
0.0 0.0 0.0
0.0 0.0 0.0
0.0 0.0 0.0
0.0 0.0 0.0
0.0 0.0 0.0
0.0 0.0 0.0
0.0 0.0 0.0
0.0 0.0 0.0
0.0 0.0 0.0
0.0 0.0 0.0
0.0 0.0 0.0
0.0 0.0 0.0
0.0 0.0 0.0
0.0 0.0 0.0
0.0 0.0 0.0
0.0 0.0 0.0
0.0 0.0 0.0
0.0 0.0 0.0
0.0 0.0 0.0
0.0 0.0 0.0
0.0 0.0 0.0
0.0 0.0 0.0
0.0 0.0 0.0
0.0 0.0 0.0
0.0 0.0 0.0
0.0 0.0 0.0
0.0 0.0 0.0
0.0 0.0 0.0
0.0 0.0 0.0
0.0 0.0 0.0
0.0 0.0 0.0
0.0 0.0 0.0
0.0 0.0 0.0
0.0 0.0 0.0
0.0 0.0 0.0
0.0 0.0 0.0
0.0 0.0 0.0
0.0 0.0 0.0
0.0 0.0 0.0
0.0 0.0 0.0
0.0 0.0 0.0
0.0 0.0 0.0
0.0 0.0 0.0
0.0 0.0 0.0
0.0 0.0 0.0
0.0 0.0 0.0
0.0 0.0 0.0
0.0 0.0 0.0
0.0 0.0 0.0
0.0 0.0 0.0
0.0 0.0 0.0
0.0 0.0 0.0
0.0 0.0 0.0
0.0 0.0 0.0
0.0 0.0 0.0
0.0 0.0 0.0
0.0 0.0 0.0
0.0 0.0 0.0
0.0 0.0 0.0
0.0 0.0 0.0
0.0 0.0 0.0
0.0 0.0 0.0
0.0 0.0 0.0
0.0 0.0 0.0
0.0 0.0 0.0
0.0 0.0 0.0
0.0 0.0 0.0
0.0 0.0 0.0
0.0 0.0 0.0
0.0 0.0 0.0
0.0 0.0 0.0
0.0 0.0 0.0
0.0 0.0 0.0
0.0 0.0 0.0
0.0 0.0 0.0
0.0 0.0 0.0
0.0 0.0 0.0
0.0 0.0 0.0
0.0 0.0 0.0
0.0 0.0 0.0
0.0 0.0 0.0
0.0 0.0 0.0
0.0 0.0 0.0
0.0 0.0 0.0
0.0 0.0 0.0
0.0 0.0 0.0
0.0 0.0 0.0
0.0 0.0 0.0
0.0 0.0 0.0
0.0 0.0 0.0
0.0 0.0 0.0
0.0 0.0 0.0
0.0 0.0 0.0
0.0 0.0 0.0
0.0 0.0 0.0
0.0 0.0 0.0
0.0 0.0 0.0
0.0 0.0 0.0
0.0 0.0 0.0
0.0 0.0 0.0
0.0 0.0 0.0
0.0 0.0 0.0
0.0 0.0 0.0
0.0 0.0 0.0
0.0 0.0 0.0
0.0 0.0 0.0
0.0 0.0 0.0
0.0 0.0 0.0
0.0 0.0 0.0
0.0 0.0 0.0
0.0 0.0 0.0
0.0 0.0 0.0
0.0 0.0 0.0
0.0 0.0 0.0
0.0 0.0 0.0
0.0 0.0 0.0
0.0 0.0 0.0
0.0 0.0 0.0
0.0 0.0 0.0
0.0 0.0 0.0
0.0 0.0 0.0
0.0 0.0 0.0
0.0 0.0 0.0
0.0 0.0 0.0
0.0 0.0 0.0
0.0 0.0 0.0
0.0 0.0 0.0
0.0 0.0 0.0
0.0 0.0 0.0
0.0 0.0 0.0
0.0 0.0 0.0
0.0 0.0 0.0
0.0 0.0 0.0
-0.0640557 -0.0295143 4.47073e-18
0.0 0.0 0.0
0.0 0.0 0.0
0.0 0.0 0.0
0.0 0.0 0.0
0.0 0.0 0.0
0.0 0.0 0.0
0.0 0.0 0.0
0.0 0.0 0.0
0.0 0.0 0.0
0.0 0.0 0.0
0.0 0.0 0.0
0.0 0.0 0.0
0.0 0.0 0.0
0.0 0.0 0.0
0.0 0.0 0.0
0.0 0.0 0.0
-0.00946212 -0.0194057 1.53402e-19
0.0 0.0 0.0
0.0 0.0 0.0
0.0 0.0 0.0
0.0 0.0 0.0
0.0 0.0 0.0
0.0 0.0 0.0
0.0 0.0 0.0
0.0 0.0 0.0
0.0 0.0 0.0
0.0 0.0 0.0
0.0 0.0 0.0
0.0 0.0 0.0
0.0 0.0 0.0
0.0 0.0 0.0
0.0 0.0 0.0
0.0 0.0 0.0
0.0 0.0 0.0
0.0 0.0 0.0
0.0 0.0 0.0
0.0 0.0 0.0
0.0 0.0 0.0
0.0 0.0 0.0
0.0 0.0 0.0
0.0 0.0 0.0
0.0 0.0 0.0
0.0 0.0 0.0
0.0 0.0 0.0
0.0 0.0 0.0
0.0 0.0 0.0
0.0 0.0 0.0
0.0 0.0 0.0
0.0 0.0 0.0
0.0 0.0 0.0
0.0 0.0 0.0
0.0 0.0 0.0
0.0 0.0 0.0
0.0 0.0 0.0
0.0 0.0 0.0
0.0 0.0 0.0
0.0 0.0 0.0
0.0 0.0 0.0
0.0 0.0 0.0
0.0 0.0 0.0
0.0 0.0 0.0
0.0 0.0 0.0
0.0 0.0 0.0
0.0 0.0 0.0
0.0 0.0 0.0
0.0 0.0 0.0
0.0 0.0 0.0
0.0 0.0 0.0
0.0 0.0 0.0
0.0 0.0 0.0
0.0 0.0 0.0
0.0 0.0 0.0
0.0 0.0 0.0
0.0 0.0 0.0
0.0 0.0 0.0
0.0 0.0 0.0
0.0 0.0 0.0
0.0 0.0 0.0
0.0 0.0 0.0
0.0 0.0 0.0
0.0 0.0 0.0
0.0 0.0 0.0
0.0 0.0 0.0
0.0 0.0 0.0
0.0 0.0 0.0
0.0 0.0 0.0
0.0 0.0 0.0
0.0 0.0 0.0
0.0 0.0 0.0
0.0 0.0 0.0
0.0 0.0 0.0
0.0 0.0 0.0
0.0 0.0 0.0
0.0 0.0 0.0
0.0 0.0 0.0
0.0 0.0 0.0
0.0 0.0 0.0
-0.0344041 0.0780893 2.703e-18
0.0 0.0 0.0
0.0 0.0 0.0
0.0 0.0 0.0
0.0 0.0 0.0
0.0 0.0 0.0
0.0 0.0 0.0
0.0 0.0 0.0
0.0 0.0 0.0
0.0 0.0 0.0
0.0 0.0 0.0
0.0 0.0 0.0
0.0 0.0 0.0
0.0 0.0 0.0
0.0 0.0 0.0
0.0 0.0 0.0
0.0 0.0 0.0
0.0 0.0 0.0
0.0 0.0 0.0
0.0 0.0 0.0
0.0 0.0 0.0
0.0 0.0 0.0
0.0 0.0 0.0
0.0 0.0 0.0
0.0 0.0 0.0
0.0 0.0 0.0
0.0 0.0 0.0
0.0 0.0 0.0
0.0 0.0 0.0
0.0 0.0 0.0
0.0 0.0 0.0
0.0 0.0 0.0
0.0 0.0 0.0
0.0 0.0 0.0
0.0 0.0 0.0
0.0 0.0 0.0
0.0 0.0 0.0
0.0 0.0 0.0
0.0 0.0 0.0
0.0 0.0 0.0
0.0 0.0 0.0
0.0 0.0 0.0
0.0 0.0 0.0
0.0 0.0 0.0
0.0 0.0 0.0
0.0 0.0 0.0
0.0 0.0 0.0
0.0 0.0 0.0
0.0 0.0 0.0
0.0 0.0 0.0
0.0 0.0 0.0
0.0 0.0 0.0
0.0 0.0 0.0
0.0 0.0 0.0
0.0 0.0 0.0
0.0 0.0 0.0
0.0 0.0 0.0
0.0 0.0 0.0
0.0 0.0 0.0
0.0 0.0 0.0
0.0 0.0 0.0
0.0 0.0 0.0
0.0 0.0 0.0
0.0 0.0 0.0
0.0 0.0 0.0
0.0 0.0 0.0
0.0 0.0 0.0
0.0 0.0 0.0
0.0 0.0 0.0
0.0 0.0 0.0
0.0 0.0 0.0
0.0 0.0 0.0
0.0 0.0 0.0
0.0 0.0 0.0
0.0 0.0 0.0
0.0 0.0 0.0
0.0 0.0 0.0
0.0 0.0 0.0
0.0 0.0 0.0
0.0 0.0 0.0
0.0 0.0 0.0
0.0 0.0 0.0
0.0 0.0 0.0
0.0 0.0 0.0
0.0 0.0 0.0
0.0 0.0 0.0
0.0 0.0 0.0
0.0 0.0 0.0
0.0 0.0 0.0
0.0 0.0 0.0
0.0 0.0 0.0
0.0 0.0 0.0
0.0 0.0 0.0
0.0 0.0 0.0
0.0 0.0 0.0
0.0 0.0 0.0
0.0 0.0 0.0
0.0 0.0 0.0
0.0 0.0 0.0
0.0 0.0 0.0
0.0 0.0 0.0
0.0 0.0 0.0
0.0 0.0 0.0
0.0 0.0 0.0
0.0 0.0 0.0
0.0 0.0 0.0
0.0 0.0 0.0
0.0 0.0 0.0
0.0 0.0 0.0
0.0 0.0 0.0
0.0 0.0 0.0
0.0 0.0 0.0
0.0 0.0 0.0
0.0 0.0 0.0
0.0 0.0 0.0
0.0 0.0 0.0
0.0 0.0 0.0
0.0 0.0 0.0
0.0 0.0 0.0
0.0 0.0 0.0
0.0 0.0 0.0
0.0 0.0 0.0
0.0 0.0 0.0
0.0 0.0 0.0
0.0 0.0 0.0
0.0 0.0 0.0
0.0 0.0 0.0
0.0 0.0 0.0
0.0 0.0 0.0
0.0 0.0 0.0
0.0 0.0 0.0
0.0 0.0 0.0
0.0 0.0 0.0
0.0 0.0 0.0
0.0 0.0 0.0
0.0 0.0 0.0
0.0 0.0 0.0
0.0 0.0 0.0
0.0 0.0 0.0
0.0 0.0 0.0
0.0 0.0 0.0
0.0 0.0 0.0
0.0 0.0 0.0
0.0 0.0 0.0
0.0 0.0 0.0
0.0 0.0 0.0
0.0 0.0 0.0
0.0 0.0 0.0
0.0 0.0 0.0
0.0 0.0 0.0
0.0 0.0 0.0
0.0 0.0 0.0
0.0 0.0 0.0
0.0 0.0 0.0
0.0 0.0 0.0
0.0 0.0 0.0
0.0 0.0 0.0
0.0 0.0 0.0
0.0 0.0 0.0
0.0 0.0 0.0
0.0 0.0 0.0
0.0 0.0 0.0
0.0 0.0 0.0
0.0 0.0 0.0
0.0 0.0 0.0
0.0 0.0 0.0
0.0 0.0 0.0
0.0 0.0 0.0
0.0 0.0 0.0
0.0 0.0 0.0
0.0 0.0 0.0
0.0 0.0 0.0
0.0 0.0 0.0
0.0 0.0 0.0
0.0 0.0 0.0
0.0 0.0 0.0
0.0 0.0 0.0
0.0 0.0 0.0
0.0 0.0 0.0
0.0 0.0 0.0
0.0 0.0 0.0
0.0 0.0 0.0
0.0 0.0 0.0
0.0 0.0 0.0
0.0 0.0 0.0
0.0 0.0 0.0
0.0 0.0 0.0
0.0 0.0 0.0
0.0 0.0 0.0
0.0 0.0 0.0
0.0 0.0 0.0
0.0 0.0 0.0
0.0 0.0 0.0
0.0 0.0 0.0
0.0 0.0 0.0
0.0 0.0 0.0
0.0 0.0 0.0
0.0 0.0 0.0
0.0 0.0 0.0
0.0 0.0 0.0
0.0 0.0 0.0
0.0 0.0 0.0
0.0 0.0 0.0
0.0 0.0 0.0
0.0 0.0 0.0
0.0 0.0 0.0
0.0 0.0 0.0
0.0 0.0 0.0
0.0 0.0 0.0
0.0 0.0 0.0
0.0 0.0 0.0
0.0 0.0 0.0
0.0 0.0 0.0
0.0 0.0 0.0
0.0 0.0 0.0
0.0020229 -0.000387404 1.26312e-21
0.0 0.0 0.0
0.0 0.0 0.0
0.0 0.0 0.0
0.0 0.0 0.0
0.0 0.0 0.0
0.0 0.0 0.0
0.0 0.0 0.0
0.0 0.0 0.0
0.0 0.0 0.0
0.0 0.0 0.0
0.0 0.0 0.0
0.0 0.0 0.0
0.0 0.0 0.0
0.0 0.0 0.0
0.0 0.0 0.0
0.0 0.0 0.0
0.0 0.0 0.0
0.0 0.0 0.0
0.0 0.0 0.0
0.0 0.0 0.0
0.0 0.0 0.0
0.0 0.0 0.0
0.0 0.0 0.0
0.0 0.0 0.0
0.0 0.0 0.0
0.0 0.0 0.0
0.0 0.0 0.0
0.0 0.0 0.0
0.0 0.0 0.0
0.0 0.0 0.0
0.0 0.0 0.0
0.0 0.0 0.0
0.0 0.0 0.0
0.0 0.0 0.0
0.0 0.0 0.0
0.0 0.0 0.0
0.0 0.0 0.0
0.0 0.0 0.0
-0.0272266 0.0617981 2.703e-18
0.0 0.0 0.0
0.0 0.0 0.0
0.0 0.0 0.0
0.0 0.0 0.0
0.0 0.0 0.0
0.0 0.0 0.0
0.0 0.0 0.0
0.0 0.0 0.0
0.0 0.0 0.0
0.0 0.0 0.0
0.0 0.0 0.0
0.0 0.0 0.0
0.0 0.0 0.0
0.0 0.0 0.0
0.0 0.0 0.0
0.0 0.0 0.0
0.0 0.0 0.0
0.0 0.0 0.0
0.0 0.0 0.0
0.0 0.0 0.0
0.0 0.0 0.0
0.0 0.0 0.0
0.0 0.0 0.0
0.0 0.0 0.0
0.0 0.0 0.0
0.0 0.0 0.0
0.0 0.0 0.0
0.0 0.0 0.0
0.0 0.0 0.0
0.0 0.0 0.0
0.0 0.0 0.0
0.0 0.0 0.0
0.0 0.0 0.0
0.0 0.0 0.0
0.27413 -0.0582275 1.41468e-17
0.0 0.0 0.0
0.0 0.0 0.0
0.0 0.0 0.0
-0.00607503 -0.0124592 1.53402e-19
0.0 0.0 0.0
0.0 0.0 0.0
0.0 0.0 0.0
0.0 0.0 0.0
0.0 0.0 0.0
0.0 0.0 0.0
0.0 0.0 0.0
0.0 0.0 0.0
0.0 0.0 0.0
0.0 0.0 0.0
0.0 0.0 0.0
0.0 0.0 0.0
0.0 0.0 0.0
0.0 0.0 0.0
0.0 0.0 0.0
0.0 0.0 0.0
0.0 0.0 0.0
0.0 0.0 0.0
0.0 0.0 0.0
0.0 0.0 0.0
0.0 0.0 0.0
0.0 0.0 0.0
0.0 0.0 0.0
0.0 0.0 0.0
0.0 0.0 0.0
0.0 0.0 0.0
0.0 0.0 0.0
0.0 0.0 0.0
0.0 0.0 0.0
0.0 0.0 0.0
0.0 0.0 0.0
0.0 0.0 0.0
0.0 0.0 0.0
0.0 0.0 0.0
0.0 0.0 0.0
0.0 0.0 0.0
0.0 0.0 0.0
0.0 0.0 0.0
0.0 0.0 0.0
0.0 0.0 0.0
0.0 0.0 0.0
0.0 0.0 0.0
0.0 0.0 0.0
0.0 0.0 0.0
0.0 0.0 0.0
0.0 0.0 0.0
0.0 0.0 0.0
-0.20301 0.250764 -1.53755e-18
0.0 0.0 0.0
0.0 0.0 0.0
0.0 0.0 0.0
0.0 0.0 0.0
0.0 0.0 0.0
0.0 0.0 0.0
0.0 0.0 0.0
0.0 0.0 0.0
0.0 0.0 0.0
0.0 0.0 0.0
0.0 0.0 0.0
0.0 0.0 0.0
0.0 0.0 0.0
0.0 0.0 0.0
0.0 0.0 0.0
0.0 0.0 0.0
0.0 0.0 0.0
0.0 0.0 0.0
0.0 0.0 0.0
0.0 0.0 0.0
0.0 0.0 0.0
0.0 0.0 0.0
0.0 0.0 0.0
0.0 0.0 0.0
0.0 0.0 0.0
0.0 0.0 0.0
0.0 0.0 0.0
0.0 0.0 0.0
0.0 0.0 0.0
0.0 0.0 0.0
0.0 0.0 0.0
0.0 0.0 0.0
0.0 0.0 0.0
0.00184858 -0.00035402 1.26312e-21
0.0 0.0 0.0
0.0 0.0 0.0
0.0 0.0 0.0
0.0 0.0 0.0
0.0 0.0 0.0
0.0 0.0 0.0
0.0 0.0 0.0
0.0 0.0 0.0
0.0 0.0 0.0
0.0 0.0 0.0
0.0 0.0 0.0
0.0 0.0 0.0
0.0 0.0 0.0
0.0 0.0 0.0
0.0 0.0 0.0
0.0 0.0 0.0
0.0 0.0 0.0
0.0 0.0 0.0
0.0 0.0 0.0
0.0 0.0 0.0
0.0 0.0 0.0
0.0 0.0 0.0
0.0 0.0 0.0
0.0 0.0 0.0
0.0 0.0 0.0
0.0 0.0 0.0
0.0 0.0 0.0
0.0 0.0 0.0
0.0 0.0 0.0
0.0 0.0 0.0
0.0 0.0 0.0
0.0 0.0 0.0
0.0 0.0 0.0
0.0 0.0 0.0
0.0 0.0 0.0
-0.140927 -0.116958 1.50175e-16
0.0 0.0 0.0
0.0 0.0 0.0
0.0 0.0 0.0
0.0 0.0 0.0
0.0 0.0 0.0
0.0 0.0 0.0
0.0 0.0 0.0
0.0 0.0 0.0
VECTORS v float
0.0 0.0 -0.897855
0.0 0.0 -0.897855
0.0 0.0 -0.897855
0.0 0.0 -0.897855
0.0 0.0 -0.897855
0.0 0.0 -0.897855
0.0 0.0 -0.897855
0.0 0.0 -0.897855
0.015583 0.0733635 0.490922
0.0 0.0 -0.897855
0.0 0.0 -0.897855
0.0 0.0 -0.897855
0.0 0.0 -0.897855
-0.0501537 -0.0406029 -0.873668
0.0 0.0 -0.897855
0.0 0.0 -0.897855
0.0 0.0 -0.897855
0.0 0.0 -0.897855
0.0 0.0 -0.897855
0.0 0.0 -0.897855
0.0 0.0 -0.897855
0.0 0.0 -0.897855
0.0 0.0 -0.897855
0.0 0.0 -0.897855
0.0 0.0 -0.897855
0.0 0.0 -0.897855
0.0 0.0 -0.897855
0.0 0.0 -0.897855
0.0 0.0 -0.897855
0.0 0.0 -0.897855
0.0 0.0 -0.897855
0.0 0.0 -0.897855
0.0 0.0 -0.897855
0.0 0.0 -0.897855
0.0 0.0 -0.897855
0.0 0.0 -0.897855
0.0 0.0 -0.897855
0.0 0.0 -0.897855
0.0 0.0 -0.897855
0.0 0.0 -0.0777903
0.0 0.0 -0.897855
0.0 0.0 -0.897855
0.0 0.0 -0.897855
0.0 0.0 -0.897855
0.0 0.0 -0.897855
0.0 0.0 -0.897855
0.0 0.0 -0.897855
0.0 0.0 -0.568875
0.0 0.0 -0.897855
0.0 0.0 -0.897855
0.0 0.0 -0.897855
0.0 0.0 -0.897855
0.0 0.0 -0.897855
0.0 0.0 -0.897855
0.0 0.0 -0.897855
0.0 0.0 -0.897855
0.0 0.0 -0.897855
0.0 0.0 -0.897855
0.0 0.0 -0.897855
0.0 0.0 -0.897855
0.0 0.0 -0.897855
0.0 0.0 -0.897855
0.0 0.0 -0.897855
0.0 0.0 -0.897855
0.0 0.0 -0.897855
0.0 0.0 -0.897855
0.0 0.0 -0.897855
0.0 0.0 -0.897855
0.0 0.0 -0.897855
0.0 0.0 0.666067
0.0 0.0 -0.897855
-0.0339111 0.0408606 -0.717869
0.0 0.0 -0.897855
0.0 0.0 -0.897855
0.0 0.0 -0.897855
0.0 0.0 -0.897855
0.0 0.0 -0.897855
0.0 0.0 -0.897855
0.0 0.0 -0.897855
0.0 0.0 -0.897855
0.0 0.0 -0.897855
0.0 0.0 -0.897855
0.0 0.0 -0.897855
0.0 0.0 -0.897855
0.0 0.0 -0.897348
0.0 0.0 -0.897855
0.0 0.0 -0.897855
0.0 0.0 -0.897855
0.0 0.0 -0.795452
0.0 0.0 -0.897855
0.0 0.0 -0.897855
0.0 0.0 -0.897855
0.0 0.0 -0.897855
0.0 0.0 -0.897855
0.0 0.0 -0.897855
-0.0280364 0.0608481 -0.845589
0.0 0.0 -0.897855
0.0 0.0 -0.897855
0.0 0.0 -0.897351
0.0 0.0 -0.897855
0.0 0.0 -0.897855
0.0 0.0 -0.897855
0.0 0.0 -0.897855
0.0 0.0 -0.897855
0.0 0.0 -0.897855
0.0 0.0 -0.897855
0.0 0.0 -0.897855
0.0 0.0 -0.897855
0.0 0.0 -0.897855
0.0 0.0 -0.897855
0.0 0.0 -0.897855
0.0 0.0 -0.897855
0.0 0.0 -0.897855
0.0 0.0 -0.897855
0.0 0.0 -0.897855
0.0 0.0 -0.897855
0.0 0.0 -0.897855
0.0 0.0 -0.897855
0.0 0.0 -0.897855
0.0 0.0 -0.897855
0.0 0.0 -0.897855
0.0 0.0 -0.897855
0.0 0.0 -0.897855
0.0 0.0 -0.897855
0.0 0.0 -0.897855
0.0 0.0 -0.897855
0.0 0.0 -0.897855
0.0 0.0 -0.897855
0.0 0.0 0.49726
0.0 0.0 -0.897855
0.0 0.0 -0.897855
0.0 0.0 -0.897855
0.0 0.0 -0.897855
0.0 0.0 -0.897855
0.0 0.0 -0.897855
0.0 0.0 -0.897855
0.0 0.0 -0.897855
0.0 0.0 -0.897855
0.0 0.0 -0.897855
0.0 0.0 -0.897855
0.0 0.0 -0.897855
0.0 0.0 -0.897855
0.0 0.0 -0.897855
0.0 0.0 -0.897855
0.0 0.0 -0.897855
0.0 0.0 -0.897855
0.0 0.0 -0.897855
0.0 0.0 -0.897855
0.0 0.0 0.689284
0.0 0.0 -0.897855
0.0 0.0 -0.897855
0.0 0.0 -0.897855
0.0 0.0 -0.567995
0.0 0.0 -0.897855
0.0 0.0 -0.897855
0.0 0.0 -0.897855
0.0 0.0 -0.897855
0.0 0.0 -0.897855
0.0 0.0 -0.897855
0.0 0.0 -0.897855
0.0 0.0 -0.897855
0.0 0.0 -0.897855
0.0 0.0 -0.897855
0.0 0.0 -0.897855
0.0 0.0 -0.897855
0.0 0.0 -0.897855
0.0 0.0 -0.897855
0.0 0.0 -0.897855
0.0 0.0 -0.897855
0.0 0.0 -0.897855
0.0 0.0 -0.897855
0.0 0.0 -0.897855
0.0 0.0 -0.897855
0.0 0.0 -0.897855
0.0 0.0 -0.897855
0.0 0.0 -0.897855
0.0 0.0 -0.897855
0.0 0.0 -0.897855
0.0 0.0 -0.897855
0.0 0.0 -0.897855
0.0 0.0 -0.897855
0.0 0.0 -0.897855
0.0 0.0 -0.897855
0.0 0.0 -0.897855
0.0 0.0 -0.897855
0.0 0.0 -0.897855
0.0 0.0 -0.897855
0.0 0.0 -0.897855
0.0 0.0 -0.897855
0.0 0.0 -0.897855
0.0 0.0 -0.897855
0.0 0.0 -0.897855
0.0 0.0 -0.897855
0.0 0.0 -0.897855
0.0 0.0 -0.897855
0.0 0.0 -0.897855
0.0 0.0 -0.897855
0.0 0.0 -0.897855
0.0 0.0 -0.897855
0.0 0.0 -0.897855
0.0 0.0 -0.897855
0.0 0.0 -0.897855
0.0 0.0 -0.897855
0.0 0.0 -0.897855
0.0 0.0 -0.897855
0.0 0.0 -0.897855
0.0 0.0 -0.897855
0.0 0.0 -0.897855
0.0 0.0 -0.897855
0.0 0.0 -0.897855
0.0 0.0 -0.897855
0.0 0.0 -0.897855
0.0 0.0 -0.897855
0.0 0.0 -0.897855
0.0 0.0 -0.897855
0.0 0.0 -0.897855
0.0 0.0 -0.897855
0.0 0.0 -0.897855
0.0 0.0 -0.897855
0.0 0.0 -0.897855
0.0 0.0 -0.897855
0.0 0.0 -0.897855
0.0 0.0 -0.897855
0.0 0.0 -0.897855
0.0 0.0 -0.897855
0.0 0.0 -0.897855
0.0 0.0 -0.897855
0.0 0.0 -0.897855
0.0 0.0 -0.897855
0.0 0.0 -0.897855
0.0 0.0 -0.897855
0.0 0.0 -0.897855
0.0 0.0 -0.897855
0.0 0.0 0.557478
0.0 0.0 -0.897855
0.0 0.0 -0.897855
0.0 0.0 -0.897855
0.0 0.0 -0.897855
0.0 0.0 -0.897855
0.0 0.0 -0.897855
0.0 0.0 -0.897855
0.0 0.0 -0.897855
0.0 0.0 -0.897855
0.0 0.0 -0.897855
0.0 0.0 -0.897855
0.0 0.0 -0.897855
0.0 0.0 0.57628
0.0 0.0 -0.897855
0.0 0.0 -0.897855
0.0267143 -0.0579787 0.489776
0.0 0.0 -0.897855
0.0 0.0 -0.897855
0.0 0.0 -0.897855
0.0 0.0 -0.897855
0.0 0.0 -0.897855
0.0 0.0 -0.897855
0.0 0.0 -0.897855
0.0 0.0 -0.897855
0.0 0.0 -0.897855
0.0 0.0 -0.897855
0.0 0.0 -0.897855
0.0 0.0 -0.897855
0.0 0.0 -0.897855
0.0 0.0 -0.897855
0.0 0.0 -0.897855
0.0 0.0 -0.897855
-0.0060654 0.00295746 -0.896292
0.0 0.0 -0.897855
0.0 0.0 -0.547259
0.0 0.0 -0.897855
0.0 0.0 -0.897855
0.0 0.0 -0.897855
0.0 0.0 -0.897855
0.0 0.0 -0.897855
0.0 0.0 -0.897855
0.0 0.0 -0.897855
0.0 0.0 -0.897855
0.0 0.0 -0.897855
0.0 0.0 -0.897855
0.0 0.0 -0.897855
0.0 0.0 -0.897855
0.0 0.0 -0.897855
0.0 0.0 -0.897855
0.0 0.0 -0.897855
0.0 0.0 -0.897855
0.0 0.0 -0.897855
0.0 0.0 -0.897855
0.0 0.0 -0.897855
0.0 0.0 -0.897855
0.0 0.0 -0.897855
0.0 0.0 -0.897855
0.0 0.0 -0.897855
0.0 0.0 -0.897855
0.0 0.0 -0.897855
0.0 0.0 -0.897855
0.0 0.0 -0.897855
0.0 0.0 -0.897855
0.0 0.0 -0.846906
0.0 0.0 -0.897855
0.0 0.0 -0.897855
0.0 0.0 -0.897855
0.0 0.0 -0.897855
0.0 0.0 -0.897855
0.0 0.0 -0.897855
0.0 0.0 -0.897855
0.0 0.0 -0.897855
0.0 0.0 -0.897855
0.0 0.0 -0.897855
0.0 0.0 -0.897855
0.0 0.0 -0.897855
0.0 0.0 -0.897855
0.0 0.0 -0.897855
0.0 0.0 -0.897855
0.0 0.0 -0.897855
0.0 0.0 -0.897855
0.0 0.0 -0.897855
0.0 0.0 -0.897855
0.0 0.0 -0.897855
0.0 0.0 -0.897855
0.0 0.0 -0.897855
0.0 0.0 -0.897855
0.0 0.0 -0.897855
0.0 0.0 -0.897855
0.0 0.0 -0.897855
0.0 0.0 -0.897855
0.0 0.0 -0.897855
0.0 0.0 -0.897855
0.0 0.0 -0.897855
0.0 0.0 -0.897855
0.0 0.0 -0.897855
0.0 0.0 -0.897855
0.0 0.0 -0.897855
0.0 0.0 -0.897855
0.0 0.0 -0.897855
0.0 0.0 -0.897855
0.0 0.0 -0.897855
0.0 0.0 -0.897855
0.0 0.0 -0.897855
0.0 0.0 -0.897855
0.0 0.0 -0.897855
0.0 0.0 -0.897855
0.0 0.0 -0.897855
0.0 0.0 -0.897855
0.0 0.0 -0.897855
0.0 0.0 -0.897855
0.0 0.0 -0.897855
0.0 0.0 -0.897855
0.0156217 0.0068825 -0.8763
0.0 0.0 -0.897855
0.0 0.0 -0.897855
0.0 0.0 -0.897855
0.0 0.0 -0.897855
0.0 0.0 -0.897855
0.0 0.0 -0.897855
0.0 0.0 -0.59583
0.0 0.0 -0.897855
0.0 0.0 -0.897855
0.0 0.0 -0.897855
0.0 0.0 -0.897855
0.0 0.0 -0.897855
0.0 0.0 -0.897855
0.0 0.0 -0.897855
0.0 0.0 -0.897855
0.0 0.0 -0.897855
0.0 0.0 -0.897855
0.0 0.0 -0.897855
0.0 0.0 -0.0413068
0.0 0.0 -0.897855
0.0 0.0 -0.897855
0.0 0.0 -0.897855
0.0 0.0 -0.897855
0.0 0.0 -0.897855
0.0 0.0 -0.897855
0.0 0.0 -0.897855
0.0 0.0 -0.897855
0.0 0.0 -0.897855
0.0 0.0 -0.897855
0.0 0.0 -0.897855
0.0 0.0 -0.897855
0.0 0.0 -0.897855
0.0 0.0 -0.897855
0.0 0.0 -0.897855
0.0 0.0 -0.897855
0.0 0.0 -0.897855
0.0 0.0 -0.897855
0.0 0.0 -0.897855
0.0 0.0 -0.897855
0.0 0.0 -0.897855
0.0 0.0 -0.897855
0.0 0.0 -0.897855
0.0 0.0 -0.897855
0.0 0.0 -0.897855
0.0 0.0 -0.897855
0.0 0.0 -0.897855
0.0 0.0 -0.897855
0.0 0.0 -0.897855
0.0 0.0 -0.897855
0.0 0.0 -0.897855
0.0 0.0 -0.897855
0.0 0.0 -0.897855
0.0 0.0 -0.897855
0.0 0.0 -0.897855
0.0 0.0 -0.897855
0.0 0.0 -0.897855
0.0 0.0 -0.897855
0.0 0.0 -0.897855
0.0 0.0 -0.897855
0.0 0.0 -0.897855
0.0 0.0 -0.897855
0.0 0.0 -0.897855
0.0 0.0 -0.897855
0.0 0.0 -0.897855
0.0 0.0 -0.897855
0.0 0.0 -0.897855
0.0 0.0 -0.897855
0.0 0.0 -0.897855
0.0 0.0 -0.897855
0.0 0.0 -0.897855
0.0 0.0 -0.897855
0.0 0.0 -0.897855
0.0 0.0 -0.897855
0.0 0.0 -0.897855
0.0 0.0 -0.897855
0.0 0.0 -0.897855
0.0 0.0 -0.897855
0.0 0.0 -0.897855
0.0 0.0 -0.897855
0.0 0.0 -0.897855
0.0 0.0 -0.897855
0.0 0.0 -0.897855
0.0 0.0 -0.897855
0.0 0.0 -0.897855
0.0 0.0 -0.897855
0.0 0.0 -0.897855
0.0 0.0 -0.897855
0.0 0.0 -0.897855
0.0 0.0 -0.897855
0.0 0.0 -0.897855
0.0 0.0 -0.897855
0.0 0.0 -0.897855
0.0 0.0 -0.863873
0.0 0.0 -0.897855
0.0 0.0 -0.897855
0.0 0.0 -0.897855
0.0 0.0 -0.897855
0.0 0.0 -0.897855
0.0 0.0 -0.897855
0.0 0.0 -0.897855
0.0 0.0 -0.897855
0.0 0.0 -0.897855
0.0 0.0 -0.897855
0.0 0.0 -0.897855
0.0 0.0 -0.897855
0.0 0.0 -0.897855
0.0 0.0 -0.897855
0.0 0.0 -0.897855
0.0 0.0 -0.897855
0.0 0.0 -0.897855
0.0 0.0 -0.897855
0.0 0.0 0.269929
0.0 0.0 -0.897855
0.0 0.0 -0.897855
0.0 0.0 -0.897855
0.0 0.0 -0.897855
0.0 0.0 -0.897855
0.0 0.0 -0.897855
0.0 0.0 -0.897855
0.0 0.0 -0.897855
0.0 0.0 -0.897855
0.0 0.0 -0.897855
0.0 0.0 -0.897855
0.0 0.0 -0.897855
0.0 0.0 -0.897855
0.0 0.0 -0.897855
0.0 0.0 -0.897855
0.0 0.0 -0.897855
0.0 0.0 -0.897855
0.0 0.0 -0.897855
0.0 0.0 -0.897855
0.0 0.0 -0.897855
0.0 0.0 -0.897855
0.0 0.0 -0.897855
0.0 0.0 -0.897855
0.0 0.0 -0.897855
0.0 0.0 -0.897855
0.0 0.0 -0.897855
0.0 0.0 -0.897855
0.0 0.0 -0.897855
0.0 0.0 -0.897855
0.0 0.0 -0.897855
0.0 0.0 -0.897855
0.0 0.0 -0.897855
0.0 0.0 -0.897855
0.0 0.0 -0.897855
0.0 0.0 -0.897855
0.0 0.0 -0.897855
0.0 0.0 -0.897855
0.0 0.0 -0.897855
0.0 0.0 -0.897855
0.0 0.0 -0.897855
0.0 0.0 -0.897855
0.0 0.0 -0.716088
0.0 0.0 -0.897855
0.0 0.0 -0.897855
0.0 0.0 -0.897855
0.0 0.0 -0.897855
0.0 0.0 -0.897855
0.0 0.0 -0.897855
0.0 0.0 -0.897855
0.0 0.0 -0.897855
0.0 0.0 -0.897855
0.0 0.0 -0.897855
0.0 0.0 -0.897855
0.0 0.0 -0.897855
0.0 0.0 -0.897855
0.0 0.0 -0.897855
0.0 0.0 -0.897855
0.0 0.0 -0.897855
0.0 0.0 -0.897855
0.0 0.0 -0.897855
0.0 0.0 -0.897855
0.0 0.0 -0.897855
0.0 0.0 -0.897855
0.0 0.0 -0.897855
0.0 0.0 -0.897855
0.0 0.0 -0.897855
0.0 0.0 -0.897855
0.0 0.0 -0.897855
0.0 0.0 -0.897855
0.0 0.0 -0.897855
0.0 0.0 -0.897855
0.0 0.0 -0.897855
0.0 0.0 -0.897855
0.0 0.0 -0.897855
0.0 0.0 -0.897855
0.0 0.0 -0.897855
0.0 0.0 -0.897855
0.0 0.0 -0.897855
0.0 0.0 -0.897855
0.0 0.0 -0.897855
0.0 0.0 -0.897855
0.0 0.0 -0.897855
0.0 0.0 -0.897855
0.0 0.0 -0.897855
0.0 0.0 -0.897855
0.0 0.0 -0.897855
0.0 0.0 -0.897855
0.0 0.0 -0.897855
0.0 0.0 -0.897855
0.0 0.0 -0.897855
0.0 0.0 -0.897855
0.0 0.0 -0.897855
0.0 0.0 -0.897855
0.0 0.0 -0.897855
0.0 0.0 -0.897855
0.0 0.0 -0.897855
0.0 0.0 -0.897855
0.0 0.0 -0.897855
0.0 0.0 -0.897855
0.0 0.0 -0.897855
0.0 0.0 -0.897855
0.0 0.0 -0.897855
-0.000123218 -0.000643407 -0.897774
0.0 0.0 -0.897855
0.0 0.0 -0.897855
0.0 0.0 -0.897855
0.0 0.0 -0.897855
0.0 0.0 -0.897855
0.0 0.0 -0.897855
0.0 0.0 -0.897855
0.0 0.0 -0.897855
0.0 0.0 -0.897855
0.0 0.0 -0.897855
0.0 0.0 -0.897855
0.0 0.0 -0.897855
0.0 0.0 -0.897855
0.0 0.0 -0.897855
0.0 0.0 -0.897855
0.0 0.0 -0.897855
0.0 0.0 -0.897855
0.0 0.0 -0.897855
0.0 0.0 -0.897855
0.0 0.0 -0.897855
0.0 0.0 -0.897855
0.0 0.0 -0.897855
0.0 0.0 -0.897855
0.0 0.0 -0.897855
0.0 0.0 -0.897855
0.0 0.0 -0.526481
0.0 0.0 -0.897855
0.0 0.0 -0.897855
0.0 0.0 -0.897855
0.0 0.0 -0.897855
0.0 0.0 -0.897855
0.0 0.0 -0.897855
0.0 0.0 0.241459
0.0 0.0 -0.897855
0.0 0.0 -0.897855
0.0 0.0 -0.897855
0.0 0.0 -0.897855
0.0 0.0 -0.897855
-0.0153517 -0.00676355 0.227652
0.0 0.0 -0.897855
0.0 0.0 -0.897855
0.0 0.0 -0.897855
0.0 0.0 -0.897855
0.0 0.0 -0.897855
0.0 0.0 -0.897855
0.0 0.0 -0.897855
0.0 0.0 -0.897855
0.0 0.0 -0.897855
0.0 0.0 -0.897855
0.0 0.0 -0.897855
0.0 0.0 -0.099577
0.0 0.0 -0.897855
0.0 0.0 -0.897855
0.0 0.0 -0.897855
0.0 0.0 -0.897855
0.0 0.0 -0.897855
0.0 0.0 -0.897855
0.0 0.0 -0.897855
0.0 0.0 -0.897855
0.0 0.0 -0.897855
0.0 0.0 -0.897855
0.0 0.0 -0.897855
0.0 0.0 -0.897855
0.0 0.0 -0.897855
0.0 0.0 -0.897855
0.0 0.0 -0.897855
0.0 0.0 -0.897855
0.0 0.0 -0.897855
0.0 0.0 -0.897855
0.0 0.0 -0.897855
0.0 0.0 -0.897855
0.0 0.0 -0.897855
0.0 0.0 -0.897855
-0.0167512 -0.0788631 -0.856525
0.0 0.0 -0.897855
0.0 0.0 -0.897855
0.0 0.0 -0.897855
0.00595015 -0.00290127 0.140434
0.0 0.0 -0.897855
0.0 0.0 -0.897855
0.0 0.0 -0.897855
0.0 0.0 -0.897855
0.0 0.0 -0.897855
0.0 0.0 -0.897855
0.0 0.0 -0.897855
0.0 0.0 -0.897855
0.0 0.0 -0.897855
0.0 0.0 -0.897855
0.0 0.0 -0.897855
0.0 0.0 -0.897855
0.0 0.0 -0.897855
0.0 0.0 -0.897855
0.0 0.0 -0.897855
0.0 0.0 -0.897855
0.0 0.0 -0.897855
0.0 0.0 -0.897855
0.0 0.0 -0.897855
0.0 0.0 -0.897855
0.0 0.0 -0.897855
0.0 0.0 -0.897855
0.0 0.0 -0.897855
0.0 0.0 -0.897855
0.0 0.0 -0.897855
0.0 0.0 0.0171544
0.0 0.0 -0.897855
0.0 0.0 -0.174629
0.0 0.0 -0.897855
0.0 0.0 -0.888213
0.0 0.0 -0.897855
0.0 0.0 0.66796
0.0 0.0 -0.897855
0.0 0.0 -0.897855
0.0 0.0 -0.897855
0.0 0.0 -0.897855
0.0 0.0 -0.897855
0.0 0.0 -0.897855
0.0 0.0 -0.897855
0.0 0.0 -0.897855
0.0 0.0 -0.897855
0.0 0.0 -0.897855
0.0 0.0 -0.897855
0.0 0.0 -0.897855
0.0 0.0 -0.897855
0.0 0.0 -0.897855
0.0 0.0 -0.897855
0.0432371 0.0350034 0.148332
0.0 0.0 -0.897855
0.0 0.0 -0.897855
0.0 0.0 -0.897855
0.0 0.0 -0.897855
0.0 0.0 -0.897855
0.0 0.0 -0.897855
0.0 0.0 -0.897855
0.0 0.0 -0.897855
0.0 0.0 -0.666518
0.0 0.0 -0.897855
0.0 0.0 -0.897855
0.0 0.0 -0.897855
0.0 0.0 -0.897855
0.0 0.0 -0.897855
0.0 0.0 -0.897855
0.0 0.0 -0.897855
0.0 0.0 -0.897855
0.0 0.0 -0.897855
0.0 0.0 -0.897855
0.0 0.0 -0.897855
0.0 0.0 -0.897855
0.0 0.0 -0.897855
0.0 0.0 -0.897855
0.0 0.0 -0.897855
0.0 0.0 -0.897855
0.0 0.0 -0.897855
0.0 0.0 -0.897855
0.0 0.0 -0.897855
0.0 0.0 -0.897855
0.0 0.0 -0.897855
0.0 0.0 -0.897855
0.0 0.0 -0.897855
0.0 0.0 -0.465961
0.000122666 0.000640524 0.327389
0.0 0.0 -0.897855
0.0 0.0 -0.897855
0.0 0.0 -0.897855
0.0 0.0 -0.897855
0.0 0.0 -0.897855
0.0 0.0 -0.897855
0.0 0.0 -0.897855
0.0 0.0 -0.897855
0.0 0.0 -0.897855
0.0 0.0 -0.897855
0.0 0.0 -0.897855
0.0 0.0 -0.897855
0.0 0.0 -0.897855
0.0 0.0 -0.897855
0.0 0.0 -0.897855
0.0 0.0 -0.897855
0.0 0.0 -0.897855
0.0 0.0 -0.897855
0.0 0.0 -0.897855
0.0 0.0 -0.897855
0.0 0.0 -0.897855
0.0 0.0 -0.897855
0.0 0.0 -0.897855
0.0 0.0 -0.897855
0.0 0.0 -0.0831861
0.0 0.0 -0.897855
0.0 0.0 -0.897855
0.0 0.0 -0.897855
0.0 0.0 -0.897855
0.0 0.0 -0.897855
0.0 0.0 -0.897855
0.0 0.0 -0.897855
0.0 0.0 -0.897855
0.0 0.0 -0.897855
0.0 0.0 -0.747606
0.0297368 -0.0358308 0.0609265
0.0 0.0 -0.897855
0.0 0.0 -0.897855
0.0 0.0 -0.897855
0.0 0.0 -0.897855
0.0 0.0 -0.897855
0.0 0.0 -0.897855
0.0 0.0 -0.897855
0.0 0.0 -0.897855
SCALARS radius float 1
LOOKUP_TABLE default
0.04
0.04
0.04
0.04
0.04
0.04
0.04
0.04
0.04
0.04
0.04
0.04
0.04
0.04
0.04
0.04
0.04
0.04
0.04
0.04
0.04
0.04
0.04
0.04
0.04
0.04
0.04
0.04
0.04
0.04
0.04
0.04
0.04
0.04
0.04
0.04
0.04
0.04
0.04
0.04
0.04
0.04
0.04
0.04
0.04
0.04
0.04
0.04
0.04
0.04
0.04
0.04
0.04
0.04
0.04
0.04
0.04
0.04
0.04
0.04
0.04
0.04
0.04
0.04
0.04
0.04
0.04
0.04
0.04
0.04
0.04
0.04
0.04
0.04
0.04
0.04
0.04
0.04
0.04
0.04
0.04
0.04
0.04
0.04
0.04
0.04
0.04
0.04
0.04
0.04
0.04
0.04
0.04
0.04
0.04
0.04
0.04
0.04
0.04
0.04
0.04
0.04
0.04
0.04
0.04
0.04
0.04
0.04
0.04
0.04
0.04
0.04
0.04
0.04
0.04
0.04
0.04
0.04
0.04
0.04
0.04
0.04
0.04
0.04
0.04
0.04
0.04
0.04
0.04
0.04
0.04
0.04
0.04
0.04
0.04
0.04
0.04
0.04
0.04
0.04
0.04
0.04
0.04
0.04
0.04
0.04
0.04
0.04
0.04
0.04
0.04
0.04
0.04
0.04
0.04
0.04
0.04
0.04
0.04
0.04
0.04
0.04
0.04
0.04
0.04
0.04
0.04
0.04
0.04
0.04
0.04
0.04
0.04
0.04
0.04
0.04
0.04
0.04
0.04
0.04
0.04
0.04
0.04
0.04
0.04
0.04
0.04
0.04
0.04
0.04
0.04
0.04
0.04
0.04
0.04
0.04
0.04
0.04
0.04
0.04
0.04
0.04
0.04
0.04
0.04
0.04
0.04
0.04
0.04
0.04
0.04
0.04
0.04
0.04
0.04
0.04
0.04
0.04
0.04
0.04
0.04
0.04
0.04
0.04
0.04
0.04
0.04
0.04
0.04
0.04
0.04
0.04
0.04
0.04
0.04
0.04
0.04
0.04
0.04
0.04
0.04
0.04
0.04
0.04
0.04
0.04
0.04
0.04
0.04
0.04
0.04
0.04
0.04
0.04
0.04
0.04
0.04
0.04
0.04
0.04
0.04
0.04
0.04
0.04
0.04
0.04
0.04
0.04
0.04
0.04
0.04
0.04
0.04
0.04
0.04
0.04
0.04
0.04
0.04
0.04
0.04
0.04
0.04
0.04
0.04
0.04
0.04
0.04
0.04
0.04
0.04
0.04
0.04
0.04
0.04
0.04
0.04
0.04
0.04
0.04
0.04
0.04
0.04
0.04
0.04
0.04
0.04
0.04
0.04
0.04
0.04
0.04
0.04
0.04
0.04
0.04
0.04
0.04
0.04
0.04
0.04
0.04
0.04
0.04
0.04
0.04
0.04
0.04
0.04
0.04
0.04
0.04
0.04
0.04
0.04
0.04
0.04
0.04
0.04
0.04
0.04
0.04
0.04
0.04
0.04
0.04
0.04
0.04
0.04
0.04
0.04
0.04
0.04
0.04
0.04
0.04
0.04
0.04
0.04
0.04
0.04
0.04
0.04
0.04
0.04
0.04
0.04
0.04
0.04
0.04
0.04
0.04
0.04
0.04
0.04
0.04
0.04
0.04
0.04
0.04
0.04
0.04
0.04
0.04
0.04
0.04
0.04
0.04
0.04
0.04
0.04
0.04
0.04
0.04
0.04
0.04
0.04
0.04
0.04
0.04
0.04
0.04
0.04
0.04
0.04
0.04
0.04
0.04
0.04
0.04
0.04
0.04
0.04
0.04
0.04
0.04
0.04
0.04
0.04
0.04
0.04
0.04
0.04
0.04
0.04
0.04
0.04
0.04
0.04
0.04
0.04
0.04
0.04
0.04
0.04
0.04
0.04
0.04
0.04
0.04
0.04
0.04
0.04
0.04
0.04
0.04
0.04
0.04
0.04
0.04
0.04
0.04
0.04
0.04
0.04
0.04
0.04
0.04
0.04
0.04
0.04
0.04
0.04
0.04
0.04
0.04
0.04
0.04
0.04
0.04
0.04
0.04
0.04
0.04
0.04
0.04
0.04
0.04
0.04
0.04
0.04
0.04
0.04
0.04
0.04
0.04
0.04
0.04
0.04
0.04
0.04
0.04
0.04
0.04
0.04
0.04
0.04
0.04
0.04
0.04
0.04
0.04
0.04
0.04
0.04
0.04
0.04
0.04
0.04
0.04
0.04
0.04
0.04
0.04
0.04
0.04
0.04
0.04
0.04
0.04
0.04
0.04
0.04
0.04
0.04
0.04
0.04
0.04
0.04
0.04
0.04
0.04
0.04
0.04
0.04
0.04
0.04
0.04
0.04
0.04
0.04
0.04
0.04
0.04
0.04
0.04
0.04
0.04
0.04
0.04
0.04
0.04
0.04
0.04
0.04
0.04
0.04
0.04
0.04
0.04
0.04
0.04
0.04
0.04
0.04
0.04
0.04
0.04
0.04
0.04
0.04
0.04
0.04
0.04
0.04
0.04
0.04
0.04
0.04
0.04
0.04
0.04
0.04
0.04
0.04
0.04
0.04
0.04
0.04
0.04
0.04
0.04
0.04
0.04
0.04
0.04
0.04
0.04
0.04
0.04
0.04
0.04
0.04
0.04
0.04
0.04
0.04
0.04
0.04
0.04
0.04
0.04
0.04
0.04
0.04
0.04
0.04
0.04
0.04
0.04
0.04
0.04
0.04
0.04
0.04
0.04
0.04
0.04
0.04
0.04
0.04
0.04
0.04
0.04
0.04
0.04
0.04
0.04
0.04
0.04
0.04
0.04
0.04
0.04
0.04
0.04
0.04
0.04
0.04
0.04
0.04
0.04
0.04
0.04
0.04
0.04
0.04
0.04
0.04
0.04
0.04
0.04
0.04
0.04
0.04
0.04
0.04
0.04
0.04
0.04
0.04
0.04
0.04
0.04
0.04
0.04
0.04
0.04
0.04
0.04
0.04
0.04
0.04
0.04
0.04
0.04
0.04
0.04
0.04
0.04
0.04
0.04
0.04
0.04
0.04
0.04
0.04
0.04
0.04
0.04
0.04
0.04
0.04
0.04
0.04
0.04
0.04
0.04
0.04
0.04
0.04
0.04
0.04
0.04
0.04
0.04
0.04
0.04
0.04
0.04
0.04
0.04
0.04
0.04
0.04
0.04
0.04
0.04
0.04
0.04
0.04
0.04
0.04
0.04
0.04
0.04
0.04
0.04
0.04
0.04
0.04
0.04
0.04
0.04
0.04
0.04
0.04
0.04
0.04
0.04
0.04
0.04
0.04
0.04
0.04
0.04
0.04
0.04
0.04
0.04
0.04
0.04
0.04
0.04
0.04
0.04
0.04
SCALARS type float 1
LOOKUP_TABLE default
1.0
1.0
1.0
1.0
1.0
1.0
1.0
1.0
1.0
1.0
1.0
1.0
1.0
1.0
1.0
1.0
1.0
1.0
1.0
1.0
1.0
1.0
1.0
1.0
1.0
1.0
1.0
1.0
1.0
1.0
1.0
1.0
1.0
1.0
1.0
1.0
1.0
1.0
1.0
1.0
1.0
1.0
1.0
1.0
1.0
1.0
1.0
1.0
1.0
1.0
1.0
1.0
1.0
1.0
1.0
1.0
1.0
1.0
1.0
1.0
1.0
1.0
1.0
1.0
1.0
1.0
1.0
1.0
1.0
1.0
1.0
1.0
1.0
1.0
1.0
1.0
1.0
1.0
1.0
1.0
1.0
1.0
1.0
1.0
1.0
1.0
1.0
1.0
1.0
1.0
1.0
1.0
1.0
1.0
1.0
1.0
1.0
1.0
1.0
1.0
1.0
1.0
1.0
1.0
1.0
1.0
1.0
1.0
1.0
1.0
1.0
1.0
1.0
1.0
1.0
1.0
1.0
1.0
1.0
1.0
1.0
1.0
1.0
1.0
1.0
1.0
1.0
1.0
1.0
1.0
1.0
1.0
1.0
1.0
1.0
1.0
1.0
1.0
1.0
1.0
1.0
1.0
1.0
1.0
1.0
1.0
1.0
1.0
1.0
1.0
1.0
1.0
1.0
1.0
1.0
1.0
1.0
1.0
1.0
1.0
1.0
1.0
1.0
1.0
1.0
1.0
1.0
1.0
1.0
1.0
1.0
1.0
1.0
1.0
1.0
1.0
1.0
1.0
1.0
1.0
1.0
1.0
1.0
1.0
1.0
1.0
1.0
1.0
1.0
1.0
1.0
1.0
1.0
1.0
1.0
1.0
1.0
1.0
1.0
1.0
1.0
1.0
1.0
1.0
1.0
1.0
1.0
1.0
1.0
1.0
1.0
1.0
1.0
1.0
1.0
1.0
1.0
1.0
1.0
1.0
1.0
1.0
1.0
1.0
1.0
1.0
1.0
1.0
1.0
1.0
1.0
1.0
1.0
1.0
1.0
1.0
1.0
1.0
1.0
1.0
1.0
1.0
1.0
1.0
1.0
1.0
1.0
1.0
1.0
1.0
1.0
1.0
1.0
1.0
1.0
1.0
1.0
1.0
1.0
1.0
1.0
1.0
1.0
1.0
1.0
1.0
1.0
1.0
1.0
1.0
1.0
1.0
1.0
1.0
1.0
1.0
1.0
1.0
1.0
1.0
1.0
1.0
1.0
1.0
1.0
1.0
1.0
1.0
1.0
1.0
1.0
1.0
1.0
1.0
1.0
1.0
1.0
1.0
1.0
1.0
1.0
1.0
1.0
1.0
1.0
1.0
1.0
1.0
1.0
1.0
1.0
1.0
1.0
1.0
1.0
1.0
1.0
1.0
1.0
1.0
1.0
1.0
1.0
1.0
1.0
1.0
1.0
1.0
1.0
1.0
1.0
1.0
1.0
1.0
1.0
1.0
1.0
1.0
1.0
1.0
1.0
1.0
1.0
1.0
1.0
1.0
1.0
1.0
1.0
1.0
1.0
1.0
1.0
1.0
1.0
1.0
1.0
1.0
1.0
1.0
1.0
1.0
1.0
1.0
1.0
1.0
1.0
1.0
1.0
1.0
1.0
1.0
1.0
1.0
1.0
1.0
1.0
1.0
1.0
1.0
1.0
1.0
1.0
1.0
1.0
1.0
1.0
1.0
1.0
1.0
1.0
1.0
1.0
1.0
1.0
1.0
1.0
1.0
1.0
1.0
1.0
1.0
1.0
1.0
1.0
1.0
1.0
1.0
1.0
1.0
1.0
1.0
1.0
1.0
1.0
1.0
1.0
1.0
1.0
1.0
1.0
1.0
1.0
1.0
1.0
1.0
1.0
1.0
1.0
1.0
1.0
1.0
1.0
1.0
1.0
1.0
1.0
1.0
1.0
1.0
1.0
1.0
1.0
1.0
1.0
1.0
1.0
1.0
1.0
1.0
1.0
1.0
1.0
1.0
1.0
1.0
1.0
1.0
1.0
1.0
1.0
1.0
1.0
1.0
1.0
1.0
1.0
1.0
1.0
1.0
1.0
1.0
1.0
1.0
1.0
1.0
1.0
1.0
1.0
1.0
1.0
1.0
1.0
1.0
1.0
1.0
1.0
1.0
1.0
1.0
1.0
1.0
1.0
1.0
1.0
1.0
1.0
1.0
1.0
1.0
1.0
1.0
1.0
1.0
1.0
1.0
1.0
1.0
1.0
1.0
1.0
1.0
1.0
1.0
1.0
1.0
1.0
1.0
1.0
1.0
1.0
1.0
1.0
1.0
1.0
1.0
1.0
1.0
1.0
1.0
1.0
1.0
1.0
1.0
1.0
1.0
1.0
1.0
1.0
1.0
1.0
1.0
1.0
1.0
1.0
1.0
1.0
1.0
1.0
1.0
1.0
1.0
1.0
1.0
1.0
1.0
1.0
1.0
1.0
1.0
1.0
1.0
1.0
1.0
1.0
1.0
1.0
1.0
1.0
1.0
1.0
1.0
1.0
1.0
1.0
1.0
1.0
1.0
1.0
1.0
1.0
1.0
1.0
1.0
1.0
1.0
1.0
1.0
1.0
1.0
1.0
1.0
1.0
1.0
1.0
1.0
1.0
1.0
1.0
1.0
1.0
1.0
1.0
1.0
1.0
1.0
1.0
1.0
1.0
1.0
1.0
1.0
1.0
1.0
1.0
1.0
1.0
1.0
1.0
1.0
1.0
1.0
1.0
1.0
1.0
1.0
1.0
1.0
1.0
1.0
1.0
1.0
1.0
1.0
1.0
1.0
1.0
1.0
1.0
1.0
1.0
1.0
1.0
1.0
1.0
1.0
1.0
1.0
1.0
1.0
1.0
1.0
1.0
1.0
1.0
1.0
1.0
1.0
1.0
1.0
1.0
1.0
1.0
1.0
1.0
1.0
1.0
1.0
1.0
1.0
1.0
1.0
1.0
1.0
1.0
1.0
1.0
1.0
1.0
1.0
1.0
1.0
1.0
1.0
1.0
1.0
1.0
1.0
1.0
1.0
1.0
1.0
1.0
1.0
1.0
1.0
1.0
1.0
1.0
1.0
1.0
1.0
1.0
1.0
1.0
1.0
1.0
1.0
1.0
1.0
1.0
1.0
1.0
1.0
1.0
1.0
1.0
1.0
1.0
1.0
1.0
1.0
1.0
1.0
1.0
1.0
1.0
1.0
1.0
1.0
1.0
1.0
1.0
1.0
1.0
1.0
1.0
1.0
1.0
1.0
1.0
1.0
1.0
1.0
1.0
1.0
1.0
1.0
1.0
1.0
1.0
1.0
1.0
1.0
1.0
1.0
1.0
1.0
1.0
1.0
1.0
1.0
1.0
1.0
1.0
1.0
1.0
SCALARS id float 1
LOOKUP_TABLE default
1.0
2.0
3.0
4.0
5.0
6.0
7.0
8.0
9.0
10.0
11.0
12.0
13.0
14.0
15.0
16.0
17.0
18.0
19.0
20.0
21.0
22.0
23.0
24.0
25.0
26.0
27.0
28.0
29.0
30.0
31.0
32.0
33.0
34.0
35.0
36.0
37.0
38.0
39.0
40.0
41.0
42.0
43.0
44.0
45.0
46.0
47.0
48.0
49.0
50.0
51.0
52.0
53.0
54.0
55.0
56.0
57.0
58.0
59.0
60.0
61.0
62.0
63.0
64.0
65.0
66.0
67.0
68.0
69.0
70.0
71.0
72.0
73.0
74.0
75.0
76.0
77.0
78.0
79.0
80.0
81.0
82.0
83.0
84.0
85.0
86.0
87.0
88.0
89.0
90.0
91.0
92.0
93.0
94.0
95.0
96.0
97.0
98.0
99.0
100.0
101.0
102.0
103.0
104.0
105.0
106.0
107.0
108.0
109.0
110.0
111.0
112.0
113.0
114.0
115.0
116.0
117.0
118.0
119.0
120.0
121.0
122.0
123.0
124.0
125.0
126.0
127.0
128.0
129.0
130.0
131.0
132.0
133.0
134.0
135.0
136.0
137.0
138.0
139.0
140.0
141.0
142.0
143.0
144.0
145.0
146.0
147.0
148.0
149.0
150.0
151.0
152.0
153.0
154.0
155.0
156.0
157.0
158.0
159.0
160.0
161.0
162.0
163.0
164.0
165.0
166.0
167.0
168.0
169.0
170.0
171.0
172.0
173.0
174.0
175.0
176.0
177.0
178.0
179.0
180.0
181.0
182.0
183.0
184.0
185.0
186.0
187.0
188.0
189.0
190.0
191.0
192.0
193.0
194.0
195.0
196.0
197.0
198.0
199.0
200.0
201.0
202.0
203.0
204.0
205.0
206.0
207.0
208.0
209.0
210.0
211.0
212.0
213.0
214.0
215.0
216.0
217.0
218.0
219.0
220.0
221.0
222.0
223.0
224.0
225.0
226.0
227.0
228.0
229.0
230.0
231.0
232.0
233.0
234.0
235.0
236.0
237.0
238.0
239.0
240.0
241.0
242.0
243.0
244.0
245.0
246.0
247.0
248.0
249.0
250.0
251.0
252.0
253.0
254.0
255.0
256.0
257.0
258.0
259.0
260.0
261.0
262.0
263.0
264.0
265.0
266.0
267.0
268.0
269.0
270.0
271.0
272.0
273.0
274.0
275.0
276.0
277.0
278.0
279.0
280.0
281.0
282.0
283.0
284.0
285.0
286.0
287.0
288.0
289.0
290.0
291.0
292.0
293.0
294.0
295.0
296.0
297.0
298.0
299.0
300.0
301.0
302.0
303.0
304.0
305.0
306.0
307.0
308.0
309.0
310.0
311.0
312.0
313.0
314.0
315.0
316.0
317.0
318.0
319.0
320.0
321.0
322.0
323.0
324.0
325.0
326.0
327.0
328.0
329.0
330.0
331.0
332.0
333.0
334.0
335.0
336.0
337.0
338.0
339.0
340.0
341.0
342.0
343.0
344.0
345.0
346.0
347.0
348.0
349.0
350.0
351.0
352.0
353.0
354.0
355.0
356.0
357.0
358.0
359.0
360.0
361.0
362.0
363.0
364.0
365.0
366.0
367.0
368.0
369.0
370.0
371.0
372.0
373.0
374.0
375.0
376.0
377.0
378.0
379.0
380.0
381.0
382.0
383.0
384.0
385.0
386.0
387.0
388.0
389.0
390.0
391.0
392.0
393.0
394.0
395.0
396.0
397.0
398.0
399.0
400.0
401.0
402.0
403.0
404.0
405.0
406.0
407.0
408.0
409.0
410.0
411.0
412.0
413.0
414.0
415.0
416.0
417.0
418.0
419.0
420.0
421.0
422.0
423.0
424.0
425.0
426.0
427.0
428.0
429.0
430.0
431.0
432.0
433.0
434.0
435.0
436.0
437.0
438.0
439.0
440.0
441.0
442.0
443.0
444.0
445.0
446.0
447.0
448.0
449.0
450.0
451.0
452.0
453.0
454.0
455.0
456.0
457.0
458.0
459.0
460.0
461.0
462.0
463.0
464.0
465.0
466.0
467.0
468.0
469.0
470.0
471.0
472.0
473.0
474.0
475.0
476.0
477.0
478.0
479.0
480.0
481.0
482.0
483.0
484.0
485.0
486.0
487.0
488.0
489.0
490.0
491.0
492.0
493.0
494.0
495.0
496.0
497.0
498.0
499.0
500.0
501.0
502.0
503.0
504.0
505.0
506.0
507.0
508.0
509.0
510.0
511.0
512.0
513.0
514.0
515.0
516.0
517.0
518.0
519.0
520.0
521.0
522.0
523.0
524.0
525.0
526.0
527.0
528.0
529.0
530.0
531.0
532.0
533.0
534.0
535.0
536.0
537.0
538.0
539.0
540.0
541.0
542.0
543.0
544.0
545.0
546.0
547.0
548.0
549.0
550.0
551.0
552.0
553.0
554.0
555.0
556.0
557.0
558.0
559.0
560.0
561.0
562.0
563.0
564.0
565.0
566.0
567.0
568.0
569.0
570.0
571.0
572.0
573.0
574.0
575.0
576.0
577.0
578.0
579.0
580.0
581.0
582.0
583.0
584.0
585.0
586.0
587.0
588.0
589.0
590.0
591.0
592.0
593.0
594.0
595.0
596.0
597.0
598.0
599.0
600.0
601.0
602.0
603.0
604.0
605.0
606.0
607.0
608.0
609.0
610.0
611.0
612.0
613.0
614.0
615.0
616.0
617.0
618.0
619.0
620.0
621.0
622.0
623.0
624.0
625.0
626.0
627.0
628.0
629.0
630.0
631.0
632.0
633.0
634.0
635.0
636.0
637.0
638.0
639.0
640.0
641.0
642.0
643.0
644.0
645.0
646.0
647.0
648.0
649.0
650.0
651.0
652.0
653.0
654.0
655.0
656.0
657.0
658.0
659.0
660.0
661.0
662.0
663.0
664.0
665.0
666.0
667.0
668.0
669.0
670.0
671.0
672.0
673.0
674.0
675.0
676.0
677.0
678.0
679.0
680.0
681.0
682.0
683.0
684.0
685.0
686.0
687.0
688.0
689.0
690.0
691.0
692.0
693.0
694.0
695.0
696.0
697.0
698.0
699.0
700.0
701.0
702.0
703.0
704.0
705.0
706.0
707.0
708.0
709.0
710.0
711.0
712.0
713.0
714.0
715.0
716.0
717.0
718.0
719.0
720.0
721.0
722.0
723.0
724.0
725.0
726.0
727.0
728.0
729.0
730.0
731.0
732.0
733.0
734.0
735.0
736.0
737.0
738.0
739.0
740.0
741.0
742.0
743.0
744.0
745.0
746.0
747.0
748.0
749.0
750.0
751.0
752.0
753.0
754.0
755.0
756.0
757.0
758.0
759.0
760.0
761.0
762.0
763.0
764.0
765.0
766.0
767.0

