solid ROOF
facet normal 0.0 0.0 -1.0
  outer loop
    vertex 0.3 0.2 -0.1
    vertex 0.3 -0.2 -0.1
    vertex -0.1 0.2 -0.1
  endloop
endfacet
facet normal 0.0 0.0 -1.0
  outer loop
    vertex 0.3 -0.2 -0.1
    vertex -0.1 -0.2 -0.1
    vertex -0.1 0.2 -0.1
  endloop
endfacet
endsolid ROOF
