# vtk DataFile Version 2.0
Generated by lpp.py
ASCII
DATASET POLYDATA
POINTS 120 float
0.211997 -0.0418897 -0.153932
0.233797 -0.00537323 -0.153296
0.225405 -0.0207625 -0.144923
0.212484 -0.0412472 -0.134858
0.244178 -0.0141328 -0.135209
0.220219 -0.0259835 -0.161162
0.217071 -0.0141746 -0.167737
0.237935 -0.0260741 -0.133579
0.233197 -0.036791 -0.160572
0.235137 -0.0439829 -0.13967
0.247444 -0.0109642 -0.160269
0.22456 -0.0317286 -0.138035
0.235339 -0.0159352 -0.146761
0.234243 -0.0266562 -0.158935
0.245072 -0.0224928 -0.162716
0.215353 -0.0105762 -0.146115
0.246062 -0.0372628 -0.14676
0.222987 -0.0414691 -0.153008
0.213628 -0.0267565 -0.134101
0.22784 -0.00989582 -0.139493
0.242012 -0.0159092 -0.111552
0.2171 -0.021602 -0.113894
0.236562 -0.040894 -0.0992736
0.226449 -0.0195938 -0.12054
0.217338 -0.0317972 -0.100175
0.237236 -0.00614079 -0.126113
0.231238 -0.0222358 -0.0993942
0.239156 -0.0274041 -0.110877
0.231358 -0.035601 -0.125324
0.214768 -0.0423944 -0.112996
0.230515 -0.0111698 -0.106167
0.246952 -0.0319309 -0.126842
0.211462 -0.0100905 -0.109398
0.249304 -0.0262166 -0.0993634
0.211039 -0.0149358 -0.124726
0.219253 -0.00856383 -0.0994316
0.221744 -0.0415619 -0.0994578
0.242615 -0.00640512 -0.105198
0.226023 -0.0309172 -0.110913
0.245441 -0.0428293 -0.129411
0.210527 -0.017951 -0.0934316
0.24622 -0.013573 -0.068037
0.23478 -0.00909723 -0.0835578
0.220542 -0.0291391 -0.0728286
0.247597 -0.0438266 -0.0944479
0.218042 -0.017723 -0.071093
0.233749 -0.0371195 -0.0704779
0.248275 -0.0330271 -0.076284
0.214816 -0.0359974 -0.0833251
0.222542 -0.0216738 -0.0854337
0.241095 -0.0443403 -0.0680908
0.237837 -0.0210371 -0.0699585
0.222302 -0.00598525 -0.0825483
0.224889 -0.0433207 -0.0755357
0.24994 -0.021703 -0.0786842
0.227559 -0.0146361 -0.0744444
0.210609 -0.0263875 -0.0820927
0.248222 -0.0111885 -0.0934622
0.239584 -0.0272199 -0.0894724
0.215826 -0.00778715 -0.0691393
0.233391 -0.0328834 -0.0579766
0.223454 -0.008334 -0.0508761
0.240746 -0.0107292 -0.0503041
0.214272 -0.0260521 -0.0461084
0.220364 -0.035122 -0.0514782
0.229666 -0.0383543 -0.0455042
0.248472 -0.0423436 -0.0489073
0.23188 -0.0209052 -0.0543082
0.249716 -0.0175616 -0.0468951
0.243523 -0.0277584 -0.0580919
0.213609 -0.0438746 -0.0473024
0.230255 -0.0110226 -0.0611145
0.210442 -0.0110114 -0.0534752
0.210508 -0.0302166 -0.067119
0.218834 -0.0175588 -0.0421034
0.230669 -0.028283 -0.0442674
0.218899 -0.0434846 -0.0626791
0.241486 -0.0226329 -0.0434511
0.23214 -0.0143296 -0.0447726
0.237373 -0.0448779 -0.0536677
0.243311 -0.0309372 -0.0249682
0.23178 -0.0239108 -0.0200196
0.210813 -0.0438435 -0.0310679
0.228794 -0.0181719 -0.0325839
0.21319 -0.0307641 -0.0327697
0.222622 -0.042678 -0.0305418
0.246916 -0.0401105 -0.0214673
0.21007 -0.0319848 -0.0220899
0.247343 -0.0225419 -0.0314243
0.233307 -0.00717118 -0.0245489
0.227235 -0.0355436 -0.0210737
0.216262 -0.0136915 -0.0307612
0.24598 -0.0126658 -0.0265523
0.23391 -0.0322289 -0.0304733
0.243841 -0.0330029 -0.0413106
0.223242 -0.00662346 -0.0342478
0.214855 -0.0434653 -0.020429
0.236786 -0.00727126 -0.0374804
0.21412 -0.00594608 -0.0203473
0.235814 -0.0424837 -0.0294026
0.225457 -0.0432565 -0.011424
0.215456 -0.0317138 -0.00321798
0.242012 -0.0449376 -0.00491218
0.226958 -0.023842 -0.00315938
0.213639 -0.0076259 -7.83384e-05
0.245802 -0.0344045 -0.00732835
0.23665 -0.0225043 -0.00786775
0.242008 -0.00680832 -0.0177402
0.220212 -0.0183038 -0.0147174
0.220705 -0.0057338 -0.0120949
0.222768 -0.0150125 4.78745e-06
0.242686 -0.0123272 -0.00654085
0.249523 -0.0238598 -0.0132219
0.223892 -0.0292655 -0.0115302
0.238032 -0.0317207 -0.00111246
0.239249 -0.0440379 -0.0147511
0.210416 -0.0212994 -0.00802268
0.228337 -0.013692 -0.0102751
0.245556 -0.0218286 -0.000191525
0.212012 -0.043577 -0.00714158
VERTICES 120 240
1 0
1 1
1 2
1 3
1 4
1 5
1 6
1 7
1 8
1 9
1 10
1 11
1 12
1 13
1 14
1 15
1 16
1 17
1 18
1 19
1 20
1 21
1 22
1 23
1 24
1 25
1 26
1 27
1 28
1 29
1 30
1 31
1 32
1 33
1 34
1 35
1 36
1 37
1 38
1 39
1 40
1 41
1 42
1 43
1 44
1 45
1 46
1 47
1 48
1 49
1 50
1 51
1 52
1 53
1 54
1 55
1 56
1 57
1 58
1 59
1 60
1 61
1 62
1 63
1 64
1 65
1 66
1 67
1 68
1 69
1 70
1 71
1 72
1 73
1 74
1 75
1 76
1 77
1 78
1 79
1 80
1 81
1 82
1 83
1 84
1 85
1 86
1 87
1 88
1 89
1 90
1 91
1 92
1 93
1 94
1 95
1 96
1 97
1 98
1 99
1 100
1 101
1 102
1 103
1 104
1 105
1 106
1 107
1 108
1 109
1 110
1 111
1 112
1 113
1 114
1 115
1 116
1 117
1 118
1 119
POINT_DATA 120
VECTORS i float
0.0 0.0 0.0
0.0 0.0 0.0
0.0 0.0 0.0
0.0 0.0 0.0
0.0 0.0 0.0
0.0 0.0 0.0
0.0 0.0 0.0
0.0 0.0 0.0
0.0 0.0 0.0
0.0 0.0 0.0
0.0 0.0 0.0
0.0 0.0 0.0
0.0 0.0 0.0
0.0 0.0 0.0
0.0 0.0 0.0
0.0 0.0 0.0
0.0 0.0 0.0
0.0 0.0 0.0
0.0 0.0 0.0
0.0 0.0 0.0
0.0 0.0 0.0
0.0 0.0 0.0
0.0 0.0 0.0
0.0 0.0 0.0
0.0 0.0 0.0
0.0 0.0 0.0
0.0 0.0 0.0
0.0 0.0 0.0
0.0 0.0 0.0
0.0 0.0 0.0
0.0 0.0 0.0
0.0 0.0 0.0
0.0 0.0 0.0
0.0 0.0 0.0
0.0 0.0 0.0
0.0 0.0 0.0
0.0 0.0 0.0
0.0 0.0 0.0
0.0 0.0 0.0
0.0 0.0 0.0
0.0 0.0 0.0
0.0 0.0 0.0
0.0 0.0 0.0
0.0 0.0 0.0
0.0 0.0 0.0
0.0 0.0 0.0
0.0 0.0 0.0
0.0 0.0 0.0
0.0 0.0 0.0
0.0 0.0 0.0
0.0 0.0 0.0
0.0 0.0 0.0
0.0 0.0 0.0
0.0 0.0 0.0
0.0 0.0 0.0
0.0 0.0 0.0
0.0 0.0 0.0
0.0 0.0 0.0
0.0 0.0 0.0
0.0 0.0 0.0
0.0 0.0 0.0
0.0 0.0 0.0
0.0 0.0 0.0
0.0 0.0 0.0
0.0 0.0 0.0
0.0 0.0 0.0
0.0 0.0 0.0
0.0 0.0 0.0
0.0 0.0 0.0
0.0 0.0 0.0
0.0 0.0 0.0
0.0 0.0 0.0
0.0 0.0 0.0
0.0 0.0 0.0
0.0 0.0 0.0
0.0 0.0 0.0
0.0 0.0 0.0
0.0 0.0 0.0
0.0 0.0 0.0
0.0 0.0 0.0
0.0 0.0 0.0
0.0 0.0 0.0
0.0 0.0 0.0
0.0 0.0 0.0
0.0 0.0 0.0
0.0 0.0 0.0
0.0 0.0 0.0
0.0 0.0 0.0
0.0 0.0 0.0
0.0 0.0 0.0
0.0 0.0 0.0
0.0 0.0 0.0
0.0 0.0 0.0
0.0 0.0 0.0
0.0 0.0 0.0
0.0 0.0 0.0
0.0 0.0 0.0
0.0 0.0 0.0
0.0 0.0 0.0
0.0 0.0 0.0
0.0 0.0 0.0
0.0 0.0 0.0
0.0 0.0 0.0
0.0 0.0 0.0
0.0 0.0 0.0
0.0 0.0 0.0
0.0 0.0 0.0
0.0 0.0 0.0
0.0 0.0 0.0
0.0 0.0 0.0
0.0 0.0 0.0
0.0 0.0 0.0
0.0 0.0 0.0
0.0 0.0 0.0
0.0 0.0 0.0
0.0 0.0 0.0
0.0 0.0 0.0
0.0 0.0 0.0
0.0 0.0 0.0
0.0 0.0 0.0
VECTORS f float
0.0 0.0 -0.0128413
0.0 0.0 -0.0128413
0.0 0.0 -0.0128413
0.0 0.0 -0.0128413
0.0 0.0 -0.0128413
0.0 0.0 -0.0128413
0.0 0.0 -0.0128413
0.0 0.0 -0.0128413
0.0 0.0 -0.0128413
0.0 0.0 -0.0128413
0.0 0.0 -0.0128413
0.0 0.0 -0.0128413
0.0 0.0 -0.0128413
0.0 0.0 -0.0128413
0.0 0.0 -0.0128413
0.0 0.0 -0.0128413
0.0 0.0 -0.0128413
0.0 0.0 -0.0128413
0.0 0.0 -0.0128413
0.0 0.0 -0.0128413
0.0 0.0 -0.0128413
0.0 0.0 -0.0128413
0.0 0.0 -0.0128413
0.0 0.0 -0.0128413
0.0 0.0 -0.0128413
0.0 0.0 -0.0128413
0.0 0.0 -0.0128413
0.0 0.0 -0.0128413
0.0 0.0 -0.0128413
0.0 0.0 -0.0128413
0.0 0.0 -0.0128413
0.0 0.0 -0.0128413
0.0 0.0 -0.0128413
0.0 0.0 -0.0128413
0.0 0.0 -0.0128413
0.0 0.0 -0.0128413
0.0 0.0 -0.0128413
0.0 0.0 -0.0128413
0.0 0.0 -0.0128413
0.0 0.0 -0.0128413
0.0 0.0 -0.0128413
0.0 0.0 -0.0128413
0.0 0.0 -0.0128413
0.0 0.0 -0.0128413
0.0 0.0 -0.0128413
0.0 0.0 -0.0128413
0.0 0.0 -0.0128413
0.0 0.0 -0.0128413
0.0 0.0 -0.0128413
0.0 0.0 -0.0128413
0.0 0.0 -0.0128413
0.0 0.0 -0.0128413
0.0 0.0 -0.0128413
0.0 0.0 -0.0128413
0.0 0.0 -0.0128413
0.0 0.0 -0.0128413
0.0 0.0 -0.0128413
0.0 0.0 -0.0128413
0.0 0.0 -0.0128413
0.0 0.0 -0.0128413
0.0 0.0 -0.0128413
0.0 0.0 -0.0128413
0.0 0.0 -0.0128413
0.0 0.0 -0.0128413
0.0 0.0 -0.0128413
0.0 0.0 -0.0128413
0.0 0.0 -0.0128413
0.0 0.0 -0.0128413
0.0 0.0 -0.0128413
0.0 0.0 -0.0128413
0.0 0.0 -0.0128413
0.0 0.0 -0.0128413
0.0 0.0 -0.0128413
0.0 0.0 -0.0128413
0.0 0.0 -0.0128413
0.0 0.0 -0.0128413
0.0 0.0 -0.0128413
0.0 0.0 -0.0128413
0.0 0.0 -0.0128413
0.0 0.0 -0.0128413
0.0 0.0 -0.0128413
0.0 0.0 -0.0128413
0.0 0.0 -0.0128413
0.0 0.0 -0.0128413
0.0 0.0 -0.0128413
0.0 0.0 -0.0128413
0.0 0.0 -0.0128413
0.0 0.0 -0.0128413
0.0 0.0 -0.0128413
0.0 0.0 -0.0128413
0.0 0.0 -0.0128413
0.0 0.0 -0.0128413
0.0 0.0 -0.0128413
0.0 0.0 -0.0128413
0.0 0.0 -0.0128413
0.0 0.0 -0.0128413
0.0 0.0 -0.0128413
0.0 0.0 -0.0128413
0.0 0.0 -0.0128413
0.0 0.0 -0.0128413
0.0 0.0 0.0
0.0 0.0 0.0
0.0 0.0 0.0
0.0 0.0 0.0
0.0 0.0 0.0
0.0 0.0 0.0
0.0 0.0 0.0
0.0 0.0 0.0
0.0 0.0 0.0
0.0 0.0 0.0
0.0 0.0 0.0
0.0 0.0 0.0
0.0 0.0 0.0
0.0 0.0 0.0
0.0 0.0 0.0
0.0 0.0 0.0
0.0 0.0 0.0
0.0 0.0 0.0
0.0 0.0 0.0
0.0 0.0 0.0
VECTORS omega float
0.0 0.0 0.0
0.0 0.0 0.0
0.0 0.0 0.0
0.0 0.0 0.0
0.0 0.0 0.0
0.0 0.0 0.0
0.0 0.0 0.0
0.0 0.0 0.0
0.0 0.0 0.0
0.0 0.0 0.0
0.0 0.0 0.0
0.0 0.0 0.0
0.0 0.0 0.0
0.0 0.0 0.0
0.0 0.0 0.0
0.0 0.0 0.0
0.0 0.0 0.0
0.0 0.0 0.0
0.0 0.0 0.0
0.0 0.0 0.0
0.0 0.0 0.0
0.0 0.0 0.0
0.0 0.0 0.0
0.0 0.0 0.0
0.0 0.0 0.0
0.0 0.0 0.0
0.0 0.0 0.0
0.0 0.0 0.0
0.0 0.0 0.0
0.0 0.0 0.0
0.0 0.0 0.0
0.0 0.0 0.0
0.0 0.0 0.0
0.0 0.0 0.0
0.0 0.0 0.0
0.0 0.0 0.0
0.0 0.0 0.0
0.0 0.0 0.0
0.0 0.0 0.0
0.0 0.0 0.0
0.0 0.0 0.0
0.0 0.0 0.0
0.0 0.0 0.0
0.0 0.0 0.0
0.0 0.0 0.0
0.0 0.0 0.0
0.0 0.0 0.0
0.0 0.0 0.0
0.0 0.0 0.0
0.0 0.0 0.0
0.0 0.0 0.0
0.0 0.0 0.0
0.0 0.0 0.0
0.0 0.0 0.0
0.0 0.0 0.0
0.0 0.0 0.0
0.0 0.0 0.0
0.0 0.0 0.0
0.0 0.0 0.0
0.0 0.0 0.0
0.0 0.0 0.0
0.0 0.0 0.0
0.0 0.0 0.0
0.0 0.0 0.0
0.0 0.0 0.0
0.0 0.0 0.0
0.0 0.0 0.0
0.0 0.0 0.0
0.0 0.0 0.0
0.0 0.0 0.0
0.0 0.0 0.0
0.0 0.0 0.0
0.0 0.0 0.0
0.0 0.0 0.0
0.0 0.0 0.0
0.0 0.0 0.0
0.0 0.0 0.0
0.0 0.0 0.0
0.0 0.0 0.0
0.0 0.0 0.0
0.0 0.0 0.0
0.0 0.0 0.0
0.0 0.0 0.0
0.0 0.0 0.0
0.0 0.0 0.0
0.0 0.0 0.0
0.0 0.0 0.0
0.0 0.0 0.0
0.0 0.0 0.0
0.0 0.0 0.0
0.0 0.0 0.0
0.0 0.0 0.0
0.0 0.0 0.0
0.0 0.0 0.0
0.0 0.0 0.0
0.0 0.0 0.0
0.0 0.0 0.0
0.0 0.0 0.0
0.0 0.0 0.0
0.0 0.0 0.0
0.0 0.0 0.0
0.0 0.0 0.0
0.0 0.0 0.0
0.0 0.0 0.0
0.0 0.0 0.0
0.0 0.0 0.0
0.0 0.0 0.0
0.0 0.0 0.0
0.0 0.0 0.0
0.0 0.0 0.0
0.0 0.0 0.0
0.0 0.0 0.0
0.0 0.0 0.0
0.0 0.0 0.0
0.0 0.0 0.0
0.0 0.0 0.0
0.0 0.0 0.0
0.0 0.0 0.0
0.0 0.0 0.0
0.0 0.0 0.0
VECTORS v float
0.0 0.0 -1.90473
0.0 0.0 -1.90129
0.0 0.0 -1.85764
0.0 0.0 -1.80368
0.0 0.0 -1.80565
0.0 0.0 -1.94151
0.0 0.0 -1.97438
0.0 0.0 -1.79682
0.0 0.0 -1.93857
0.0 0.0 -1.82968
0.0 0.0 -1.9371
0.0 0.0 -1.82085
0.0 0.0 -1.86745
0.0 0.0 -1.93023
0.0 0.0 -1.94936
0.0 0.0 -1.86402
0.0 0.0 -1.86745
0.0 0.0 -1.89982
0.0 0.0 -1.79976
0.0 0.0 -1.8287
0.0 0.0 -1.67223
0.0 0.0 -1.68596
0.0 0.0 -1.59866
0.0 0.0 -1.72422
0.0 0.0 -1.60405
0.0 0.0 -1.75562
0.0 0.0 -1.59915
0.0 0.0 -1.66831
0.0 0.0 -1.7512
0.0 0.0 -1.68057
0.0 0.0 -1.64035
0.0 0.0 -1.75954
0.0 0.0 -1.65948
0.0 0.0 -1.59915
0.0 0.0 -1.74777
0.0 0.0 -1.59964
0.0 0.0 -1.59964
0.0 0.0 -1.63446
0.0 0.0 -1.66831
0.0 0.0 -1.77376
0.0 0.0 -1.56236
0.0 0.0 -1.39363
0.0 0.0 -1.49908
0.0 0.0 -1.42698
0.0 0.0 -1.56873
0.0 0.0 -1.41521
0.0 0.0 -1.41079
0.0 0.0 -1.45052
0.0 0.0 -1.49761
0.0 0.0 -1.51135
0.0 0.0 -1.39412
0.0 0.0 -1.40736
0.0 0.0 -1.49222
0.0 0.0 -1.44562
0.0 0.0 -1.46671
0.0 0.0 -1.43826
0.0 0.0 -1.48927
0.0 0.0 -1.56236
0.0 0.0 -1.53734
0.0 0.0 -1.40147
0.0 0.0 -1.32103
0.0 0.0 -1.26708
0.0 0.0 -1.26266
0.0 0.0 -1.2298
0.0 0.0 -1.27198
0.0 0.0 -1.22489
0.0 0.0 -1.25187
0.0 0.0 -1.29356
0.0 0.0 -1.23618
0.0 0.0 -1.32201
0.0 0.0 -1.23912
0.0 0.0 -1.34409
0.0 0.0 -1.28719
0.0 0.0 -1.38725
0.0 0.0 -1.19743
0.0 0.0 -1.21508
0.0 0.0 -1.35537
0.0 0.0 -1.20822
0.0 0.0 -1.21901
0.0 0.0 -1.28866
0.0 0.0 -1.04782
0.0 0.0 -1.00025
0.0 0.0 -1.10325
0.0 0.0 -1.11649
0.0 0.0 -1.11846
0.0 0.0 -1.09835
0.0 0.0 -1.01447
0.0 0.0 -1.02036
0.0 0.0 -1.10619
0.0 0.0 -1.0439
0.0 0.0 -1.01055
0.0 0.0 -1.10031
0.0 0.0 -1.06254
0.0 0.0 -1.09785
0.0 0.0 -1.19105
0.0 0.0 -1.13121
0.0 0.0 -1.00417
0.0 0.0 -1.15868
0.0 0.0 -1.00319
0.0 0.0 -1.08854
-0.0 -0.0 -1.0
-0.0 -0.0 -1.0
-0.0 -0.0 -1.0
-0.0 -0.0 -1.0
-0.0 -0.0 -1.0
-0.0 -0.0 -1.0
-0.0 -0.0 -1.0
-0.0 -0.0 -1.0
-0.0 -0.0 -1.0
-0.0 -0.0 -1.0
-0.0 -0.0 -1.0
-0.0 -0.0 -1.0
-0.0 -0.0 -1.0
-0.0 -0.0 -1.0
-0.0 -0.0 -1.0
-0.0 -0.0 -1.0
-0.0 -0.0 -1.0
-0.0 -0.0 -1.0
-0.0 -0.0 -1.0
-0.0 -0.0 -1.0
SCALARS radius float 1
LOOKUP_TABLE default
0.005
0.005
0.005
0.005
0.005
0.005
0.005
0.005
0.005
0.005
0.005
0.005
0.005
0.005
0.005
0.005
0.005
0.005
0.005
0.005
0.005
0.005
0.005
0.005
0.005
0.005
0.005
0.005
0.005
0.005
0.005
0.005
0.005
0.005
0.005
0.005
0.005
0.005
0.005
0.005
0.005
0.005
0.005
0.005
0.005
0.005
0.005
0.005
0.005
0.005
0.005
0.005
0.005
0.005
0.005
0.005
0.005
0.005
0.005
0.005
0.005
0.005
0.005
0.005
0.005
0.005
0.005
0.005
0.005
0.005
0.005
0.005
0.005
0.005
0.005
0.005
0.005
0.005
0.005
0.005
0.005
0.005
0.005
0.005
0.005
0.005
0.005
0.005
0.005
0.005
0.005
0.005
0.005
0.005
0.005
0.005
0.005
0.005
0.005
0.005
0.005
0.005
0.005
0.005
0.005
0.005
0.005
0.005
0.005
0.005
0.005
0.005
0.005
0.005
0.005
0.005
0.005
0.005
0.005
0.005
SCALARS type float 1
LOOKUP_TABLE default
1.0
1.0
1.0
1.0
1.0
1.0
1.0
1.0
1.0
1.0
1.0
1.0
1.0
1.0
1.0
1.0
1.0
1.0
1.0
1.0
1.0
1.0
1.0
1.0
1.0
1.0
1.0
1.0
1.0
1.0
1.0
1.0
1.0
1.0
1.0
1.0
1.0
1.0
1.0
1.0
1.0
1.0
1.0
1.0
1.0
1.0
1.0
1.0
1.0
1.0
1.0
1.0
1.0
1.0
1.0
1.0
1.0
1.0
1.0
1.0
1.0
1.0
1.0
1.0
1.0
1.0
1.0
1.0
1.0
1.0
1.0
1.0
1.0
1.0
1.0
1.0
1.0
1.0
1.0
1.0
1.0
1.0
1.0
1.0
1.0
1.0
1.0
1.0
1.0
1.0
1.0
1.0
1.0
1.0
1.0
1.0
1.0
1.0
1.0
1.0
1.0
1.0
1.0
1.0
1.0
1.0
1.0
1.0
1.0
1.0
1.0
1.0
1.0
1.0
1.0
1.0
1.0
1.0
1.0
1.0
SCALARS id float 1
LOOKUP_TABLE default
1.0
2.0
3.0
4.0
5.0
6.0
7.0
8.0
9.0
10.0
11.0
12.0
13.0
14.0
15.0
16.0
17.0
18.0
19.0
20.0
21.0
22.0
23.0
24.0
25.0
26.0
27.0
28.0
29.0
30.0
31.0
32.0
33.0
34.0
35.0
36.0
37.0
38.0
39.0
40.0
41.0
42.0
43.0
44.0
45.0
46.0
47.0
48.0
49.0
50.0
51.0
52.0
53.0
54.0
55.0
56.0
57.0
58.0
59.0
60.0
61.0
62.0
63.0
64.0
65.0
66.0
67.0
68.0
69.0
70.0
71.0
72.0
73.0
74.0
75.0
76.0
77.0
78.0
79.0
80.0
81.0
82.0
83.0
84.0
85.0
86.0
87.0
88.0
89.0
90.0
91.0
92.0
93.0
94.0
95.0
96.0
97.0
98.0
99.0
100.0
101.0
102.0
103.0
104.0
105.0
106.0
107.0
108.0
109.0
110.0
111.0
112.0
113.0
114.0
115.0
116.0
117.0
118.0
119.0
120.0

