# vtk DataFile Version 2.0
Generated by lpp.py
ASCII
DATASET POLYDATA
POINTS 500 float
0.449971 -0.00545246 -1.16647
0.223286 -0.0433301 -1.15481
0.240934 -0.0441362 -1.08139
0.241863 -0.0212817 -1.15127
0.09875 -0.040584 -0.740907
0.0862602 -0.0281135 -0.748745
0.0326508 -0.0354009 -0.95099
0.0768258 -0.0211713 -0.702908
0.204295 -0.0338698 -0.707608
0.0054033 -0.0073059 -1.19108
0.422082 -0.00541728 -0.746946
0.495059 -0.0252026 -1.19498
0.0880885 -0.0446427 -1.16791
0.486851 -0.0286824 -1.18091
0.0321182 -0.0105042 -0.732343
0.336111 -0.0196753 -1.176
0.41222 -0.0299458 -1.19104
0.148807 -0.0222336 -1.17926
0.460742 -0.00506855 -1.17651
0.485624 -0.0330528 -1.16332
0.0573867 -0.0309379 -1.18638
0.304378 -0.0232347 -1.19478
0.494644 -0.0142855 -1.16144
0.10931 -0.00968171 -0.945831
0.211932 -0.0243595 -0.245005
0.494708 -0.00499949 -1.18509
0.49004 -0.0212056 -1.15505
0.480474 -0.0245263 -1.18728
0.49498 -0.044853 -1.172
0.239926 -0.0285157 -1.11521
0.145798 -0.0190477 -1.13656
0.469847 -0.013696 -1.19499
0.351749 -0.0419183 -0.979927
0.48474 -0.0191133 -1.17809
0.20511 -0.0333556 -0.245003
0.24265 -0.0299042 -1.19338
0.167862 -0.0386761 -1.19344
0.105333 -0.0345082 -1.19507
0.19078 -0.0166394 -1.1103
0.0181503 -0.0180953 -1.1928
0.205007 -0.00499792 -0.245002
0.410045 -0.0364611 -1.05232
0.185605 -0.0332736 -1.19355
0.250076 -0.0257748 -1.18756
0.197043 -0.0202161 -0.728043
0.470738 -0.00493782 -1.1774
0.0656034 -0.0207333 -1.1326
0.100807 -0.0232921 -1.19489
0.485977 -0.0111407 -1.16838
0.494985 -0.0450002 -1.19491
0.385393 -0.0158113 -1.18421
0.495031 -0.0267198 -1.17561
0.460385 -0.0178155 -1.15801
0.0606512 -0.0387724 -1.104
0.0187813 -0.0323135 -1.12379
0.0282287 -0.0160849 -1.19493
0.292899 -0.00646867 -0.348947
0.00523225 -0.0426017 -1.17682
0.237386 -0.0070764 -0.910674
0.493116 -0.0350057 -1.19502
0.0396266 -0.00770646 -1.13508
0.495023 -0.0304347 -1.18637
0.145872 -0.00619816 -0.793759
0.179384 -0.0254182 -1.13649
0.114521 -0.0112383 -1.19433
0.490958 -0.0331145 -1.15492
0.47382 -0.0339299 -1.15977
0.490093 -0.00495897 -1.16119
0.494331 -0.00578614 -1.17348
0.162004 -0.0230662 -1.14752
0.486509 -0.00908799 -1.17902
0.151014 -0.0184503 -1.19459
0.494931 -0.015093 -1.19497
0.105474 -0.00514724 -1.1949
0.4951 -0.0450024 -1.18492
0.460156 -0.0149278 -1.18626
0.454224 -0.011428 -1.14846
0.178645 -0.0191452 -1.18806
0.491281 -0.0211887 -1.18669
0.494894 -0.00513768 -1.19504
0.00928249 -0.0283785 -1.15658
0.204391 -0.0337843 -1.07331
0.484268 -0.0360378 -1.17469
0.0552194 -0.0356879 -1.19468
0.216067 -0.0359255 -0.245002
0.494977 -0.0422004 -1.16126
0.460682 -0.00753021 -1.16677
0.247242 -0.0404937 -1.13755
0.0340703 -0.0406227 -1.13207
0.443244 -0.018744 -1.1843
0.00762672 -0.0376873 -1.18963
0.103015 -0.0408715 -1.18708
0.117494 -0.020218 -1.14956
0.0903319 -0.0448188 -1.19038
0.0421957 -0.0177512 -1.19344
0.268365 -0.018696 -1.16737
0.469108 -0.00848169 -1.18654
0.450149 -0.0358503 -1.19425
0.223112 -0.00516299 -0.245002
0.0753201 -0.0377603 -1.19171
0.0888286 -0.0243503 -1.19367
0.206263 -0.0450001 -0.245002
0.471476 -0.0285162 -1.18623
0.479826 -0.0136196 -1.19499
0.495011 -0.014027 -1.18085
0.450622 -0.0117815 -1.18687
0.0889418 -0.0208596 -1.17245
0.0452019 -0.0446158 -1.18794
0.479697 -0.00492482 -1.17299
0.1309 -0.0416052 -1.19343
0.19674 -0.00854192 -1.19046
0.125839 -0.0411732 -1.15781
0.489774 -0.0235613 -1.14518
0.155185 -0.0445949 -1.18945
0.020099 -0.0349151 -1.14684
0.0151182 -0.0195997 -1.18336
0.346602 -0.0271293 -0.45247
0.124827 -0.00924805 -1.19455
0.475699 -0.00802279 -1.1641
0.207234 -0.00639801 -1.19456
0.485837 -0.0215465 -1.19506
0.451231 -0.0178508 -1.19502
0.486173 -0.0259923 -1.17057
0.087643 -0.00684272 -1.18529
0.482874 -0.031551 -1.19476
0.481192 -0.0295717 -1.15281
0.392233 -0.035673 -0.948782
0.474875 -0.00497833 -1.19494
0.482426 -0.0446973 -1.16783
0.169988 -0.0363106 -1.17305
0.488306 -0.0378131 -1.18613
0.475987 -0.0449883 -1.195
0.485547 -0.0416094 -1.19497
0.420472 -0.024422 -1.19395
0.266098 -0.02509 -1.18847
0.478668 -0.03543 -1.18636
0.384749 -0.0185253 -1.17496
0.471196 -0.0436016 -1.18618
0.0616229 -0.0428074 -1.19255
0.473175 -0.0450002 -1.16332
0.0964827 -0.0116189 -1.19143
0.0521052 -0.0175483 -1.19041
0.209614 -0.0296951 -1.16936
0.465895 -0.045006 -1.19499
0.48742 -0.0449547 -1.17859
0.494781 -0.0365485 -1.1785
0.25476 -0.0340692 -1.19491
0.248289 -0.00808699 -1.13605
0.484899 -0.00499254 -1.195
0.48137 -0.0450269 -1.18648
0.0945749 -0.0198873 -1.14269
0.414506 -0.00592092 -1.15772
0.491172 -0.0441662 -1.10971
0.279875 -0.00914237 -0.774053
0.443876 -0.043807 -1.16262
0.26314 -0.0391239 -1.13402
0.276311 -0.0115908 -1.19421
0.1968 -0.00847492 -1.17279
0.473659 -0.0352688 -1.19502
0.139274 -0.00599819 -1.19249
0.440067 -0.0346216 -1.19484
0.178637 -0.0421475 -1.17587
0.135272 -0.0150178 -1.1894
0.435601 -0.0237712 -1.19497
0.119203 -0.0150427 -1.18254
0.0855627 -0.0129566 -1.19478
0.495078 -0.0248175 -1.16456
0.127282 -0.0213782 -1.18502
0.0334387 -0.00639548 -1.19486
0.0736543 -0.0324292 -1.1609
0.469346 -0.0187915 -1.18611
0.46034 -0.0366916 -1.19503
0.393503 -0.0288433 -1.18644
0.120728 -0.0439526 -1.18529
0.0797667 -0.0163224 -1.18263
0.0331447 -0.0388606 -1.17295
0.427545 -0.00619189 -1.1861
0.0338139 -0.0245723 -1.18803
0.238113 -0.0227112 -1.18065
0.189065 -0.0105022 -1.18197
0.41667 -0.00821252 -1.03503
0.0341647 -0.00881028 -1.16712
0.454939 -0.0450499 -1.19516
0.118543 -0.0339885 -1.19014
0.0839757 -0.0284541 -1.18496
0.0239983 -0.029242 -1.1941
0.250219 -0.0195711 -1.15486
0.387703 -0.0371455 -1.13085
0.464881 -0.00500456 -1.19494
0.462599 -0.00648307 -1.15675
0.477527 -0.0443476 -1.17719
0.269919 -0.0450868 -1.17775
0.471355 -0.0246489 -1.169
0.409435 -0.016172 -1.16458
0.322998 -0.00778842 -1.1803
0.428991 -0.0117725 -1.19416
0.0251949 -0.00848802 -1.17251
0.212328 -0.0362902 -0.712394
0.218229 -0.0165523 -0.245004
0.166373 -0.0228971 -1.19498
0.200229 -0.0298755 -1.18245
0.110723 -0.0449892 -1.1942
0.329949 -0.036471 -1.18728
0.205139 -0.0392309 -0.236912
0.485391 -0.0430327 -1.15523
0.139764 -0.0313709 -1.19225
0.444932 -0.044427 -1.19494
0.295018 -0.0423896 -1.19461
0.47638 -0.0140045 -1.17551
0.306475 -0.00741123 -1.17478
0.255528 -0.0442734 -1.19491
0.100353 -0.00519193 -1.17179
0.479946 -0.00511467 -1.18588
0.2068 -0.0412703 -1.16981
0.0350374 -0.0207125 -1.15521
0.428749 -0.0133272 -1.17762
0.478821 -0.0149136 -1.18512
0.450426 -0.044588 -1.18626
0.289336 -0.0445915 -1.18282
0.466211 -0.0286216 -1.19498
0.461252 -0.0338252 -1.17553
0.345446 -0.0259912 -1.1811
0.123601 -0.0199041 -1.19441
0.487861 -0.0119754 -1.18849
0.162551 -0.0103866 -1.19081
0.411412 -0.0174362 -1.18223
0.460673 -0.0449801 -1.18649
0.302876 -0.0119915 -1.19467
0.414947 -0.00734568 -1.18306
0.476629 -0.0267212 -1.17773
0.495099 -0.0345016 -1.1688
0.266926 -0.0123105 -1.19048
0.445956 -0.0263461 -1.19475
0.461952 -0.0255245 -1.18647
0.365263 -0.00857677 -1.19524
0.451628 -0.0280424 -1.16608
0.424619 -0.0352464 -1.19485
0.419775 -0.0049272 -1.19284
0.211452 -0.0370174 -1.0863
0.475589 -0.0358803 -1.1428
0.395428 -0.0232363 -1.19499
0.273293 -0.0145571 -0.312449
0.397596 -0.00591939 -1.19362
0.318852 -0.0411145 -1.19101
0.465909 -0.0239479 -1.17741
0.195805 -0.0309194 -1.19506
0.276761 -0.0242799 -1.18438
0.248448 -0.0291095 -1.16662
0.440443 -0.00911433 -1.18439
0.182195 -0.0427269 -1.1893
0.257697 -0.0180587 -1.19503
0.456824 -0.0447311 -1.17498
0.474249 -0.0226831 -1.19487
0.259061 -0.0291299 -1.16479
0.41435 -0.0388062 -1.19502
0.492828 -0.0176292 -1.17181
0.245519 -0.0407955 -1.19417
0.377063 -0.0420372 -1.18855
0.386706 -0.0412684 -1.19261
0.43379 -0.0449382 -1.17845
0.258491 -0.0382391 -1.18313
0.452576 -0.0221074 -1.18579
0.116376 -0.00661194 -1.15899
0.293849 -0.00603187 -1.19475
0.367969 -0.0375196 -1.18887
0.461693 -0.0195813 -1.195
0.267573 -0.0449959 -0.304309
0.345266 -0.0302898 -1.1903
0.455944 -0.0277337 -1.19499
0.446484 -0.0301034 -1.18548
0.458955 -0.00500671 -1.18629
0.214033 -0.00799919 -0.241902
0.466884 -0.0446685 -1.17717
0.479463 -0.0190608 -1.16709
0.441632 -0.0145011 -1.19495
0.224409 -0.0258485 -1.19486
0.399177 -0.0207184 -1.17211
0.480031 -0.0150457 -1.14717
0.471938 -0.0354523 -1.17901
0.408208 -0.0196648 -1.19285
0.455549 -0.00863794 -1.19502
0.464958 -0.0359144 -1.1862
0.289375 -0.0280586 -1.18791
0.396382 -0.0123122 -1.18535
0.365246 -0.0284265 -1.18796
0.378937 -0.0256686 -0.99893
0.462756 -0.0310986 -1.16511
0.284408 -0.0206329 -1.19372
0.233254 -0.0336386 -1.1858
0.202635 -0.0209633 -1.17769
0.458594 -0.0199163 -1.16828
0.408203 -0.00963748 -1.19325
0.168784 -0.0444727 -1.18307
0.186357 -0.0190476 -1.16555
0.206133 -0.0216614 -1.19513
0.233695 -0.0418995 -0.246587
0.435991 -0.00496601 -1.19231
0.461147 -0.0439428 -1.16472
0.22699 -0.0401431 -1.17286
0.431918 -0.0435862 -1.19484
0.298282 -0.0340352 -1.19036
0.229885 -0.0245324 -1.1617
0.250838 -0.00804665 -0.274898
0.269536 -0.00779134 -1.17937
0.45658 -0.015223 -1.17689
0.488729 -0.011352 -1.15344
0.33976 -0.00742647 -0.432032
0.268145 -0.0355699 -1.15217
0.237248 -0.0127815 -1.19332
0.467294 -0.0158822 -1.16531
0.419528 -0.0261452 -1.17222
0.278513 -0.0400471 -1.195
0.445214 -0.00931067 -1.15332
0.388406 -0.0315769 -1.19533
0.308738 -0.0277524 -1.16485
0.422172 -0.0448693 -1.19296
0.331935 -0.0269447 -1.19232
0.443304 -0.0383096 -1.18168
0.474651 -0.0220991 -1.157
0.360374 -0.0128115 -0.61254
0.295531 -0.0139485 -1.18606
0.412972 -0.041319 -1.03945
0.285503 -0.0108684 -1.18972
0.324548 -0.0258043 -1.10383
0.225057 -0.0427425 -1.19508
0.348941 -0.0133337 -1.18128
0.447707 -0.0189485 -1.16809
0.450789 -0.00502787 -1.17952
0.322862 -0.0261497 -1.17273
0.475663 -0.0375547 -1.1698
0.372386 -0.0126659 -1.18481
0.301087 -0.0290491 -1.17841
0.178893 -0.00973042 -1.19254
0.377403 -0.0216639 -1.19425
0.351872 -0.00843476 -1.19495
0.204997 -0.0261719 -0.238038
0.341774 -0.00485003 -1.19106
0.132158 -0.0283744 -1.16802
0.455491 -0.0343446 -1.18487
0.446388 -0.0134631 -1.17625
0.395555 -0.0451767 -1.19486
0.354563 -0.0226985 -1.1434
0.38005 -0.00815951 -1.19486
0.40578 -0.00675368 -1.17308
0.40338 -0.033447 -1.18502
0.429265 -0.0385145 -1.17332
0.413707 -0.0450766 -1.18699
0.205298 -0.0167479 -0.2429
0.362686 -0.0181353 -1.19369
0.427022 -0.0233512 -1.17786
0.431886 -0.0312084 -1.18926
0.416071 -0.00665499 -1.16917
0.264392 -0.0356038 -1.19112
0.331888 -0.0272337 -1.16545
0.446078 -0.00527195 -1.19427
0.334444 -0.00768874 -1.17971
0.344623 -0.0327628 -0.843573
0.353992 -0.0239762 -1.19277
0.466354 -0.013849 -1.17795
0.108331 -0.00942715 -1.06784
0.438658 -0.0451227 -1.18718
0.357023 -0.0357758 -1.18876
0.419938 -0.0389423 -1.18279
0.353273 -0.0334498 -0.462428
0.40225 -0.0234336 -1.18514
0.363595 -0.0391726 -1.17797
0.248424 -0.0410143 -1.18258
0.371208 -0.0315507 -1.1169
0.29515 -0.0134565 -1.17476
0.378064 -0.0328187 -1.19271
0.222063 -0.0258606 -0.245052
0.358802 -0.0189873 -0.582713
0.479109 -0.00769326 -1.15363
0.352636 -0.0346931 -1.17463
0.451985 -0.0138496 -1.16111
0.321749 -0.0067596 -1.03858
0.440732 -0.00510348 -1.17505
0.319537 -0.0236001 -1.19382
0.432848 -0.0181951 -1.18712
0.249568 -0.0043215 -1.18564
0.462967 -0.0250057 -1.14926
0.395077 -0.0311366 -1.16697
0.421739 -0.0282805 -1.18444
0.336072 -0.0403129 -1.1947
0.405989 -0.0272434 -1.17606
0.287442 -0.00988849 -0.332287
0.402805 -0.0444595 -1.181
0.34886 -0.00864673 -1.1358
0.383534 -0.0417813 -0.914019
0.438504 -0.0213835 -1.17296
0.493116 -0.0412836 -1.14826
0.196209 -0.0180089 -1.1636
0.378934 -0.0103693 -1.17183
0.354107 -0.0218332 -0.783742
0.454124 -0.0208527 -1.14337
0.280187 -0.0399967 -1.18354
0.354665 -0.04507 -1.17648
0.451634 -0.0250669 -1.17642
0.431123 -0.00485657 -1.17044
0.413348 -0.0278986 -1.1616
0.3775 -0.0236514 -1.185
0.393495 -0.00605466 -1.06371
0.405047 -0.0437592 -1.19107
0.371946 -0.0359943 -1.17351
0.406535 -0.0344215 -1.16881
0.441226 -0.0378939 -1.1712
0.385113 -0.017868 -1.15185
0.312154 -0.010974 -1.18627
0.346927 -0.0214745 -0.433624
0.411144 -0.0421732 -1.17635
0.348565 -0.034872 -0.627479
0.446076 -0.0170247 -0.969559
0.42126 -0.0168746 -1.18453
0.406786 -0.0320315 -0.985273
0.308526 -0.010052 -1.16323
0.358976 -0.0254948 -1.16114
0.450889 -0.0351441 -1.15852
0.446972 -0.0449133 -1.17533
0.248397 -0.03417 -0.270436
0.398556 -0.00635186 -1.16058
0.403684 -0.0382712 -1.15819
0.421341 -0.0338468 -0.906372
0.428316 -0.0384259 -1.16381
0.46122 -0.0221448 -1.09579
0.228301 -0.0171857 -0.245002
0.368737 -0.00445319 -1.176
0.408635 -0.028898 -1.06858
0.425975 -0.00624618 -1.16322
0.417364 -0.022004 -1.1328
0.437094 -0.0309401 -1.17898
0.414478 -0.0433596 -1.12678
0.356841 -0.0212825 -1.09399
0.319542 -0.0451776 -1.16274
0.311705 -0.0147532 -0.94524
0.418389 -0.0425588 -1.16825
0.368695 -0.0065624 -1.0023
0.234718 -0.00609893 -0.244146
0.374297 -0.0186858 -0.620844
0.39212 -0.0428396 -1.18468
0.34643 -0.0406515 -0.680015
0.424675 -0.0345007 -0.999589
0.377668 -0.0404093 -1.05755
0.435192 -0.0136214 -1.14944
0.371601 -0.00496378 -0.988231
0.29599 -0.00567465 -1.14537
0.447634 -0.0135185 -0.925554
0.409712 -0.0243708 -1.14912
0.37865 -0.0327639 -1.1466
0.383254 -0.00582037 -1.07785
0.337031 -0.0075874 -0.906374
0.366376 -0.0247474 -1.17868
0.331143 -0.0298728 -1.05682
0.317706 -0.0427993 -0.38943
0.453288 -0.0165141 -1.07666
0.340692 -0.00628212 -0.520681
0.419817 -0.0328771 -1.12186
0.363339 -0.0325435 -0.937068
0.374282 -0.0279096 -0.875919
0.404738 -0.0205838 -0.987806
0.358485 -0.0311965 -0.588134
0.434302 -0.010538 -1.04643
0.343186 -0.0405732 -1.00132
0.33513 -0.0393996 -1.03234
0.414816 -0.0124322 -0.960471
0.2703 -0.0318444 -0.304813
0.374278 -0.0345182 -0.656637
0.391719 -0.0257489 -0.868975
0.361855 -0.0379648 -0.817947
0.396927 -0.0123351 -0.996909
0.43365 -0.0445782 -1.04247
0.36163 -0.0433508 -0.532308
0.360698 -0.0305087 -0.572083
0.36237 -0.00942107 -0.533256
0.423872 -0.0365115 -0.95227
0.343369 -0.0416349 -0.449859
0.434241 -0.0105381 -1.07745
0.419926 -0.0172357 -1.04317
0.421716 -0.0330338 -0.935311
0.220451 -0.0448769 -0.243819
0.393291 -0.0059448 -0.928503
0.339291 -0.0429324 -0.523141
0.33383 -0.0279274 -0.769642
0.350195 -0.027719 -0.544763
0.388121 -0.0114936 -0.68888
0.364125 -0.0419254 -0.589816
0.333855 -0.0286069 -0.740996
0.426143 -0.0247848 -1.09977
0.436595 -0.00514996 -0.852838
0.323391 -0.0108568 -0.742879
0.433007 -0.0322718 -0.881149
0.28491 -0.0284202 -0.331819
0.341039 -0.0404132 -0.788089
0.372288 -0.0365196 -0.572738
0.412473 -0.0202216 -0.748539
0.243547 -0.0181889 -0.254781
0.366945 -0.0355394 -0.851162
0.360831 -0.0422161 -0.578955
0.351785 -0.0420554 -0.805393
0.435568 -0.0349718 -1.01854
0.401554 -0.0401701 -0.877549
VERTICES 500 1000
1 0
1 1
1 2
1 3
1 4
1 5
1 6
1 7
1 8
1 9
1 10
1 11
1 12
1 13
1 14
1 15
1 16
1 17
1 18
1 19
1 20
1 21
1 22
1 23
1 24
1 25
1 26
1 27
1 28
1 29
1 30
1 31
1 32
1 33
1 34
1 35
1 36
1 37
1 38
1 39
1 40
1 41
1 42
1 43
1 44
1 45
1 46
1 47
1 48
1 49
1 50
1 51
1 52
1 53
1 54
1 55
1 56
1 57
1 58
1 59
1 60
1 61
1 62
1 63
1 64
1 65
1 66
1 67
1 68
1 69
1 70
1 71
1 72
1 73
1 74
1 75
1 76
1 77
1 78
1 79
1 80
1 81
1 82
1 83
1 84
1 85
1 86
1 87
1 88
1 89
1 90
1 91
1 92
1 93
1 94
1 95
1 96
1 97
1 98
1 99
1 100
1 101
1 102
1 103
1 104
1 105
1 106
1 107
1 108
1 109
1 110
1 111
1 112
1 113
1 114
1 115
1 116
1 117
1 118
1 119
1 120
1 121
1 122
1 123
1 124
1 125
1 126
1 127
1 128
1 129
1 130
1 131
1 132
1 133
1 134
1 135
1 136
1 137
1 138
1 139
1 140
1 141
1 142
1 143
1 144
1 145
1 146
1 147
1 148
1 149
1 150
1 151
1 152
1 153
1 154
1 155
1 156
1 157
1 158
1 159
1 160
1 161
1 162
1 163
1 164
1 165
1 166
1 167
1 168
1 169
1 170
1 171
1 172
1 173
1 174
1 175
1 176
1 177
1 178
1 179
1 180
1 181
1 182
1 183
1 184
1 185
1 186
1 187
1 188
1 189
1 190
1 191
1 192
1 193
1 194
1 195
1 196
1 197
1 198
1 199
1 200
1 201
1 202
1 203
1 204
1 205
1 206
1 207
1 208
1 209
1 210
1 211
1 212
1 213
1 214
1 215
1 216
1 217
1 218
1 219
1 220
1 221
1 222
1 223
1 224
1 225
1 226
1 227
1 228
1 229
1 230
1 231
1 232
1 233
1 234
1 235
1 236
1 237
1 238
1 239
1 240
1 241
1 242
1 243
1 244
1 245
1 246
1 247
1 248
1 249
1 250
1 251
1 252
1 253
1 254
1 255
1 256
1 257
1 258
1 259
1 260
1 261
1 262
1 263
1 264
1 265
1 266
1 267
1 268
1 269
1 270
1 271
1 272
1 273
1 274
1 275
1 276
1 277
1 278
1 279
1 280
1 281
1 282
1 283
1 284
1 285
1 286
1 287
1 288
1 289
1 290
1 291
1 292
1 293
1 294
1 295
1 296
1 297
1 298
1 299
1 300
1 301
1 302
1 303
1 304
1 305
1 306
1 307
1 308
1 309
1 310
1 311
1 312
1 313
1 314
1 315
1 316
1 317
1 318
1 319
1 320
1 321
1 322
1 323
1 324
1 325
1 326
1 327
1 328
1 329
1 330
1 331
1 332
1 333
1 334
1 335
1 336
1 337
1 338
1 339
1 340
1 341
1 342
1 343
1 344
1 345
1 346
1 347
1 348
1 349
1 350
1 351
1 352
1 353
1 354
1 355
1 356
1 357
1 358
1 359
1 360
1 361
1 362
1 363
1 364
1 365
1 366
1 367
1 368
1 369
1 370
1 371
1 372
1 373
1 374
1 375
1 376
1 377
1 378
1 379
1 380
1 381
1 382
1 383
1 384
1 385
1 386
1 387
1 388
1 389
1 390
1 391
1 392
1 393
1 394
1 395
1 396
1 397
1 398
1 399
1 400
1 401
1 402
1 403
1 404
1 405
1 406
1 407
1 408
1 409
1 410
1 411
1 412
1 413
1 414
1 415
1 416
1 417
1 418
1 419
1 420
1 421
1 422
1 423
1 424
1 425
1 426
1 427
1 428
1 429
1 430
1 431
1 432
1 433
1 434
1 435
1 436
1 437
1 438
1 439
1 440
1 441
1 442
1 443
1 444
1 445
1 446
1 447
1 448
1 449
1 450
1 451
1 452
1 453
1 454
1 455
1 456
1 457
1 458
1 459
1 460
1 461
1 462
1 463
1 464
1 465
1 466
1 467
1 468
1 469
1 470
1 471
1 472
1 473
1 474
1 475
1 476
1 477
1 478
1 479
1 480
1 481
1 482
1 483
1 484
1 485
1 486
1 487
1 488
1 489
1 490
1 491
1 492
1 493
1 494
1 495
1 496
1 497
1 498
1 499
POINT_DATA 500
VECTORS i float
0.0 0.0 0.0
0.0 0.0 0.0
0.0 0.0 0.0
0.0 0.0 0.0
0.0 0.0 0.0
0.0 0.0 0.0
0.0 0.0 0.0
0.0 0.0 0.0
0.0 0.0 0.0
0.0 0.0 0.0
0.0 0.0 0.0
0.0 0.0 0.0
0.0 0.0 0.0
0.0 0.0 0.0
0.0 0.0 0.0
0.0 0.0 0.0
0.0 0.0 0.0
0.0 0.0 0.0
0.0 0.0 0.0
0.0 0.0 0.0
0.0 0.0 0.0
0.0 0.0 0.0
0.0 0.0 0.0
0.0 0.0 0.0
0.0 0.0 0.0
0.0 0.0 0.0
0.0 0.0 0.0
0.0 0.0 0.0
0.0 0.0 0.0
0.0 0.0 0.0
0.0 0.0 0.0
0.0 0.0 0.0
0.0 0.0 0.0
0.0 0.0 0.0
0.0 0.0 0.0
0.0 0.0 0.0
0.0 0.0 0.0
0.0 0.0 0.0
0.0 0.0 0.0
0.0 0.0 0.0
0.0 0.0 0.0
0.0 0.0 0.0
0.0 0.0 0.0
0.0 0.0 0.0
0.0 0.0 0.0
0.0 0.0 0.0
0.0 0.0 0.0
0.0 0.0 0.0
0.0 0.0 0.0
0.0 0.0 0.0
0.0 0.0 0.0
0.0 0.0 0.0
0.0 0.0 0.0
0.0 0.0 0.0
0.0 0.0 0.0
0.0 0.0 0.0
0.0 0.0 0.0
0.0 0.0 0.0
0.0 0.0 0.0
0.0 0.0 0.0
0.0 0.0 0.0
0.0 0.0 0.0
0.0 0.0 0.0
0.0 0.0 0.0
0.0 0.0 0.0
0.0 0.0 0.0
0.0 0.0 0.0
0.0 0.0 0.0
0.0 0.0 0.0
0.0 0.0 0.0
0.0 0.0 0.0
0.0 0.0 0.0
0.0 0.0 0.0
0.0 0.0 0.0
0.0 0.0 0.0
0.0 0.0 0.0
0.0 0.0 0.0
0.0 0.0 0.0
0.0 0.0 0.0
0.0 0.0 0.0
0.0 0.0 0.0
0.0 0.0 0.0
0.0 0.0 0.0
0.0 0.0 0.0
0.0 0.0 0.0
0.0 0.0 0.0
0.0 0.0 0.0
0.0 0.0 0.0
0.0 0.0 0.0
0.0 0.0 0.0
0.0 0.0 0.0
0.0 0.0 0.0
0.0 0.0 0.0
0.0 0.0 0.0
0.0 0.0 0.0
0.0 0.0 0.0
0.0 0.0 0.0
0.0 0.0 0.0
0.0 0.0 0.0
0.0 0.0 0.0
0.0 0.0 0.0
0.0 0.0 0.0
0.0 0.0 0.0
0.0 0.0 0.0
0.0 0.0 0.0
0.0 0.0 0.0
0.0 0.0 0.0
0.0 0.0 0.0
0.0 0.0 0.0
0.0 0.0 0.0
0.0 0.0 0.0
0.0 0.0 0.0
0.0 0.0 0.0
0.0 0.0 0.0
0.0 0.0 0.0
0.0 0.0 0.0
0.0 0.0 0.0
0.0 0.0 0.0
0.0 0.0 0.0
0.0 0.0 0.0
0.0 0.0 0.0
0.0 0.0 0.0
0.0 0.0 0.0
0.0 0.0 0.0
0.0 0.0 0.0
0.0 0.0 0.0
0.0 0.0 0.0
0.0 0.0 0.0
0.0 0.0 0.0
0.0 0.0 0.0
0.0 0.0 0.0
0.0 0.0 0.0
0.0 0.0 0.0
0.0 0.0 0.0
0.0 0.0 0.0
0.0 0.0 0.0
0.0 0.0 0.0
0.0 0.0 0.0
0.0 0.0 0.0
0.0 0.0 0.0
0.0 0.0 0.0
0.0 0.0 0.0
0.0 0.0 0.0
0.0 0.0 0.0
0.0 0.0 0.0
0.0 0.0 0.0
0.0 0.0 0.0
0.0 0.0 0.0
0.0 0.0 0.0
0.0 0.0 0.0
0.0 0.0 0.0
0.0 0.0 0.0
0.0 0.0 0.0
0.0 0.0 0.0
0.0 0.0 0.0
0.0 0.0 0.0
0.0 0.0 0.0
0.0 0.0 0.0
0.0 0.0 0.0
0.0 0.0 0.0
0.0 0.0 0.0
0.0 0.0 0.0
0.0 0.0 0.0
0.0 0.0 0.0
0.0 0.0 0.0
0.0 0.0 0.0
0.0 0.0 0.0
0.0 0.0 0.0
0.0 0.0 0.0
0.0 0.0 0.0
0.0 0.0 0.0
0.0 0.0 0.0
0.0 0.0 0.0
0.0 0.0 0.0
0.0 0.0 0.0
0.0 0.0 0.0
0.0 0.0 0.0
0.0 0.0 0.0
0.0 0.0 0.0
0.0 0.0 0.0
0.0 0.0 0.0
0.0 0.0 0.0
0.0 0.0 0.0
0.0 0.0 0.0
0.0 0.0 0.0
0.0 0.0 0.0
0.0 0.0 0.0
0.0 0.0 0.0
0.0 0.0 0.0
0.0 0.0 0.0
0.0 0.0 0.0
0.0 0.0 0.0
0.0 0.0 0.0
0.0 0.0 0.0
0.0 0.0 0.0
0.0 0.0 0.0
0.0 0.0 0.0
0.0 0.0 0.0
0.0 0.0 0.0
0.0 0.0 0.0
0.0 0.0 0.0
0.0 0.0 0.0
0.0 0.0 0.0
0.0 0.0 0.0
0.0 0.0 0.0
0.0 0.0 0.0
0.0 0.0 0.0
0.0 0.0 0.0
0.0 0.0 0.0
0.0 0.0 0.0
0.0 0.0 0.0
0.0 0.0 0.0
0.0 0.0 0.0
0.0 0.0 0.0
0.0 0.0 0.0
0.0 0.0 0.0
0.0 0.0 0.0
0.0 0.0 0.0
0.0 0.0 0.0
0.0 0.0 0.0
0.0 0.0 0.0
0.0 0.0 0.0
0.0 0.0 0.0
0.0 0.0 0.0
0.0 0.0 0.0
0.0 0.0 0.0
0.0 0.0 0.0
0.0 0.0 0.0
0.0 0.0 0.0
0.0 0.0 0.0
0.0 0.0 0.0
0.0 0.0 0.0
0.0 0.0 0.0
0.0 0.0 0.0
0.0 0.0 0.0
0.0 0.0 0.0
0.0 0.0 0.0
0.0 0.0 0.0
0.0 0.0 0.0
0.0 0.0 0.0
0.0 0.0 0.0
0.0 0.0 0.0
0.0 0.0 0.0
0.0 0.0 0.0
0.0 0.0 0.0
0.0 0.0 0.0
0.0 0.0 0.0
0.0 0.0 0.0
0.0 0.0 0.0
0.0 0.0 0.0
0.0 0.0 0.0
0.0 0.0 0.0
0.0 0.0 0.0
0.0 0.0 0.0
0.0 0.0 0.0
0.0 0.0 0.0
0.0 0.0 0.0
0.0 0.0 0.0
0.0 0.0 0.0
0.0 0.0 0.0
0.0 0.0 0.0
0.0 0.0 0.0
0.0 0.0 0.0
0.0 0.0 0.0
0.0 0.0 0.0
0.0 0.0 0.0
0.0 0.0 0.0
0.0 0.0 0.0
0.0 0.0 0.0
0.0 0.0 0.0
0.0 0.0 0.0
0.0 0.0 0.0
0.0 0.0 0.0
0.0 0.0 0.0
0.0 0.0 0.0
0.0 0.0 0.0
0.0 0.0 0.0
0.0 0.0 0.0
0.0 0.0 0.0
0.0 0.0 0.0
0.0 0.0 0.0
0.0 0.0 0.0
0.0 0.0 0.0
0.0 0.0 0.0
0.0 0.0 0.0
0.0 0.0 0.0
0.0 0.0 0.0
0.0 0.0 0.0
0.0 0.0 0.0
0.0 0.0 0.0
0.0 0.0 0.0
0.0 0.0 0.0
0.0 0.0 0.0
0.0 0.0 0.0
0.0 0.0 0.0
0.0 0.0 0.0
0.0 0.0 0.0
0.0 0.0 0.0
0.0 0.0 0.0
0.0 0.0 0.0
0.0 0.0 0.0
0.0 0.0 0.0
0.0 0.0 0.0
0.0 0.0 0.0
0.0 0.0 0.0
0.0 0.0 0.0
0.0 0.0 0.0
0.0 0.0 0.0
0.0 0.0 0.0
0.0 0.0 0.0
0.0 0.0 0.0
0.0 0.0 0.0
0.0 0.0 0.0
0.0 0.0 0.0
0.0 0.0 0.0
0.0 0.0 0.0
0.0 0.0 0.0
0.0 0.0 0.0
0.0 0.0 0.0
0.0 0.0 0.0
0.0 0.0 0.0
0.0 0.0 0.0
0.0 0.0 0.0
0.0 0.0 0.0
0.0 0.0 0.0
0.0 0.0 0.0
0.0 0.0 0.0
0.0 0.0 0.0
0.0 0.0 0.0
0.0 0.0 0.0
0.0 0.0 0.0
0.0 0.0 0.0
0.0 0.0 0.0
0.0 0.0 0.0
0.0 0.0 0.0
0.0 0.0 0.0
0.0 0.0 0.0
0.0 0.0 0.0
0.0 0.0 0.0
0.0 0.0 0.0
0.0 0.0 0.0
0.0 0.0 0.0
0.0 0.0 0.0
0.0 0.0 0.0
0.0 0.0 0.0
0.0 0.0 0.0
0.0 0.0 0.0
0.0 0.0 0.0
0.0 0.0 0.0
0.0 0.0 0.0
0.0 0.0 0.0
0.0 0.0 0.0
0.0 0.0 0.0
0.0 0.0 0.0
0.0 0.0 0.0
0.0 0.0 0.0
0.0 0.0 0.0
0.0 0.0 0.0
0.0 0.0 0.0
0.0 0.0 0.0
0.0 0.0 0.0
0.0 0.0 0.0
0.0 0.0 0.0
0.0 0.0 0.0
0.0 0.0 0.0
0.0 0.0 0.0
0.0 0.0 0.0
0.0 0.0 0.0
0.0 0.0 0.0
0.0 0.0 0.0
0.0 0.0 0.0
0.0 0.0 0.0
0.0 0.0 0.0
0.0 0.0 0.0
0.0 0.0 0.0
0.0 0.0 0.0
0.0 0.0 0.0
0.0 0.0 0.0
0.0 0.0 0.0
0.0 0.0 0.0
0.0 0.0 0.0
0.0 0.0 0.0
0.0 0.0 0.0
0.0 0.0 0.0
0.0 0.0 0.0
0.0 0.0 0.0
0.0 0.0 0.0
0.0 0.0 0.0
0.0 0.0 0.0
0.0 0.0 0.0
0.0 0.0 0.0
0.0 0.0 0.0
0.0 0.0 0.0
0.0 0.0 0.0
0.0 0.0 0.0
0.0 0.0 0.0
0.0 0.0 0.0
0.0 0.0 0.0
0.0 0.0 0.0
0.0 0.0 0.0
0.0 0.0 0.0
0.0 0.0 0.0
0.0 0.0 0.0
0.0 0.0 0.0
0.0 0.0 0.0
0.0 0.0 0.0
0.0 0.0 0.0
0.0 0.0 0.0
0.0 0.0 0.0
0.0 0.0 0.0
0.0 0.0 0.0
0.0 0.0 0.0
0.0 0.0 0.0
0.0 0.0 0.0
0.0 0.0 0.0
0.0 0.0 0.0
0.0 0.0 0.0
0.0 0.0 0.0
0.0 0.0 0.0
0.0 0.0 0.0
0.0 0.0 0.0
0.0 0.0 0.0
0.0 0.0 0.0
0.0 0.0 0.0
0.0 0.0 0.0
0.0 0.0 0.0
0.0 0.0 0.0
0.0 0.0 0.0
0.0 0.0 0.0
0.0 0.0 0.0
0.0 0.0 0.0
0.0 0.0 0.0
0.0 0.0 0.0
0.0 0.0 0.0
0.0 0.0 0.0
0.0 0.0 0.0
0.0 0.0 0.0
0.0 0.0 0.0
0.0 0.0 0.0
0.0 0.0 0.0
0.0 0.0 0.0
0.0 0.0 0.0
0.0 0.0 0.0
0.0 0.0 0.0
0.0 0.0 0.0
0.0 0.0 0.0
0.0 0.0 0.0
0.0 0.0 0.0
0.0 0.0 0.0
0.0 0.0 0.0
0.0 0.0 0.0
0.0 0.0 0.0
0.0 0.0 0.0
0.0 0.0 0.0
0.0 0.0 0.0
0.0 0.0 0.0
0.0 0.0 0.0
0.0 0.0 0.0
0.0 0.0 0.0
0.0 0.0 0.0
0.0 0.0 0.0
0.0 0.0 0.0
0.0 0.0 0.0
0.0 0.0 0.0
0.0 0.0 0.0
0.0 0.0 0.0
0.0 0.0 0.0
0.0 0.0 0.0
0.0 0.0 0.0
0.0 0.0 0.0
0.0 0.0 0.0
0.0 0.0 0.0
0.0 0.0 0.0
0.0 0.0 0.0
0.0 0.0 0.0
0.0 0.0 0.0
0.0 0.0 0.0
0.0 0.0 0.0
0.0 0.0 0.0
0.0 0.0 0.0
0.0 0.0 0.0
0.0 0.0 0.0
0.0 0.0 0.0
0.0 0.0 0.0
0.0 0.0 0.0
0.0 0.0 0.0
0.0 0.0 0.0
0.0 0.0 0.0
0.0 0.0 0.0
0.0 0.0 0.0
0.0 0.0 0.0
0.0 0.0 0.0
0.0 0.0 0.0
0.0 0.0 0.0
0.0 0.0 0.0
0.0 0.0 0.0
0.0 0.0 0.0
0.0 0.0 0.0
0.0 0.0 0.0
0.0 0.0 0.0
VECTORS f float
0.0 0.0 -0.0128413
0.0 0.0 -0.0128413
0.0 0.0 -0.0128413
-3.34411 -0.511729 1.492
0.0 0.0 -0.0128413
0.0 0.0 -0.0128413
0.0 0.0 -0.0128413
0.0 0.0 -0.0128413
-1.44063 0.437623 0.94875
0.0 0.0 -0.0128413
0.0 0.0 -0.0128413
0.0225852 -0.140039 -0.190584
0.0 0.0 -0.0128413
-0.05299 -0.0652671 -0.0185211
0.0 0.0 -0.0128413
0.0 0.0 -0.0128413
-0.0258425 0.140157 0.0509216
0.0 0.0 -0.0128413
0.0494314 0.000772964 0.198619
-0.119444 0.00309275 -0.182013
0.212852 0.380371 0.721213
0.0 0.0 -0.0128413
0.0 0.0 -0.0128413
0.0 0.0 -0.0128413
0.0114726 0.00437894 0.00311126
-0.00482909 0.0634455 0.180855
0.0 0.0 -0.0128413
-0.0145151 0.138326 0.129605
0.0 0.0 -0.0128413
0.0 0.0 -0.0128413
0.0 0.0 -0.0128413
-0.0686547 -0.106404 -0.195996
0.0 0.0 -0.0128413
0.0 0.0 -0.0128413
-3.86466e-05 0.00255116 5.86303e-05
0.0 0.0 -0.0128413
0.0 0.0 -0.0128413
0.0293177 -0.0182258 0.677581
0.0 0.0 -0.0128413
0.0 0.0 -0.0128413
-0.000129962 -0.0133364 0.00220335
0.0 0.0 -0.0128413
0.0 0.0 -0.0128413
0.0 0.0 -0.0128413
0.0 0.0 -0.0128413
0.0763904 -0.128875 0.161426
0.0 0.0 -0.0128413
0.0 0.0 -0.0128413
0.0585787 -0.064074 0.0351272
-0.00308867 -0.00385939 -0.134867
0.0562455 0.478036 -1.4259
-0.00816413 0.0423725 0.131415
1.47182 -0.694747 0.440464
0.0 0.0 -0.0128413
0.0 0.0 -0.0128413
0.0 0.0 -0.0128413
0.00869722 1.16323e-05 -0.00722302
0.0 0.0 -0.0128413
0.0 0.0 -0.0128413
-0.0464741 -0.108783 0.0424181
0.0 0.0 -0.0128413
0.0243915 0.16999 -0.0839004
0.0 0.0 -0.0128413
0.0 0.0 -0.0128413
0.0 0.0 -0.0128413
0.119444 -0.00309275 0.15633
0.0 0.0 -0.0128413
-0.00946844 -0.285622 -0.0235323
0.0 0.0 -0.0128413
0.0 0.0 -0.0128413
-0.00352414 0.00534629 0.00768354
0.0 0.0 -0.0128413
0.00186712 -0.180388 -0.00277357
0.0 0.0 -0.0128413
-0.400107 0.00914202 0.0630319
-0.110446 0.0261852 -0.0166136
0.0 0.0 -0.0128413
0.0 0.0 -0.0128413
-0.149781 0.0102846 0.134878
0.0538955 0.153322 -0.101442
0.0 0.0 -0.0128413
0.0 0.0 -0.0128413
-0.0303775 -0.0840124 0.0514806
-0.871099 0.420239 -1.00432
0.000244716 -0.000599551 0.000110157
0.0 0.0 -0.0128413
0.0 0.0 -0.0128413
0.0 0.0 -0.0128413
0.0 0.0 -0.0128413
0.0 0.0 -0.0128413
0.0 0.0 -0.0128413
0.0 0.0 -0.0128413
0.0 0.0 -0.0128413
0.0 0.0 -0.0128413
0.0 0.0 -0.0128413
0.0 0.0 -0.0128413
-0.0549927 0.0185534 -0.0515147
0.0 0.0 -0.0128413
-0.00074008 -7.19617e-05 0.00203015
0.0 0.0 -0.0128413
0.0 0.0 -0.0128413
3.45565e-05 -0.000346077 -0.0022081
0.101115 0.139612 0.0165686
0.053354 0.0311579 -0.0403664
0.0243784 0.0724857 0.052044
-0.00759438 -0.0868971 -0.113114
0.0 0.0 -0.0128413
0.0 0.0 -0.0128413
0.0375274 -0.577151 -0.0470493
0.0 0.0 -0.0128413
0.0 0.0 -0.0128413
0.0 0.0 -0.0128413
0.0 0.0 -0.0128413
0.0 0.0 -0.0128413
0.0 0.0 -0.0128413
0.0 0.0 -0.0128413
0.0 0.0 -0.0128413
0.0 0.0 -0.0128413
0.0 0.0 -0.0128413
0.0 0.0 -0.0128413
-0.00329944 0.0165999 -0.0128268
-0.0138494 -0.00587378 0.288029
0.0 0.0 -0.0128413
0.0 0.0 -0.0128413
0.228704 0.0869741 0.00476884
0.0 0.0 -0.0128413
0.0 0.0 -0.0128413
-0.0656111 -0.00477781 0.00724537
0.0 0.0 -0.0128413
0.0 0.0 -0.0128413
0.120772 -0.00523393 -0.0397804
0.000281146 -0.00142192 -0.0127939
0.0 0.0 -0.0128413
0.0 0.0 -0.0128413
0.0 0.0 -0.0128413
-0.175874 0.0680895 -0.109604
-0.0562455 -0.478036 1.40021
0.353823 -0.394135 -0.0103418
0.658247 -0.80061 0.244583
0.000198578 0.00547075 -0.0130294
0.0 0.0 -0.0128413
0.0 0.0 -0.0128413
0.0 0.0 -0.0128413
-0.0157037 0.0582043 -0.0183864
0.024481 0.00844082 0.285017
-0.0371944 -0.1752 -0.16538
0.0 0.0 -0.0128413
0.0 0.0 -0.0128413
-0.0603334 -0.0238769 -0.0366264
-0.142033 0.0628943 -0.22003
0.0 0.0 -0.0128413
0.0 0.0 -0.0128413
0.0 0.0 -0.0128413
0.0 0.0 -0.0128413
0.0 0.0 -0.0128413
0.0 0.0 -0.0128413
0.0 0.0 -0.0128413
0.0 0.0 -0.0128413
-0.173023 -0.145761 0.0867196
0.0 0.0 -0.0128413
0.0 0.0 -0.0128413
0.0 0.0 -0.0128413
0.0 0.0 -0.0128413
0.0 0.0 -0.0128413
0.0 0.0 -0.0128413
0.0 0.0 -0.0128413
-0.598181 0.0190029 -0.0359376
0.0 0.0 -0.0128413
0.0 0.0 -0.0128413
0.0 0.0 -0.0128413
0.083379 0.10963 0.000743625
0.124277 -0.0223811 0.119731
0.0 0.0 -0.0128413
0.0 0.0 -0.0128413
0.0 0.0 -0.0128413
0.0 0.0 -0.0128413
-0.11171 0.337129 0.519962
0.0 0.0 -0.0128413
0.0 0.0 -0.0128413
0.0 0.0 -0.0128413
0.0 0.0 -0.0128413
0.0 0.0 -0.0128413
-0.191946 0.220063 1.08391
0.0 0.0 -0.0128413
0.0 0.0 -0.0128413
0.0 0.0 -0.0128413
3.34411 0.511729 -1.51768
0.0 0.0 -0.0128413
-0.0309153 0.000858205 -0.0140799
0.0 0.0 -0.0128413
0.0 0.0 -0.0128413
0.0248098 0.519432 -0.00516018
0.0 0.0 -0.0128413
0.0 0.0 -0.0128413
0.0 0.0 -0.0128413
-0.0724854 -0.516825 -0.607995
0.0 0.0 -0.0128413
1.44063 -0.437623 -0.974432
-0.00160238 -0.000514588 0.0208184
0.0 0.0 -0.0128413
0.0 0.0 -0.0128413
0.0 0.0 -0.0128413
0.0 0.0 -0.0128413
-0.00023893 -0.0017006 -0.00483445
0.0 0.0 -0.0128413
0.0 0.0 -0.0128413
-0.0288865 -0.00203135 0.0260667
-0.136426 -0.408439 -0.228132
-0.051552 -0.00863491 0.116231
0.0 0.0 -0.0128413
0.0 0.0 -0.0128413
0.0 0.0 -0.0128413
0.0335401 0.47237 -0.0374771
0.0 0.0 -0.0128413
0.0 0.0 -0.0128413
0.0 0.0 -0.0128413
-0.000115118 -0.439227 -0.0961215
-0.0160509 0.00106988 0.022777
0.0 0.0 -0.0128413
-0.0192215 0.126581 -0.00919563
0.0 0.0 -0.0128413
0.0 0.0 -0.0128413
0.0 0.0 -0.0128413
-0.00395732 0.0201861 -0.0336748
0.0 0.0 -0.0128413
0.0 0.0 -0.0128413
-0.00263477 -8.30832e-05 -0.00807001
0.0 0.0 -0.0128413
0.0 0.0 -0.0128413
0.00780692 0.014726 -0.0115296
-0.686095 0.0989364 0.291234
0.0 0.0 -0.0128413
0.0 0.0 -0.0128413
-0.0929645 0.0325908 -0.0189251
0.0305913 -0.0615181 1.36125
0.0 0.0 -0.0128413
0.0 0.0 -0.0128413
0.0367678 -0.744209 -0.00711853
0.0 0.0 -0.0128413
0.0 0.0 -0.0128413
0.0 0.0 -0.0128413
0.0 0.0 -0.0128413
0.0 0.0 -0.0128413
0.0 0.0 -0.0128413
0.0 0.0 -0.0128413
0.0173177 -0.00560774 0.351219
0.0 0.0 -0.0128413
0.0 0.0 -0.0128413
0.00090707 -0.000982801 -0.0110219
0.0 0.0 -0.0128413
0.00953283 -0.00239335 0.183732
0.619139 -0.0143189 0.0264914
-0.0149172 0.0256555 -0.0535498
0.0 0.0 -0.0128413
0.0294461 -0.141109 -0.0020619
-0.0233457 -0.0379397 0.0715567
0.0 0.0 -0.0128413
0.0 0.0 -0.0128413
-0.991507 0.286054 -1.42965
1.67743 -2.36742 -2.12066
0.0 0.0 -0.0128413
0.101894 0.201845 -0.706189
0.0 0.0 -0.0128413
0.0 0.0 -0.0128413
0.484923 -1.73652 -0.271298
0.0589937 0.0922743 -0.00965713
0.0 0.0 -0.0128413
0.0 0.0 -0.0128413
-0.100948 0.00289348 -0.0117668
0.61423 1.647 -0.669804
-0.0543668 0.0280527 -0.224651
0.0 0.0 -0.0128413
0.0 0.0 -0.0128413
0.0 0.0 -0.0128413
0.0 0.0 -0.0128413
0.0 0.0 -0.0128413
0.0 0.0 -0.0128413
0.0605289 -0.725944 0.673688
-0.102815 -0.00826425 0.0873234
0.0 0.0 -0.0128413
0.00313467 -0.00546215 0.113113
0.569031 -0.367713 -0.16445
0.0 0.0 -0.0128413
0.0 0.0 -0.0128413
-0.484923 1.73652 0.245615
0.0 0.0 -0.0128413
0.0 0.0 -0.0128413
0.0 0.0 -0.0128413
0.0 0.0 -0.0128413
0.0 0.0 -0.0128413
0.0 0.0 -0.0128413
0.0 0.0 -0.0128413
0.0 0.0 -0.0128413
0.0 0.0 -0.0128413
0.0370506 -0.00213292 0.729397
0.0 0.0 -0.0128413
0.1937 -0.131151 0.0592967
0.0 0.0 -0.0128413
0.0 0.0 -0.0128413
0.0 0.0 -0.0128413
0.136426 0.408439 0.20245
0.0 0.0 -0.0128413
0.0 0.0 -0.0128413
0.0 0.0 -0.0128413
-0.251454 -0.0468164 0.00865586
0.0 0.0 -0.0128413
0.0 0.0 -0.0128413
0.0 0.0 -0.0128413
0.0 0.0 -0.0128413
0.0 0.0 -0.0128413
-0.662725 -0.28127 0.533737
0.000978984 0.000247177 0.00735286
0.0 0.0 -0.0128413
0.0784073 0.0443239 1.78853
0.0 0.0 -0.0128413
0.0 0.0 -0.0128413
0.0 0.0 -0.0128413
-0.6667 -1.10557 0.54108
0.0 0.0 -0.0128413
0.0 0.0 -0.0128413
0.0 0.0 -0.0128413
0.0 0.0 -0.0128413
0.0 0.0 -0.0128413
0.0 0.0 -0.0128413
0.0405088 0.0253434 0.942826
0.0 0.0 -0.0128413
-0.500686 -1.00187 -0.756452
0.00759438 0.0868971 0.0874317
0.0 0.0 -0.0128413
0.0 0.0 -0.0128413
0.0 0.0 -0.0128413
0.0 0.0 -0.0128413
0.0 0.0 -0.0128413
-0.00664573 0.341111 -2.09856
0.0 0.0 -0.0128413
-7.23393e-05 -0.00421805 0.00187822
0.0478147 -1.08091 0.0123515
0.0 0.0 -0.0128413
-1.3459 0.288937 0.171837
-0.0710089 0.226927 -0.334778
0.150641 1.22005 -0.0799093
0.0 0.0 -0.0128413
0.0 0.0 -0.0128413
0.0 0.0 -0.0128413
0.0 0.0 -0.0128413
-1.5866 2.32556 1.34004
0.355168 -0.303878 -0.0191568
0.0 0.0 -0.0128413
0.0 0.0 -0.0128413
1.19169 0.759886 0.156431
0.0 0.0 -0.0128413
0.0 0.0 -0.0128413
0.0 0.0 -0.0128413
0.0 0.0 -0.0128413
0.0 0.0 -0.0128413
0.0 0.0 -0.0128413
0.0 0.0 -0.0128413
0.0 0.0 -0.0128413
0.14266 -0.15636 -0.0386838
0.0 0.0 -0.0128413
-0.144868 0.455909 -0.289914
0.0 0.0 -0.0128413
0.98055 0.865363 0.601194
0.0 0.0 -0.0128413
0.0 0.0 -0.0128413
0.880796 0.317515 0.400164
0.0 0.0 -0.0128413
0.0 0.0 -0.0128413
0.0 0.0 -0.0128413
0.0 0.0 -0.0128413
-0.0158474 0.00826345 0.344608
0.0 0.0 -0.0128413
-0.0605289 0.725944 -0.69937
0.0 0.0 -0.0128413
-0.90013 1.46969 0.5994
0.0 0.0 -0.0128413
0.0 0.0 -0.0128413
0.0 0.0 -0.0128413
0.0 0.0 -0.0128413
0.248424 -5.28304 0.0769478
0.0 0.0 -0.0128413
0.0 0.0 -0.0128413
-0.528968 -0.478616 -0.728692
0.0 0.0 -0.0128413
0.0 0.0 -0.0128413
0.0 0.0 -0.0128413
-0.63854 -0.163139 -0.409316
0.0 0.0 -0.0128413
0.0 0.0 -0.0128413
0.0 0.0 -0.0128413
0.0 0.0 -0.0128413
0.0 0.0 -0.0128413
0.0 0.0 -0.0128413
0.0 0.0 -0.0128413
0.0 0.0 -0.0128413
0.0 0.0 -0.0128413
0.00845618 0.321989 0.000858588
-0.101894 -0.201845 0.680506
2.00482 -0.282709 -3.14346
0.0 0.0 -0.0128413
0.00664573 -0.341111 2.07288
0.0 0.0 -0.0128413
-1.31299 0.133622 -0.594265
-0.880796 -0.317515 -0.425847
0.0 0.0 -0.0128413
-0.00867425 0.0111268 -0.00563838
0.0 0.0 -0.0128413
0.0 0.0 -0.0128413
0.0 0.0 -0.0128413
0.63854 0.163139 0.383634
0.0 0.0 -0.0128413
0.0 0.0 -0.0128413
0.0 0.0 -0.0128413
0.0 0.0 -0.0128413
0.0 0.0 -0.0128413
0.0 0.0 -0.0128413
0.0 0.0 -0.0128413
-0.4216 -0.29464 0.251609
0.0 0.0 -0.0128413
0.0 0.0 -0.0128413
0.0 0.0 -0.0128413
0.0 0.0 -0.0128413
-0.0908265 0.0418558 0.742095
0.0 0.0 -0.0128413
0.000343756 -2.83711e-05 9.6219e-05
0.0571987 -3.81248 0.168999
0.0 0.0 -0.0128413
-2.02485 -0.578807 3.15591
0.0 0.0 -0.0128413
0.0 0.0 -0.0128413
0.0 0.0 -0.0128413
0.0 0.0 -0.0128413
0.0422791 1.80671 0.0669894
0.0 0.0 -0.0128413
0.0 0.0 -0.0128413
0.0 0.0 -0.0128413
0.0 0.0 -0.0128413
0.0 0.0 -0.0128413
0.889814 -0.246856 1.43143
0.0 0.0 -0.0128413
0.0 0.0 -0.0128413
0.0 0.0 -0.0128413
0.0 0.0 -0.0128413
-0.000541774 -0.20873 -0.00241886
0.0 0.0 -0.0128413
0.0 0.0 -0.0128413
0.0 0.0 -0.0128413
0.0 0.0 -0.0128413
0.0 0.0 -0.0128413
0.0 0.0 -0.0128413
0.0 0.0 -0.0128413
0.0 0.0 -0.0128413
0.0 0.0 -0.0128413
0.0 0.0 -0.0128413
0.0 0.0 -0.0128413
0.0 0.0 -0.0128413
0.0 0.0 -0.0128413
0.0 0.0 -0.0128413
0.0 0.0 -0.0128413
0.0 0.0 -0.0128413
0.0 0.0 -0.0128413
0.0 0.0 -0.0128413
0.0 0.0 -0.0128413
0.0 0.0 -0.0128413
0.0 0.0 -0.0128413
0.0 0.0 -0.0128413
0.0 0.0 -0.0128413
0.0 0.0 -0.0128413
0.0 0.0 -0.0128413
0.0 0.0 -0.0128413
0.0 0.0 -0.0128413
0.0 0.0 -0.0128413
0.0 0.0 -0.0128413
0.0 0.0 -0.0128413
0.0 0.0 -0.0128413
0.0 0.0 -0.0128413
0.0 0.0 -0.0128413
0.0 0.0 -0.0128413
0.0 0.0 -0.0128413
0.0 0.0 -0.0128413
0.0 0.0 -0.0128413
0.0 0.0 -0.0128413
0.0 0.0 -0.0128413
0.0 0.0 -0.0128413
0.0 0.0 -0.0128413
0.0 0.0 -0.0128413
0.0 0.0 -0.0128413
0.0 0.0 -0.0128413
0.0 0.0 -0.0128413
0.0 0.0 -0.0128413
0.0 0.0 -0.0128413
0.0 0.0 -0.0128413
0.0 0.0 -0.0128413
0.0 0.0 -0.0128413
0.0 0.0 -0.0128413
0.0 0.0 -0.0128413
0.0 0.0 -0.0128413
0.0 0.0 -0.0128413
0.0 0.0 -0.0128413
0.0 0.0 -0.0128413
VECTORS omega float
33.2349 -12.394 58.2391
9.76776 9.68362 75.6774
96.1758 89.1811 1.75435
15.1863 142.039 53.1973
19.2161 -86.3678 36.5343
-27.1381 44.314 -19.3929
24.197 49.7063 21.6043
-5.09044 -79.2811 -26.7085
-5.16726 -46.7009 -4.31656
-60.7672 -110.704 29.4599
-14.2175 120.503 -25.8461
-0.809043 0.747106 -4.97485
145.867 -41.6575 47.9836
-11.9861 4.8132 -7.07451
-19.4432 -114.804 -5.28993
-6.78723 47.1308 -90.0648
26.2977 -80.416 3.67724
84.5139 -115.95 104.078
-2.38858 -8.40214 -2.729
-1.78505 42.4782 28.4767
-0.74126 -46.0178 -10.1696
31.7944 9.85235 -26.4704
35.6969 28.596 21.6109
127.008 39.4752 -35.3914
1.74409 14.881 -8.79373
-1.5449 7.29105 0.775941
-13.168 -33.1775 67.184
6.28971 -3.76731 8.53256
17.4614 -1.10778 7.87493
-5.63921 -67.605 -30.9055
-11.3278 -30.6504 34.6928
-2.81451 6.24258 -5.07369
-14.3667 43.5082 4.65183
1.18338 7.87578 4.2653
-1.40351 0.350668 -0.874625
-1.71211 -63.9747 -3.2444
9.2142 33.18 -43.7651
25.1137 -70.3439 4.76255
20.5522 -23.8381 -10.6973
53.5872 54.1747 24.1995
-0.540502 0.641947 0.800568
53.6009 -47.2573 -32.662
-53.8567 -81.1901 -19.6454
34.0225 -33.6745 -31.9623
-33.1149 -45.9807 -6.01945
8.31457 -13.4237 2.75622
-85.5741 44.7968 34.257
2.48874 24.7461 24.5281
15.2286 0.664517 -7.61441
-0.405892 3.9369 -2.80533
188.749 51.292 67.1157
13.6916 -5.15085 -14.396
-45.3015 23.634 27.721
50.702 -83.82 6.78434
-44.6666 20.2477 -27.6989
-16.4696 -39.0228 4.0855
2.15598 43.6788 5.37466
-27.5493 -71.3287 7.80982
162.948 -63.6928 13.8498
-2.57185 -1.46968 1.40843
-4.98777 65.3013 21.3232
-0.894019 3.85209 0.085998
15.9986 -102.417 -6.65978
-13.1869 -132.428 56.1577
53.4375 -27.9088 1.60409
19.956 28.7927 41.592
37.9469 0.280888 -23.516
-10.9949 -62.911 -7.62625
-46.5198 6.28019 -2.86065
-5.17764 -172.1 26.557
-4.94415 -7.03846 14.5662
2.56423 -77.8662 27.9996
3.1658 -1.10771 3.10398
46.4347 -31.1289 -97.5949
1.62366 0.500792 12.1441
-15.9937 18.8871 -11.836
17.4378 130.775 -29.2882
-19.8907 15.852 69.7565
12.2217 -7.53331 9.81499
1.54904 -7.28371 -0.251553
128.688 -49.7346 -39.3222
-42.8588 -208.925 47.8589
7.16729 7.89208 8.34658
35.6277 9.38813 -36.7158
4.05949 -1.85738 6.45213
32.4013 -1.06461 -70.6741
36.6584 63.4959 -72.7367
25.2024 22.1168 -17.7661
14.3298 31.4232 -41.2215
1.23805 -16.0996 -8.74317
17.4679 -136.136 -29.4675
-1.10558 -44.4739 41.1974
25.2003 45.3132 -13.5175
34.829 -85.5012 41.7112
-53.9787 -4.67053 0.397851
31.0471 -57.9163 10.5224
-11.4729 -14.9444 -1.04876
24.0454 8.66757 6.70678
-0.027838 14.9474 0.494105
11.1973 -121.713 -92.8776
-61.4854 -61.8544 14.1198
0.0698871 3.96991 -2.21596
12.5668 -7.04471 0.464915
2.88494 3.14469 2.97015
5.14031 6.11857 -7.78324
-10.5383 22.9946 23.1005
48.5108 -27.0461 5.09167
-34.7303 7.4639 56.8423
9.64265 -3.1657 5.5092
-52.9912 -31.6442 11.6544
13.4172 -79.4788 7.28982
73.2727 17.6209 -13.4856
-27.0969 44.1608 10.0387
-14.9082 -99.5539 9.33847
43.9496 -103.258 21.7634
20.1 -68.7721 12.9156
-7.17914 31.9651 -0.48394
6.28774 -71.4334 -7.72511
9.55281 15.1534 -15.4781
12.345 -42.3704 -66.7973
-14.1773 15.439 -6.31653
-3.46156 5.33531 -0.461914
4.85543 -15.9344 2.36367
-1.2197 -64.8186 14.7917
0.822099 2.70839 6.56611
-10.614 25.4326 -19.2744
-4.41054 60.6313 15.9197
-4.38681 -5.22371 -0.0675868
11.3999 11.2109 -10.3731
-92.8582 -72.1374 2.42467
11.7271 6.61734 0.823473
1.70716 -6.5193 -6.87724
-2.78096 -1.04791 -6.94261
-15.0889 -22.6502 -54.2944
29.4791 -54.075 -1.12317
-4.70178 -17.4753 -7.09881
-18.4202 17.8551 56.6227
-28.8258 -19.6058 -8.85524
26.9105 5.61286 -15.9068
-19.2332 -7.35076 -11.0633
-17.1416 -93.6819 -58.5416
44.8486 -1.26719 19.9812
-9.65829 -107.317 -25.6674
-1.43003 -16.0886 1.11353
-6.87934 -6.78308 -14.8264
2.97603 0.213661 8.83966
14.107 -71.6207 28.1557
-7.9066 -77.3277 27.3148
-3.09827 -5.63734 -1.05923
0.475751 0.532599 -6.4761
-2.19371 -71.9244 67.1655
-47.7306 23.0531 -51.1388
-145.901 69.7586 -20.704
-5.17162 -7.87603 9.83529
-73.2875 166.13 -30.7139
-54.6798 75.8396 -121.764
8.33943 -53.511 -30.9861
81.9147 -18.9071 -20.9283
-8.85047 1.56907 -1.85907
16.6915 -138.532 -30.7126
-18.3204 22.9227 -36.4022
-101.178 -40.5509 11.333
12.4381 -93.1676 9.95813
-12.3853 29.8969 3.83749
-11.9776 73.2635 66.8209
-48.2157 -29.6556 27.8612
-4.67379 -4.40907 -5.80995
69.6095 71.7263 85.0407
15.8874 -64.1096 16.5381
-0.523918 -51.8534 -59.822
-1.72268 9.34931 0.970825
2.33446 -2.7253 1.75322
-44.6321 48.4155 29.6799
14.168 -5.5265 126.774
-56.3427 -80.2162 -31.8065
17.0443 20.2109 -66.5794
26.9833 61.6006 38.0874
-4.21399 59.8898 83.2056
-51.8099 -109.463 -53.6593
59.5048 11.3368 -136.265
27.6715 46.4734 6.99605
11.5728 -66.0359 -18.786
-16.7764 -7.43851 -10.2327
-60.083 -40.4744 55.7655
36.2536 54.5553 25.5676
-17.8856 -16.9777 -15.5804
6.92848 -27.5719 -80.5118
8.87927 6.31518 9.96078
0.379474 10.1802 -0.820058
54.4124 -9.55181 -59.322
-9.92018 1.45944 -8.33561
-33.2019 139.599 -11.912
8.13999 4.78664 -31.0636
-58.3615 -97.5214 -32.2579
60.417 229.843 -20.7048
-6.68189 -19.7796 7.63277
-50.8598 -28.5364 -36.3382
18.1384 -65.0349 -31.4045
6.25689 15.6607 4.6909
-1.85198 -23.7493 74.2874
-46.619 -4.34199 85.5035
35.9487 -62.0342 -5.13388
-28.8059 -5.87103 30.3157
1.2629 -5.51236 5.94203
24.523 -15.2133 -24.712
-45.0037 -54.1898 1.51971
-6.61732 14.5999 9.23246
-13.4968 -65.5874 45.2568
0.918988 -17.1943 -21.5112
-11.7477 -75.1196 21.0597
21.4696 -55.6834 162.413
-44.7791 -26.8307 -81.2276
2.52265 -7.59932 -16.9509
101.756 36.884 -32.6533
91.8504 39.9741 -85.1403
47.1963 -2.76024 40.44
3.45136 3.52294 19.0026
-72.6072 -38.1654 -4.69262
-30.1729 -86.3358 110.106
13.0977 16.0231 8.22984
-15.6495 -18.3445 -11.5774
104.725 25.6722 45.248
-15.457 -62.7537 17.1925
-10.8064 7.21767 1.06628
-14.3903 -55.2307 -7.33402
13.5458 -46.4092 -19.6263
-6.51993 7.07498 -11.6056
37.4795 -5.95995 -3.15189
47.1308 10.1013 23.3313
7.9419 -11.8671 7.41424
-6.1739 2.34328 -4.79786
-54.841 42.9423 -70.1777
-34.5235 16.1782 18.1564
-9.83556 -6.98189 0.0923577
41.6392 23.2779 44.7717
31.1336 -35.6743 21.1152
1.62374 -11.5909 -33.6848
55.7637 15.2438 -18.0877
110.103 -5.4032 1.37063
34.8296 37.8201 24.5459
19.2549 -24.0847 19.1969
0.718704 6.897 4.0656
-22.9808 -82.9802 -41.2848
-35.5334 -8.13405 17.27
-20.0183 -3.48025 -0.932424
13.2732 -81.755 -22.1528
36.0007 25.2864 -46.5797
25.2876 -18.2524 -28.9937
2.9282 -30.8143 31.8984
-0.216047 -107.569 10.0768
-16.4714 -68.5375 43.7124
6.69032 -27.2388 -14.6919
-6.82035 -3.45837 7.75794
3.89967 32.3111 82.4074
-46.7038 -29.3323 5.67149
-11.6132 2.31187 5.86712
15.7054 -164.909 -5.8322
28.7781 -95.519 80.8763
-52.4266 139.926 31.5592
17.9367 43.5675 -4.37686
47.3556 9.84137 -21.8266
3.77477 39.2679 12.5121
-18.3848 88.2841 79.9909
-10.2882 -14.429 -55.8819
21.7912 -109.816 18.8831
10.0733 2.87113 4.33985
0.26695 24.7798 -0.539678
-36.1957 12.0161 -64.8922
-0.836045 -0.0316908 -8.39738
31.4888 62.0119 18.6487
2.80654 -15.9483 0.0785501
0.0830333 4.55788 0.187471
32.3418 8.71325 23.666
-5.28849 6.29003 33.7745
-14.9569 74.1707 0.675144
63.4607 -72.1168 71.1644
-18.4523 -68.6076 13.094
26.8899 14.3863 -42.6307
0.365551 8.98791 -4.86692
-20.797 -38.0051 -72.5631
-1.84272 0.945537 -16.2804
-6.67949 -5.00215 11.7618
-34.5762 -54.1539 -4.45552
12.7118 21.727 -23.5173
-38.2805 32.6737 58.4989
13.7047 53.1879 4.03057
35.0878 -42.1982 -47.4612
49.8324 -63.014 24.2424
28.5286 58.2455 47.9157
40.9848 40.9921 -24.4382
39.3939 7.26489 -29.5816
36.6582 -29.3245 36.8429
54.8894 38.7066 1.89817
-81.7815 -24.448 0.0449461
-66.3143 -9.12348 60.1291
0.349205 23.7549 -10.6592
-10.9589 14.2002 11.4811
-21.2244 -47.2223 -10.1053
-31.4639 42.5644 84.5896
-7.14398 43.5558 -60.3674
-66.3864 -70.0032 3.25097
109.955 -153.478 -35.0692
-14.2283 22.4283 -12.3494
55.8557 -86.9484 -12.6696
-29.1389 34.2654 -3.32604
-6.6691 21.7991 33.4429
9.44406 11.442 9.98956
-46.0353 -1.03004 86.6809
30.0928 -73.4366 -1.3135
-2.62778 2.27928 -1.75974
-20.0957 -21.8237 -37.0244
-29.0822 -4.02029 42.796
-15.1863 -86.0984 -2.97451
-57.3057 -101.226 76.7564
14.4611 -24.2894 98.066
-14.6998 -99.2 33.101
-11.1218 -119.001 -12.8077
15.8669 -23.0872 36.057
-62.8219 -35.173 1.43129
13.3268 3.55289 0.751177
30.0276 -9.93777 -35.9537
8.68965 -29.3993 -34.0537
-95.3799 -5.68824 24.2521
13.7943 -103.92 17.8215
-46.665 -70.7574 49.4712
-12.9172 14.913 -4.2709
20.4423 7.9248 -66.4403
51.0018 2.22539 -12.2905
34.6383 -9.45472 125.668
21.5206 -8.2054 4.57995
33.0837 -47.7703 -63.9135
-39.897 -0.88122 -17.0443
7.2164 -25.7976 25.5529
57.3947 -7.74484 36.2187
15.0344 -83.3903 -68.2147
-5.91169 -5.87931 -2.64269
22.8314 4.59138 -45.0156
62.7526 -63.3171 65.7711
-11.0323 15.7229 -6.13202
4.0879 -28.7008 16.652
21.364 -76.9721 -13.429
25.149 -86.3399 -44.8445
-8.93582 -43.0269 49.2687
-6.05792 17.7745 12.689
-53.6156 -15.3175 -10.0919
49.0909 -20.3447 -33.3224
14.9914 -57.3965 -13.7651
12.9285 -4.41875 -0.365025
21.4226 -49.9759 3.78055
8.38125 2.48818 35.1967
7.97601 -27.1589 14.3734
7.31377 8.08021 -50.1601
-1.83927 48.2883 -26.1197
37.7966 -44.8554 62.1375
16.9829 -34.3524 18.5467
3.01669 -69.4291 -6.13261
-50.3221 28.7279 -36.8169
25.1327 14.5743 37.3923
-24.661 15.9237 2.3137
27.7915 -143.118 -20.3294
7.33978 28.0012 -28.8314
41.5414 -101.236 12.419
-37.7481 5.77127 -45.1068
-14.1066 39.4259 -7.8649
37.6673 12.2062 -14.9192
189.203 124.1 -37.8562
3.58339 42.5714 0.570871
-14.6535 -14.4694 7.09151
13.3925 32.4955 -16.4867
20.7095 -107.657 34.3077
5.59221 13.8332 -2.59517
12.6718 -4.54486 16.8292
-57.9447 24.6881 -19.467
11.1996 46.1313 13.8409
-10.7956 9.14981 -40.641
-30.2567 72.8356 -20.2729
-22.7351 14.7916 -7.00402
79.2057 14.3699 20.0532
-31.9704 -30.2211 33.7151
-95.6632 -135.33 4.05666
56.103 -79.2321 25.592
-21.5992 -7.22913 14.7214
-30.1094 58.9093 -12.0972
-2.48232 -24.564 50.2722
126.035 -87.087 22.0915
-6.28993 7.67367 10.9724
-42.9404 -43.466 3.12988
8.08466 29.9945 -73.3079
-1.38565 33.4706 6.17148
3.27331 -0.995111 -12.3533
1.49106 22.7929 -1.19762
34.0599 -24.2773 0.375741
6.97155 -66.9684 14.3579
-63.4744 31.4118 3.98217
38.3708 -77.2067 -46.094
-49.5994 -36.7542 13.3575
-41.7312 12.6075 8.24632
-11.4257 -29.4271 -51.4541
-43.4462 -75.292 -47.6318
-2.96653 46.6985 -29.3605
-39.1937 14.057 -57.1275
16.8394 74.5235 -16.0975
41.8913 36.7654 53.4987
31.3066 88.919 21.6734
-99.5739 24.8488 44.7993
139.191 -45.3665 -8.25417
26.9118 -15.7873 26.3305
-86.2896 97.9482 -38.9504
-33.8463 17.8782 11.4314
-51.6048 -17.9668 -28.6542
-25.7088 20.7462 -7.01492
-25.9131 45.485 -25.1864
2.59626 1.45073 4.39021
15.4413 -4.46087 -13.7431
-40.1059 -113.18 -7.96177
71.6079 -25.4628 25.7325
-45.8988 -109.853 15.016
22.1124 -0.709522 2.46876
-3.89129 35.1376 6.86945
8.03212 -66.021 -12.955
-27.0909 -87.2385 -11.8286
-19.748 22.6314 -14.8939
-104.724 34.0223 -3.28463
17.4779 -26.456 33.753
6.91301 19.9223 -7.78705
-32.5881 20.4891 -59.5714
15.4383 -6.21704 -9.46157
52.2834 -88.1905 11.0427
-12.182 -4.58938 -5.83681
70.4615 -93.1836 14.9171
3.41746 12.7858 -14.7864
8.65257 12.2224 30.777
20.9374 -43.5933 5.88806
24.0274 39.78 35.8066
-9.50838 -62.7452 72.387
74.0831 83.3348 0.0609283
-13.2627 20.7331 19.6271
-7.30438 38.6785 -9.45949
41.939 24.7419 -53.7649
14.3267 10.6471 36.5035
39.4528 14.6546 25.539
-37.3185 -0.188068 1.22912
15.6217 -79.5358 4.48576
-51.8549 -23.5885 -33.69
26.6867 -2.93869 33.0803
57.2725 86.049 16.996
-0.431187 -46.962 9.51269
-29.5793 -35.0813 -1.91348
10.4498 -46.9509 4.22965
4.37159 8.40469 -3.94733
48.6483 44.7627 -2.65299
8.64697 -28.7856 -9.27872
21.4667 45.5189 7.52213
0.239287 -16.2621 6.19768
-22.8864 10.9798 15.4014
-7.52436 -77.0747 35.4628
-46.6897 -9.52058 -0.922612
-24.2315 -7.02075 -54.1027
9.12622 -75.3329 -9.18377
-4.1148 -0.495089 3.87282
6.41101 -44.1504 8.87737
-1.77041 -58.1967 9.88007
4.35917 15.9323 -8.10662
-8.04769 -22.4622 10.1719
-20.9094 25.257 -16.7206
2.25435 55.9398 -45.385
-2.11755 27.278 5.30081
27.3283 -1.66857 37.8716
-16.3815 9.79186 3.12077
-28.195 -9.9588 1.54857
44.9674 15.9344 16.9454
12.7627 35.306 5.6864
13.7971 -45.1043 13.9636
-7.99586 -42.8921 14.876
17.5683 22.4656 -0.346318
17.4739 -15.9132 -5.57144
-0.579676 -35.3793 8.67833
6.02343 -11.9413 -15.5227
3.8562 14.8057 -1.34874
-9.89007 7.86783 34.7813
-26.222 6.78911 17.9463
-42.6051 -38.931 -7.88283
40.9685 -7.57823 15.0452
20.4037 -9.02444 2.79348
-9.93077 -32.5665 -45.8623
-7.40409 -28.4343 -19.6343
4.80108 -29.0536 21.49
-19.0895 -10.6367 28.1211
-15.3976 -1.11888 4.6703
-21.0876 -38.5271 24.3157
17.1587 40.4475 -11.5114
13.4164 -36.8043 -8.49914
15.0826 38.1937 30.0292
24.8096 21.8879 -12.8078
-39.8606 35.3184 11.7959
-11.7095 -13.0692 -13.2454
-41.0134 -0.931673 -28.1326
10.1337 26.0335 1.0099
6.79786 18.7554 -11.7134
1.47354 -39.191 15.7417
VECTORS v float
0.0479326 0.385125 -0.371962
-1.09814 0.0449113 -0.0199626
0.0242415 -0.536495 0.106177
0.194583 -0.165304 -0.328698
-0.258342 -0.0600496 -1.0742
-0.811574 -0.154462 -0.361985
-0.837887 -0.256958 -1.14321
-0.355462 0.031393 -1.26094
-0.468911 0.102703 -1.21198
0.423194 -0.0457394 0.753409
-0.202847 -0.0570282 -1.33161
0.0274992 -0.0259731 -0.0319001
-0.512541 0.0674376 -0.01979
0.0668862 0.00939273 0.18521
-0.341783 0.060187 -1.31858
-1.28499 0.441334 0.779331
-1.20477 0.476388 -0.153514
-0.850154 0.0667265 -0.527482
0.0441236 -0.0319534 0.126361
0.0103446 -0.0337733 0.0643895
-0.998751 0.291343 0.130704
-0.77986 -0.108783 0.0652355
0.0359412 0.257297 -0.0763889
-0.597598 0.302256 -0.981146
0.100253 -0.0197972 0.00880437
-0.0294123 0.0566731 0.155408
-0.293988 0.355338 0.0676727
0.17499 0.141736 0.0572028
0.247685 -0.0765905 0.260654
-0.0293968 0.0273048 -0.866723
0.954071 0.163928 -1.30216
0.036376 -0.0898014 -0.0075319
0.154164 0.103219 -3.78855
0.189774 0.181436 0.039576
0.00175509 0.00974463 0.000181667
-1.16008 -0.217304 -0.287149
-1.26815 -0.115946 0.212749
-0.943665 0.244823 -0.270186
-0.464487 0.379596 -0.682123
0.111025 0.248322 -0.69447
0.00385606 -0.000937085 -0.000844952
0.601668 0.656159 -4.07357
-0.964449 0.0339348 0.559038
-1.44255 0.0698687 -0.0167829
-0.211853 -0.0811799 -0.823542
0.00241297 -0.0109312 0.0356083
-1.30685 0.497247 -2.6611
-0.446957 0.0595573 -0.00145426
0.150205 0.140438 -0.00950256
-0.0221661 -0.000755769 0.0279677
-0.0343772 0.328329 -0.225106
0.0411794 0.0785239 0.122568
-0.141511 0.343471 -0.0346575
0.183698 0.0356598 -0.282737
0.233919 -0.0549451 -0.359978
-0.826755 0.0862732 -0.00135901
0.723945 -0.00975609 -1.25254
0.175531 0.0519382 -0.523471
-0.240171 0.232979 -1.09049
0.0430272 0.011602 -0.00786265
0.557826 -0.10413 0.169494
0.00825941 -0.0731103 0.0362896
-0.596603 -0.210235 -0.372095
-1.19254 0.274071 -0.36549
-1.12604 -0.465029 -0.413636
-0.233578 0.195728 0.265671
-0.0773475 -0.367727 0.0296014
0.170197 -0.00554285 0.28949
0.0496474 0.305647 0.0660082
0.990851 -0.126598 -1.33779
0.0589105 0.186722 0.136964
-0.878462 0.161891 -0.00321517
-0.0243614 0.0194117 0.00831578
-1.16167 -0.0458045 -0.1601
-0.0476017 -0.129282 -0.0625009
-0.170819 -0.0624768 0.029424
-0.0288313 0.153088 -0.652218
-1.18984 0.239399 0.32691
0.150236 0.00459366 -0.0324
-0.02506 0.0869826 0.118955
0.446311 -0.211066 0.221371
0.960874 -0.141264 -1.04308
0.123258 0.0281919 0.28581
-0.514437 -0.229001 0.124362
-0.0110331 -0.0160109 0.000732485
-0.566755 0.564438 0.214425
0.37858 -0.265945 0.0114638
-1.15125 0.488592 0.16673
0.688266 0.218474 -0.590116
0.0046412 0.138308 0.362607
0.86183 -0.150408 0.631883
-1.21728 -0.0281456 -0.21314
-0.467707 -0.236109 0.101183
-1.62508 0.0620574 0.0124961
0.0432083 0.258197 0.0945338
-0.715562 -0.432628 0.284167
0.0932486 -0.0220024 -0.0919831
0.0229926 -0.0394166 -0.340695
0.132806 0.00578703 0.000239877
-0.435402 -0.225063 -0.1179
-0.795205 0.238041 -0.0631286
0.0198517 -0.000285327 0.000124048
0.128411 0.1716 -0.00977761
0.0383379 0.0561539 0.0157762
-0.00561242 -0.00240986 0.0168545
-0.0242476 0.264037 0.21847
-0.331844 0.0513911 0.00528883
-1.04539 -0.0809231 -0.603688
-0.0659775 0.190791 0.0758878
-1.07888 -0.147605 -0.271497
-0.925781 0.222393 -0.344673
-0.916924 -0.408222 -0.36541
-0.173376 0.606351 0.241186
-1.4139 -0.0595517 -0.0925209
-0.561087 0.255631 0.178961
0.178268 0.495166 -0.373331
0.776744 -0.0253732 -1.83625
-1.03063 0.2782 0.213333
-0.134697 0.0157531 0.0262095
-0.95223 -0.172472 0.0434258
0.10636 0.133867 -0.016728
0.0540883 0.0284003 -0.218032
-0.027663 0.0406291 0.0920142
-0.737432 -0.223185 0.00599962
0.102412 0.180074 -0.0231492
-0.0651758 -0.303357 0.195301
0.234543 -0.101915 -3.94914
0.0189787 0.0310035 -0.0662298
0.094923 0.11789 0.0752007
-0.910186 -0.0226539 -0.136243
0.0565937 -0.0907251 0.121382
0.0860105 0.063106 0.0310631
-0.0334607 0.0705787 0.0210935
0.194998 0.336396 -0.369412
-0.959719 -0.661039 0.204056
0.139475 0.171791 0.00440347
-0.129762 0.190282 0.0236295
0.0967199 -0.00798957 0.0930898
-0.638106 0.0914352 -0.443751
-0.0751927 -0.00575058 0.0272263
-0.476224 -0.145085 0.140791
-0.121271 -0.412566 0.291013
-0.878549 0.180514 -0.254458
0.0848015 0.0110577 0.0605793
0.0480588 -0.00324649 0.131165
0.157343 -0.129935 -0.0899336
-1.15028 -0.0404391 -0.12059
-1.51656 0.0365686 1.08978
0.0723802 -0.0233574 0.0280469
0.114023 0.0420198 0.102282
-0.397469 -0.270717 -0.438593
-0.277957 -0.140871 0.480446
-0.135867 0.113041 -0.0547486
-0.0933662 0.206641 0.480069
0.682979 0.145518 0.425335
-0.614668 0.325047 -0.231847
-1.20472 -0.102928 -0.207796
-1.21507 -0.0642718 -0.191078
0.0355993 0.112549 0.0513199
-1.11773 0.0917532 0.0437468
-0.208211 0.127721 0.0666389
-1.00316 0.131498 0.147589
-1.28244 0.0205958 -0.270243
0.30363 0.381835 0.278854
-1.08551 -0.0792049 0.064194
-1.01414 -0.0607151 0.113215
0.0686697 -0.0289004 0.047632
-0.722837 0.462718 -0.153166
-0.00243141 -0.0112517 0.106239
0.0609468 0.36884 -0.127227
-0.026625 0.228653 -0.202255
0.021943 0.0622638 0.019455
0.322609 0.769212 -0.371604
-0.989886 0.15562 -0.00332914
-0.753456 -0.42841 0.118456
-0.878965 -0.665517 -0.632444
0.406387 0.0645121 -0.681955
-1.16622 0.497271 -0.0202107
-1.70355 -0.0228211 0.101668
-1.12023 -0.0265519 0.372536
0.3677 0.222665 -4.06983
-1.26757 -0.233544 -0.685663
0.287706 -0.0577626 -0.0466056
-0.822654 0.127417 -0.135877
-0.607126 -0.12491 0.200241
-0.831463 0.248595 -0.126217
-0.536215 0.401854 -0.270345
0.280454 -0.129906 -4.25098
0.032496 -0.031488 0.0462676
-0.120516 0.302951 0.267682
-0.0361628 0.0619907 0.104855
-1.40396 0.134886 -0.617778
0.259539 0.143498 0.0558669
0.881947 -1.89852 -1.85364
-1.34473 0.640871 0.980317
-0.153622 -0.0366519 -0.00741197
0.0594087 -0.276972 0.000418119
0.0181727 -0.0318852 0.681883
0.125117 -0.0162289 -0.0086018
-1.09358 0.101617 -0.246103
-0.689236 0.319316 0.0280389
-1.20812 0.0674829 -0.00191967
-0.815857 -0.0887597 0.160193
-0.00486569 0.00152554 -0.00489107
0.23961 -0.261058 0.366925
-1.03631 0.0132396 0.182395
0.267103 0.071061 0.23349
-1.21214 0.293239 0.231737
0.214721 0.0172697 0.181436
0.0852094 -0.626385 0.00803988
-1.00771 0.0903818 -0.337461
-1.22409 -0.0422478 -0.0341591
-0.00173469 0.163636 0.0519085
-1.03856 0.0988462 -0.35649
-0.362787 0.178753 0.508367
-0.563639 0.741449 -0.16678
-0.00509128 0.0910668 0.0096808
-0.0825885 0.430536 -0.157598
-1.01134 0.0708482 0.138259
-0.00358495 0.056211 0.0440308
0.107449 -0.0802314 -0.0740725
-0.55069 0.345803 0.119099
-0.502679 -0.00840273 0.0555032
0.0107714 -0.00291523 0.123398
-0.982138 -0.199765 0.493916
0.0803531 0.554697 0.248911
-0.175426 0.0941824 0.285262
-1.43518 0.0119117 0.011149
-0.357164 0.536452 -0.274871
0.112621 0.118036 0.143949
0.0226568 -0.0584666 0.0401443
-1.3623 -0.140501 -0.0116866
-0.0825463 -0.0485904 0.286754
0.150328 -0.0404449 0.148992
-0.248732 0.523176 0.510578
-0.422955 0.112852 0.349663
-0.32939 0.0977016 0.163267
-0.981939 0.334241 -0.415989
-0.780145 0.46165 0.133761
-0.0598973 -0.619441 0.0336602
-0.0894115 0.66336 0.0891883
0.567662 0.0848035 -1.04974
-0.311911 -0.466156 0.202078
-1.30388 0.123479 0.238936
0.027699 0.127057 0.220075
-1.0988 0.158364 0.129441
-0.823862 -0.0109047 -0.481934
-0.583535 -0.0837546 0.0853853
0.00335344 0.227204 -0.0649072
-1.05193 0.104746 0.301806
-1.85896 0.463051 0.0524533
0.329718 -0.0372071 -0.002277
0.0914994 -0.0583389 0.0545836
-0.601056 0.254366 -0.430388
-0.319184 0.275689 0.0455504
0.0994455 0.126752 0.113242
-1.13582 -0.226236 -0.130162
-0.790678 1.23435 -0.0373238
-0.959898 0.533327 0.827273
-0.136219 0.0329457 -0.04468
-1.13068 -0.191921 -0.130362
0.161453 0.460313 0.0985576
-1.60621 0.67877 -0.322263
-0.880511 -0.266738 0.214533
0.314969 -1.06079 0.469893
0.0934121 0.0253759 0.00910413
0.588593 0.0120101 -0.967882
-0.537672 -0.119144 -0.625783
0.0322952 0.0567098 1.33096e-05
0.344902 0.420516 0.00314
0.17005 -0.0197031 0.0137702
0.0737326 0.0203834 -0.178354
0.0896839 0.00486379 0.146869
0.160874 -0.0221719 0.271745
-0.163137 -0.135029 0.0150325
-1.12823 0.431141 0.0402551
-0.406339 -0.111924 0.304418
-0.0264241 0.261286 -0.285638
0.104149 0.0978951 0.0319734
0.500639 0.156598 -0.921713
-0.20121 0.368023 0.0256294
0.367193 -0.0133732 -0.117843
-0.605657 -0.26416 -0.451917
-0.723795 0.129996 0.508889
-0.650016 -0.348263 -0.431987
0.187441 0.0445824 -3.93943
-0.293974 0.279905 -0.225248
-1.1058 -0.0251823 -0.215389
-1.51255 0.287346 -0.0511182
-0.976344 0.0350628 0.164788
-0.311147 0.100609 0.0105666
-0.0951929 0.676761 0.167832
-1.4317 4.36289e-05 -0.0390809
-1.39286 0.0532817 -0.240633
-0.950009 0.379355 0.239298
0.174799 0.00533873 -0.167765
-0.158792 0.107909 -0.190536
-0.284195 0.297112 0.342359
-0.717837 0.176802 0.266145
-0.10575 0.440615 0.291853
-1.32931 0.205542 -0.221722
-1.45825 -0.0981221 0.638099
0.468047 -0.052028 -0.621162
-1.0283 -0.121591 0.0803631
0.11079 -0.05417 0.146453
-0.254028 -0.237214 -0.0906718
0.837381 -0.00816516 -1.74126
-0.978298 0.77989 -0.907697
-1.31857 0.149241 0.128408
-0.0543287 -0.0425099 -0.073782
-0.62518 1.03237 -0.907388
-1.00763 -0.10396 -0.00412703
0.326488 1.07311 -0.187933
-0.826708 0.0850869 0.739634
-0.772035 0.470235 0.00277661
-0.325473 0.00759667 -0.658775
-0.586735 -0.124268 0.0388702
0.665651 0.349012 0.496902
0.235211 -0.25995 -0.00968356
0.108999 -0.206529 -2.63092
-1.00839 -0.0669957 -0.162197
0.623244 -0.0328604 -3.42352
-1.02911 0.00928553 -0.302602
0.0220753 0.053383 -0.448146
-0.817154 -0.0601713 -0.521689
-0.602129 -0.300113 -0.032702
-0.580876 -0.111302 -0.121052
-0.0553544 0.0864793 0.228916
-1.55465 0.181118 -0.979717
0.0405593 0.0544688 0.102803
-0.330279 -0.570376 -0.534992
-0.695131 -0.629015 0.311257
-1.05802 0.204084 -0.138729
-0.0580449 0.0809515 0.207353
-0.53801 -0.143437 0.000285149
0.0075751 0.0701885 -0.0563958
-1.1113 0.0332327 -0.581479
-1.40771 0.32549 -0.45944
0.225265 -0.353899 -0.013183
-0.0192358 -0.0879843 -0.116343
-0.667137 -0.0187152 0.699495
-0.465245 -0.36243 0.70925
0.136679 0.35485 -0.0505481
-0.929515 -0.090266 0.683895
-1.19649 0.195849 -0.0518656
0.02412 0.230431 -3.41643
-0.1022 -0.243114 -0.137491
0.0158202 -0.0560042 -0.0431743
0.422884 -0.66318 -1.50872
0.40954 0.388734 -0.203347
-0.276331 0.0259032 -0.0107084
-0.331472 0.289886 0.136759
-1.05674 -0.222557 -0.120513
1.1023 1.65879 -1.02538
-0.238444 -0.208699 -0.451685
-1.36774 -0.504993 -1.6906
-0.0629453 0.0943873 -3.50909
0.255836 -0.59497 0.447296
0.295723 -0.192093 -0.223241
-1.89773 -0.0807712 0.907372
0.477838 0.250896 0.581991
-1.20383 -0.876515 0.484872
-0.808878 0.175212 0.0339775
0.859552 0.00230206 -1.914
-0.541954 0.46974 0.0239072
-1.92274 -0.477037 -0.171465
-1.46694 -0.116132 -0.386313
0.141224 -0.0579977 -4.19939
-0.778183 0.00889193 0.258828
-0.405467 -0.00704272 2.57131
0.0987405 -0.0434242 0.0158715
0.054984 -0.056929 -2.55622
-0.159614 0.0258014 0.176874
-0.583053 0.151123 -0.180251
1.7262 -0.553661 -0.532458
0.0204418 -0.124742 -3.93255
0.0137105 -0.299356 0.534238
-0.91837 0.0481776 -0.648812
0.0550946 -0.0478041 0.0952654
-2.41195 0.71955 -0.432546
-0.500045 0.163398 0.00751061
-1.31937 0.18487 -0.411409
-0.0402533 -0.191621 0.364758
-1.04159 -0.287247 -0.0517806
-0.616902 -0.282388 0.111947
0.649135 -0.0245476 -1.16388
-0.0928578 0.0620522 0.275255
-0.90879 -0.35023 0.693476
0.266434 0.0256794 -3.61549
-0.0798394 -0.0745982 0.0792078
0.332415 0.42573 0.224107
-1.24647 0.307843 -0.188209
-1.18874 0.0465527 0.228855
-0.00423826 0.0978183 -3.30223
-0.0289484 0.0314053 -0.000377805
-0.888206 -0.448323 -0.703569
-0.742012 0.249329 -1.34326
0.453116 0.451431 -0.154898
1.23913 -0.206685 -2.57426
0.330315 -0.0597423 -4.44278
0.0906806 -1.09343 0.940051
0.219727 0.075463 -4.05842
-0.0811807 0.461848 -0.606431
2.17958 -0.555648 -1.66414
-0.841042 -0.468075 0.360917
-0.324294 -0.620839 0.399855
0.199679 -0.0584091 -4.34239
-0.754912 -0.171374 -0.00898676
0.917393 0.0410632 -1.75354
0.246458 0.565284 -0.209201
-0.0422608 -0.0519428 -2.71697
0.585499 0.0868679 -3.89389
-0.308041 0.916597 0.650406
0.55126 0.00719603 -2.51784
-1.80543 0.141452 -0.113614
-1.24261 -0.11121 0.56506
-1.39258 0.142302 -0.73284
0.255456 -0.580974 0.262273
0.450054 0.00475197 -0.584678
-1.12753 -1.02966 -2.34306
0.237013 -0.0477324 -4.43725
0.453754 0.0595564 -3.65374
-0.0189833 0.0010503 -0.123111
0.54671 -0.0890396 -4.13103
0.0995832 -0.0345578 1.076e-05
-0.655111 -0.0651504 -1.03378
0.329132 -0.0761415 -4.23571
-1.26006 -0.47297 -1.41441
0.416818 0.0332741 -4.33098
-0.287404 0.20895 0.506847
0.382155 0.0397895 -4.52567
0.0281531 0.0594322 -4.17227
-1.21058 -0.802981 -2.12859
-0.00798725 -0.132588 -3.80824
-0.784417 0.212069 0.375012
0.238316 -0.0216617 -4.03272
0.118252 -0.0338669 -0.209039
0.419978 0.00028746 -2.78745
-0.407455 0.449854 -0.876056
0.0543307 0.154014 -2.97393
0.462967 -0.141747 -3.97695
0.157994 0.0409486 -4.2246
-1.66687 -0.630691 -1.82614
0.0507192 -0.0677972 -3.94644
-0.33558 -0.0720992 -4.28327
0.711604 -0.0348699 -3.7885
0.301542 0.0361932 -4.44563
0.163879 0.144965 -4.3487
0.254061 -0.0219197 -4.10635
-0.0268942 0.141362 -3.68973
-1.78234 1.24 -2.00235
-0.0579985 0.0757891 -4.18948
0.844788 0.0411571 -1.43581
0.574388 0.0698299 -4.22005
-0.157057 0.225456 -2.34625
0.355764 -0.0371651 -4.32338
0.0907552 0.0283719 -3.80557
0.127439 0.0317474 -3.65753
0.366582 -0.19654 -3.94935
0.131247 0.160231 -2.70137
0.428333 0.0541714 -3.99635
0.0108981 -0.200035 -4.10205
-0.0216242 -0.168374 -4.0593
0.442503 -0.0798937 -3.93271
0.631978 0.0893023 -0.91633
0.244603 0.156132 -2.95342
0.303051 -0.134286 -3.50354
0.0787214 0.0855235 -3.39584
0.296686 0.0354845 -3.88768
0.508123 0.0376291 -4.13933
0.198713 -0.157346 -2.30119
0.540798 0.00607524 -2.68143
0.280013 -0.194977 -2.11753
0.452675 -0.0020118 -3.85128
0.766356 0.0228615 -1.87749
0.439508 -0.0363802 -4.16073
0.749429 0.714862 -3.83249
0.435953 0.0181422 -3.76724
0.0981274 0.00227928 -0.149845
0.37881 0.318853 -3.83206
-0.195203 0.0512104 -2.2666
-0.0898497 -0.0028115 -3.22212
-0.00969842 -0.0928332 -2.46431
0.554749 -0.156388 -3.01959
0.29347 0.127586 -2.4828
-0.0350519 -0.16558 -3.16554
0.430396 -0.130699 -4.47518
0.688506 -0.0103643 -3.61431
-0.172123 0.0730235 -3.25848
0.553429 -0.146032 -3.53597
0.877566 -0.0244534 -1.03802
0.00278366 0.118697 -3.41839
0.547115 -0.286398 -2.69008
0.630874 -0.124835 -3.20711
0.182137 0.0477301 -0.50653
0.0922655 0.0626239 -3.36631
0.352062 0.103273 -2.51101
0.00829543 0.166304 -3.24786
0.489968 -0.0418602 -4.08048
0.342175 0.210937 -3.5995
SCALARS radius float 1
LOOKUP_TABLE default
0.005
0.005
0.005
0.005
0.005
0.005
0.005
0.005
0.005
0.005
0.005
0.005
0.005
0.005
0.005
0.005
0.005
0.005
0.005
0.005
0.005
0.005
0.005
0.005
0.005
0.005
0.005
0.005
0.005
0.005
0.005
0.005
0.005
0.005
0.005
0.005
0.005
0.005
0.005
0.005
0.005
0.005
0.005
0.005
0.005
0.005
0.005
0.005
0.005
0.005
0.005
0.005
0.005
0.005
0.005
0.005
0.005
0.005
0.005
0.005
0.005
0.005
0.005
0.005
0.005
0.005
0.005
0.005
0.005
0.005
0.005
0.005
0.005
0.005
0.005
0.005
0.005
0.005
0.005
0.005
0.005
0.005
0.005
0.005
0.005
0.005
0.005
0.005
0.005
0.005
0.005
0.005
0.005
0.005
0.005
0.005
0.005
0.005
0.005
0.005
0.005
0.005
0.005
0.005
0.005
0.005
0.005
0.005
0.005
0.005
0.005
0.005
0.005
0.005
0.005
0.005
0.005
0.005
0.005
0.005
0.005
0.005
0.005
0.005
0.005
0.005
0.005
0.005
0.005
0.005
0.005
0.005
0.005
0.005
0.005
0.005
0.005
0.005
0.005
0.005
0.005
0.005
0.005
0.005
0.005
0.005
0.005
0.005
0.005
0.005
0.005
0.005
0.005
0.005
0.005
0.005
0.005
0.005
0.005
0.005
0.005
0.005
0.005
0.005
0.005
0.005
0.005
0.005
0.005
0.005
0.005
0.005
0.005
0.005
0.005
0.005
0.005
0.005
0.005
0.005
0.005
0.005
0.005
0.005
0.005
0.005
0.005
0.005
0.005
0.005
0.005
0.005
0.005
0.005
0.005
0.005
0.005
0.005
0.005
0.005
0.005
0.005
0.005
0.005
0.005
0.005
0.005
0.005
0.005
0.005
0.005
0.005
0.005
0.005
0.005
0.005
0.005
0.005
0.005
0.005
0.005
0.005
0.005
0.005
0.005
0.005
0.005
0.005
0.005
0.005
0.005
0.005
0.005
0.005
0.005
0.005
0.005
0.005
0.005
0.005
0.005
0.005
0.005
0.005
0.005
0.005
0.005
0.005
0.005
0.005
0.005
0.005
0.005
0.005
0.005
0.005
0.005
0.005
0.005
0.005
0.005
0.005
0.005
0.005
0.005
0.005
0.005
0.005
0.005
0.005
0.005
0.005
0.005
0.005
0.005
0.005
0.005
0.005
0.005
0.005
0.005
0.005
0.005
0.005
0.005
0.005
0.005
0.005
0.005
0.005
0.005
0.005
0.005
0.005
0.005
0.005
0.005
0.005
0.005
0.005
0.005
0.005
0.005
0.005
0.005
0.005
0.005
0.005
0.005
0.005
0.005
0.005
0.005
0.005
0.005
0.005
0.005
0.005
0.005
0.005
0.005
0.005
0.005
0.005
0.005
0.005
0.005
0.005
0.005
0.005
0.005
0.005
0.005
0.005
0.005
0.005
0.005
0.005
0.005
0.005
0.005
0.005
0.005
0.005
0.005
0.005
0.005
0.005
0.005
0.005
0.005
0.005
0.005
0.005
0.005
0.005
0.005
0.005
0.005
0.005
0.005
0.005
0.005
0.005
0.005
0.005
0.005
0.005
0.005
0.005
0.005
0.005
0.005
0.005
0.005
0.005
0.005
0.005
0.005
0.005
0.005
0.005
0.005
0.005
0.005
0.005
0.005
0.005
0.005
0.005
0.005
0.005
0.005
0.005
0.005
0.005
0.005
0.005
0.005
0.005
0.005
0.005
0.005
0.005
0.005
0.005
0.005
0.005
0.005
0.005
0.005
0.005
0.005
0.005
0.005
0.005
0.005
0.005
0.005
0.005
0.005
0.005
0.005
0.005
0.005
0.005
0.005
0.005
0.005
0.005
0.005
0.005
0.005
0.005
0.005
0.005
0.005
0.005
0.005
0.005
0.005
0.005
0.005
0.005
0.005
0.005
0.005
0.005
0.005
0.005
0.005
0.005
0.005
0.005
0.005
0.005
0.005
0.005
0.005
0.005
0.005
0.005
0.005
0.005
0.005
0.005
0.005
0.005
0.005
0.005
0.005
0.005
0.005
0.005
0.005
0.005
0.005
0.005
0.005
0.005
0.005
0.005
0.005
0.005
0.005
0.005
0.005
0.005
0.005
0.005
0.005
0.005
0.005
0.005
0.005
0.005
0.005
0.005
0.005
0.005
SCALARS type float 1
LOOKUP_TABLE default
1.0
1.0
1.0
1.0
1.0
1.0
1.0
1.0
1.0
1.0
1.0
1.0
1.0
1.0
1.0
1.0
1.0
1.0
1.0
1.0
1.0
1.0
1.0
1.0
1.0
1.0
1.0
1.0
1.0
1.0
1.0
1.0
1.0
1.0
1.0
1.0
1.0
1.0
1.0
1.0
1.0
1.0
1.0
1.0
1.0
1.0
1.0
1.0
1.0
1.0
1.0
1.0
1.0
1.0
1.0
1.0
1.0
1.0
1.0
1.0
1.0
1.0
1.0
1.0
1.0
1.0
1.0
1.0
1.0
1.0
1.0
1.0
1.0
1.0
1.0
1.0
1.0
1.0
1.0
1.0
1.0
1.0
1.0
1.0
1.0
1.0
1.0
1.0
1.0
1.0
1.0
1.0
1.0
1.0
1.0
1.0
1.0
1.0
1.0
1.0
1.0
1.0
1.0
1.0
1.0
1.0
1.0
1.0
1.0
1.0
1.0
1.0
1.0
1.0
1.0
1.0
1.0
1.0
1.0
1.0
1.0
1.0
1.0
1.0
1.0
1.0
1.0
1.0
1.0
1.0
1.0
1.0
1.0
1.0
1.0
1.0
1.0
1.0
1.0
1.0
1.0
1.0
1.0
1.0
1.0
1.0
1.0
1.0
1.0
1.0
1.0
1.0
1.0
1.0
1.0
1.0
1.0
1.0
1.0
1.0
1.0
1.0
1.0
1.0
1.0
1.0
1.0
1.0
1.0
1.0
1.0
1.0
1.0
1.0
1.0
1.0
1.0
1.0
1.0
1.0
1.0
1.0
1.0
1.0
1.0
1.0
1.0
1.0
1.0
1.0
1.0
1.0
1.0
1.0
1.0
1.0
1.0
1.0
1.0
1.0
1.0
1.0
1.0
1.0
1.0
1.0
1.0
1.0
1.0
1.0
1.0
1.0
1.0
1.0
1.0
1.0
1.0
1.0
1.0
1.0
1.0
1.0
1.0
1.0
1.0
1.0
1.0
1.0
1.0
1.0
1.0
1.0
1.0
1.0
1.0
1.0
1.0
1.0
1.0
1.0
1.0
1.0
1.0
1.0
1.0
1.0
1.0
1.0
1.0
1.0
1.0
1.0
1.0
1.0
1.0
1.0
1.0
1.0
1.0
1.0
1.0
1.0
1.0
1.0
1.0
1.0
1.0
1.0
1.0
1.0
1.0
1.0
1.0
1.0
1.0
1.0
1.0
1.0
1.0
1.0
1.0
1.0
1.0
1.0
1.0
1.0
1.0
1.0
1.0
1.0
1.0
1.0
1.0
1.0
1.0
1.0
1.0
1.0
1.0
1.0
1.0
1.0
1.0
1.0
1.0
1.0
1.0
1.0
1.0
1.0
1.0
1.0
1.0
1.0
1.0
1.0
1.0
1.0
1.0
1.0
1.0
1.0
1.0
1.0
1.0
1.0
1.0
1.0
1.0
1.0
1.0
1.0
1.0
1.0
1.0
1.0
1.0
1.0
1.0
1.0
1.0
1.0
1.0
1.0
1.0
1.0
1.0
1.0
1.0
1.0
1.0
1.0
1.0
1.0
1.0
1.0
1.0
1.0
1.0
1.0
1.0
1.0
1.0
1.0
1.0
1.0
1.0
1.0
1.0
1.0
1.0
1.0
1.0
1.0
1.0
1.0
1.0
1.0
1.0
1.0
1.0
1.0
1.0
1.0
1.0
1.0
1.0
1.0
1.0
1.0
1.0
1.0
1.0
1.0
1.0
1.0
1.0
1.0
1.0
1.0
1.0
1.0
1.0
1.0
1.0
1.0
1.0
1.0
1.0
1.0
1.0
1.0
1.0
1.0
1.0
1.0
1.0
1.0
1.0
1.0
1.0
1.0
1.0
1.0
1.0
1.0
1.0
1.0
1.0
1.0
1.0
1.0
1.0
1.0
1.0
1.0
1.0
1.0
1.0
1.0
1.0
1.0
1.0
1.0
1.0
1.0
1.0
1.0
1.0
1.0
1.0
1.0
1.0
1.0
1.0
1.0
1.0
1.0
1.0
1.0
1.0
1.0
1.0
1.0
1.0
1.0
1.0
1.0
1.0
1.0
1.0
1.0
1.0
1.0
1.0
1.0
1.0
1.0
1.0
1.0
1.0
1.0
1.0
1.0
1.0
1.0
1.0
1.0
1.0
1.0
1.0
1.0
1.0
1.0
1.0
1.0
1.0
1.0
1.0
1.0
SCALARS id float 1
LOOKUP_TABLE default
1.0
2.0
3.0
4.0
5.0
6.0
7.0
8.0
9.0
10.0
11.0
12.0
13.0
14.0
15.0
16.0
17.0
18.0
19.0
20.0
21.0
22.0
23.0
24.0
25.0
26.0
27.0
28.0
29.0
30.0
31.0
32.0
33.0
34.0
35.0
36.0
37.0
38.0
39.0
40.0
41.0
42.0
43.0
44.0
45.0
46.0
47.0
48.0
49.0
50.0
51.0
52.0
53.0
54.0
55.0
56.0
57.0
58.0
59.0
60.0
61.0
62.0
63.0
64.0
65.0
66.0
67.0
68.0
69.0
70.0
71.0
72.0
73.0
74.0
75.0
76.0
77.0
78.0
79.0
80.0
81.0
82.0
83.0
84.0
85.0
86.0
87.0
88.0
89.0
90.0
91.0
92.0
93.0
94.0
95.0
96.0
97.0
98.0
99.0
100.0
101.0
102.0
103.0
104.0
105.0
106.0
107.0
108.0
109.0
110.0
111.0
112.0
113.0
114.0
115.0
116.0
117.0
118.0
119.0
120.0
121.0
122.0
123.0
124.0
125.0
126.0
127.0
128.0
129.0
130.0
131.0
132.0
133.0
134.0
135.0
136.0
137.0
138.0
139.0
140.0
141.0
142.0
143.0
144.0
145.0
146.0
147.0
148.0
149.0
150.0
151.0
152.0
153.0
154.0
155.0
156.0
157.0
158.0
159.0
160.0
161.0
162.0
163.0
164.0
165.0
166.0
167.0
168.0
169.0
170.0
171.0
172.0
173.0
174.0
175.0
176.0
177.0
178.0
179.0
180.0
181.0
182.0
183.0
184.0
185.0
186.0
187.0
188.0
189.0
190.0
191.0
192.0
193.0
194.0
195.0
196.0
197.0
198.0
199.0
200.0
201.0
202.0
203.0
204.0
205.0
206.0
207.0
208.0
209.0
210.0
211.0
212.0
213.0
214.0
215.0
216.0
217.0
218.0
219.0
220.0
221.0
222.0
223.0
224.0
225.0
226.0
227.0
228.0
229.0
230.0
231.0
232.0
233.0
234.0
235.0
236.0
237.0
238.0
239.0
240.0
241.0
242.0
243.0
244.0
245.0
246.0
247.0
248.0
249.0
250.0
251.0
252.0
253.0
254.0
255.0
256.0
257.0
258.0
259.0
260.0
261.0
262.0
263.0
264.0
265.0
266.0
267.0
268.0
269.0
270.0
271.0
272.0
273.0
274.0
275.0
276.0
277.0
278.0
279.0
280.0
281.0
282.0
283.0
284.0
285.0
286.0
287.0
288.0
289.0
290.0
291.0
292.0
293.0
294.0
295.0
296.0
297.0
298.0
299.0
300.0
301.0
302.0
303.0
304.0
305.0
306.0
307.0
308.0
309.0
310.0
311.0
312.0
313.0
314.0
315.0
316.0
317.0
318.0
319.0
320.0
321.0
322.0
323.0
324.0
325.0
326.0
327.0
328.0
329.0
330.0
331.0
332.0
333.0
334.0
335.0
336.0
337.0
338.0
339.0
340.0
341.0
342.0
343.0
344.0
345.0
346.0
347.0
348.0
349.0
350.0
351.0
352.0
353.0
354.0
355.0
356.0
357.0
358.0
359.0
360.0
361.0
362.0
363.0
364.0
365.0
366.0
367.0
368.0
369.0
370.0
371.0
372.0
373.0
374.0
375.0
376.0
377.0
378.0
379.0
380.0
381.0
382.0
383.0
384.0
385.0
386.0
387.0
388.0
389.0
390.0
391.0
392.0
393.0
394.0
395.0
396.0
397.0
398.0
399.0
400.0
401.0
402.0
403.0
404.0
405.0
406.0
407.0
408.0
409.0
410.0
411.0
412.0
413.0
414.0
415.0
416.0
417.0
418.0
419.0
420.0
421.0
422.0
423.0
424.0
425.0
426.0
427.0
428.0
429.0
430.0
431.0
432.0
433.0
434.0
435.0
436.0
437.0
438.0
439.0
440.0
441.0
442.0
443.0
444.0
445.0
446.0
447.0
448.0
449.0
450.0
451.0
452.0
453.0
454.0
455.0
456.0
457.0
458.0
459.0
460.0
461.0
462.0
463.0
464.0
465.0
466.0
467.0
468.0
469.0
470.0
471.0
472.0
473.0
474.0
475.0
476.0
477.0
478.0
479.0
480.0
481.0
482.0
483.0
484.0
485.0
486.0
487.0
488.0
489.0
490.0
491.0
492.0
493.0
494.0
495.0
496.0
497.0
498.0
499.0
500.0

