# vtk DataFile Version 2.0
Generated by lpp.py
ASCII
DATASET POLYDATA
POINTS 500 float
0.434385 -0.0174065 -0.763627
0.463607 -0.042342 -1.0304
0.324041 -0.0302555 -1.07525
0.36379 -0.0355548 -1.1748
0.203378 -0.0162639 -1.1104
0.355668 -0.0372671 -0.919256
0.348864 -0.0398088 -1.02002
0.220788 -0.0338855 -0.996771
0.280368 -0.0408852 -0.940302
0.317553 -0.0144604 -0.929688
0.481683 -0.0371371 -1.01057
0.405405 -0.0365943 -1.18221
0.347523 -0.0181255 -1.12671
0.421565 -0.0118637 -1.04047
0.17054 -0.03488 -1.00286
0.232206 -0.00615968 -0.245379
0.463141 -0.0228941 -1.14336
0.404061 -0.0114205 -1.12081
0.352507 -0.011975 -0.585149
0.391686 -0.0394912 -1.15983
0.307658 -0.0292266 -1.00946
0.468665 -0.0211526 -1.07057
0.433468 -0.0259859 -1.15135
0.307493 -0.0132863 -1.14317
0.205085 -0.0246713 -0.245046
0.387334 -0.0133688 -1.16417
0.396543 -0.0263546 -1.18079
0.445326 -0.0150604 -1.139
0.444429 -0.0321703 -1.15126
0.295902 -0.0441722 -0.353886
0.352155 -0.038417 -1.09874
0.472595 -0.035565 -1.13418
0.221329 -0.0125272 -0.244923
0.315737 -0.020053 -1.14132
0.204991 -0.0346792 -0.244858
0.3201 -0.0324742 -0.359361
0.367224 -0.0400191 -1.02642
0.266103 -0.0109347 -1.02297
0.368988 -0.0263941 -1.15278
0.372148 -0.0459634 -1.17298
0.20499 -0.0100714 -0.245002
0.293633 -0.0164637 -1.15864
0.315718 -0.0404321 -1.00342
0.420479 -0.0379568 -1.11943
0.283327 -0.0299292 -1.19231
0.370771 -0.019741 -0.82668
0.309189 -0.00593264 -0.898373
0.347237 -0.0153059 -1.18114
0.438174 -0.0360886 -1.0179
0.381707 -0.0378402 -1.04281
0.484154 -0.0160368 -1.10064
0.361208 -0.0400249 -1.07181
0.40897 -0.0261375 -1.10371
0.365656 -0.0450455 -0.895472
0.344375 -0.0050295 -1.19651
0.377841 -0.00794565 -1.14475
0.214017 -0.005026 -0.244775
0.247687 -0.0266294 -1.13423
0.337381 -0.0262254 -1.08667
0.403006 -0.0256314 -0.752325
0.38137 -0.0405208 -1.02008
0.388375 -0.00977364 -0.904965
0.399758 -0.0109997 -0.992388
0.334631 -0.0231508 -0.471787
0.330701 -0.0256878 -0.791827
0.416415 -0.0316819 -0.974364
0.34599 -0.0104218 -1.02669
0.398105 -0.033829 -1.02685
0.410798 -0.0137297 -1.16696
0.326558 -0.0264414 -0.952694
0.404037 -0.00619786 -0.830159
0.353904 -0.0296145 -1.08119
0.381457 -0.00905091 -0.721198
0.384418 -0.0060093 -0.950332
0.447083 -0.0291855 -0.894953
0.375305 -0.0269906 -1.12327
0.35207 -0.0421557 -0.53912
0.453244 -0.0100777 -1.04017
0.375249 -0.0180752 -1.06056
0.403373 -0.0141538 -0.964305
0.351665 -0.0426362 -0.99877
0.269609 -0.0446317 -0.892261
0.364043 -0.0304396 -0.549337
0.325515 -0.0249592 -0.866291
0.210292 -0.0291345 -0.237203
0.374838 -0.044999 -0.771587
0.332946 -0.0405438 -0.917169
0.240149 -0.0270112 -0.249955
0.416495 -0.0192647 -0.923546
0.353442 -0.0107649 -0.857857
0.368803 -0.00520313 -0.831833
0.379183 -0.0273388 -0.793682
0.379895 -0.0281496 -1.04529
0.322871 -0.0318978 -0.907532
0.281553 -0.00751965 -0.961357
0.360339 -0.037746 -0.752526
0.353556 -0.0219079 -0.512739
0.421983 -0.0276018 -1.01175
0.205087 -0.00502046 -0.236369
0.435894 -0.0370383 -0.895636
0.393073 -0.0258744 -0.799341
0.205005 -0.0447566 -0.244877
0.342376 -0.0258425 -0.865028
0.390424 -0.00609942 -0.755789
0.388889 -0.0152843 -0.683937
0.294169 -0.00577695 -0.893962
0.384404 -0.0249016 -0.861265
0.318243 -0.0420749 -0.956489
0.381391 -0.0172865 -0.769378
0.348825 -0.0064913 -0.553354
0.375991 -0.010154 -0.658497
0.353224 -0.0131128 -0.869045
0.402396 -0.00636268 -0.930729
0.370587 -0.0317932 -0.721522
0.253845 -0.0363623 -0.821475
0.354102 -0.0373356 -0.941466
0.214318 -0.0124599 -0.237721
0.44302 -0.0276905 -0.80402
0.39688 -0.0432248 -0.791366
0.339686 -0.038686 -0.435879
0.382535 -0.00902117 -0.668381
0.361264 -0.0322886 -0.509375
0.39543 -0.0201536 -0.857359
0.344277 -0.0296172 -0.626832
0.345436 -0.0150085 -0.62335
0.246716 -0.00881044 -0.26506
0.214343 -0.020725 -0.245161
0.399323 -0.0421211 -0.726326
0.418425 -0.0240769 -0.734068
0.327447 -0.0179644 -0.714061
0.394696 -0.0328612 -0.818326
0.389514 -0.0375993 -0.78185
0.378977 -0.0416134 -0.684143
0.368932 -0.00749664 -0.667924
0.3705 -0.0407134 -0.621254
0.354935 -0.00646385 -0.53897
0.368244 -0.0184494 -0.763113
0.401759 -0.00682447 -0.710965
0.369076 -0.0362981 -0.822083
0.296987 -0.0104707 -0.346812
0.372725 -0.0307444 -0.698534
0.335909 -0.00515577 -0.635598
0.379086 -0.0439461 -0.761595
0.387018 -0.0406648 -0.745019
0.367902 -0.0382512 -0.656071
0.396728 -0.0288107 -0.674025
0.3569 -0.0283287 -0.682531
0.231238 -0.0347016 -0.244553
0.379985 -0.0198475 -0.704894
0.352999 -0.0301925 -0.52359
0.348182 -0.0165869 -0.600809
0.354558 -0.0145651 -0.476451
0.405789 -0.0379841 -0.718073
0.327288 -0.0338948 -0.622953
0.222243 -0.0443231 -0.24488
0.379845 -0.0294167 -0.737205
0.354513 -0.00585882 -0.51055
0.376226 -0.0239521 -0.715498
0.382945 -0.0153258 -0.830805
0.384822 -0.0226769 -0.74284
0.364773 -0.0412772 -0.643622
0.398759 -0.0378684 -0.681216
0.355736 -0.0325737 -0.61905
0.345547 -0.0336844 -0.490309
0.358133 -0.0388012 -0.688129
0.336868 -0.0148334 -0.538967
0.391847 -0.0315667 -0.687725
0.331179 -0.0132904 -0.475215
0.376815 -0.0236542 -0.666606
0.337658 -0.0238898 -0.583887
0.391429 -0.0074476 -0.631905
0.366549 -0.0368255 -0.611916
0.221649 -0.0283111 -0.244
0.372264 -0.025246 -0.681679
0.31805 -0.0158209 -0.662066
0.338194 -0.022249 -0.568394
0.307524 -0.0258358 -0.372527
0.365689 -0.0403245 -0.733746
0.343397 -0.0109328 -0.503438
0.401038 -0.00866979 -0.747264
0.214847 -0.0364346 -0.24493
0.35883 -0.0136372 -0.603258
0.36266 -0.0439169 -0.597559
0.351756 -0.025138 -0.537789
0.342453 -0.00697985 -0.58571
0.278579 -0.0196195 -0.649127
0.367064 -0.0139152 -0.645734
0.22246 -0.00536954 -0.2379
0.376939 -0.00748574 -0.626278
0.360679 -0.0128708 -0.506871
0.347694 -0.017605 -0.48493
0.305765 -0.0116246 -0.36562
0.313647 -0.0430802 -0.381607
0.37277 -0.0384531 -0.631463
0.217558 -0.0221854 -0.235632
0.36449 -0.00677289 -0.528218
0.347346 -0.0266465 -0.591477
0.323425 -0.0264756 -0.568337
0.205025 -0.0174095 -0.23822
0.34269 -0.0340647 -0.561513
0.345993 -0.0110834 -0.526009
0.346527 -0.020946 -0.526699
0.349702 -0.0229527 -0.468005
0.205231 -0.0398294 -0.236239
0.375112 -0.0270508 -0.611684
0.343276 -0.0265953 -0.480496
0.358091 -0.0100134 -0.57132
0.364451 -0.0431223 -0.545449
0.339913 -0.016354 -0.451673
0.306694 -0.0385208 -0.371723
0.321277 -0.0176025 -0.382569
0.33708 -0.0394063 -0.536169
0.343702 -0.0419852 -0.45647
0.346067 -0.0406114 -0.510754
0.323772 -0.0266747 -0.598674
0.260476 -0.00507607 -0.284398
0.35895 -0.0108367 -0.520343
0.351146 -0.0265758 -0.56735
0.333731 -0.0181553 -0.440385
0.341937 -0.0430767 -0.44604
0.355163 -0.015533 -0.497906
0.286458 -0.0442014 -0.337313
0.348213 -0.0152162 -0.460132
0.348415 -0.0356694 -0.473352
0.341063 -0.0443536 -0.496762
0.340705 -0.00739357 -0.440438
0.329297 -0.025542 -0.411063
0.333882 -0.0119342 -0.423145
0.303202 -0.0341413 -0.349679
0.34508 -0.0205805 -0.435898
0.357847 -0.0410134 -0.514252
0.329256 -0.0339479 -0.419455
0.333395 -0.0234399 -0.388943
0.354831 -0.00852816 -0.489361
0.243162 -0.0173697 -0.2506
0.343652 -0.0443237 -0.470536
0.346503 -0.0279993 -0.427761
0.356485 -0.0414524 -0.491227
0.3384 -0.00858815 -0.45844
0.364987 -0.0156363 -0.543943
0.33271 -0.0307576 -0.448549
0.207422 -0.0224844 -0.229651
0.344595 -0.0216288 -0.416614
0.311148 -0.037974 -0.355551
0.332221 -0.0434789 -0.364428
0.345107 -0.0389573 -0.420263
0.341896 -0.00820362 -0.468703
0.342378 -0.0111928 -0.428788
0.295043 -0.0398542 -0.344642
0.336993 -0.025594 -0.368507
0.286448 -0.00641131 -0.325549
0.238065 -0.0441069 -0.243671
0.355892 -0.0270605 -0.479044
0.339992 -0.0261864 -0.46126
0.302667 -0.0232048 -0.339046
0.354775 -0.0432319 -0.475644
0.348378 -0.0447152 -0.437179
0.353732 -0.00634114 -0.466381
0.330803 -0.0445806 -0.342197
0.21807 -0.0356066 -0.23508
0.294861 -0.0291832 -0.352483
0.313621 -0.00575724 -0.363753
0.338044 -0.00665113 -0.398052
0.313556 -0.0152591 -0.3557
0.349524 -0.00697572 -0.448548
0.323495 -0.0234592 -0.330559
0.205625 -0.0447801 -0.227426
0.320435 -0.0424025 -0.391849
0.349119 -0.036212 -0.4423
0.269746 -0.0323835 -0.292919
0.281211 -0.0142057 -0.318436
0.205615 -0.00553036 -0.222487
0.334852 -0.0343095 -0.355574
0.316186 -0.0371821 -0.341814
0.340843 -0.0161143 -0.402513
0.2927 -0.00793637 -0.309184
0.317643 -0.0280461 -0.400064
0.321918 -0.0421699 -0.375859
0.302648 -0.0186463 -0.358827
0.272948 -0.0203021 -0.312671
0.307409 -0.0305586 -0.363288
0.340531 -0.014261 -0.390683
0.259131 -0.0256472 -0.29017
0.265113 -0.00594081 -0.265972
0.233227 -0.018403 -0.245149
0.216426 -0.027957 -0.227368
0.249769 -0.0445583 -0.27337
0.319684 -0.00494688 -0.344814
0.284924 -0.0183623 -0.329116
0.325241 -0.00557346 -0.368449
0.308318 -0.00512233 -0.34373
0.327274 -0.0371434 -0.336724
0.281258 -0.044407 -0.313217
0.292333 -0.0116153 -0.31885
0.270631 -0.0214769 -0.29726
0.213951 -0.0449979 -0.239295
0.333079 -0.00795029 -0.352868
0.327632 -0.0245058 -0.352344
0.336945 -0.038001 -0.38055
0.317257 -0.00627177 -0.307924
0.237932 -0.0320753 -0.235864
0.287367 -0.0230396 -0.281364
0.205191 -0.0162852 -0.221319
0.29995 -0.00538366 -0.316663
0.287886 -0.0436199 -0.323275
0.259568 -0.014716 -0.287184
0.207879 -0.012409 -0.230078
0.283575 -0.00539806 -0.268041
0.282003 -0.0347147 -0.326393
0.266659 -0.0424719 -0.282129
0.328534 -0.0331464 -0.322951
0.232763 -0.0235181 -0.23603
0.252012 -0.0423562 -0.238848
0.297844 -0.0227242 -0.299456
0.291728 -0.027133 -0.324748
0.285738 -0.0304701 -0.294812
0.259114 -0.0383351 -0.289911
0.294449 -0.0124408 -0.292904
0.314357 -0.0446041 -0.295361
0.216254 -0.00646141 -0.228964
0.291759 -0.00919151 -0.277848
0.223263 -0.0445042 -0.235099
0.27798 -0.0324911 -0.317368
0.26507 -0.0431689 -0.270406
0.279424 -0.00572988 -0.310456
0.225773 -0.016562 -0.236441
0.235807 -0.00504515 -0.236611
0.25618 -0.00504428 -0.257576
0.282055 -0.0129352 -0.249266
0.274017 -0.00953894 -0.279786
0.227421 -0.0328277 -0.233538
0.249648 -0.02987 -0.269186
0.284797 -0.0402948 -0.297986
0.278625 -0.0420568 -0.282394
0.256918 -0.00903928 -0.274893
0.204924 -0.0323062 -0.229078
0.271945 -0.0117699 -0.294155
0.316921 -0.0129269 -0.295423
0.294966 -0.0395476 -0.255836
0.245673 -0.0357706 -0.261115
0.25913 -0.0360036 -0.263288
0.244175 -0.010212 -0.241302
0.260739 -0.0435046 -0.247884
0.253409 -0.0327281 -0.246683
0.281091 -0.0394863 -0.26469
0.221964 -0.0055619 -0.220947
0.224807 -0.0424709 -0.225496
0.207868 -0.0257138 -0.219769
0.233177 -0.0441438 -0.232694
0.238005 -0.0071955 -0.227251
0.26799 -0.0178872 -0.252389
0.227558 -0.00818886 -0.228748
0.242897 -0.00514383 -0.250846
0.272054 -0.0194254 -0.263308
0.25358 -0.00634548 -0.229586
0.216098 -0.0179804 -0.226533
0.21388 -0.038553 -0.22648
0.26548 -0.00514763 -0.248953
0.251136 -0.0219602 -0.262673
0.264091 -0.0321654 -0.275385
0.244498 -0.0261337 -0.24051
0.233441 -0.0157381 -0.221906
0.244924 -0.015499 -0.229788
0.212751 -0.0445457 -0.218832
0.251642 -0.0400453 -0.222979
0.225901 -0.0227491 -0.224723
0.244614 -0.0442605 -0.2297
0.22445 -0.0417287 -0.212442
0.25852 -0.015894 -0.25482
0.234905 -0.0352636 -0.227454
0.206078 -0.0367081 -0.219545
0.216456 -0.0131545 -0.217712
0.234435 -0.0443838 -0.222743
0.241822 -0.0316198 -0.221115
0.239512 -0.0233527 -0.227855
0.217143 -0.0300106 -0.217847
0.230808 -0.007357 -0.215454
0.252856 -0.0198485 -0.234101
0.25487 -0.0295154 -0.233026
0.247387 -0.00897461 -0.221462
0.218933 -0.019661 -0.211032
0.22347 -0.0239132 -0.192865
0.227285 -0.0125341 -0.204536
0.234705 -0.0277703 -0.188973
0.240215 -0.0209493 -0.199389
0.212641 -0.0106498 -0.192017
0.246657 -0.0390692 -0.211323
0.246488 -0.0281392 -0.188905
0.215531 -0.0348766 -0.193493
0.238564 -0.0129266 -0.180368
0.248659 -0.0263109 -0.212126
0.241399 -0.0419343 -0.193261
0.226813 -0.037614 -0.202043
0.211136 -0.043427 -0.201516
0.24613 -0.00888427 -0.191302
0.222426 -0.00895607 -0.180551
0.226396 -0.0284013 -0.214657
0.234136 -0.0207859 -0.213645
0.231219 -0.0409913 -0.182805
0.210703 -0.0244908 -0.202064
0.243872 -0.00589956 -0.168786
0.219393 -0.0235227 -0.148001
0.249506 -0.0199437 -0.178836
0.216759 -0.0157405 -0.160968
0.239835 -0.0355729 -0.149886
0.243835 -0.026201 -0.159622
0.232569 -0.0112477 -0.151689
0.248592 -0.0364903 -0.171787
0.211945 -0.0299311 -0.14307
0.248477 -0.0431073 -0.143169
0.214551 -0.0234653 -0.173564
0.213803 -0.0400907 -0.146878
0.249062 -0.00566822 -0.141693
0.224238 -0.0329328 -0.166245
0.248878 -0.0179202 -0.142305
0.233195 -0.0442137 -0.141391
0.230274 -0.0268622 -0.149413
0.233856 -0.0207803 -0.170289
0.211322 -0.0354951 -0.167627
0.218758 -0.0449267 -0.160949
0.234444 -0.0382428 -0.122877
0.220893 -0.0395294 -0.113221
0.238571 -0.0192514 -0.123164
0.228711 -0.0118739 -0.130214
0.213602 -0.0205095 -0.121053
0.248131 -0.0166671 -0.106187
0.223109 -0.0181207 -0.111991
0.246147 -0.0379518 -0.124988
0.213334 -0.00714674 -0.108584
0.237354 -0.0310019 -0.133941
0.226477 -0.0278401 -0.107087
0.226227 -0.0324903 -0.128783
0.239523 -0.00864715 -0.120454
0.220429 -0.0101749 -0.140143
0.236707 -0.0278034 -0.10939
0.223423 -0.0052707 -0.119867
0.210716 -0.0363875 -0.116024
0.210077 -0.0114541 -0.133235
0.249318 -0.0286102 -0.13276
0.210352 -0.0273632 -0.1069
0.225589 -0.00807897 -0.0884735
0.232435 -0.0418219 -0.0964482
0.243503 -0.0351157 -0.0901279
0.230396 -0.0176543 -0.0764635
0.238971 -0.0055175 -0.102337
0.215233 -0.00806608 -0.0757769
0.23046 -0.0167272 -0.100595
0.249582 -0.0350093 -0.0763414
0.233368 -0.0247631 -0.0915024
0.218724 -0.0231419 -0.0849858
0.247613 -0.00921427 -0.0930312
0.246377 -0.0167903 -0.0810874
0.21287 -0.0393291 -0.0822964
0.247777 -0.0447024 -0.10265
0.213608 -0.0068407 -0.0919091
0.248204 -0.0271035 -0.10447
0.239176 -0.0418961 -0.0752442
0.223697 -0.0431208 -0.0888761
0.227848 -0.0332376 -0.0765746
0.212346 -0.044974 -0.102938
0.241305 -0.0177234 -0.0665551
0.244548 -0.0379417 -0.0557644
0.234661 -0.00816826 -0.0555023
0.229919 -0.0193797 -0.0502454
0.211536 -0.0338126 -0.0492873
0.214349 -0.0200955 -0.0689792
0.221157 -0.0143995 -0.0487937
0.231213 -0.005288 -0.0735265
0.243328 -0.0197809 -0.0511596
0.233298 -0.0298872 -0.0623961
0.212884 -0.00707634 -0.0616937
0.226422 -0.0333351 -0.0522079
0.213564 -0.0209664 -0.0487635
0.241571 -0.0288258 -0.0731988
0.227267 -0.0434518 -0.063659
0.240382 -0.00722492 -0.0671912
0.248431 -0.00814176 -0.0571834
0.234241 -0.0426811 -0.0487025
0.210085 -0.0426107 -0.0670296
0.223465 -0.0166149 -0.0623115
0.212966 -0.0382415 -0.0335744
0.24559 -0.0433386 -0.0354836
0.217606 -0.00828278 -0.0310556
0.229662 -0.0245021 -0.0283947
0.229672 -0.0146289 -0.0384353
0.22835 -0.0399226 -0.0393443
0.246693 -0.0258093 -0.0418115
0.237046 -0.0110775 -0.0301954
0.218363 -0.0200291 -0.0299485
0.249723 -0.0158387 -0.0308571
0.212163 -0.0246003 -0.0376072
0.236173 -0.0417103 -0.028266
0.213241 -0.00718381 -0.0465295
0.220645 -0.0296722 -0.034467
0.21038 -0.0441861 -0.0475483
0.24883 -0.0313142 -0.0293107
0.226361 -0.0407292 -0.0265188
0.236713 -0.0314384 -0.0348292
0.242008 -0.0103202 -0.0403237
0.240793 -0.02137 -0.0330915
VERTICES 500 1000
1 0
1 1
1 2
1 3
1 4
1 5
1 6
1 7
1 8
1 9
1 10
1 11
1 12
1 13
1 14
1 15
1 16
1 17
1 18
1 19
1 20
1 21
1 22
1 23
1 24
1 25
1 26
1 27
1 28
1 29
1 30
1 31
1 32
1 33
1 34
1 35
1 36
1 37
1 38
1 39
1 40
1 41
1 42
1 43
1 44
1 45
1 46
1 47
1 48
1 49
1 50
1 51
1 52
1 53
1 54
1 55
1 56
1 57
1 58
1 59
1 60
1 61
1 62
1 63
1 64
1 65
1 66
1 67
1 68
1 69
1 70
1 71
1 72
1 73
1 74
1 75
1 76
1 77
1 78
1 79
1 80
1 81
1 82
1 83
1 84
1 85
1 86
1 87
1 88
1 89
1 90
1 91
1 92
1 93
1 94
1 95
1 96
1 97
1 98
1 99
1 100
1 101
1 102
1 103
1 104
1 105
1 106
1 107
1 108
1 109
1 110
1 111
1 112
1 113
1 114
1 115
1 116
1 117
1 118
1 119
1 120
1 121
1 122
1 123
1 124
1 125
1 126
1 127
1 128
1 129
1 130
1 131
1 132
1 133
1 134
1 135
1 136
1 137
1 138
1 139
1 140
1 141
1 142
1 143
1 144
1 145
1 146
1 147
1 148
1 149
1 150
1 151
1 152
1 153
1 154
1 155
1 156
1 157
1 158
1 159
1 160
1 161
1 162
1 163
1 164
1 165
1 166
1 167
1 168
1 169
1 170
1 171
1 172
1 173
1 174
1 175
1 176
1 177
1 178
1 179
1 180
1 181
1 182
1 183
1 184
1 185
1 186
1 187
1 188
1 189
1 190
1 191
1 192
1 193
1 194
1 195
1 196
1 197
1 198
1 199
1 200
1 201
1 202
1 203
1 204
1 205
1 206
1 207
1 208
1 209
1 210
1 211
1 212
1 213
1 214
1 215
1 216
1 217
1 218
1 219
1 220
1 221
1 222
1 223
1 224
1 225
1 226
1 227
1 228
1 229
1 230
1 231
1 232
1 233
1 234
1 235
1 236
1 237
1 238
1 239
1 240
1 241
1 242
1 243
1 244
1 245
1 246
1 247
1 248
1 249
1 250
1 251
1 252
1 253
1 254
1 255
1 256
1 257
1 258
1 259
1 260
1 261
1 262
1 263
1 264
1 265
1 266
1 267
1 268
1 269
1 270
1 271
1 272
1 273
1 274
1 275
1 276
1 277
1 278
1 279
1 280
1 281
1 282
1 283
1 284
1 285
1 286
1 287
1 288
1 289
1 290
1 291
1 292
1 293
1 294
1 295
1 296
1 297
1 298
1 299
1 300
1 301
1 302
1 303
1 304
1 305
1 306
1 307
1 308
1 309
1 310
1 311
1 312
1 313
1 314
1 315
1 316
1 317
1 318
1 319
1 320
1 321
1 322
1 323
1 324
1 325
1 326
1 327
1 328
1 329
1 330
1 331
1 332
1 333
1 334
1 335
1 336
1 337
1 338
1 339
1 340
1 341
1 342
1 343
1 344
1 345
1 346
1 347
1 348
1 349
1 350
1 351
1 352
1 353
1 354
1 355
1 356
1 357
1 358
1 359
1 360
1 361
1 362
1 363
1 364
1 365
1 366
1 367
1 368
1 369
1 370
1 371
1 372
1 373
1 374
1 375
1 376
1 377
1 378
1 379
1 380
1 381
1 382
1 383
1 384
1 385
1 386
1 387
1 388
1 389
1 390
1 391
1 392
1 393
1 394
1 395
1 396
1 397
1 398
1 399
1 400
1 401
1 402
1 403
1 404
1 405
1 406
1 407
1 408
1 409
1 410
1 411
1 412
1 413
1 414
1 415
1 416
1 417
1 418
1 419
1 420
1 421
1 422
1 423
1 424
1 425
1 426
1 427
1 428
1 429
1 430
1 431
1 432
1 433
1 434
1 435
1 436
1 437
1 438
1 439
1 440
1 441
1 442
1 443
1 444
1 445
1 446
1 447
1 448
1 449
1 450
1 451
1 452
1 453
1 454
1 455
1 456
1 457
1 458
1 459
1 460
1 461
1 462
1 463
1 464
1 465
1 466
1 467
1 468
1 469
1 470
1 471
1 472
1 473
1 474
1 475
1 476
1 477
1 478
1 479
1 480
1 481
1 482
1 483
1 484
1 485
1 486
1 487
1 488
1 489
1 490
1 491
1 492
1 493
1 494
1 495
1 496
1 497
1 498
1 499
POINT_DATA 500
VECTORS i float
0.0 0.0 0.0
0.0 0.0 0.0
0.0 0.0 0.0
0.0 0.0 0.0
0.0 0.0 0.0
0.0 0.0 0.0
0.0 0.0 0.0
0.0 0.0 0.0
0.0 0.0 0.0
0.0 0.0 0.0
0.0 0.0 0.0
0.0 0.0 0.0
0.0 0.0 0.0
0.0 0.0 0.0
0.0 0.0 0.0
0.0 0.0 0.0
0.0 0.0 0.0
0.0 0.0 0.0
0.0 0.0 0.0
0.0 0.0 0.0
0.0 0.0 0.0
0.0 0.0 0.0
0.0 0.0 0.0
0.0 0.0 0.0
0.0 0.0 0.0
0.0 0.0 0.0
0.0 0.0 0.0
0.0 0.0 0.0
0.0 0.0 0.0
0.0 0.0 0.0
0.0 0.0 0.0
0.0 0.0 0.0
0.0 0.0 0.0
0.0 0.0 0.0
0.0 0.0 0.0
0.0 0.0 0.0
0.0 0.0 0.0
0.0 0.0 0.0
0.0 0.0 0.0
0.0 0.0 0.0
0.0 0.0 0.0
0.0 0.0 0.0
0.0 0.0 0.0
0.0 0.0 0.0
0.0 0.0 0.0
0.0 0.0 0.0
0.0 0.0 0.0
0.0 0.0 0.0
0.0 0.0 0.0
0.0 0.0 0.0
0.0 0.0 0.0
0.0 0.0 0.0
0.0 0.0 0.0
0.0 0.0 0.0
0.0 0.0 0.0
0.0 0.0 0.0
0.0 0.0 0.0
0.0 0.0 0.0
0.0 0.0 0.0
0.0 0.0 0.0
0.0 0.0 0.0
0.0 0.0 0.0
0.0 0.0 0.0
0.0 0.0 0.0
0.0 0.0 0.0
0.0 0.0 0.0
0.0 0.0 0.0
0.0 0.0 0.0
0.0 0.0 0.0
0.0 0.0 0.0
0.0 0.0 0.0
0.0 0.0 0.0
0.0 0.0 0.0
0.0 0.0 0.0
0.0 0.0 0.0
0.0 0.0 0.0
0.0 0.0 0.0
0.0 0.0 0.0
0.0 0.0 0.0
0.0 0.0 0.0
0.0 0.0 0.0
0.0 0.0 0.0
0.0 0.0 0.0
0.0 0.0 0.0
0.0 0.0 0.0
0.0 0.0 0.0
0.0 0.0 0.0
0.0 0.0 0.0
0.0 0.0 0.0
0.0 0.0 0.0
0.0 0.0 0.0
0.0 0.0 0.0
0.0 0.0 0.0
0.0 0.0 0.0
0.0 0.0 0.0
0.0 0.0 0.0
0.0 0.0 0.0
0.0 0.0 0.0
0.0 0.0 0.0
0.0 0.0 0.0
0.0 0.0 0.0
0.0 0.0 0.0
0.0 0.0 0.0
0.0 0.0 0.0
0.0 0.0 0.0
0.0 0.0 0.0
0.0 0.0 0.0
0.0 0.0 0.0
0.0 0.0 0.0
0.0 0.0 0.0
0.0 0.0 0.0
0.0 0.0 0.0
0.0 0.0 0.0
0.0 0.0 0.0
0.0 0.0 0.0
0.0 0.0 0.0
0.0 0.0 0.0
0.0 0.0 0.0
0.0 0.0 0.0
0.0 0.0 0.0
0.0 0.0 0.0
0.0 0.0 0.0
0.0 0.0 0.0
0.0 0.0 0.0
0.0 0.0 0.0
0.0 0.0 0.0
0.0 0.0 0.0
0.0 0.0 0.0
0.0 0.0 0.0
0.0 0.0 0.0
0.0 0.0 0.0
0.0 0.0 0.0
0.0 0.0 0.0
0.0 0.0 0.0
0.0 0.0 0.0
0.0 0.0 0.0
0.0 0.0 0.0
0.0 0.0 0.0
0.0 0.0 0.0
0.0 0.0 0.0
0.0 0.0 0.0
0.0 0.0 0.0
0.0 0.0 0.0
0.0 0.0 0.0
0.0 0.0 0.0
0.0 0.0 0.0
0.0 0.0 0.0
0.0 0.0 0.0
0.0 0.0 0.0
0.0 0.0 0.0
0.0 0.0 0.0
0.0 0.0 0.0
0.0 0.0 0.0
0.0 0.0 0.0
0.0 0.0 0.0
0.0 0.0 0.0
0.0 0.0 0.0
0.0 0.0 0.0
0.0 0.0 0.0
0.0 0.0 0.0
0.0 0.0 0.0
0.0 0.0 0.0
0.0 0.0 0.0
0.0 0.0 0.0
0.0 0.0 0.0
0.0 0.0 0.0
0.0 0.0 0.0
0.0 0.0 0.0
0.0 0.0 0.0
0.0 0.0 0.0
0.0 0.0 0.0
0.0 0.0 0.0
0.0 0.0 0.0
0.0 0.0 0.0
0.0 0.0 0.0
0.0 0.0 0.0
0.0 0.0 0.0
0.0 0.0 0.0
0.0 0.0 0.0
0.0 0.0 0.0
0.0 0.0 0.0
0.0 0.0 0.0
0.0 0.0 0.0
0.0 0.0 0.0
0.0 0.0 0.0
0.0 0.0 0.0
0.0 0.0 0.0
0.0 0.0 0.0
0.0 0.0 0.0
0.0 0.0 0.0
0.0 0.0 0.0
0.0 0.0 0.0
0.0 0.0 0.0
0.0 0.0 0.0
0.0 0.0 0.0
0.0 0.0 0.0
0.0 0.0 0.0
0.0 0.0 0.0
0.0 0.0 0.0
0.0 0.0 0.0
0.0 0.0 0.0
0.0 0.0 0.0
0.0 0.0 0.0
0.0 0.0 0.0
0.0 0.0 0.0
0.0 0.0 0.0
0.0 0.0 0.0
0.0 0.0 0.0
0.0 0.0 0.0
0.0 0.0 0.0
0.0 0.0 0.0
0.0 0.0 0.0
0.0 0.0 0.0
0.0 0.0 0.0
0.0 0.0 0.0
0.0 0.0 0.0
0.0 0.0 0.0
0.0 0.0 0.0
0.0 0.0 0.0
0.0 0.0 0.0
0.0 0.0 0.0
0.0 0.0 0.0
0.0 0.0 0.0
0.0 0.0 0.0
0.0 0.0 0.0
0.0 0.0 0.0
0.0 0.0 0.0
0.0 0.0 0.0
0.0 0.0 0.0
0.0 0.0 0.0
0.0 0.0 0.0
0.0 0.0 0.0
0.0 0.0 0.0
0.0 0.0 0.0
0.0 0.0 0.0
0.0 0.0 0.0
0.0 0.0 0.0
0.0 0.0 0.0
0.0 0.0 0.0
0.0 0.0 0.0
0.0 0.0 0.0
0.0 0.0 0.0
0.0 0.0 0.0
0.0 0.0 0.0
0.0 0.0 0.0
0.0 0.0 0.0
0.0 0.0 0.0
0.0 0.0 0.0
0.0 0.0 0.0
0.0 0.0 0.0
0.0 0.0 0.0
0.0 0.0 0.0
0.0 0.0 0.0
0.0 0.0 0.0
0.0 0.0 0.0
0.0 0.0 0.0
0.0 0.0 0.0
0.0 0.0 0.0
0.0 0.0 0.0
0.0 0.0 0.0
0.0 0.0 0.0
0.0 0.0 0.0
0.0 0.0 0.0
0.0 0.0 0.0
0.0 0.0 0.0
0.0 0.0 0.0
0.0 0.0 0.0
0.0 0.0 0.0
0.0 0.0 0.0
0.0 0.0 0.0
0.0 0.0 0.0
0.0 0.0 0.0
0.0 0.0 0.0
0.0 0.0 0.0
0.0 0.0 0.0
0.0 0.0 0.0
0.0 0.0 0.0
0.0 0.0 0.0
0.0 0.0 0.0
0.0 0.0 0.0
0.0 0.0 0.0
0.0 0.0 0.0
0.0 0.0 0.0
0.0 0.0 0.0
0.0 0.0 0.0
0.0 0.0 0.0
0.0 0.0 0.0
0.0 0.0 0.0
0.0 0.0 0.0
0.0 0.0 0.0
0.0 0.0 0.0
0.0 0.0 0.0
0.0 0.0 0.0
0.0 0.0 0.0
0.0 0.0 0.0
0.0 0.0 0.0
0.0 0.0 0.0
0.0 0.0 0.0
0.0 0.0 0.0
0.0 0.0 0.0
0.0 0.0 0.0
0.0 0.0 0.0
0.0 0.0 0.0
0.0 0.0 0.0
0.0 0.0 0.0
0.0 0.0 0.0
0.0 0.0 0.0
0.0 0.0 0.0
0.0 0.0 0.0
0.0 0.0 0.0
0.0 0.0 0.0
0.0 0.0 0.0
0.0 0.0 0.0
0.0 0.0 0.0
0.0 0.0 0.0
0.0 0.0 0.0
0.0 0.0 0.0
0.0 0.0 0.0
0.0 0.0 0.0
0.0 0.0 0.0
0.0 0.0 0.0
0.0 0.0 0.0
0.0 0.0 0.0
0.0 0.0 0.0
0.0 0.0 0.0
0.0 0.0 0.0
0.0 0.0 0.0
0.0 0.0 0.0
0.0 0.0 0.0
0.0 0.0 0.0
0.0 0.0 0.0
0.0 0.0 0.0
0.0 0.0 0.0
0.0 0.0 0.0
0.0 0.0 0.0
0.0 0.0 0.0
0.0 0.0 0.0
0.0 0.0 0.0
0.0 0.0 0.0
0.0 0.0 0.0
0.0 0.0 0.0
0.0 0.0 0.0
0.0 0.0 0.0
0.0 0.0 0.0
0.0 0.0 0.0
0.0 0.0 0.0
0.0 0.0 0.0
0.0 0.0 0.0
0.0 0.0 0.0
0.0 0.0 0.0
0.0 0.0 0.0
0.0 0.0 0.0
0.0 0.0 0.0
0.0 0.0 0.0
0.0 0.0 0.0
0.0 0.0 0.0
0.0 0.0 0.0
0.0 0.0 0.0
0.0 0.0 0.0
0.0 0.0 0.0
0.0 0.0 0.0
0.0 0.0 0.0
0.0 0.0 0.0
0.0 0.0 0.0
0.0 0.0 0.0
0.0 0.0 0.0
0.0 0.0 0.0
0.0 0.0 0.0
0.0 0.0 0.0
0.0 0.0 0.0
0.0 0.0 0.0
0.0 0.0 0.0
0.0 0.0 0.0
0.0 0.0 0.0
0.0 0.0 0.0
0.0 0.0 0.0
0.0 0.0 0.0
0.0 0.0 0.0
0.0 0.0 0.0
0.0 0.0 0.0
0.0 0.0 0.0
0.0 0.0 0.0
0.0 0.0 0.0
0.0 0.0 0.0
0.0 0.0 0.0
0.0 0.0 0.0
0.0 0.0 0.0
0.0 0.0 0.0
0.0 0.0 0.0
0.0 0.0 0.0
0.0 0.0 0.0
0.0 0.0 0.0
0.0 0.0 0.0
0.0 0.0 0.0
0.0 0.0 0.0
0.0 0.0 0.0
0.0 0.0 0.0
0.0 0.0 0.0
0.0 0.0 0.0
0.0 0.0 0.0
0.0 0.0 0.0
0.0 0.0 0.0
0.0 0.0 0.0
0.0 0.0 0.0
0.0 0.0 0.0
0.0 0.0 0.0
0.0 0.0 0.0
0.0 0.0 0.0
0.0 0.0 0.0
0.0 0.0 0.0
0.0 0.0 0.0
0.0 0.0 0.0
0.0 0.0 0.0
0.0 0.0 0.0
0.0 0.0 0.0
0.0 0.0 0.0
0.0 0.0 0.0
0.0 0.0 0.0
0.0 0.0 0.0
0.0 0.0 0.0
0.0 0.0 0.0
0.0 0.0 0.0
0.0 0.0 0.0
0.0 0.0 0.0
0.0 0.0 0.0
0.0 0.0 0.0
0.0 0.0 0.0
0.0 0.0 0.0
0.0 0.0 0.0
0.0 0.0 0.0
0.0 0.0 0.0
0.0 0.0 0.0
0.0 0.0 0.0
0.0 0.0 0.0
0.0 0.0 0.0
0.0 0.0 0.0
0.0 0.0 0.0
0.0 0.0 0.0
0.0 0.0 0.0
0.0 0.0 0.0
0.0 0.0 0.0
0.0 0.0 0.0
0.0 0.0 0.0
0.0 0.0 0.0
0.0 0.0 0.0
0.0 0.0 0.0
0.0 0.0 0.0
0.0 0.0 0.0
0.0 0.0 0.0
0.0 0.0 0.0
0.0 0.0 0.0
0.0 0.0 0.0
0.0 0.0 0.0
0.0 0.0 0.0
0.0 0.0 0.0
0.0 0.0 0.0
0.0 0.0 0.0
0.0 0.0 0.0
0.0 0.0 0.0
0.0 0.0 0.0
0.0 0.0 0.0
0.0 0.0 0.0
0.0 0.0 0.0
0.0 0.0 0.0
0.0 0.0 0.0
0.0 0.0 0.0
0.0 0.0 0.0
0.0 0.0 0.0
0.0 0.0 0.0
0.0 0.0 0.0
0.0 0.0 0.0
0.0 0.0 0.0
0.0 0.0 0.0
0.0 0.0 0.0
0.0 0.0 0.0
0.0 0.0 0.0
0.0 0.0 0.0
0.0 0.0 0.0
0.0 0.0 0.0
0.0 0.0 0.0
0.0 0.0 0.0
0.0 0.0 0.0
0.0 0.0 0.0
0.0 0.0 0.0
0.0 0.0 0.0
0.0 0.0 0.0
0.0 0.0 0.0
0.0 0.0 0.0
0.0 0.0 0.0
0.0 0.0 0.0
0.0 0.0 0.0
0.0 0.0 0.0
0.0 0.0 0.0
0.0 0.0 0.0
0.0 0.0 0.0
0.0 0.0 0.0
0.0 0.0 0.0
0.0 0.0 0.0
0.0 0.0 0.0
0.0 0.0 0.0
VECTORS f float
0.0 0.0 -0.0128413
0.0 0.0 -0.0128413
0.0 0.0 -0.0128413
0.0 0.0 -0.0128413
0.0 0.0 -0.0128413
0.0 0.0 -0.0128413
0.0 0.0 -0.0128413
0.0 0.0 -0.0128413
0.0 0.0 -0.0128413
0.0 0.0 -0.0128413
0.0 0.0 -0.0128413
0.0 0.0 -0.0128413
0.0 0.0 -0.0128413
0.0 0.0 -0.0128413
0.0 0.0 -0.0128413
-0.844332 -0.152119 -2.1022
0.0 0.0 -0.0128413
0.0 0.0 -0.0128413
0.0 0.0 -0.0128413
0.0 0.0 -0.0128413
0.0 0.0 -0.0128413
0.0 0.0 -0.0128413
0.0 0.0 -0.0128413
0.0 0.0 -0.0128413
-0.0118178 -0.101561 0.167749
0.0 0.0 -0.0128413
0.0 0.0 -0.0128413
0.0 0.0 -0.0128413
0.0 0.0 -0.0128413
0.0 0.0 -0.0128413
0.0 0.0 -0.0128413
0.0 0.0 -0.0128413
0.0 0.0 -0.0128413
0.0 0.0 -0.0128413
0.0561925 0.000659436 -0.0101101
0.0 0.0 -0.0128413
0.0 0.0 -0.0128413
0.0 0.0 -0.0128413
0.0 0.0 -0.0128413
0.0233441 6.61394 0.317031
0.0661037 0.0195936 -0.0231475
0.0 0.0 -0.0128413
0.0 0.0 -0.0128413
0.0 0.0 -0.0128413
0.0 0.0 -0.0128413
0.0 0.0 -0.0128413
0.0 0.0 -0.0128413
0.0 0.0 -0.0128413
0.0 0.0 -0.0128413
0.0 0.0 -0.0128413
0.0 0.0 -0.0128413
0.0 0.0 -0.0128413
0.0 0.0 -0.0128413
0.000505483 0.357681 0.00503566
-0.202577 -0.145216 11.8907
0.0 0.0 -0.0128413
0.0 0.0 -0.0128413
0.0 0.0 -0.0128413
0.0 0.0 -0.0128413
0.0 0.0 -0.0128413
0.0 0.0 -0.0128413
0.0 0.0 -0.0128413
0.0 0.0 -0.0128413
0.0 0.0 -0.0128413
0.0 0.0 -0.0128413
0.0 0.0 -0.0128413
0.0 0.0 -0.0128413
0.0 0.0 -0.0128413
0.0 0.0 -0.0128413
0.0 0.0 -0.0128413
0.0 0.0 -0.0128413
0.0 0.0 -0.0128413
0.0 0.0 -0.0128413
0.0 0.0 -0.0128413
0.0 0.0 -0.0128413
0.0 0.0 -0.0128413
0.0 0.0 -0.0128413
0.0 0.0 -0.0128413
0.0 0.0 -0.0128413
0.0 0.0 -0.0128413
0.0 0.0 -0.0128413
0.0 0.0 -0.0128413
0.0 0.0 -0.0128413
0.0 0.0 -0.0128413
0.0 0.0 -0.0128413
0.0 0.0 -0.0128413
0.0 0.0 -0.0128413
0.0 0.0 -0.0128413
0.0 0.0 -0.0128413
0.0 0.0 -0.0128413
0.0 0.0 -0.0128413
0.0 0.0 -0.0128413
0.0 0.0 -0.0128413
0.0 0.0 -0.0128413
0.0 0.0 -0.0128413
0.0 0.0 -0.0128413
0.0 0.0 -0.0128413
0.0 0.0 -0.0128413
0.0 0.0 -0.0128413
0.0 0.0 -0.0128413
0.0 0.0 -0.0128413
-0.01215 -0.127804 -0.216706
0.0 0.0 -0.0128413
0.0 0.0 -0.0128413
0.0 0.0 -0.0128413
0.0 0.0 -0.0128413
0.0 0.0 -0.0128413
0.0 0.0 -0.0128413
0.0 0.0 -0.0128413
0.0 0.0 -0.0128413
0.0 0.0 -0.0128413
0.0 0.0 -0.0128413
0.0 0.0 -0.0128413
0.0 0.0 -0.0128413
0.0 0.0 -0.0128413
0.0 0.0 -0.0128413
0.0234505 0.00147007 -0.0396423
0.0 0.0 -0.0128413
0.0 0.0 -0.0128413
0.0 0.0 -0.0128413
0.0 0.0 -0.0128413
0.0 0.0 -0.0128413
0.0 0.0 -0.0128413
0.0 0.0 -0.0128413
0.0 0.0 -0.0128413
0.0 0.0 -0.0128413
0.0436015 -0.0239098 0.981698
0.0 0.0 -0.0128413
0.0 0.0 -0.0128413
0.0 0.0 -0.0128413
0.0 0.0 -0.0128413
0.0 0.0 -0.0128413
0.0 0.0 -0.0128413
0.0 0.0 -0.0128413
0.0 0.0 -0.0128413
0.0 0.0 -0.0128413
0.0 0.0 -0.0128413
0.0 0.0 -0.0128413
0.0 0.0 -0.0128413
0.0 0.0 -0.0128413
0.0 0.0 -0.0128413
0.0 0.0 -0.0128413
0.0 0.0 -0.0128413
0.0 0.0 -0.0128413
0.0 0.0 -0.0128413
0.0 0.0 -0.0128413
0.0 0.0 -0.0128413
0.0 0.0 -0.0128413
0.0 0.0 -0.0128413
0.0 0.0 -0.0128413
0.0 0.0 -0.0128413
0.0 0.0 -0.0128413
0.0 0.0 -0.0128413
0.0 0.0 -0.0128413
-0.107968 -0.0126605 -0.780437
0.0 0.0 -0.0128413
0.0 0.0 -0.0128413
0.0 0.0 -0.0128413
0.0 0.0 -0.0128413
0.0 0.0 -0.0128413
0.0 0.0 -0.0128413
0.0 0.0 -0.0128413
0.0 0.0 -0.0128413
0.0 0.0 -0.0128413
0.0 0.0 -0.0128413
0.0 0.0 -0.0128413
0.0 0.0 -0.0128413
0.0 0.0 -0.0128413
0.0 0.0 -0.0128413
0.0 0.0 -0.0128413
0.0 0.0 -0.0128413
0.0 0.0 -0.0128413
0.0 0.0 -0.0128413
0.0 0.0 -0.0128413
0.0 0.0 -0.0128413
0.0 0.0 -0.0128413
0.0 0.0 -0.0128413
0.0 0.0 -0.0128413
0.0 0.0 -0.0128413
0.0 0.0 -0.0128413
0.0 0.0 -0.0128413
0.0 0.0 -0.0128413
0.0 0.0 -0.0128413
0.0 0.0 -0.0128413
0.0 0.0 -0.0128413
0.0 0.0 -0.0128413
0.0 0.0 -0.0128413
0.0 0.0 -0.0128413
0.0 0.0 -0.0128413
0.0 0.0 -0.0128413
0.0 0.0 -0.0128413
-0.054243 -0.0423981 -0.0227654
0.0 0.0 -0.0128413
0.0 0.0 -0.0128413
-0.0392427 -0.0290827 -0.00723224
0.0 0.0 -0.0128413
0.0 0.0 -0.0128413
0.0 0.0 -0.0128413
-0.0393575 0.0265038 0.0100314
0.0 0.0 -0.0128413
-0.0118736 0.415216 -0.00174482
0.0118736 -0.415216 -0.0239377
0.0 0.0 -0.0128413
0.01215 0.127804 0.191024
0.0 0.0 -0.0128413
0.0 0.0 -0.0128413
0.0 0.0 -0.0128413
0.0 0.0 -0.0128413
0.0 0.0 -0.0128413
0.0 0.0 -0.0128413
0.0 0.0 -0.0128413
0.0 0.0 -0.0128413
0.0 0.0 -0.0128413
0.0 0.0 -0.0128413
0.0 0.0 -0.0128413
0.0 0.0 -0.0128413
0.0 0.0 -0.0128413
0.0 0.0 -0.0128413
0.0 0.0 -0.0128413
0.0 0.0 -0.0128413
0.0 0.0 -0.0128413
0.0 0.0 -0.0128413
0.0 0.0 -0.0128413
0.0 0.0 -0.0128413
0.0 0.0 -0.0128413
0.0 0.0 -0.0128413
0.0 0.0 -0.0128413
0.0 0.0 -0.0128413
0.0 0.0 -0.0128413
0.0 0.0 -0.0128413
0.0 0.0 -0.0128413
0.0 0.0 -0.0128413
0.0 0.0 -0.0128413
0.0 0.0 -0.0128413
0.0 0.0 -0.0128413
0.0 0.0 -0.0128413
0.0 0.0 -0.0128413
0.0 0.0 -0.0128413
0.0 0.0 -0.0128413
0.0 0.0 -0.0128413
0.0 0.0 -0.0128413
0.0 0.0 -0.0128413
0.0 0.0 -0.0128413
0.0 0.0 -0.0128413
0.0 0.0 -0.0128413
0.0 0.0 -0.0128413
0.0 0.0 -0.0128413
0.0 0.0 -0.0128413
0.0 0.0 -0.0128413
-0.206881 0.000798615 -0.0387783
0.0 0.0 -0.0128413
0.0 0.0 -0.0128413
0.0 0.0 -0.0128413
0.0 0.0 -0.0128413
0.0 0.0 -0.0128413
0.0 0.0 -0.0128413
-0.00531776 -0.0688853 0.0333824
0.0 0.0 -0.0128413
0.186739 -0.460682 -0.334646
-0.554348 -0.150879 -0.130026
0.417516 0.000570815 0.256866
0.054243 0.0423981 -0.00291708
0.0 0.0 -0.0128413
0.0 0.0 -0.0128413
0.0 0.0 -0.0128413
0.0 0.0 -0.0128413
0.0 0.0 -0.0128413
0.0 0.0 -0.0128413
0.00531776 0.0688853 -0.0590649
0.0 0.0 -0.0128413
0.0 0.0 -0.0128413
0.0 0.0 -0.0128413
-1.11267 -0.00752187 -0.152684
0.0 0.0 -0.0128413
0.0 0.0 -0.0128413
0.0 0.0 -0.0128413
0.0 0.0 -0.0128413
0.0 0.0 -0.0128413
0.0 0.0 -0.0128413
0.0 0.0 -0.0128413
0.0 0.0 -0.0128413
0.0 0.0 -0.0128413
0.0 0.0 -0.0128413
0.0 0.0 -0.0128413
0.0 0.0 -0.0128413
-0.0689433 0.213475 -1.28291
0.0 0.0 -0.0128413
-0.00510051 -0.266996 -0.000504222
0.0 0.0 -0.0128413
0.0 0.0 -0.0128413
0.0 0.0 -0.0128413
-0.186739 0.460682 0.308964
0.0 0.0 -0.0128413
0.0 0.0 -0.0128413
0.0 0.0 -0.0128413
0.0 0.0 -0.0128413
0.0 0.0 -0.0128413
0.0 0.0 -0.0128413
0.0 0.0 -0.0128413
0.0 0.0 -0.0128413
0.675819 0.622537 -2.04635
0.0 0.0 -0.0128413
-0.119393 0.0796635 0.181947
0.0 0.0 -0.0128413
0.0 0.0 -0.0128413
0.0 0.0 -0.0128413
0.0767039 0.170877 -0.104216
0.0 0.0 -0.0128413
0.0 0.0 -0.0128413
0.0 0.0 -0.0128413
0.0 0.0 -0.0128413
0.423232 -0.411796 0.041756
0.0 0.0 -0.0128413
0.0 0.0 -0.0128413
0.0 0.0 -0.0128413
0.0 0.0 -0.0128413
0.0 0.0 -0.0128413
0.0 0.0 -0.0128413
0.0 0.0 -0.0128413
-0.370631 -0.0264557 -0.524073
0.0 0.0 -0.0128413
0.0915206 -0.0107539 0.620928
0.0 0.0 -0.0128413
0.0 0.0 -0.0128413
0.0 0.0 -0.0128413
-0.417937 0.502874 -0.0760985
0.730783 0.239182 1.58301
0.0 0.0 -0.0128413
0.0 0.0 -0.0128413
0.0 0.0 -0.0128413
0.463105 0.174876 0.0281151
0.0 0.0 -0.0128413
0.0 0.0 -0.0128413
0.0 0.0 -0.0128413
0.0 0.0 -0.0128413
0.629983 -0.0296942 -0.00233187
0.0 0.0 -0.0128413
0.0 0.0 -0.0128413
0.0 0.0 -0.0128413
0.0 0.0 -0.0128413
0.0 0.0 -0.0128413
0.0 0.0 -0.0128413
0.0 0.0 -0.0128413
0.0 0.0 -0.0128413
0.0 0.0 -0.0128413
0.331553 0.353807 0.688141
0.0164476 0.0234143 0.120985
0.0596856 -0.188684 0.0267333
0.0 0.0 -0.0128413
0.113549 -0.087063 0.480662
0.0340985 -0.00864068 -0.00513353
0.189227 -0.101769 -0.306041
0.0 0.0 -0.0128413
0.0 0.0 -0.0128413
0.0 0.0 -0.0128413
0.0 0.0 -0.0128413
0.113349 0.490452 -0.703617
0.0 0.0 -0.0128413
0.0 0.0 -0.0128413
0.0 0.0 -0.0128413
0.0 0.0 -0.0128413
-0.130868 0.559111 -0.926055
0.785683 1.08602 -0.22284
-0.113349 -0.490452 0.677935
0.0 0.0 -0.0128413
0.0 0.0 -0.0128413
0.0 0.0 -0.0128413
0.0 0.0 -0.0128413
-0.0340985 0.00864068 -0.020549
-0.550628 -0.708529 2.09995
0.0 0.0 -0.0128413
-0.449273 0.525796 -0.764918
0.0 0.0 -0.0128413
0.0 0.0 -0.0128413
-0.785683 -1.08602 0.197158
-0.361282 -0.283678 1.08496
0.0 0.0 -0.0128413
-0.0466178 0.248347 -0.0286633
0.0466178 -0.248347 0.00298079
0.0 0.0 -0.0128413
0.299124 -0.751378 0.842685
0.0 0.0 -0.0128413
0.0 0.0 -0.0128413
0.0 0.0 -0.0128413
0.0 0.0 -0.0128413
0.0 0.0 -0.0128413
0.0 0.0 -0.0128413
0.0 0.0 -0.0128413
0.0 0.0 -0.0128413
0.0 0.0 -0.0128413
0.0 0.0 -0.0128413
0.0 0.0 -0.0128413
0.0 0.0 -0.0128413
0.0 0.0 -0.0128413
0.0 0.0 -0.0128413
0.0 0.0 -0.0128413
0.430225 0.0702035 0.159429
0.130868 -0.559111 0.900373
0.0 0.0 -0.0128413
0.0 0.0 -0.0128413
0.0 0.0 -0.0128413
0.0 0.0 -0.0128413
0.0 0.0 -0.0128413
0.0 0.0 -0.0128413
0.0 0.0 -0.0128413
0.0 0.0 -0.0128413
0.0 0.0 -0.0128413
0.0 0.0 -0.0128413
0.0 0.0 -0.0128413
0.0 0.0 -0.0128413
0.0 0.0 -0.0128413
0.0 0.0 -0.0128413
0.0 0.0 -0.0128413
0.0 0.0 -0.0128413
0.0 0.0 -0.0128413
0.0 0.0 -0.0128413
0.0 0.0 -0.0128413
0.0 0.0 -0.0128413
0.0 0.0 -0.0128413
0.0 0.0 -0.0128413
0.0 0.0 -0.0128413
0.0 0.0 -0.0128413
0.0 0.0 -0.0128413
0.0 0.0 -0.0128413
0.0 0.0 -0.0128413
0.0 0.0 -0.0128413
0.0 0.0 -0.0128413
0.0 0.0 -0.0128413
0.0 0.0 -0.0128413
0.0 0.0 -0.0128413
0.0 0.0 -0.0128413
0.0 0.0 -0.0128413
0.0 0.0 -0.0128413
0.0 0.0 -0.0128413
0.0 0.0 -0.0128413
0.0 0.0 -0.0128413
0.0 0.0 -0.0128413
0.0 0.0 -0.0128413
0.0 0.0 -0.0128413
0.0 0.0 -0.0128413
0.0 0.0 -0.0128413
0.0 0.0 -0.0128413
0.0 0.0 -0.0128413
0.0 0.0 -0.0128413
0.0 0.0 -0.0128413
0.0 0.0 -0.0128413
0.0 0.0 -0.0128413
0.0 0.0 -0.0128413
0.0 0.0 -0.0128413
0.0 0.0 -0.0128413
0.0 0.0 -0.0128413
0.0 0.0 -0.0128413
0.0 0.0 -0.0128413
0.0 0.0 -0.0128413
0.0 0.0 -0.0128413
0.0 0.0 -0.0128413
0.0 0.0 -0.0128413
0.0 0.0 -0.0128413
0.0 0.0 -0.0128413
0.0 0.0 -0.0128413
0.0 0.0 -0.0128413
0.0 0.0 -0.0128413
0.0 0.0 -0.0128413
0.0 0.0 -0.0128413
0.0 0.0 -0.0128413
0.0 0.0 -0.0128413
0.0 0.0 -0.0128413
0.0 0.0 -0.0128413
0.0 0.0 -0.0128413
0.0 0.0 -0.0128413
0.0 0.0 -0.0128413
0.0 0.0 -0.0128413
0.0 0.0 -0.0128413
0.0 0.0 -0.0128413
0.0 0.0 -0.0128413
0.0 0.0 -0.0128413
0.0 0.0 -0.0128413
0.0 0.0 -0.0128413
0.0 0.0 -0.0128413
0.0 0.0 -0.0128413
0.0 0.0 -0.0128413
0.0 0.0 -0.0128413
0.0 0.0 -0.0128413
0.0 0.0 -0.0128413
0.0 0.0 -0.0128413
0.0 0.0 -0.0128413
0.0 0.0 -0.0128413
0.0 0.0 -0.0128413
0.0 0.0 -0.0128413
0.0 0.0 -0.0128413
0.0 0.0 -0.0128413
0.0 0.0 -0.0128413
0.0 0.0 -0.0128413
0.0 0.0 -0.0128413
0.0 0.0 -0.0128413
0.0 0.0 -0.0128413
0.0 0.0 -0.0128413
0.0 0.0 -0.0128413
0.0 0.0 -0.0128413
0.0 0.0 -0.0128413
VECTORS omega float
10.9799 81.2714 2.26234
-15.8338 -120.901 0.0515265
-20.5796 78.0138 6.88494
54.3683 43.4281 -19.2734
19.2161 -86.3678 36.5343
-21.0592 37.4495 -15.1442
19.7151 60.5668 24.9778
-5.09044 -79.2811 -26.7085
-2.80916 -38.3464 -4.5699
-25.127 -77.9618 0.263305
-17.7219 107.735 -26.0196
6.04697 -14.2984 43.5419
168.836 23.9375 85.7514
-30.1682 56.1715 -1.84993
-19.4432 -114.804 -5.28993
-17.7052 46.9669 19.1884
-20.7209 76.9851 -6.98662
-34.4953 83.204 -26.8973
56.1487 88.6779 7.94653
35.6948 -26.1796 -28.7687
3.26333 -20.667 -9.71208
56.213 -0.584792 29.6454
-82.9302 4.74908 -53.3549
87.7993 43.7955 -12.5534
0.883273 6.00309 17.1735
89.1712 35.5363 33.9637
-65.1392 -57.1452 -31.2184
-18.4982 61.6906 5.69929
-15.8683 81.5574 -2.8026
-16.4036 8.48463 -27.296
44.8651 41.8493 15.0956
5.49145 80.8288 20.8531
6.40309 19.8004 -6.11375
5.88367 -39.8831 21.6012
-9.87129 0.275148 -9.93803
46.0691 40.6242 -12.5058
-73.928 -29.3002 15.7732
3.7538 -47.5442 11.4527
11.7261 31.4128 1.05342
113.705 100.546 -92.5428
3.04479 -6.05047 -10.0105
-18.4489 -23.9022 1.98368
-33.5905 -104.936 -15.764
9.4481 21.3624 -13.4971
-53.8015 -13.1174 -4.97631
-29.4188 25.2533 1.37773
-38.6869 9.585 -8.6155
15.8346 35.6798 14.545
-37.3878 -41.9973 -17.4555
-55.3551 9.46702 12.4208
-12.1677 -11.7149 -22.922
8.29171 -16.4793 21.3049
25.582 1.05533 13.6359
-54.6301 29.53 -39.7748
-39.4625 -0.972015 10.7325
6.85152 -14.7788 -26.8196
-1.77246 10.9675 6.32526
23.7857 -64.3023 -27.4422
6.22041 -7.20108 5.64101
23.2844 31.9454 -12.4739
-0.340796 26.1278 -14.8852
50.0692 -42.1505 -7.24941
-0.192043 -76.7724 -35.999
-25.4714 27.8134 14.6254
60.2444 36.7422 30.6384
-26.1652 -7.60691 20.0278
0.278395 8.38264 1.53053
17.3818 -5.21865 3.7094
24.4965 -9.1804 -26.546
28.1562 -84.4579 -8.09249
-1.61253 -71.9566 0.505887
33.8128 -37.4459 48.4947
67.6132 9.67765 24.1602
10.7854 44.5635 1.09199
44.2226 10.6167 19.229
-41.6006 17.9608 4.07213
-66.9944 37.3988 13.8645
-4.78676 -61.5695 -32.5706
21.9658 -45.8884 -22.0495
-57.0126 64.8814 -28.1755
-24.7959 -6.50202 -2.04113
10.2781 3.62224 44.2813
-32.6848 -23.8272 -41.533
-41.5358 46.2225 1.72561
8.08993 19.1851 -0.835018
-29.9625 44.6446 12.3146
-2.39634 -51.3627 -14.6797
-10.4435 50.7906 -33.7215
-27.7525 -30.9137 18.369
-20.0707 28.4709 22.3574
-9.50523 15.4644 5.48888
30.7701 -5.90514 -5.88605
-0.702751 -14.9044 20.5303
12.7835 35.026 9.28367
-26.1345 -45.3383 5.66871
56.0694 -16.0804 57.8648
-2.99047 -13.7733 -4.74463
-38.6813 20.9707 -30.3365
5.09899 -6.05897 -2.78578
6.08108 43.4071 0.876088
-19.7963 -23.4976 0.797382
-12.1969 0.943466 5.25974
-0.325444 12.112 -24.5794
20.7597 -31.0478 35.1434
67.8255 89.8475 10.2737
16.278 -14.8499 -33.9823
-4.26151 -33.8622 7.61161
46.2274 14.3725 -5.77187
-2.95308 0.796201 16.9641
19.0643 45.7912 15.6179
-57.0286 62.5333 3.02067
14.9434 -13.5446 11.0423
34.537 -24.8201 -7.63007
17.3325 50.0389 -3.94155
4.10968 -49.9015 -44.6466
7.71884 -19.147 -46.3943
7.18368 -11.9362 6.47096
-11.1903 45.1957 2.5266
14.5731 -59.3301 -25.1207
-9.98539 40.847 -23.1807
42.212 -40.9571 -6.7366
-20.5249 11.9048 -10.2578
22.8401 -24.3583 15.503
4.62278 43.7825 -32.0941
72.1868 -136.305 11.7651
44.81 58.1227 -7.61239
-17.6946 2.18537 -19.938
-10.1105 -33.3961 -44.3569
-9.00219 16.4878 30.0255
-51.2559 -42.2377 -76.9356
-21.8114 -21.4269 21.0858
34.9728 5.15197 -27.4124
-84.0517 -11.2566 1.32076
39.1374 -9.45303 7.48468
-34.9103 55.3811 20.3541
21.8576 15.3975 -25.7032
-7.22862 13.3163 -15.7137
30.3198 -12.9541 31.0341
17.6919 -1.49459 9.88031
-7.09311 -12.9221 32.7325
8.91795 -17.8198 18.7354
52.4573 73.6544 -2.53691
-10.4649 2.65872 -20.8544
-49.8283 -35.2396 -14.8827
21.1487 22.2208 11.8444
-29.7379 -35.7045 -12.7636
39.3557 11.6543 31.4263
18.2093 53.6451 37.0394
-10.9983 -6.264 4.69817
-44.6818 5.09577 -23.8742
52.4144 -36.2679 11.8585
-2.59523 17.3371 15.1947
-36.8829 -5.15573 15.8319
-7.15975 89.86 4.20679
-0.0397252 19.0702 -7.89822
-19.8008 6.64588 -36.253
20.5053 25.4474 31.9973
-13.7276 -83.4373 0.835368
-6.76071 -17.1897 -30.7764
-7.02007 -24.0007 11.7729
-8.18458 7.5725 20.7994
-38.0571 -9.1017 -1.31651
46.8479 -67.1942 28.6702
12.6563 30.3445 -13.8002
29.3166 -10.5816 10.7203
-0.0235365 38.2664 -2.52408
21.0538 -37.5296 3.72042
47.1019 4.0112 36.8827
9.22327 18.172 -24.4052
30.7564 26.5067 -29.1968
25.3437 -12.0941 31.3864
3.76971 64.408 -5.55483
25.4935 -24.0392 -19.9119
-3.7983 2.65238 -2.48793
-7.61186 -50.6243 12.4589
-22.751 37.276 19.582
15.8431 42.5703 31.3516
-5.86937 -11.3313 10.8563
-0.428715 29.9589 7.7011
4.21434 3.57619 0.411102
25.6141 5.02087 16.9715
41.6806 27.2368 17.6614
-10.9601 -48.9925 9.42309
-10.8351 21.3336 -4.43665
2.96372 3.69882 31.4779
6.68716 2.67749 2.03055
-26.6627 -80.7874 14.0505
31.8377 -54.3105 15.4064
-32.6679 -27.578 34.7659
-0.870251 -37.722 -19.1408
1.00097 38.6427 20.3522
6.35206 42.5438 -12.0449
5.80886 42.3479 2.79925
7.314 -38.8665 -19.8401
23.2503 24.2175 -3.92831
36.827 12.5283 6.40736
8.90572 15.9096 16.8772
16.997 -45.4432 -32.2278
-2.4408 15.7291 -1.54984
-16.4177 -90.5638 -12.7595
-0.670495 41.9645 -19.0116
5.08142 49.937 18.7663
-6.53393 -55.1013 -9.53573
2.81433 19.4271 -7.08665
-9.87685 1.82893 -7.53303
1.71487 -25.9622 1.20424
32.107 -16.505 -2.69543
3.3324 -54.6006 -11.6131
32.9113 37.5862 2.54837
-29.2712 -10.4744 -46.9743
-3.52082 60.0307 32.7554
9.18665 9.91131 19.3431
-23.2894 52.0394 4.71803
12.9605 33.141 -22.3075
-7.04796 -25.9694 1.16705
41.8262 51.0222 14.5116
-3.36366 3.04455 -3.77885
12.3416 9.56381 18.3768
7.50974 -2.82375 -15.356
-63.1655 -5.36165 -14.4663
25.0737 -44.8182 25.2663
-3.96193 27.2368 -1.67725
4.44046 -21.7958 -2.49478
28.3475 1.6845 12.5334
-4.32304 32.0595 -5.93519
-12.234 112.984 -21.0295
-15.9909 19.3669 -18.2399
71.211 -12.0017 22.1691
-50.5018 8.36871 -54.7074
1.56345 -1.28271 -6.08549
-15.5902 -22.0391 -12.5346
-18.4938 -14.5505 42.4674
4.35657 37.265 23.5597
-2.37703 -32.7795 1.60903
-13.6637 70.698 -22.046
-46.2622 61.7671 -35.9026
-9.68871 -8.86754 10.3156
10.6609 6.71065 -5.13332
18.5224 36.1517 3.04772
34.4645 5.85481 -6.88827
5.81128 26.2019 28.7146
-17.0672 18.6396 0.919161
0.504418 -19.9767 51.7575
-0.371581 9.13237 10.6322
-15.8007 -41.481 -44.9654
-28.6323 -17.6866 -15.2573
26.6847 -5.87534 -1.19658
-15.222 -33.3552 7.19243
7.73858 -9.12218 -18.7719
38.2065 -28.8358 -12.394
85.0165 19.1158 41.83
13.5477 -14.1541 -36.2275
-40.5124 -24.7728 21.7695
-5.82923 -28.5718 5.29406
12.4186 -25.5817 40.3128
-12.058 -60.055 -29.6118
-12.9824 -44.2318 5.65332
42.246 -18.2387 12.5053
-37.6875 18.4586 -28.1173
-40.1095 43.5352 5.07915
-15.889 19.6463 -3.95073
-7.49601 -4.29927 -12.915
0.101018 -22.4314 5.99974
6.98837 36.5814 55.7385
-5.05052 -44.7197 18.9798
-28.2204 -18.7639 -19.8155
-16.9145 -2.00238 19.3597
3.68275 5.16316 -11.4206
10.0695 -25.7784 -42.966
28.1941 57.9337 3.25107
19.0052 9.31063 17.0765
2.73487 33.5868 -7.32523
-31.1288 46.7391 32.359
-22.3189 1.95448 -2.63914
29.9524 19.5 4.85233
17.1641 25.5632 16.2842
-0.296041 25.8739 4.48494
-12.086 14.5054 -19.0873
-6.96703 -23.4864 3.38017
-36.5823 109.629 7.26434
-34.8196 24.7119 32.7999
-2.72041 -16.162 8.5263
-17.3688 15.6092 21.4405
67.9646 -13.9316 11.3735
-8.14854 -20.4746 -27.321
-11.7251 26.7701 -23.0737
32.3587 127.989 -13.4241
-15.6255 -22.5192 20.9328
-14.8559 34.5835 -0.666154
6.16647 26.0356 -12.1963
-8.06749 -22.2581 -15.1843
-15.2776 -31.2514 -3.47201
-16.6278 -20.8654 -21.7246
28.6382 -61.9117 1.45063
-3.98781 10.4238 5.94008
-11.3968 13.9165 -0.96594
-6.86479 16.3041 8.4033
-35.6484 -2.28476 18.0276
1.75902 -32.2388 -4.01507
-0.186755 23.3864 8.87285
3.16368 -25.3693 47.2146
4.4372 5.11595 -16.9437
9.45523 48.3217 -23.6093
-21.9008 -2.24096 27.6439
-15.3429 35.3402 -33.5849
-7.56103 59.523 14.9851
22.014 -12.4847 8.8343
-9.26655 1.34204 -14.1529
7.17204 0.919744 -7.1235
-16.9462 -23.8878 -38.0838
-44.1497 -80.7858 -4.48904
5.36053 42.9355 9.75635
-20.7134 38.1181 28.1439
-3.19553 26.512 -12.2621
-2.07882 15.2065 10.1803
-24.0512 -7.61861 13.1586
-88.9795 47.0489 -37.0593
-0.251237 -9.93001 -24.8971
13.5258 21.5854 -1.30563
-4.21393 35.2225 7.77709
0.797827 -4.09238 24.3076
23.5542 -22.8118 -12.7557
-4.33576 36.6079 -3.22567
-33.5973 -0.132751 6.80293
-27.6866 -0.214945 27.0401
-20.7406 18.0121 -7.93497
11.3388 58.3596 5.42087
-39.2193 13.0394 15.0382
-14.3346 20.4396 40.3714
-4.46607 27.8584 5.51914
15.2619 4.71053 -33.328
-26.2467 47.0092 29.9662
16.1245 37.5263 -6.30991
68.8016 -28.7651 -6.54255
3.2895 25.8785 -10.1316
9.22396 3.59505 -30.3452
-6.51047 -5.63063 8.09895
6.36529 26.0435 -0.241272
-15.2127 18.6261 4.94699
-0.576689 34.0053 -10.3361
-4.34984 -10.6522 3.24239
-2.35956 -15.9164 -18.9843
4.39209 17.0728 5.17585
-18.1851 26.0925 -1.00935
-13.2614 26.543 -16.5256
63.7787 59.0051 11.6996
-1.38475 30.5198 -8.96151
-0.954415 0.392977 9.45578
-33.1575 34.0702 15.5816
43.9293 37.7196 -9.08321
-26.5622 1.92963 25.3504
-36.9415 25.6464 9.80615
41.243 81.2489 0.180679
-17.8002 6.57436 13.1815
10.434 -2.27055 10.0383
-0.120113 19.4427 17.4962
0.632696 25.8521 3.17919
-5.72332 36.182 1.63718
-21.0583 -18.5505 30.4431
11.6244 -7.43619 -20.7554
30.7763 17.4174 -2.68234
16.4396 26.048 -27.3637
18.2967 18.511 -1.32514
37.5734 9.17299 1.97267
-15.2754 -3.48376 10.142
-8.69572 66.7024 -15.4504
-42.2194 56.0524 -20.8566
24.8344 -12.5462 -1.77126
16.619 22.7235 0.508019
17.1926 -1.92804 -8.12339
-8.18234 36.5376 -15.4155
-4.05644 84.2154 1.19476
13.0303 -7.62823 -13.0352
-14.2374 -10.4078 20.3567
18.9941 35.3667 -10.2926
24.3458 45.7924 -28.1815
-22.3796 -34.2105 8.64247
3.59458 1.48297 -1.47961
-51.3588 19.6903 43.7032
-14.3129 -6.06264 8.74572
35.5252 3.17184 -9.01999
0.0 0.0 0.0
0.0 0.0 0.0
0.0 0.0 0.0
0.0 0.0 0.0
0.0 0.0 0.0
0.0 0.0 0.0
0.0 0.0 0.0
0.0 0.0 0.0
0.0 0.0 0.0
0.0 0.0 0.0
0.0 0.0 0.0
0.0 0.0 0.0
0.0 0.0 0.0
0.0 0.0 0.0
0.0 0.0 0.0
-17.56 40.8159 16.127
-11.3115 -12.2039 4.91818
0.0 0.0 0.0
0.0 0.0 0.0
0.0 0.0 0.0
0.0 0.0 0.0
0.0 0.0 0.0
0.0 0.0 0.0
0.0 0.0 0.0
0.0 0.0 0.0
0.0 0.0 0.0
0.0 0.0 0.0
0.0 0.0 0.0
0.0 0.0 0.0
0.0 0.0 0.0
0.0 0.0 0.0
0.0 0.0 0.0
0.0 0.0 0.0
0.0 0.0 0.0
0.0 0.0 0.0
0.0 0.0 0.0
0.0 0.0 0.0
0.0 0.0 0.0
0.0 0.0 0.0
0.0 0.0 0.0
0.0 0.0 0.0
0.0 0.0 0.0
0.0 0.0 0.0
0.0 0.0 0.0
0.0 0.0 0.0
0.0 0.0 0.0
0.0 0.0 0.0
0.0 0.0 0.0
0.0 0.0 0.0
0.0 0.0 0.0
0.0 0.0 0.0
0.0 0.0 0.0
0.0 0.0 0.0
0.0 0.0 0.0
0.0 0.0 0.0
0.0 0.0 0.0
0.0 0.0 0.0
0.0 0.0 0.0
0.0 0.0 0.0
0.0 0.0 0.0
0.0 0.0 0.0
0.0 0.0 0.0
0.0 0.0 0.0
0.0 0.0 0.0
0.0 0.0 0.0
0.0 0.0 0.0
0.0 0.0 0.0
0.0 0.0 0.0
0.0 0.0 0.0
0.0 0.0 0.0
0.0 0.0 0.0
0.0 0.0 0.0
0.0 0.0 0.0
0.0 0.0 0.0
0.0 0.0 0.0
0.0 0.0 0.0
0.0 0.0 0.0
0.0 0.0 0.0
0.0 0.0 0.0
0.0 0.0 0.0
0.0 0.0 0.0
0.0 0.0 0.0
0.0 0.0 0.0
0.0 0.0 0.0
0.0 0.0 0.0
0.0 0.0 0.0
0.0 0.0 0.0
0.0 0.0 0.0
0.0 0.0 0.0
0.0 0.0 0.0
0.0 0.0 0.0
0.0 0.0 0.0
0.0 0.0 0.0
0.0 0.0 0.0
0.0 0.0 0.0
0.0 0.0 0.0
0.0 0.0 0.0
0.0 0.0 0.0
0.0 0.0 0.0
0.0 0.0 0.0
0.0 0.0 0.0
0.0 0.0 0.0
0.0 0.0 0.0
0.0 0.0 0.0
0.0 0.0 0.0
0.0 0.0 0.0
0.0 0.0 0.0
0.0 0.0 0.0
0.0 0.0 0.0
0.0 0.0 0.0
0.0 0.0 0.0
0.0 0.0 0.0
0.0 0.0 0.0
0.0 0.0 0.0
0.0 0.0 0.0
0.0 0.0 0.0
0.0 0.0 0.0
0.0 0.0 0.0
0.0 0.0 0.0
VECTORS v float
0.834444 -0.181369 -3.36254
-0.37731 0.0458426 2.73839
-1.16007 0.895828 0.962791
-1.13016 0.838922 1.83685
-0.258342 -0.0600496 2.89885
0.0354472 -0.128148 -3.96566
-0.0180459 -0.0954103 -4.17631
-0.355462 0.031393 2.71211
-0.187731 0.0172905 2.561
1.5852 -0.213776 1.62984
0.29695 0.080429 2.66016
1.95264 -2.25393 0.353034
-0.570746 -0.116658 -1.49589
0.247508 -0.13397 2.72256
-0.341783 0.060187 2.65447
0.2182 -0.0302223 -0.210302
0.181803 0.0822368 3.06802
2.47543 1.22932 -1.48799
0.287727 -0.0324092 -2.57142
0.862317 1.38683 -0.452197
-0.127049 0.196829 -3.76117
0.629682 -0.125924 -4.14738
1.32333 1.42861 -1.00316
-2.08793 -0.835798 -2.00209
0.0272838 -0.0237458 0.0413856
0.267443 3.24631 -0.386818
-1.54998 2.0053 -2.29043
0.444193 -0.00202785 -4.26304
0.234542 0.0636969 3.00437
1.03491 -0.056506 -1.87755
-0.599884 0.961659 2.21171
0.213266 -0.00461749 2.8597
0.183673 -0.123842 0.0734836
0.398892 -0.718717 2.72017
0.0108231 -0.100178 -0.21093
0.94179 -0.265193 -1.72645
0.207237 -0.0411639 -4.18793
-0.225774 -0.0173358 2.83354
0.791103 1.06933 -3.98636
0.393017 0.264136 0.138632
0.0119933 0.024516 0.00105019
-0.112526 0.102517 3.15336
-0.0993104 0.10986 -3.95222
0.377848 -0.0106309 -4.41196
-0.287782 0.0595503 -4.45852
0.22065 0.1559 -3.65052
-0.102952 0.109018 -3.8
0.0522475 0.0767092 -4.53023
0.475727 0.0551834 -3.87206
0.173653 0.064261 -4.17853
0.729839 0.0507038 -4.33082
0.109789 0.106507 -4.34411
0.346418 0.214378 -4.34083
0.0993153 -0.0532894 -3.76119
-0.0703732 0.139994 -1.80566
0.209391 0.11035 -4.61046
-0.0143379 -0.0433004 -0.00398617
-0.299543 -0.100675 3.07537
-0.0400621 -0.103935 -4.16613
0.652374 0.088238 -3.47895
0.213144 -0.0749354 -4.06157
0.410079 -0.00762053 -3.75531
0.302181 0.0289618 -4.14759
0.164904 0.00389379 -2.43825
-0.101347 -0.147868 -3.54778
0.403002 0.0919466 -3.8911
0.0267796 -0.104432 -4.07922
0.308029 0.147615 -4.23515
0.388625 -0.137666 -4.64925
-0.0988555 -0.127349 -3.88453
0.38613 0.0940568 -3.44092
0.22901 -0.122577 -4.21442
0.37462 0.0364837 -3.21612
0.208484 -0.206177 -3.91642
0.809902 -0.0171785 -4.04831
0.177238 0.178925 -4.45857
0.454064 0.178227 -2.66603
0.611 -0.178998 -4.26239
0.176204 -0.0477454 -4.18448
0.309008 0.194809 -3.98715
0.0651048 0.106056 -4.08217
-0.242136 0.102519 -3.84262
0.372946 -0.189982 -2.9921
-0.0628354 0.0643364 -3.50294
0.170387 -0.10142 0.0653347
0.306965 0.0075732 -3.31302
-0.0349177 -0.0468941 -3.71805
0.0648797 -0.290785 -1.7681
0.459883 -0.00246125 -3.80907
0.221979 0.367689 -3.72017
0.100906 0.1792 -3.69384
0.350892 -0.218212 -3.66861
0.202939 -0.040837 -4.31492
-0.12377 0.107471 -3.82691
-1.96965 0.492474 -2.84414
0.31229 -0.256209 -3.34426
0.274348 0.0335945 -2.88596
0.440787 0.0443844 -4.24466
-0.0802149 -0.0107613 0.0348978
0.582654 -0.0562041 -3.62068
0.397585 0.0924648 -3.57539
0.00798106 0.0204916 0.0930847
-0.0271351 -0.0508179 -3.6368
0.381965 0.0315189 -3.45219
0.46083 0.0464202 -3.02545
-0.219062 -0.119461 -3.82556
0.281949 0.123636 -3.68845
-0.181739 -0.126033 -4.05889
0.362887 -0.183733 -3.59601
-0.0413785 -0.0174188 -2.83581
0.480114 0.0443546 -3.18757
0.13836 0.0974564 -3.65149
0.412142 -0.0577351 -3.9814
0.255676 -0.0535221 -3.39054
-0.386412 0.24368 -3.60318
0.0448729 0.0474987 -4.13128
0.035838 -0.0856297 0.0179551
0.852603 -0.0715632 -3.50401
0.399292 0.00138592 -3.51226
0.292668 0.542664 -2.33563
0.356457 -0.0481684 -2.98467
0.413168 0.031667 -2.69683
0.378448 0.0159211 -3.78347
0.206135 0.193407 -3.29285
0.0143099 -0.16236 -2.79506
0.615548 -0.397247 -0.677788
-0.11024 0.153323 0.205347
0.530537 -0.0915185 -3.27462
0.720892 -0.0970299 -3.22047
-0.100304 0.22346 -3.50597
0.34006 -0.0452176 -3.46443
0.423829 0.0104326 -3.70217
0.329632 0.0534912 -3.25744
0.380453 -0.0302518 -3.02549
0.28523 0.0372198 -3.17385
0.426411 -0.107725 -2.56871
0.15663 0.048586 -3.45897
0.556095 -0.0309417 -3.13426
0.129017 -0.0514998 -3.7229
0.99597 -0.134087 -1.73569
0.387082 0.003964 -3.25097
0.113616 0.0132587 -2.96275
0.424085 -0.0195323 -3.60362
0.3635 0.132406 -3.35265
0.43508 -0.106698 -3.05267
0.619182 0.144222 -3.21929
0.266026 -0.147421 -3.12193
0.0668725 0.295911 0.114108
0.330267 0.00773203 -3.27601
0.192054 0.0158553 -2.6962
0.216474 0.0474735 -2.58132
0.391339 -0.0617811 -2.32805
0.649 -0.0347722 -3.43435
-0.16453 0.0455837 -2.88794
0.120387 0.0351949 -0.168815
0.370375 0.212991 -3.53944
0.36306 -0.20471 -2.48972
0.250972 -0.079397 -3.28691
0.394273 0.0855495 -3.84298
0.360061 -0.0577182 -3.55182
0.423922 -0.129981 -3.01596
0.586233 0.0543267 -3.03284
0.248345 -0.0933024 -2.86994
0.292804 0.273819 -2.82743
0.255303 -0.0679346 -3.31202
-0.17217 0.0108087 -2.66716
0.542932 -0.252496 -3.31375
0.158342 -0.246516 -2.31086
0.474348 0.0312102 -3.22503
-0.177257 0.0914774 -2.81879
0.647255 0.290763 -2.85835
0.325692 -0.0880756 -3.05702
0.0453485 0.0723116 -0.330848
0.336016 -0.128018 -3.11089
-0.0603969 -0.0719799 -3.02649
-0.00166314 0.0442316 -2.71431
1.12642 0.172506 -1.96315
0.253579 0.119552 -3.35228
0.183857 -0.0690341 -2.44371
0.559817 -0.105427 -3.49923
0.0451234 0.110353 -0.220703
0.134364 0.0273126 -2.98985
0.197626 -0.0653683 -2.7935
0.189981 0.0105172 -2.85526
0.10607 -0.0735383 -2.96441
-0.393669 -0.135176 -3.19011
0.228861 -0.172604 -3.42939
-0.13835 0.0202278 0.131916
0.412918 -0.304178 -3.08528
0.424158 0.171927 -2.6816
0.336859 -0.246378 -2.39923
0.902597 0.18129 -1.82845
0.863663 -0.00472893 -1.87058
0.332761 0.126339 -3.04468
0.263108 -0.062827 -0.151889
0.654246 -0.010074 -2.70365
0.193434 -0.170529 -2.63193
-0.290173 -0.0772866 -2.92307
0.0319386 -0.00458991 -0.0154534
0.0464391 0.283697 -2.71664
0.0953144 0.185139 -2.68952
0.202051 0.0933745 -2.96953
0.256111 0.00950316 -2.64597
0.0698326 0.0272794 0.102497
0.525321 -0.101323 -3.14711
0.382587 -0.184158 -2.60198
0.168793 -0.128511 -2.78786
0.382676 -0.0912064 -2.73771
0.557618 0.127637 -2.0267
0.836029 -0.235911 -1.97475
1.02737 -0.260886 -1.99376
0.0655652 -0.0809605 -2.68477
0.83638 0.159346 -2.25821
0.259193 -0.0483365 -2.58928
-0.100631 0.0764188 -3.12414
0.940621 -0.0596993 -1.50434
0.280325 0.102811 -2.65614
0.208703 -0.157389 -3.07353
0.638582 -0.0559529 -1.93517
0.595235 0.219056 -2.24208
0.354618 0.151137 -2.74433
1.08058 -0.0202542 -1.49503
-0.0423442 -0.0707623 -2.34122
0.676847 -0.122766 -2.46106
0.307095 -0.0391661 -2.57404
0.926018 0.0583901 -2.5016
1.09415 0.19831 -2.05494
0.633758 -0.158079 -2.05614
1.07086 0.00785593 -1.68034
-0.0123643 0.057693 -2.10982
0.568709 0.0706653 -2.65716
0.278797 -0.366935 -2.12657
0.475954 -0.324769 -2.13545
0.403474 0.049684 -2.45618
0.538126 -0.137344 -0.655109
0.632364 0.153904 -2.37045
0.258546 -0.0245427 -1.97065
0.179536 0.213225 -2.3495
0.499658 0.0280053 -1.907
0.499242 0.146629 -2.92838
0.388395 -0.0132153 -2.10137
0.112396 0.00822358 0.0753493
0.833933 0.167908 -2.17842
0.912255 0.17666 -1.74967
0.809579 -0.149742 -1.93422
-0.112318 -0.147698 -2.28049
0.239519 -0.151236 -2.26711
0.907335 0.13608 -2.1194
0.899263 -0.0632922 -1.66519
0.35845 -0.0672152 -2.2096
0.75191 0.0365658 -1.8726
0.689124 0.327734 -0.667439
0.324686 -0.0554439 -2.4774
0.236241 -0.117321 -2.34793
0.908214 0.237598 -1.90249
0.559545 -0.153857 -2.22483
-0.00127875 -0.183604 -2.31584
0.248943 -0.157406 -2.76528
0.773988 0.171086 -1.25078
-0.116595 0.0782609 -0.0311956
0.991177 -0.0208939 -1.71674
1.08373 -0.0256861 -1.70665
-0.104676 0.115732 -2.44891
0.861059 0.00215884 -1.78312
0.0719982 0.0349181 -2.69738
1.16716 0.287755 -1.73761
0.0821652 0.0185282 -0.102929
1.05905 0.0167999 -1.64663
0.408211 0.191803 -2.28383
0.961051 -0.200165 -1.22424
1.03055 -0.249061 -1.39536
-0.0218158 -0.0659539 -0.1105
0.204752 0.0954322 -1.81827
0.843929 0.112681 -1.60841
0.724508 0.196178 -1.66405
1.0091 0.00965891 -1.6254
0.760487 0.20876 -2.01002
0.87608 0.210915 -2.08983
0.766715 -0.0289466 -1.76735
0.701849 0.0729644 -1.43644
0.922163 -0.0161577 -1.8407
0.37616 0.351753 -2.60949
1.43674 0.210913 -1.65505
0.81721 -0.0613949 -1.23095
0.355299 0.25531 -0.944879
-0.101206 0.273832 -0.130365
0.516966 -0.184022 -1.01051
0.904283 -0.156124 -1.858
0.967345 -0.251602 -1.64783
1.03791 -0.00432864 -2.15604
0.790781 -0.225742 -1.9053
0.877009 0.24646 -1.54285
0.747433 0.126553 -2.04168
0.932597 -0.0399293 -1.78598
0.813252 -0.144617 -1.37632
0.0727533 -0.289338 -0.196544
0.497444 -0.222735 -1.64789
0.912047 0.153162 -1.86279
-0.170552 -0.127875 -2.12811
1.08516 -0.0493075 -1.52718
0.838995 0.42179 -0.893271
0.819695 -0.270216 -1.36292
-0.272271 0.087835 -0.126349
1.00054 0.351406 -1.46374
0.89586 -0.337431 -1.57276
0.655754 -0.064323 -1.93645
0.0195132 -0.0316243 -0.0185469
1.30716 -0.000367046 -1.03775
0.875045 0.00658051 -1.74548
0.893541 0.224481 -1.85109
-0.335355 0.0736798 -2.00157
0.381032 -0.0532478 -0.553812
1.0611 0.302191 -0.91219
0.862664 -0.0316071 -1.57251
0.905276 -0.284143 -1.64807
0.871682 -0.189703 -1.5604
0.771351 0.16059 -1.12523
0.952994 0.0513177 -1.31957
1.23759 -0.102874 -1.35223
0.0642012 0.020523 -0.392728
0.940681 -0.044249 -1.31995
-0.0560592 -0.241226 -0.177039
1.22355 0.0993106 -1.43892
0.856381 0.0663264 -1.50712
0.785668 -0.0433606 -1.91152
0.38851 -0.222562 -0.17208
0.566282 0.317566 -0.766542
0.82158 -0.0889339 -1.20045
1.24154 -0.283531 -0.851914
1.03122 0.458197 -1.71303
-0.06445 0.388088 -1.09439
0.923695 -0.200137 -1.36819
0.966393 -0.018338 -1.50697
1.15598 -0.142343 -1.23289
0.544166 0.118551 -0.916156
-0.138716 0.279119 -0.170262
0.705549 0.140207 -1.36481
1.35531 0.010602 -1.49461
0.25664 0.128189 -1.58325
0.277718 -0.201106 -1.29012
0.583351 -0.0191238 -1.67582
0.711749 0.141036 -0.929722
0.795738 0.0897172 -1.15011
1.11664 0.19802 -1.45594
1.23688 0.260898 -1.37087
0.16661 0.540102 -0.79823
0.0916708 -0.238643 0.199084
-0.284275 -0.360108 -0.31942
0.396048 0.273108 -0.611658
1.09767 -0.393959 -0.638373
1.09965 0.0453511 -1.62821
0.0709373 0.955361 -0.570863
0.333161 -0.144143 -1.70919
1.04449 -0.365065 -1.25972
0.891324 -0.251171 -0.705407
0.263758 -0.0247537 -0.0470866
-0.356572 0.0868234 -0.67596
0.824401 0.0418175 -1.1385
0.577011 0.114002 -1.27098
0.915057 -0.0562432 -1.74239
0.889279 -0.34748 -0.711055
1.33701 0.447359 -1.83577
0.368079 -0.0319001 -1.90187
0.150327 -1.20608 -1.0839
0.778646 0.336032 -1.07171
0.803886 0.13754 -0.646568
0.385366 0.0632504 -0.856375
0.0620886 -0.115236 -0.426641
0.881949 -0.496733 -1.87786
0.0918055 -0.390194 -1.07499
0.609791 -0.218486 -0.35662
-0.221961 0.48808 -1.07588
0.042982 -0.670627 -1.7979
0.820432 0.347047 -1.47564
1.16147 0.0252463 -0.772492
0.394846 -0.272255 -0.806389
0.551141 -0.309605 -0.292087
0.394152 0.197037 -2.12695
0.950203 0.266545 -1.1311
0.214497 0.349579 -1.63803
0.386903 -0.932561 -1.00142
0.0 0.0 -2.09553
0.0 0.0 -2.14949
0.0 0.0 -2.07738
0.0 0.0 -2.12594
0.0 0.0 -2.09161
0.0 0.0 -2.18039
0.0 0.0 -2.07689
0.0 0.0 -2.09847
0.0 0.0 -2.03618
0.0 0.0 -2.18382
0.0 0.0 -2.09749
0.0 0.0 -2.13821
0.0 0.0 -2.13575
0.0 0.0 -2.08817
0.0 0.0 -2.03716
0.431718 -0.27872 -1.64755
0.823345 0.02675 -1.19275
0.0 0.0 -2.04795
0.0 0.0 -2.13821
0.0 0.0 -1.97977
0.0 0.0 -1.87383
0.0 0.0 -2.02882
0.0 0.0 -1.94053
0.0 0.0 -1.88364
0.0 0.0 -1.93367
0.0 0.0 -1.89296
0.0 0.0 -1.99449
0.0 0.0 -1.84783
0.0 0.0 -1.84832
0.0 0.0 -2.00332
0.0 0.0 -1.86794
0.0 0.0 -1.84047
0.0 0.0 -1.96702
0.0 0.0 -1.84391
0.0 0.0 -1.839
0.0 0.0 -1.88118
0.0 0.0 -1.98713
0.0 0.0 -1.97389
0.0 0.0 -1.94053
0.0 0.0 -1.73747
0.0 0.0 -1.68204
0.0 0.0 -1.73894
0.0 0.0 -1.77818
0.0 0.0 -1.72717
0.0 0.0 -1.64035
0.0 0.0 -1.67468
0.0 0.0 -1.74924
0.0 0.0 -1.65457
0.0 0.0 -1.79878
0.0 0.0 -1.64574
0.0 0.0 -1.77033
0.0 0.0 -1.72373
0.0 0.0 -1.83213
0.0 0.0 -1.65948
0.0 0.0 -1.7203
0.0 0.0 -1.69823
0.0 0.0 -1.79486
0.0 0.0 -1.7924
0.0 0.0 -1.64476
0.0 0.0 -1.53097
0.0 0.0 -1.581
0.0 0.0 -1.54127
0.0 0.0 -1.452
0.0 0.0 -1.61729
0.0 0.0 -1.44709
0.0 0.0 -1.6065
0.0 0.0 -1.45101
0.0 0.0 -1.5501
0.0 0.0 -1.5084
0.0 0.0 -1.55991
0.0 0.0 -1.4829
0.0 0.0 -1.49075
0.0 0.0 -1.61926
0.0 0.0 -1.55255
0.0 0.0 -1.63005
0.0 0.0 -1.44366
0.0 0.0 -1.53342
0.0 0.0 -1.45249
0.0 0.0 -1.62073
0.0 0.0 -1.38333
0.0 0.0 -1.30436
0.0 0.0 -1.30239
0.0 0.0 -1.26217
0.0 0.0 -1.25481
0.0 0.0 -1.40049
0.0 0.0 -1.25089
0.0 0.0 -1.43189
0.0 0.0 -1.26953
0.0 0.0 -1.35341
0.0 0.0 -1.3485
0.0 0.0 -1.27738
0.0 0.0 -1.25089
0.0 0.0 -1.42943
0.0 0.0 -1.36272
0.0 0.0 -1.38774
0.0 0.0 -1.31515
0.0 0.0 -1.2504
0.0 0.0 -1.38676
0.0 0.0 -1.35291
0.0 0.0 -1.12532
0.0 0.0 -1.142
0.0 0.0 -1.10325
0.0 0.0 -1.0981
0.0 0.0 -1.16702
0.0 0.0 -1.17437
0.0 0.0 -1.19497
0.0 0.0 -1.0981
0.0 0.0 -1.0981
0.0 0.0 -1.10129
0.0 0.0 -1.16015
0.0 0.0 -1.0981
0.0 0.0 -1.23323
0.0 0.0 -1.13317
0.0 0.0 -1.24108
0.0 0.0 -1.0981
0.0 0.0 -1.0981
0.0 0.0 -1.13611
0.0 0.0 -1.18271
0.0 0.0 -1.12091
SCALARS radius float 1
LOOKUP_TABLE default
0.005
0.005
0.005
0.005
0.005
0.005
0.005
0.005
0.005
0.005
0.005
0.005
0.005
0.005
0.005
0.005
0.005
0.005
0.005
0.005
0.005
0.005
0.005
0.005
0.005
0.005
0.005
0.005
0.005
0.005
0.005
0.005
0.005
0.005
0.005
0.005
0.005
0.005
0.005
0.005
0.005
0.005
0.005
0.005
0.005
0.005
0.005
0.005
0.005
0.005
0.005
0.005
0.005
0.005
0.005
0.005
0.005
0.005
0.005
0.005
0.005
0.005
0.005
0.005
0.005
0.005
0.005
0.005
0.005
0.005
0.005
0.005
0.005
0.005
0.005
0.005
0.005
0.005
0.005
0.005
0.005
0.005
0.005
0.005
0.005
0.005
0.005
0.005
0.005
0.005
0.005
0.005
0.005
0.005
0.005
0.005
0.005
0.005
0.005
0.005
0.005
0.005
0.005
0.005
0.005
0.005
0.005
0.005
0.005
0.005
0.005
0.005
0.005
0.005
0.005
0.005
0.005
0.005
0.005
0.005
0.005
0.005
0.005
0.005
0.005
0.005
0.005
0.005
0.005
0.005
0.005
0.005
0.005
0.005
0.005
0.005
0.005
0.005
0.005
0.005
0.005
0.005
0.005
0.005
0.005
0.005
0.005
0.005
0.005
0.005
0.005
0.005
0.005
0.005
0.005
0.005
0.005
0.005
0.005
0.005
0.005
0.005
0.005
0.005
0.005
0.005
0.005
0.005
0.005
0.005
0.005
0.005
0.005
0.005
0.005
0.005
0.005
0.005
0.005
0.005
0.005
0.005
0.005
0.005
0.005
0.005
0.005
0.005
0.005
0.005
0.005
0.005
0.005
0.005
0.005
0.005
0.005
0.005
0.005
0.005
0.005
0.005
0.005
0.005
0.005
0.005
0.005
0.005
0.005
0.005
0.005
0.005
0.005
0.005
0.005
0.005
0.005
0.005
0.005
0.005
0.005
0.005
0.005
0.005
0.005
0.005
0.005
0.005
0.005
0.005
0.005
0.005
0.005
0.005
0.005
0.005
0.005
0.005
0.005
0.005
0.005
0.005
0.005
0.005
0.005
0.005
0.005
0.005
0.005
0.005
0.005
0.005
0.005
0.005
0.005
0.005
0.005
0.005
0.005
0.005
0.005
0.005
0.005
0.005
0.005
0.005
0.005
0.005
0.005
0.005
0.005
0.005
0.005
0.005
0.005
0.005
0.005
0.005
0.005
0.005
0.005
0.005
0.005
0.005
0.005
0.005
0.005
0.005
0.005
0.005
0.005
0.005
0.005
0.005
0.005
0.005
0.005
0.005
0.005
0.005
0.005
0.005
0.005
0.005
0.005
0.005
0.005
0.005
0.005
0.005
0.005
0.005
0.005
0.005
0.005
0.005
0.005
0.005
0.005
0.005
0.005
0.005
0.005
0.005
0.005
0.005
0.005
0.005
0.005
0.005
0.005
0.005
0.005
0.005
0.005
0.005
0.005
0.005
0.005
0.005
0.005
0.005
0.005
0.005
0.005
0.005
0.005
0.005
0.005
0.005
0.005
0.005
0.005
0.005
0.005
0.005
0.005
0.005
0.005
0.005
0.005
0.005
0.005
0.005
0.005
0.005
0.005
0.005
0.005
0.005
0.005
0.005
0.005
0.005
0.005
0.005
0.005
0.005
0.005
0.005
0.005
0.005
0.005
0.005
0.005
0.005
0.005
0.005
0.005
0.005
0.005
0.005
0.005
0.005
0.005
0.005
0.005
0.005
0.005
0.005
0.005
0.005
0.005
0.005
0.005
0.005
0.005
0.005
0.005
0.005
0.005
0.005
0.005
0.005
0.005
0.005
0.005
0.005
0.005
0.005
0.005
0.005
0.005
0.005
0.005
0.005
0.005
0.005
0.005
0.005
0.005
0.005
0.005
0.005
0.005
0.005
0.005
0.005
0.005
0.005
0.005
0.005
0.005
0.005
0.005
0.005
0.005
0.005
0.005
0.005
0.005
0.005
0.005
0.005
0.005
0.005
0.005
0.005
0.005
0.005
0.005
0.005
0.005
0.005
0.005
0.005
0.005
0.005
0.005
0.005
0.005
0.005
0.005
0.005
0.005
0.005
0.005
0.005
0.005
0.005
0.005
0.005
0.005
0.005
0.005
0.005
0.005
0.005
0.005
0.005
0.005
0.005
0.005
0.005
0.005
0.005
0.005
0.005
0.005
0.005
SCALARS type float 1
LOOKUP_TABLE default
1.0
1.0
1.0
1.0
1.0
1.0
1.0
1.0
1.0
1.0
1.0
1.0
1.0
1.0
1.0
1.0
1.0
1.0
1.0
1.0
1.0
1.0
1.0
1.0
1.0
1.0
1.0
1.0
1.0
1.0
1.0
1.0
1.0
1.0
1.0
1.0
1.0
1.0
1.0
1.0
1.0
1.0
1.0
1.0
1.0
1.0
1.0
1.0
1.0
1.0
1.0
1.0
1.0
1.0
1.0
1.0
1.0
1.0
1.0
1.0
1.0
1.0
1.0
1.0
1.0
1.0
1.0
1.0
1.0
1.0
1.0
1.0
1.0
1.0
1.0
1.0
1.0
1.0
1.0
1.0
1.0
1.0
1.0
1.0
1.0
1.0
1.0
1.0
1.0
1.0
1.0
1.0
1.0
1.0
1.0
1.0
1.0
1.0
1.0
1.0
1.0
1.0
1.0
1.0
1.0
1.0
1.0
1.0
1.0
1.0
1.0
1.0
1.0
1.0
1.0
1.0
1.0
1.0
1.0
1.0
1.0
1.0
1.0
1.0
1.0
1.0
1.0
1.0
1.0
1.0
1.0
1.0
1.0
1.0
1.0
1.0
1.0
1.0
1.0
1.0
1.0
1.0
1.0
1.0
1.0
1.0
1.0
1.0
1.0
1.0
1.0
1.0
1.0
1.0
1.0
1.0
1.0
1.0
1.0
1.0
1.0
1.0
1.0
1.0
1.0
1.0
1.0
1.0
1.0
1.0
1.0
1.0
1.0
1.0
1.0
1.0
1.0
1.0
1.0
1.0
1.0
1.0
1.0
1.0
1.0
1.0
1.0
1.0
1.0
1.0
1.0
1.0
1.0
1.0
1.0
1.0
1.0
1.0
1.0
1.0
1.0
1.0
1.0
1.0
1.0
1.0
1.0
1.0
1.0
1.0
1.0
1.0
1.0
1.0
1.0
1.0
1.0
1.0
1.0
1.0
1.0
1.0
1.0
1.0
1.0
1.0
1.0
1.0
1.0
1.0
1.0
1.0
1.0
1.0
1.0
1.0
1.0
1.0
1.0
1.0
1.0
1.0
1.0
1.0
1.0
1.0
1.0
1.0
1.0
1.0
1.0
1.0
1.0
1.0
1.0
1.0
1.0
1.0
1.0
1.0
1.0
1.0
1.0
1.0
1.0
1.0
1.0
1.0
1.0
1.0
1.0
1.0
1.0
1.0
1.0
1.0
1.0
1.0
1.0
1.0
1.0
1.0
1.0
1.0
1.0
1.0
1.0
1.0
1.0
1.0
1.0
1.0
1.0
1.0
1.0
1.0
1.0
1.0
1.0
1.0
1.0
1.0
1.0
1.0
1.0
1.0
1.0
1.0
1.0
1.0
1.0
1.0
1.0
1.0
1.0
1.0
1.0
1.0
1.0
1.0
1.0
1.0
1.0
1.0
1.0
1.0
1.0
1.0
1.0
1.0
1.0
1.0
1.0
1.0
1.0
1.0
1.0
1.0
1.0
1.0
1.0
1.0
1.0
1.0
1.0
1.0
1.0
1.0
1.0
1.0
1.0
1.0
1.0
1.0
1.0
1.0
1.0
1.0
1.0
1.0
1.0
1.0
1.0
1.0
1.0
1.0
1.0
1.0
1.0
1.0
1.0
1.0
1.0
1.0
1.0
1.0
1.0
1.0
1.0
1.0
1.0
1.0
1.0
1.0
1.0
1.0
1.0
1.0
1.0
1.0
1.0
1.0
1.0
1.0
1.0
1.0
1.0
1.0
1.0
1.0
1.0
1.0
1.0
1.0
1.0
1.0
1.0
1.0
1.0
1.0
1.0
1.0
1.0
1.0
1.0
1.0
1.0
1.0
1.0
1.0
1.0
1.0
1.0
1.0
1.0
1.0
1.0
1.0
1.0
1.0
1.0
1.0
1.0
1.0
1.0
1.0
1.0
1.0
1.0
1.0
1.0
1.0
1.0
1.0
1.0
1.0
1.0
1.0
1.0
1.0
1.0
1.0
1.0
1.0
1.0
1.0
1.0
1.0
1.0
1.0
1.0
1.0
1.0
1.0
1.0
1.0
1.0
1.0
1.0
1.0
1.0
1.0
1.0
1.0
1.0
1.0
1.0
1.0
1.0
1.0
1.0
1.0
1.0
1.0
1.0
1.0
1.0
1.0
1.0
1.0
1.0
1.0
1.0
1.0
1.0
1.0
1.0
1.0
1.0
1.0
SCALARS id float 1
LOOKUP_TABLE default
1.0
2.0
3.0
4.0
5.0
6.0
7.0
8.0
9.0
10.0
11.0
12.0
13.0
14.0
15.0
16.0
17.0
18.0
19.0
20.0
21.0
22.0
23.0
24.0
25.0
26.0
27.0
28.0
29.0
30.0
31.0
32.0
33.0
34.0
35.0
36.0
37.0
38.0
39.0
40.0
41.0
42.0
43.0
44.0
45.0
46.0
47.0
48.0
49.0
50.0
51.0
52.0
53.0
54.0
55.0
56.0
57.0
58.0
59.0
60.0
61.0
62.0
63.0
64.0
65.0
66.0
67.0
68.0
69.0
70.0
71.0
72.0
73.0
74.0
75.0
76.0
77.0
78.0
79.0
80.0
81.0
82.0
83.0
84.0
85.0
86.0
87.0
88.0
89.0
90.0
91.0
92.0
93.0
94.0
95.0
96.0
97.0
98.0
99.0
100.0
101.0
102.0
103.0
104.0
105.0
106.0
107.0
108.0
109.0
110.0
111.0
112.0
113.0
114.0
115.0
116.0
117.0
118.0
119.0
120.0
121.0
122.0
123.0
124.0
125.0
126.0
127.0
128.0
129.0
130.0
131.0
132.0
133.0
134.0
135.0
136.0
137.0
138.0
139.0
140.0
141.0
142.0
143.0
144.0
145.0
146.0
147.0
148.0
149.0
150.0
151.0
152.0
153.0
154.0
155.0
156.0
157.0
158.0
159.0
160.0
161.0
162.0
163.0
164.0
165.0
166.0
167.0
168.0
169.0
170.0
171.0
172.0
173.0
174.0
175.0
176.0
177.0
178.0
179.0
180.0
181.0
182.0
183.0
184.0
185.0
186.0
187.0
188.0
189.0
190.0
191.0
192.0
193.0
194.0
195.0
196.0
197.0
198.0
199.0
200.0
201.0
202.0
203.0
204.0
205.0
206.0
207.0
208.0
209.0
210.0
211.0
212.0
213.0
214.0
215.0
216.0
217.0
218.0
219.0
220.0
221.0
222.0
223.0
224.0
225.0
226.0
227.0
228.0
229.0
230.0
231.0
232.0
233.0
234.0
235.0
236.0
237.0
238.0
239.0
240.0
241.0
242.0
243.0
244.0
245.0
246.0
247.0
248.0
249.0
250.0
251.0
252.0
253.0
254.0
255.0
256.0
257.0
258.0
259.0
260.0
261.0
262.0
263.0
264.0
265.0
266.0
267.0
268.0
269.0
270.0
271.0
272.0
273.0
274.0
275.0
276.0
277.0
278.0
279.0
280.0
281.0
282.0
283.0
284.0
285.0
286.0
287.0
288.0
289.0
290.0
291.0
292.0
293.0
294.0
295.0
296.0
297.0
298.0
299.0
300.0
301.0
302.0
303.0
304.0
305.0
306.0
307.0
308.0
309.0
310.0
311.0
312.0
313.0
314.0
315.0
316.0
317.0
318.0
319.0
320.0
321.0
322.0
323.0
324.0
325.0
326.0
327.0
328.0
329.0
330.0
331.0
332.0
333.0
334.0
335.0
336.0
337.0
338.0
339.0
340.0
341.0
342.0
343.0
344.0
345.0
346.0
347.0
348.0
349.0
350.0
351.0
352.0
353.0
354.0
355.0
356.0
357.0
358.0
359.0
360.0
361.0
362.0
363.0
364.0
365.0
366.0
367.0
368.0
369.0
370.0
371.0
372.0
373.0
374.0
375.0
376.0
377.0
378.0
379.0
380.0
381.0
382.0
383.0
384.0
385.0
386.0
387.0
388.0
389.0
390.0
391.0
392.0
393.0
394.0
395.0
396.0
397.0
398.0
399.0
400.0
401.0
402.0
403.0
404.0
405.0
406.0
407.0
408.0
409.0
410.0
411.0
412.0
413.0
414.0
415.0
416.0
417.0
418.0
419.0
420.0
421.0
422.0
423.0
424.0
425.0
426.0
427.0
428.0
429.0
430.0
431.0
432.0
433.0
434.0
435.0
436.0
437.0
438.0
439.0
440.0
441.0
442.0
443.0
444.0
445.0
446.0
447.0
448.0
449.0
450.0
451.0
452.0
453.0
454.0
455.0
456.0
457.0
458.0
459.0
460.0
461.0
462.0
463.0
464.0
465.0
466.0
467.0
468.0
469.0
470.0
471.0
472.0
473.0
474.0
475.0
476.0
477.0
478.0
479.0
480.0
481.0
482.0
483.0
484.0
485.0
486.0
487.0
488.0
489.0
490.0
491.0
492.0
493.0
494.0
495.0
496.0
497.0
498.0
499.0
500.0

