# vtk DataFile Version 2.0
Generated by lpp.py
ASCII
DATASET POLYDATA
POINTS 360 float
0.287808 -0.0287103 -0.336555
0.414181 -0.0320018 -0.72416
0.340448 -0.0414578 -0.716474
0.355691 -0.0291796 -0.584782
0.275258 -0.0110939 -0.671994
0.321782 -0.0234717 -0.397555
0.332804 -0.00926571 -0.458589
0.28766 -0.0430217 -0.773197
0.316557 -0.0448411 -0.846624
0.330833 -0.0270768 -0.853962
0.398406 -0.0384172 -0.759734
0.361403 -0.0197669 -0.628952
0.341807 -0.0268084 -0.793335
0.375352 -0.0267888 -0.739819
0.251822 -0.0399228 -0.778988
0.213171 -0.00515333 -0.244991
0.379612 -0.0398115 -0.62402
0.34638 -0.0327045 -0.553266
0.246657 -0.0106807 -0.268963
0.355383 -0.0100383 -0.575215
0.328741 -0.0216349 -0.520346
0.364665 -0.011337 -0.519243
0.362957 -0.0415582 -0.571105
0.35265 -0.0132037 -0.603587
0.205126 -0.0220065 -0.243922
0.353237 -0.0405266 -0.650547
0.356407 -0.0390625 -0.547387
0.372034 -0.0147258 -0.569139
0.37266 -0.0436889 -0.636326
0.213307 -0.0442248 -0.244285
0.355491 -0.0233565 -0.663211
0.388099 -0.0282016 -0.655192
0.212676 -0.0150671 -0.239183
0.339912 -0.0135835 -0.631059
0.205443 -0.0351072 -0.244831
0.220523 -0.0143648 -0.245098
0.341338 -0.0447698 -0.483011
0.313517 -0.00745243 -0.731635
0.347806 -0.0102814 -0.538686
0.363829 -0.0276034 -0.702523
0.205215 -0.0118385 -0.244916
0.314565 -0.0414169 -0.601673
0.332192 -0.0259275 -0.483171
0.358135 -0.0362027 -0.524997
0.330811 -0.039755 -0.590191
0.308604 -0.0336254 -0.361118
0.328519 -0.0230337 -0.407743
0.336046 -0.0262791 -0.561192
0.359676 -0.0448312 -0.512531
0.351722 -0.0425891 -0.490717
0.363731 -0.024403 -0.519594
0.344316 -0.0314385 -0.488806
0.351579 -0.021943 -0.518992
0.324895 -0.0321554 -0.403228
0.341727 -0.0372491 -0.578288
0.341587 -0.0183785 -0.517314
0.205436 -0.00546637 -0.237285
0.303117 -0.0109434 -0.626571
0.332167 -0.00683498 -0.548544
0.276387 -0.0155345 -0.320074
0.356269 -0.0365377 -0.477805
0.320712 -0.00851625 -0.418877
0.349958 -0.015937 -0.441697
0.223755 -0.00496046 -0.244749
0.309272 -0.0101872 -0.344274
0.351619 -0.0350242 -0.452292
0.340256 -0.017435 -0.483939
0.343134 -0.021425 -0.467435
0.346448 -0.0246458 -0.531674
0.342641 -0.00507858 -0.446024
0.334046 -0.0202801 -0.390132
0.327939 -0.014921 -0.503432
0.288898 -0.00516652 -0.327319
0.347094 -0.0360764 -0.427082
0.311493 -0.0314715 -0.379392
0.34768 -0.03672 -0.519993
0.243949 -0.0436908 -0.260492
0.353111 -0.0388036 -0.464458
0.346175 -0.0101973 -0.503663
0.342871 -0.0442797 -0.44679
0.342901 -0.0310879 -0.448267
0.309573 -0.0210326 -0.389682
0.237146 -0.044308 -0.244282
0.335599 -0.035063 -0.421896
0.20501 -0.0293419 -0.2362
0.320443 -0.0444396 -0.351891
0.340905 -0.0441229 -0.420359
0.215015 -0.0229973 -0.245022
0.340421 -0.0172992 -0.428535
0.309762 -0.011127 -0.375693
0.319196 -0.0266177 -0.368705
0.302982 -0.0155989 -0.334114
0.344296 -0.00699568 -0.471615
0.343309 -0.0386157 -0.409071
0.334396 -0.0423196 -0.471398
0.285928 -0.00854787 -0.336427
0.225328 -0.0348593 -0.244533
0.350875 -0.0226828 -0.449834
0.205062 -0.00495458 -0.2274
0.339345 -0.0284744 -0.431991
0.294375 -0.0312948 -0.348326
0.205096 -0.0432129 -0.238372
0.328346 -0.042339 -0.38649
0.322629 -0.0172335 -0.314896
0.274482 -0.00506315 -0.316236
0.328027 -0.032381 -0.391266
0.338724 -0.0445968 -0.385049
0.346473 -0.00811627 -0.436141
0.284603 -0.0148736 -0.328539
0.240473 -0.00514194 -0.25653
0.262182 -0.013498 -0.290194
0.340254 -0.00614082 -0.413036
0.345178 -0.0102606 -0.422906
0.271571 -0.0166882 -0.308021
0.318382 -0.0123689 -0.355905
0.334323 -0.0449015 -0.395911
0.204661 -0.0154684 -0.233582
0.302341 -0.0158825 -0.359397
0.332919 -0.0417928 -0.346942
0.222863 -0.044782 -0.241567
0.321268 -0.0123829 -0.295442
0.233723 -0.0154265 -0.245858
0.328709 -0.00873581 -0.371608
0.243727 -0.0349438 -0.252856
0.298096 -0.0135815 -0.289633
0.213366 -0.0143236 -0.229255
0.208193 -0.0240601 -0.228245
0.292474 -0.0330897 -0.318482
0.291481 -0.0257366 -0.326666
0.270725 -0.0434431 -0.308454
0.32853 -0.0405137 -0.365158
0.293996 -0.037981 -0.330638
0.276595 -0.0448879 -0.290351
0.298823 -0.00697011 -0.309617
0.25504 -0.0436572 -0.281265
0.234333 -0.0253256 -0.243829
0.31265 -0.0336181 -0.34196
0.314006 -0.00737236 -0.313884
0.309585 -0.0248954 -0.356356
0.215851 -0.00659413 -0.234947
0.279507 -0.0238385 -0.30129
0.261054 -0.00703536 -0.272009
0.284225 -0.0415942 -0.312414
0.302265 -0.0381227 -0.319501
0.260738 -0.0271 -0.287426
0.271459 -0.0429632 -0.275949
0.274046 -0.00855153 -0.300295
0.213574 -0.0356979 -0.238409
0.310305 -0.0199565 -0.309268
0.231628 -0.0445029 -0.236221
0.254535 -0.0150527 -0.277739
0.226425 -0.0159856 -0.23745
0.301703 -0.0359298 -0.301314
0.259949 -0.0429103 -0.290004
0.213869 -0.0449879 -0.233652
0.306652 -0.0447009 -0.304663
0.235681 -0.00582368 -0.247158
0.283752 -0.0129381 -0.3047
0.316551 -0.0240096 -0.33236
0.279306 -0.0283257 -0.323519
0.259963 -0.019585 -0.265491
0.275436 -0.0279152 -0.292361
0.275533 -0.0290449 -0.265406
0.222504 -0.0273577 -0.226723
0.266811 -0.0314551 -0.27468
0.234432 -0.0354051 -0.240413
0.274369 -0.0317809 -0.281171
0.233474 -0.00533574 -0.236299
0.285874 -0.00922555 -0.291369
0.249014 -0.0275466 -0.272428
0.285889 -0.0161272 -0.277081
0.245617 -0.024756 -0.263534
0.20507 -0.0352921 -0.219152
0.278087 -0.0172343 -0.291416
0.273624 -0.00663997 -0.275735
0.244006 -0.0143566 -0.247415
0.217596 -0.0225498 -0.233604
0.27897 -0.0327829 -0.307132
0.224168 -0.0248095 -0.241213
0.288535 -0.0243596 -0.311441
0.213425 -0.0330939 -0.225659
0.248964 -0.00580857 -0.245245
0.246172 -0.0270897 -0.238453
0.262913 -0.037882 -0.240208
0.250689 -0.00862314 -0.257217
0.278979 -0.0160583 -0.26346
0.26255 -0.0272177 -0.242903
0.214599 -0.00483086 -0.224413
0.259188 -0.0433533 -0.254375
0.233205 -0.0265968 -0.234205
0.223403 -0.00867278 -0.228894
0.222378 -0.0348257 -0.233727
0.217677 -0.0420287 -0.224897
0.262014 -0.0353341 -0.264188
0.206122 -0.0242864 -0.212654
0.244864 -0.0125714 -0.235723
0.268526 -0.0134282 -0.25947
0.230351 -0.0188951 -0.228599
0.205264 -0.014672 -0.222506
0.25822 -0.0259954 -0.252985
0.238793 -0.014987 -0.224406
0.228521 -0.0429461 -0.224183
0.243123 -0.0280873 -0.212968
0.21038 -0.0444283 -0.218089
0.248927 -0.0113177 -0.222278
0.231723 -0.0210398 -0.212655
0.241313 -0.0302841 -0.229807
0.256591 -0.0118744 -0.237604
0.221375 -0.00594766 -0.217258
0.217417 -0.0426965 -0.20575
0.21457 -0.0191999 -0.212073
0.23719 -0.0394057 -0.220507
0.221842 -0.0261192 -0.215171
0.224673 -0.0344668 -0.220112
0.249115 -0.0359666 -0.234457
0.207215 -0.00501847 -0.215122
0.247875 -0.0417575 -0.212551
0.240555 -0.00521244 -0.224345
0.220272 -0.0164828 -0.22247
0.225897 -0.0428589 -0.213584
0.244028 -0.00841656 -0.194754
0.213159 -0.0446361 -0.192137
0.24382 -0.026021 -0.185786
0.231147 -0.0254342 -0.174676
0.236612 -0.0352895 -0.179317
0.228804 -0.00795562 -0.189069
0.211318 -0.028032 -0.186815
0.213179 -0.00728669 -0.187647
0.218946 -0.0406193 -0.176797
0.226552 -0.0179137 -0.193701
0.245692 -0.0446594 -0.192017
0.226505 -0.0302342 -0.190239
0.222321 -0.0212668 -0.169103
0.239151 -0.0173562 -0.191891
0.213192 -0.0170754 -0.179554
0.226315 -0.043435 -0.190528
0.248629 -0.00835056 -0.17316
0.248646 -0.0345768 -0.17069
0.237553 -0.00742038 -0.178124
0.228583 -0.00513071 -0.209595
0.234708 -0.0165351 -0.142807
0.211478 -0.0159401 -0.139683
0.228027 -0.0252557 -0.136296
0.211509 -0.0356212 -0.165569
0.226513 -0.0378663 -0.157963
0.239236 -0.0310562 -0.134779
0.241505 -0.0131187 -0.161937
0.249791 -0.0383789 -0.152606
0.21523 -0.0247671 -0.131623
0.225191 -0.0148775 -0.148265
0.21047 -0.025545 -0.165059
0.221585 -0.0335657 -0.13231
0.243122 -0.0435431 -0.168427
0.23636 -0.0448731 -0.150896
0.21994 -0.0270663 -0.149402
0.248537 -0.0275163 -0.154436
0.221005 -0.00979483 -0.1632
0.239297 -0.00704086 -0.14122
0.227412 -0.0432709 -0.138271
0.210174 -0.0336483 -0.134663
0.220554 -0.015536 -0.104698
0.23155 -0.0168679 -0.123951
0.243019 -0.00911795 -0.100265
0.229451 -0.00951585 -0.0976235
0.246106 -0.0168942 -0.118217
0.219139 -0.0315403 -0.113927
0.210415 -0.0446145 -0.125955
0.249252 -0.0248752 -0.108648
0.249517 -0.036276 -0.11783
0.212917 -0.0345885 -0.099055
0.225822 -0.00522314 -0.118902
0.211607 -0.00769405 -0.102502
0.236053 -0.0319911 -0.113402
0.226825 -0.0410672 -0.112829
0.241844 -0.00652481 -0.117638
0.21683 -0.0101783 -0.119602
0.243175 -0.0434765 -0.104867
0.235774 -0.0218941 -0.104393
0.223848 -0.0326805 -0.0989713
0.212023 -0.0188911 -0.114491
0.232494 -0.0388328 -0.0856626
0.243816 -0.0232015 -0.0891248
0.213514 -0.0242577 -0.0962622
0.219498 -0.00535671 -0.0745496
0.212796 -0.0121182 -0.0800859
0.211848 -0.0275037 -0.0792749
0.219221 -0.0373589 -0.0694847
0.245034 -0.0312594 -0.0749669
0.231481 -0.015344 -0.0795595
0.245019 -0.00556751 -0.0701871
0.233391 -0.0281452 -0.0782514
0.244749 -0.0449806 -0.0831257
0.231333 -0.0447181 -0.0683806
0.221406 -0.025629 -0.0756905
0.222958 -0.0146693 -0.0719644
0.219037 -0.0430729 -0.0845264
0.248139 -0.00742275 -0.0837838
0.24486 -0.0334175 -0.0895608
0.234968 -0.0315079 -0.0967424
0.232212 -0.00522222 -0.0725904
0.219591 -0.0397459 -0.0440028
0.234653 -0.0261522 -0.0496096
0.217253 -0.0244055 -0.0425119
0.247936 -0.0217615 -0.0647776
0.23957 -0.0448304 -0.0579888
0.225617 -0.013971 -0.056275
0.212302 -0.00879119 -0.0558235
0.229816 -0.00560949 -0.0507128
0.238161 -0.0234197 -0.061455
0.224122 -0.0245011 -0.0517014
0.249315 -0.0382876 -0.0558935
0.21072 -0.0255212 -0.0652735
0.212185 -0.043082 -0.0621286
0.245393 -0.0308043 -0.0453712
0.246779 -0.0192433 -0.0453123
0.235037 -0.0384427 -0.0419883
0.227486 -0.0432281 -0.0516848
0.241056 -0.00998004 -0.0483441
0.231251 -0.0351322 -0.0582244
0.214946 -0.0149503 -0.0463848
0.246097 -0.00697483 -0.0275448
0.21879 -0.0391247 -0.0224023
0.245426 -0.0391927 -0.0305691
0.233544 -0.0364364 -0.0282923
0.223166 -0.00921418 -0.0397774
0.215415 -0.0177014 -0.0269628
0.215619 -0.00697456 -0.0251077
0.229882 -0.00587143 -0.0213272
0.233851 -0.0218029 -0.0206745
0.222918 -0.0259384 -0.0320857
0.214022 -0.0273586 -0.0215992
0.227247 -0.0297107 -0.0229449
0.248363 -0.0307084 -0.0220712
0.239548 -0.0294975 -0.0337994
0.22913 -0.0140515 -0.0290066
0.211009 -0.0439958 -0.0334313
0.243968 -0.0176767 -0.0224638
0.248872 -0.00604561 -0.0412397
0.238676 -0.0438023 -0.0220712
0.21274 -0.0333224 -0.0381643
0.249772 -0.0365465 -0.00326559
0.228915 -0.0180516 -0.00509332
0.238036 -0.044866 -0.00367092
0.232198 -0.0348609 -0.00317946
0.236009 -0.03518 -0.0174803
0.211079 -0.00875542 -0.00792507
0.221777 -0.0412358 -0.00524118
0.214698 -0.0328941 -0.00873788
0.227723 -0.0441729 -0.0179064
0.219415 -0.00963432 -0.000641789
0.244297 -0.0220927 -0.00248809
0.220993 -0.0260716 -0.000469323
0.223175 -0.00626009 -0.012877
0.241215 -0.0202928 -0.012074
0.233371 -0.00841637 -0.0023594
0.21658 -0.0229966 -0.0114188
0.211369 -0.0432938 -0.0158062
0.241975 -0.00635772 -0.00769301
0.226147 -0.0268858 -0.0130328
0.244429 -0.0322123 -0.0123991
VERTICES 360 720
1 0
1 1
1 2
1 3
1 4
1 5
1 6
1 7
1 8
1 9
1 10
1 11
1 12
1 13
1 14
1 15
1 16
1 17
1 18
1 19
1 20
1 21
1 22
1 23
1 24
1 25
1 26
1 27
1 28
1 29
1 30
1 31
1 32
1 33
1 34
1 35
1 36
1 37
1 38
1 39
1 40
1 41
1 42
1 43
1 44
1 45
1 46
1 47
1 48
1 49
1 50
1 51
1 52
1 53
1 54
1 55
1 56
1 57
1 58
1 59
1 60
1 61
1 62
1 63
1 64
1 65
1 66
1 67
1 68
1 69
1 70
1 71
1 72
1 73
1 74
1 75
1 76
1 77
1 78
1 79
1 80
1 81
1 82
1 83
1 84
1 85
1 86
1 87
1 88
1 89
1 90
1 91
1 92
1 93
1 94
1 95
1 96
1 97
1 98
1 99
1 100
1 101
1 102
1 103
1 104
1 105
1 106
1 107
1 108
1 109
1 110
1 111
1 112
1 113
1 114
1 115
1 116
1 117
1 118
1 119
1 120
1 121
1 122
1 123
1 124
1 125
1 126
1 127
1 128
1 129
1 130
1 131
1 132
1 133
1 134
1 135
1 136
1 137
1 138
1 139
1 140
1 141
1 142
1 143
1 144
1 145
1 146
1 147
1 148
1 149
1 150
1 151
1 152
1 153
1 154
1 155
1 156
1 157
1 158
1 159
1 160
1 161
1 162
1 163
1 164
1 165
1 166
1 167
1 168
1 169
1 170
1 171
1 172
1 173
1 174
1 175
1 176
1 177
1 178
1 179
1 180
1 181
1 182
1 183
1 184
1 185
1 186
1 187
1 188
1 189
1 190
1 191
1 192
1 193
1 194
1 195
1 196
1 197
1 198
1 199
1 200
1 201
1 202
1 203
1 204
1 205
1 206
1 207
1 208
1 209
1 210
1 211
1 212
1 213
1 214
1 215
1 216
1 217
1 218
1 219
1 220
1 221
1 222
1 223
1 224
1 225
1 226
1 227
1 228
1 229
1 230
1 231
1 232
1 233
1 234
1 235
1 236
1 237
1 238
1 239
1 240
1 241
1 242
1 243
1 244
1 245
1 246
1 247
1 248
1 249
1 250
1 251
1 252
1 253
1 254
1 255
1 256
1 257
1 258
1 259
1 260
1 261
1 262
1 263
1 264
1 265
1 266
1 267
1 268
1 269
1 270
1 271
1 272
1 273
1 274
1 275
1 276
1 277
1 278
1 279
1 280
1 281
1 282
1 283
1 284
1 285
1 286
1 287
1 288
1 289
1 290
1 291
1 292
1 293
1 294
1 295
1 296
1 297
1 298
1 299
1 300
1 301
1 302
1 303
1 304
1 305
1 306
1 307
1 308
1 309
1 310
1 311
1 312
1 313
1 314
1 315
1 316
1 317
1 318
1 319
1 320
1 321
1 322
1 323
1 324
1 325
1 326
1 327
1 328
1 329
1 330
1 331
1 332
1 333
1 334
1 335
1 336
1 337
1 338
1 339
1 340
1 341
1 342
1 343
1 344
1 345
1 346
1 347
1 348
1 349
1 350
1 351
1 352
1 353
1 354
1 355
1 356
1 357
1 358
1 359
POINT_DATA 360
VECTORS i float
0.0 0.0 0.0
0.0 0.0 0.0
0.0 0.0 0.0
0.0 0.0 0.0
0.0 0.0 0.0
0.0 0.0 0.0
0.0 0.0 0.0
0.0 0.0 0.0
0.0 0.0 0.0
0.0 0.0 0.0
0.0 0.0 0.0
0.0 0.0 0.0
0.0 0.0 0.0
0.0 0.0 0.0
0.0 0.0 0.0
0.0 0.0 0.0
0.0 0.0 0.0
0.0 0.0 0.0
0.0 0.0 0.0
0.0 0.0 0.0
0.0 0.0 0.0
0.0 0.0 0.0
0.0 0.0 0.0
0.0 0.0 0.0
0.0 0.0 0.0
0.0 0.0 0.0
0.0 0.0 0.0
0.0 0.0 0.0
0.0 0.0 0.0
0.0 0.0 0.0
0.0 0.0 0.0
0.0 0.0 0.0
0.0 0.0 0.0
0.0 0.0 0.0
0.0 0.0 0.0
0.0 0.0 0.0
0.0 0.0 0.0
0.0 0.0 0.0
0.0 0.0 0.0
0.0 0.0 0.0
0.0 0.0 0.0
0.0 0.0 0.0
0.0 0.0 0.0
0.0 0.0 0.0
0.0 0.0 0.0
0.0 0.0 0.0
0.0 0.0 0.0
0.0 0.0 0.0
0.0 0.0 0.0
0.0 0.0 0.0
0.0 0.0 0.0
0.0 0.0 0.0
0.0 0.0 0.0
0.0 0.0 0.0
0.0 0.0 0.0
0.0 0.0 0.0
0.0 0.0 0.0
0.0 0.0 0.0
0.0 0.0 0.0
0.0 0.0 0.0
0.0 0.0 0.0
0.0 0.0 0.0
0.0 0.0 0.0
0.0 0.0 0.0
0.0 0.0 0.0
0.0 0.0 0.0
0.0 0.0 0.0
0.0 0.0 0.0
0.0 0.0 0.0
0.0 0.0 0.0
0.0 0.0 0.0
0.0 0.0 0.0
0.0 0.0 0.0
0.0 0.0 0.0
0.0 0.0 0.0
0.0 0.0 0.0
0.0 0.0 0.0
0.0 0.0 0.0
0.0 0.0 0.0
0.0 0.0 0.0
0.0 0.0 0.0
0.0 0.0 0.0
0.0 0.0 0.0
0.0 0.0 0.0
0.0 0.0 0.0
0.0 0.0 0.0
0.0 0.0 0.0
0.0 0.0 0.0
0.0 0.0 0.0
0.0 0.0 0.0
0.0 0.0 0.0
0.0 0.0 0.0
0.0 0.0 0.0
0.0 0.0 0.0
0.0 0.0 0.0
0.0 0.0 0.0
0.0 0.0 0.0
0.0 0.0 0.0
0.0 0.0 0.0
0.0 0.0 0.0
0.0 0.0 0.0
0.0 0.0 0.0
0.0 0.0 0.0
0.0 0.0 0.0
0.0 0.0 0.0
0.0 0.0 0.0
0.0 0.0 0.0
0.0 0.0 0.0
0.0 0.0 0.0
0.0 0.0 0.0
0.0 0.0 0.0
0.0 0.0 0.0
0.0 0.0 0.0
0.0 0.0 0.0
0.0 0.0 0.0
0.0 0.0 0.0
0.0 0.0 0.0
0.0 0.0 0.0
0.0 0.0 0.0
0.0 0.0 0.0
0.0 0.0 0.0
0.0 0.0 0.0
0.0 0.0 0.0
0.0 0.0 0.0
0.0 0.0 0.0
0.0 0.0 0.0
0.0 0.0 0.0
0.0 0.0 0.0
0.0 0.0 0.0
0.0 0.0 0.0
0.0 0.0 0.0
0.0 0.0 0.0
0.0 0.0 0.0
0.0 0.0 0.0
0.0 0.0 0.0
0.0 0.0 0.0
0.0 0.0 0.0
0.0 0.0 0.0
0.0 0.0 0.0
0.0 0.0 0.0
0.0 0.0 0.0
0.0 0.0 0.0
0.0 0.0 0.0
0.0 0.0 0.0
0.0 0.0 0.0
0.0 0.0 0.0
0.0 0.0 0.0
0.0 0.0 0.0
0.0 0.0 0.0
0.0 0.0 0.0
0.0 0.0 0.0
0.0 0.0 0.0
0.0 0.0 0.0
0.0 0.0 0.0
0.0 0.0 0.0
0.0 0.0 0.0
0.0 0.0 0.0
0.0 0.0 0.0
0.0 0.0 0.0
0.0 0.0 0.0
0.0 0.0 0.0
0.0 0.0 0.0
0.0 0.0 0.0
0.0 0.0 0.0
0.0 0.0 0.0
0.0 0.0 0.0
0.0 0.0 0.0
0.0 0.0 0.0
0.0 0.0 0.0
0.0 0.0 0.0
0.0 0.0 0.0
0.0 0.0 0.0
0.0 0.0 0.0
0.0 0.0 0.0
0.0 0.0 0.0
0.0 0.0 0.0
0.0 0.0 0.0
0.0 0.0 0.0
0.0 0.0 0.0
0.0 0.0 0.0
0.0 0.0 0.0
0.0 0.0 0.0
0.0 0.0 0.0
0.0 0.0 0.0
0.0 0.0 0.0
0.0 0.0 0.0
0.0 0.0 0.0
0.0 0.0 0.0
0.0 0.0 0.0
0.0 0.0 0.0
0.0 0.0 0.0
0.0 0.0 0.0
0.0 0.0 0.0
0.0 0.0 0.0
0.0 0.0 0.0
0.0 0.0 0.0
0.0 0.0 0.0
0.0 0.0 0.0
0.0 0.0 0.0
0.0 0.0 0.0
0.0 0.0 0.0
0.0 0.0 0.0
0.0 0.0 0.0
0.0 0.0 0.0
0.0 0.0 0.0
0.0 0.0 0.0
0.0 0.0 0.0
0.0 0.0 0.0
0.0 0.0 0.0
0.0 0.0 0.0
0.0 0.0 0.0
0.0 0.0 0.0
0.0 0.0 0.0
0.0 0.0 0.0
0.0 0.0 0.0
0.0 0.0 0.0
0.0 0.0 0.0
0.0 0.0 0.0
0.0 0.0 0.0
0.0 0.0 0.0
0.0 0.0 0.0
0.0 0.0 0.0
0.0 0.0 0.0
0.0 0.0 0.0
0.0 0.0 0.0
0.0 0.0 0.0
0.0 0.0 0.0
0.0 0.0 0.0
0.0 0.0 0.0
0.0 0.0 0.0
0.0 0.0 0.0
0.0 0.0 0.0
0.0 0.0 0.0
0.0 0.0 0.0
0.0 0.0 0.0
0.0 0.0 0.0
0.0 0.0 0.0
0.0 0.0 0.0
0.0 0.0 0.0
0.0 0.0 0.0
0.0 0.0 0.0
0.0 0.0 0.0
0.0 0.0 0.0
0.0 0.0 0.0
0.0 0.0 0.0
0.0 0.0 0.0
0.0 0.0 0.0
0.0 0.0 0.0
0.0 0.0 0.0
0.0 0.0 0.0
0.0 0.0 0.0
0.0 0.0 0.0
0.0 0.0 0.0
0.0 0.0 0.0
0.0 0.0 0.0
0.0 0.0 0.0
0.0 0.0 0.0
0.0 0.0 0.0
0.0 0.0 0.0
0.0 0.0 0.0
0.0 0.0 0.0
0.0 0.0 0.0
0.0 0.0 0.0
0.0 0.0 0.0
0.0 0.0 0.0
0.0 0.0 0.0
0.0 0.0 0.0
0.0 0.0 0.0
0.0 0.0 0.0
0.0 0.0 0.0
0.0 0.0 0.0
0.0 0.0 0.0
0.0 0.0 0.0
0.0 0.0 0.0
0.0 0.0 0.0
0.0 0.0 0.0
0.0 0.0 0.0
0.0 0.0 0.0
0.0 0.0 0.0
0.0 0.0 0.0
0.0 0.0 0.0
0.0 0.0 0.0
0.0 0.0 0.0
0.0 0.0 0.0
0.0 0.0 0.0
0.0 0.0 0.0
0.0 0.0 0.0
0.0 0.0 0.0
0.0 0.0 0.0
0.0 0.0 0.0
0.0 0.0 0.0
0.0 0.0 0.0
0.0 0.0 0.0
0.0 0.0 0.0
0.0 0.0 0.0
0.0 0.0 0.0
0.0 0.0 0.0
0.0 0.0 0.0
0.0 0.0 0.0
0.0 0.0 0.0
0.0 0.0 0.0
0.0 0.0 0.0
0.0 0.0 0.0
0.0 0.0 0.0
0.0 0.0 0.0
0.0 0.0 0.0
0.0 0.0 0.0
0.0 0.0 0.0
0.0 0.0 0.0
0.0 0.0 0.0
0.0 0.0 0.0
0.0 0.0 0.0
0.0 0.0 0.0
0.0 0.0 0.0
0.0 0.0 0.0
0.0 0.0 0.0
0.0 0.0 0.0
0.0 0.0 0.0
0.0 0.0 0.0
0.0 0.0 0.0
0.0 0.0 0.0
0.0 0.0 0.0
0.0 0.0 0.0
0.0 0.0 0.0
0.0 0.0 0.0
0.0 0.0 0.0
0.0 0.0 0.0
0.0 0.0 0.0
0.0 0.0 0.0
0.0 0.0 0.0
0.0 0.0 0.0
0.0 0.0 0.0
0.0 0.0 0.0
0.0 0.0 0.0
0.0 0.0 0.0
0.0 0.0 0.0
0.0 0.0 0.0
0.0 0.0 0.0
0.0 0.0 0.0
0.0 0.0 0.0
0.0 0.0 0.0
0.0 0.0 0.0
0.0 0.0 0.0
0.0 0.0 0.0
0.0 0.0 0.0
0.0 0.0 0.0
0.0 0.0 0.0
0.0 0.0 0.0
0.0 0.0 0.0
0.0 0.0 0.0
0.0 0.0 0.0
0.0 0.0 0.0
0.0 0.0 0.0
0.0 0.0 0.0
0.0 0.0 0.0
0.0 0.0 0.0
0.0 0.0 0.0
0.0 0.0 0.0
0.0 0.0 0.0
0.0 0.0 0.0
VECTORS f float
0.0 0.0 -0.0128413
0.0 0.0 -0.0128413
0.0 0.0 -0.0128413
0.0 0.0 -0.0128413
0.0 0.0 -0.0128413
0.0 0.0 -0.0128413
0.0 0.0 -0.0128413
0.0 0.0 -0.0128413
0.0 0.0 -0.0128413
0.0 0.0 -0.0128413
0.0 0.0 -0.0128413
0.0 0.0 -0.0128413
0.0 0.0 -0.0128413
0.0 0.0 -0.0128413
0.0 0.0 -0.0128413
0.0 0.0 -0.0128413
0.0 0.0 -0.0128413
0.0 0.0 -0.0128413
0.437513 -0.00941245 0.267691
0.0 0.0 -0.0128413
0.0 0.0 -0.0128413
0.0 0.0 -0.0128413
0.0 0.0 -0.0128413
0.0 0.0 -0.0128413
-0.00388226 0.00046662 -0.0122252
0.0 0.0 -0.0128413
0.0 0.0 -0.0128413
0.0 0.0 -0.0128413
0.0 0.0 -0.0128413
-0.199767 0.0134645 -0.0804921
0.0 0.0 -0.0128413
0.0 0.0 -0.0128413
0.609217 -0.086377 -0.405878
0.0 0.0 -0.0128413
0.0 0.0 -0.0128413
-0.151359 0.0432095 -0.521613
0.0 0.0 -0.0128413
0.0 0.0 -0.0128413
0.0 0.0 -0.0128413
0.0 0.0 -0.0128413
-0.185316 -0.133701 -0.401845
0.0 0.0 -0.0128413
0.0 0.0 -0.0128413
0.0 0.0 -0.0128413
0.0 0.0 -0.0128413
-0.0217747 -0.128411 -0.0822694
0.0 0.0 -0.0128413
0.0 0.0 -0.0128413
0.0 0.0 -0.0128413
0.0 0.0 -0.0128413
0.0 0.0 -0.0128413
0.0 0.0 -0.0128413
0.0 0.0 -0.0128413
0.0 0.0 -0.0128413
0.0 0.0 -0.0128413
0.0 0.0 -0.0128413
0.0226463 0.211922 -0.162199
0.0 0.0 -0.0128413
0.0 0.0 -0.0128413
0.0 0.0 -0.0128413
-0.596014 0.00118429 -0.0874993
0.0 0.0 -0.0128413
-0.603527 0.000757862 -0.0884261
0.0646679 -0.0714115 -0.0281708
0.0 0.0 -0.0128413
0.0 0.0 -0.0128413
0.0 0.0 -0.0128413
0.0 0.0 -0.0128413
0.0 0.0 -0.0128413
0.0 0.0 -0.0128413
0.0 0.0 -0.0128413
0.0 0.0 -0.0128413
0.0 0.0 -0.0128413
0.0 0.0 -0.0128413
0.0 0.0 -0.0128413
0.0 0.0 -0.0128413
0.0 0.0 -0.0128413
0.0 0.0 -0.0128413
0.0 0.0 -0.0128413
0.0 0.0 -0.0128413
0.0 0.0 -0.0128413
0.0 0.0 -0.0128413
0.534551 0.00307369 -0.878323
0.0 0.0 -0.0128413
0.0 0.0 -0.0128413
0.0 0.0 -0.0128413
0.0 0.0 -0.0128413
0.00727756 0.00560638 0.125696
0.0 0.0 -0.0128413
0.0 0.0 -0.0128413
0.0 0.0 -0.0128413
0.0 0.0 -0.0128413
0.0 0.0 -0.0128413
0.0 0.0 -0.0128413
0.0 0.0 -0.0128413
0.0 0.0 -0.0128413
0.0 0.0 -0.0128413
0.0 0.0 -0.0128413
0.167557 -0.348746 0.455335
0.0 0.0 -0.0128413
0.0 0.0 -0.0128413
0.0 0.0 -0.0128413
0.0 0.0 -0.0128413
0.0 0.0 -0.0128413
0.0 0.0 -0.0128413
0.0 0.0 -0.0128413
0.0 0.0 -0.0128413
0.0 0.0 -0.0128413
0.0 0.0 -0.0128413
0.0 0.0 -0.0128413
0.0 0.0 -0.0128413
0.0 0.0 -0.0128413
0.0 0.0 -0.0128413
0.0 0.0 -0.0128413
0.0 0.0 -0.0128413
0.0 0.0 -0.0128413
0.729938 -0.135858 0.447909
0.0 0.0 -0.0128413
0.0 0.0 -0.0128413
0.199767 -0.0134645 0.0548096
0.0 0.0 -0.0128413
-0.156062 -0.681862 0.0488427
0.0 0.0 -0.0128413
0.0 0.0 -0.0128413
0.0 0.0 -0.0128413
0.508537 -0.00586612 0.47561
0.0 0.0 -0.0128413
0.0 0.0 -0.0128413
0.0 0.0 -0.0128413
0.0 0.0 -0.0128413
0.0 0.0 -0.0128413
0.0 0.0 -0.0128413
0.0 0.0 -0.0128413
0.0 0.0 -0.0128413
0.0 0.0 -0.0128413
0.0678541 0.146065 -0.944894
0.0 0.0 -0.0128413
0.0 0.0 -0.0128413
0.0217747 0.128411 0.0565869
-0.220384 0.250783 -0.402044
0.0 0.0 -0.0128413
0.0 0.0 -0.0128413
0.0 0.0 -0.0128413
0.0 0.0 -0.0128413
0.0 0.0 -0.0128413
0.0 0.0 -0.0128413
0.0 0.0 -0.0128413
0.0 0.0 -0.0128413
0.0 0.0 -0.0128413
-0.534551 -0.00307369 0.85264
0.0 0.0 -0.0128413
0.702384 0.526753 0.95784
0.0 0.0 -0.0128413
0.0 0.0 -0.0128413
-0.00374988 -0.0033249 -0.0211713
0.0 0.0 -0.0128413
0.156062 0.681862 -0.0745252
0.0 0.0 -0.0128413
0.0 0.0 -0.0128413
0.0 0.0 -0.0128413
0.0 0.0 -0.0128413
0.0 0.0 -0.0128413
0.0 0.0 -0.0128413
0.54369 -0.615303 0.8001
-0.0316813 0.000333631 0.0168416
0.0 0.0 -0.0128413
0.0316813 -0.000333631 -0.0425241
0.0 0.0 -0.0128413
0.0 0.0 -0.0128413
0.103918 -0.0878066 -0.326336
0.0 0.0 -0.0128413
-0.103918 0.0878066 0.300654
0.0 0.0 -0.0128413
0.0 0.0 -0.0128413
0.0 0.0 -0.0128413
0.0 0.0 -0.0128413
-0.542869 0.611917 -0.822828
0.0 0.0 -0.0128413
-0.176613 -0.717339 -0.276329
0.0 0.0 -0.0128413
-0.0811763 0.194634 -0.026935
0.0 0.0 -0.0128413
0.0 0.0 -0.0128413
0.0 0.0 -0.0128413
0.0 0.0 -0.0128413
0.0 0.0 -0.0128413
0.0 0.0 -0.0128413
-0.629539 -1.10601 -0.441854
0.0 0.0 -0.0128413
-0.198833 -0.279089 0.62048
0.275941 -0.0586671 0.213592
0.0 0.0 -0.0128413
0.0849262 -0.191309 0.0095825
0.0 0.0 -0.0128413
-0.396689 -0.236447 -0.0632078
0.0 0.0 -0.0128413
0.0 0.0 -0.0128413
-0.072849 0.22444 0.161395
0.0 0.0 -0.0128413
0.0 0.0 -0.0128413
-0.0432651 -0.201764 -0.0218793
0.0 0.0 -0.0128413
0.0 0.0 -0.0128413
0.0 0.0 -0.0128413
0.0 0.0 -0.0128413
0.0 0.0 -0.0128413
0.203828 -0.0914164 0.111654
0.0 0.0 -0.0128413
0.392584 -0.0364975 0.390656
0.0 0.0 -0.0128413
0.396689 0.236447 0.0375253
0.0 0.0 -0.0128413
0.0 0.0 -0.0128413
-0.000820547 0.00338586 -0.0157959
0.0 0.0 -0.0128413
0.0 0.0 -0.0128413
0.0 0.0 -0.0128413
0.0432651 0.201764 -0.00380321
0.241297 -0.0698785 0.246284
0.0 0.0 -0.0128413
0.0 0.0 -0.0128413
0.0 0.0 -0.0128413
0.0 0.0 -0.0128413
0.0 0.0 -0.0128413
0.0 0.0 -0.0128413
0.0 0.0 -0.0128413
0.0 0.0 -0.0128413
0.0 0.0 -0.0128413
0.0 0.0 -0.0128413
0.0 0.0 -0.0128413
0.0 0.0 -0.0128413
0.0 0.0 -0.0128413
0.0 0.0 -0.0128413
0.0 0.0 -0.0128413
0.0 0.0 -0.0128413
0.0 0.0 -0.0128413
0.0 0.0 -0.0128413
0.0 0.0 -0.0128413
0.0 0.0 -0.0128413
0.0 0.0 -0.0128413
0.0 0.0 -0.0128413
0.0 0.0 -0.0128413
0.0 0.0 -0.0128413
0.0 0.0 -0.0128413
0.0 0.0 -0.0128413
0.0 0.0 -0.0128413
0.0 0.0 -0.0128413
0.0 0.0 -0.0128413
0.0 0.0 -0.0128413
0.0 0.0 -0.0128413
0.0 0.0 -0.0128413
0.0 0.0 -0.0128413
0.0 0.0 -0.0128413
0.0 0.0 -0.0128413
0.0 0.0 -0.0128413
0.0 0.0 -0.0128413
0.0 0.0 -0.0128413
0.0 0.0 -0.0128413
0.0 0.0 -0.0128413
0.0 0.0 -0.0128413
0.0 0.0 -0.0128413
0.0 0.0 -0.0128413
0.0 0.0 -0.0128413
0.0 0.0 -0.0128413
0.0 0.0 -0.0128413
0.0 0.0 -0.0128413
0.0 0.0 -0.0128413
0.0 0.0 -0.0128413
0.0 0.0 -0.0128413
0.0 0.0 -0.0128413
0.0 0.0 -0.0128413
0.0 0.0 -0.0128413
0.0 0.0 -0.0128413
0.0 0.0 -0.0128413
0.0 0.0 -0.0128413
0.0 0.0 -0.0128413
0.0 0.0 -0.0128413
0.0 0.0 -0.0128413
0.0 0.0 -0.0128413
0.0 0.0 -0.0128413
0.0 0.0 -0.0128413
0.0 0.0 -0.0128413
0.0 0.0 -0.0128413
0.0 0.0 -0.0128413
0.0 0.0 -0.0128413
0.0 0.0 -0.0128413
0.0 0.0 -0.0128413
0.0 0.0 -0.0128413
0.0 0.0 -0.0128413
0.0 0.0 -0.0128413
0.0 0.0 -0.0128413
0.0 0.0 -0.0128413
0.0 0.0 -0.0128413
0.0 0.0 -0.0128413
0.0 0.0 -0.0128413
0.0 0.0 -0.0128413
0.0 0.0 -0.0128413
0.0 0.0 -0.0128413
0.0 0.0 -0.0128413
0.0 0.0 -0.0128413
0.0 0.0 -0.0128413
0.0 0.0 -0.0128413
0.0 0.0 -0.0128413
0.0 0.0 -0.0128413
0.0 0.0 -0.0128413
0.0 0.0 -0.0128413
0.0 0.0 -0.0128413
0.0 0.0 -0.0128413
0.0 0.0 -0.0128413
0.0 0.0 -0.0128413
0.0 0.0 -0.0128413
0.0 0.0 -0.0128413
0.0 0.0 -0.0128413
0.0 0.0 -0.0128413
0.0 0.0 -0.0128413
0.0 0.0 -0.0128413
0.0 0.0 -0.0128413
0.0 0.0 -0.0128413
0.0 0.0 -0.0128413
0.0 0.0 -0.0128413
0.0 0.0 -0.0128413
0.0 0.0 -0.0128413
0.0 0.0 -0.0128413
0.0 0.0 -0.0128413
0.0 0.0 -0.0128413
0.0 0.0 -0.0128413
0.0 0.0 -0.0128413
0.0 0.0 -0.0128413
0.0 0.0 -0.0128413
0.0 0.0 -0.0128413
0.0 0.0 -0.0128413
0.0 0.0 -0.0128413
0.0 0.0 -0.0128413
0.0 0.0 -0.0128413
0.0 0.0 -0.0128413
0.0 0.0 -0.0128413
0.0 0.0 -0.0128413
0.0 0.0 -0.0128413
0.0 0.0 -0.0128413
0.0 0.0 -0.0128413
0.0 0.0 0.0
0.0 0.0 0.0
0.0 0.0 0.0
0.0 0.0 0.0
0.0 0.0 0.0
0.0 0.0 0.0
0.0 0.0 0.0
0.0 0.0 0.0
0.0 0.0 0.0
0.0 0.0 0.0
0.0 0.0 0.0
0.0 0.0 0.0
0.0 0.0 0.0
0.0 0.0 0.0
0.0 0.0 0.0
0.0 0.0 0.0
0.0 0.0 0.0
0.0 0.0 0.0
0.0 0.0 0.0
0.0 0.0 0.0
VECTORS omega float
11.4759 88.9498 1.59651
5.93875 21.0005 -1.63736
-47.0441 83.5476 -23.4217
-1.41708 6.86831 -2.24678
-5.41974 7.02857 37.6566
-39.3537 65.7481 -12.8818
20.7282 67.808 24.469
13.281 -42.0129 -26.7085
3.6059 -8.36252 -4.5699
-8.17814 -13.8436 0.799106
-16.1427 -36.0273 -25.4889
-24.8005 -38.0191 2.05327
4.52515 32.0581 -18.6389
-34.7218 35.8377 -3.16354
3.11932 -7.41793 -6.22827
0.67517 16.2392 -3.0725
-10.998 -79.7995 -6.98662
-11.1988 2.58889 -0.667495
28.266 57.433 -8.0333
17.4786 -67.5669 39.9134
15.3876 -20.667 -10.4242
48.5974 -0.584792 28.2338
-10.3583 -55.8002 -21.9302
19.5413 60.1743 21.7825
-43.6252 -4.47169 -4.57329
-17.4319 -11.3337 19.265
-3.56899 -5.77133 -26.4174
-18.4982 61.6906 5.69929
-13.031 -14.6215 -2.8026
-15.9843 -6.00017 7.85567
11.9927 55.6991 0.566616
-14.4973 -68.2459 20.8531
-10.7627 -37.6574 7.15744
0.541567 -14.415 15.3779
6.81776 -3.99296 -7.54047
-0.109523 18.9708 -20.0961
-75.5238 -23.2299 14.7891
1.14527 -4.72364 11.4527
32.7433 12.6332 0.587506
0.43249 -50.0928 -11.6279
3.37914 12.216 -12.5169
5.14026 -17.2023 1.98368
-26.8189 -104.936 -16.1213
9.4481 21.3624 -13.4971
-53.8015 -13.1174 -4.97631
-16.3023 25.8236 -15.6353
-40.3793 8.96274 -11.3077
14.1792 35.2218 15.7179
-34.0208 -41.9973 -16.8304
-56.0895 15.3049 10.9249
-12.1677 -11.7149 -22.922
9.06394 -22.1691 30.8191
38.7103 1.05533 15.1471
-53.9497 50.4492 -46.7475
-16.912 -42.2325 10.6978
17.5438 -12.4174 -27.4681
-26.5245 -39.0029 -3.28399
26.9871 -46.2089 -27.4422
-3.82351 -11.1599 4.67971
8.9558 29.8798 -7.65623
-0.0917014 52.3341 -12.7751
50.0692 -42.1505 -7.24941
-1.85589 -72.0205 -39.027
6.30439 36.0236 8.37861
52.0834 66.591 25.5408
-6.37205 0.90907 18.9211
-11.8806 2.69284 10.6514
34.3411 -0.0549711 3.82965
16.1429 -9.1804 -27.6619
29.9833 -86.4732 -9.61234
-8.19405 -15.9484 7.08154
33.1044 -41.4047 47.6454
58.5787 3.01259 23.2709
10.2807 47.8689 5.24045
44.5882 19.324 16.0907
-20.0323 20.3222 4.08304
-29.0262 10.141 0.571858
-13.6001 -66.1673 -34.4469
21.9658 -45.8884 -22.0495
-61.7614 83.3679 -29.3465
-18.7512 -1.2818 -6.55655
16.7432 3.62224 44.2449
-31.456 0.108625 -37.1313
-47.2847 43.0848 2.17973
28.4006 15.3084 -4.8883
-16.3077 68.2777 0.114745
6.28546 -57.4649 -17.8075
-1.45533 21.6374 7.86721
-25.5625 -30.6275 17.9426
7.27269 27.6132 0.58923
-11.2499 30.2857 5.61528
22.2466 -18.1649 1.01401
3.06896 -13.4569 23.2472
19.3719 35.026 9.09349
-17.6163 2.9184 6.20451
41.7506 -0.6424 67.02
-13.1373 22.9726 -3.34388
-38.7472 26.6331 -27.1157
15.8504 22.7479 33.4011
5.88151 42.8971 4.77321
-11.0714 -26.1366 -32.4091
32.8968 9.07601 -1.0687
-2.74602 8.35292 -30.3984
26.535 3.27043 23.7643
59.9491 92.1941 29.6319
8.23402 -14.4783 -34.4388
7.74314 -30.1421 4.40653
52.473 10.7675 -13.3041
-21.2642 -14.2374 12.6877
31.488 80.8573 20.2955
-50.9188 62.3093 12.7826
8.01966 7.5942 6.40558
5.19058 -17.3292 -9.98185
35.8926 55.7245 -20.1137
-2.61479 -49.9015 -45.779
12.0812 13.1668 -47.3874
27.0626 6.93859 1.23323
-11.1903 45.1957 2.5266
26.7672 -27.6966 -49.95
-3.32775 54.4842 -23.2624
45.5437 17.4166 12.2879
-36.0972 21.7014 -24.2404
5.4524 -19.9319 -16.1129
15.2998 46.6161 -39.177
59.838 -39.8944 -15.149
3.30995 -11.4514 15.6314
-17.1543 7.80137 -47.4332
-20.3231 10.4236 -31.2626
10.9254 35.9674 33.7311
-56.2239 -21.2571 -81.1929
-17.0325 26.0566 12.4351
17.6141 -11.31 -26.613
-69.7357 33.6909 -12.7085
17.0112 -6.73345 18.4406
-19.7219 75.0484 -1.46203
-5.82985 34.9049 -6.86797
-12.4806 16.5313 -8.79879
25.9433 12.0001 27.3915
18.7931 17.2213 3.31023
30.9445 14.0273 0.66867
1.95905 14.6335 -4.05588
41.124 50.568 -5.50125
-12.357 11.4097 -22.6571
-10.2913 21.8328 12.2976
21.8365 -1.9417 8.56353
-13.9204 -14.3835 -26.9256
48.237 26.9347 28.5635
1.49833 27.3544 20.0503
0.480345 17.5042 -7.20438
-40.4831 -5.74704 -13.3713
63.7795 -14.9332 18.147
20.6009 -35.7321 -11.8571
-31.8738 -14.6258 8.68571
-3.73278 91.0416 15.1915
-27.6444 26.5504 -10.8818
7.81952 31.8547 -24.0892
25.0048 40.0325 43.9474
-14.2018 -47.0034 12.8822
-2.45671 15.3435 -28.8242
-6.52411 -5.84881 19.3324
-10.7157 19.6838 5.31334
-10.4947 -17.1729 9.00888
52.055 6.13179 8.32418
29.9239 -2.01843 -45.9576
19.6243 6.99584 13.0982
-23.7801 24.6621 14.7237
21.9771 -11.4748 -3.96028
30.0434 -16.3545 19.2939
32.5876 31.1162 -11.3692
60.5779 49.2062 -31.4524
11.5593 30.8929 -2.34896
20.7998 71.6516 -38.1087
102.731 29.9805 -50.3375
40.1562 -4.80287 11.7093
-2.68142 -32.4129 20.3883
-25.4042 47.6668 12.1067
-1.74965 29.2934 4.45347
-5.01537 -1.70774 -10.565
-18.3865 -30.273 2.48709
14.3964 21.5196 -10.7373
-25.7122 24.3647 36.9329
40.8277 50.1216 7.24555
0.818999 -3.51909 5.50755
-19.8405 42.2838 -9.30361
-6.05064 -5.4199 20.3786
-2.25713 46.0088 8.42597
-26.2255 -47.7008 -5.76533
-5.25497 47.474 25.7738
-37.7129 6.83608 -9.39715
3.30558 16.0289 -2.22723
-16.0764 19.7712 -16.5159
26.8685 13.6358 -5.33191
-42.7003 -19.1613 8.19504
15.3059 16.2787 -2.3145
7.99232 -28.8103 -10.5719
-3.45143 27.2801 -25.9775
15.2583 2.71004 3.52908
10.6228 26.6241 -16.5075
7.25671 -9.16314 13.4012
11.5666 -7.97024 -18.4241
-16.0771 65.7696 -3.36988
-12.5248 2.47397 3.30015
0.0 0.0 0.0
-13.8894 80.7742 44.4547
8.38552 9.89804 -4.54345
0.0 0.0 0.0
20.0486 15.6733 -2.75515
26.113 7.43139 -20.0768
-11.2696 30.2115 7.3242
-36.5816 12.7685 11.6745
-3.60594 5.90619 0.605637
-8.38955 18.5358 2.07434
0.0 0.0 0.0
-12.391 41.4831 -10.8545
0.0 0.0 0.0
-4.141 -31.9776 14.0786
0.0 0.0 0.0
18.0877 13.5056 29.4938
-11.3616 -12.1354 -1.05484
28.8232 1.09607 -3.20904
0.0 0.0 0.0
0.0 0.0 0.0
0.0 0.0 0.0
0.0 0.0 0.0
0.0 0.0 0.0
0.0 0.0 0.0
0.0 0.0 0.0
0.0 0.0 0.0
0.0 0.0 0.0
0.0 0.0 0.0
0.0 0.0 0.0
0.0 0.0 0.0
0.0 0.0 0.0
0.0 0.0 0.0
0.0 0.0 0.0
0.0 0.0 0.0
0.0 0.0 0.0
0.0 0.0 0.0
0.0 0.0 0.0
0.0 0.0 0.0
0.0 0.0 0.0
0.0 0.0 0.0
0.0 0.0 0.0
0.0 0.0 0.0
0.0 0.0 0.0
0.0 0.0 0.0
0.0 0.0 0.0
0.0 0.0 0.0
0.0 0.0 0.0
0.0 0.0 0.0
0.0 0.0 0.0
0.0 0.0 0.0
0.0 0.0 0.0
0.0 0.0 0.0
0.0 0.0 0.0
0.0 0.0 0.0
0.0 0.0 0.0
0.0 0.0 0.0
0.0 0.0 0.0
0.0 0.0 0.0
0.0 0.0 0.0
0.0 0.0 0.0
0.0 0.0 0.0
0.0 0.0 0.0
0.0 0.0 0.0
0.0 0.0 0.0
0.0 0.0 0.0
0.0 0.0 0.0
0.0 0.0 0.0
0.0 0.0 0.0
0.0 0.0 0.0
0.0 0.0 0.0
0.0 0.0 0.0
0.0 0.0 0.0
0.0 0.0 0.0
0.0 0.0 0.0
0.0 0.0 0.0
0.0 0.0 0.0
0.0 0.0 0.0
0.0 0.0 0.0
0.0 0.0 0.0
0.0 0.0 0.0
0.0 0.0 0.0
0.0 0.0 0.0
0.0 0.0 0.0
0.0 0.0 0.0
0.0 0.0 0.0
0.0 0.0 0.0
0.0 0.0 0.0
0.0 0.0 0.0
0.0 0.0 0.0
0.0 0.0 0.0
0.0 0.0 0.0
0.0 0.0 0.0
0.0 0.0 0.0
0.0 0.0 0.0
0.0 0.0 0.0
0.0 0.0 0.0
0.0 0.0 0.0
0.0 0.0 0.0
0.0 0.0 0.0
0.0 0.0 0.0
0.0 0.0 0.0
0.0 0.0 0.0
0.0 0.0 0.0
0.0 0.0 0.0
0.0 0.0 0.0
0.0 0.0 0.0
0.0 0.0 0.0
0.0 0.0 0.0
0.0 0.0 0.0
0.0 0.0 0.0
0.0 0.0 0.0
0.0 0.0 0.0
0.0 0.0 0.0
0.0 0.0 0.0
0.0 0.0 0.0
0.0 0.0 0.0
0.0 0.0 0.0
0.0 0.0 0.0
0.0 0.0 0.0
0.0 0.0 0.0
0.0 0.0 0.0
0.0 0.0 0.0
0.0 0.0 0.0
0.0 0.0 0.0
0.0 0.0 0.0
0.0 0.0 0.0
0.0 0.0 0.0
0.0 0.0 0.0
0.0 0.0 0.0
0.0 0.0 0.0
0.0 0.0 0.0
0.0 0.0 0.0
0.0 0.0 0.0
0.0 0.0 0.0
0.0 0.0 0.0
0.0 0.0 0.0
0.0 0.0 0.0
0.0 0.0 0.0
0.0 0.0 0.0
0.0 0.0 0.0
0.0 0.0 0.0
0.0 0.0 0.0
0.0 0.0 0.0
0.0 0.0 0.0
0.0 0.0 0.0
0.0 0.0 0.0
0.0 0.0 0.0
0.0 0.0 0.0
0.0 0.0 0.0
0.0 0.0 0.0
0.0 0.0 0.0
0.0 0.0 0.0
0.0 0.0 0.0
0.0 0.0 0.0
0.0 0.0 0.0
0.0 0.0 0.0
0.0 0.0 0.0
0.0 0.0 0.0
VECTORS v float
0.991975 0.0753072 -2.02567
0.885953 -0.122164 -3.80179
0.0269997 -0.0394617 -3.72404
0.0311685 0.0103129 -3.17338
-0.474991 0.146013 -3.1948
1.20683 0.182635 -2.01713
0.159153 -0.266675 -2.5588
-0.439286 0.071754 -3.81006
-0.254676 0.0314548 -4.07293
-0.184026 0.101425 -4.23812
0.633797 -0.104901 -3.79674
0.239626 0.204377 -3.01441
0.0936267 0.338417 -3.84278
0.295662 0.19408 -3.52585
-0.593589 -0.143862 -3.72536
-0.101386 0.00361814 0.00449184
0.544108 0.104902 -3.15584
0.0580592 0.0628661 -3.11272
0.536857 0.321159 -1.2844
0.0182236 -0.160684 -2.90518
-0.128484 -0.279817 -2.16697
0.632519 0.179181 -2.54404
0.281251 -0.174863 -3.22818
0.0236755 0.317952 -3.06073
0.0947856 -0.0415566 0.000136408
0.210034 0.0259608 -3.02172
0.257869 0.061344 -3.04945
0.444193 -0.00202785 -2.64439
0.455508 0.0704324 -3.00632
0.099521 0.0718659 0.188999
0.00255299 -0.134429 -3.44418
0.556639 -0.0505894 -3.07057
0.00114662 -0.0306547 0.0674388
-0.152811 0.182814 -3.15886
0.245251 -0.111608 0.0183682
0.24615 -0.0624018 0.126569
0.16413 0.072418 -2.44962
-0.319874 -0.0230939 -3.75011
0.0902301 0.321477 -2.96936
0.232552 0.13039 -3.4993
0.0801162 -0.0528425 -0.0127037
-0.128089 0.155398 -3.14851
-0.100028 -0.156256 -2.34717
0.377848 -0.0106309 -2.79331
-0.287782 0.0595503 -2.83987
1.04159 -0.0559082 -1.88296
-0.13682 0.0130583 -2.10666
0.100409 0.0457749 -2.98715
0.47698 -0.0784509 -2.26016
0.252767 0.0516306 -2.31103
0.729839 0.0507038 -2.71217
-0.0227601 0.273699 -2.55793
0.349466 -0.304777 -2.74866
1.03376 0.0776553 -2.17587
0.0142564 0.197241 -2.89675
0.301926 -0.311831 -3.00516
0.109848 -0.112717 -0.194009
-0.341209 -0.0942536 -3.22612
0.0538349 0.216151 -2.44012
0.917915 -0.104658 -1.59593
0.940031 -0.050271 -2.47042
0.410079 -0.00762053 -2.13666
0.372392 0.136301 -2.43329
0.242993 -0.0146645 0.509289
1.08692 0.218001 -1.79969
0.0590188 0.0889974 -2.51525
0.160118 -0.276715 -2.65407
0.462623 -0.405194 -2.34934
0.390869 0.196014 -3.0474
-0.0657937 -0.177873 -2.15912
0.798798 -0.0189763 -2.24099
0.135339 -0.0787445 -2.72192
0.647234 -0.0390675 -1.50463
0.232277 -0.239422 -2.60785
0.879059 0.0594193 -1.98568
0.0860309 0.167284 -2.84848
0.345873 -0.183402 -0.967649
0.541211 0.215697 -2.84475
0.176204 -0.0477454 -2.56583
0.748905 0.113633 -2.08596
0.276066 -0.161682 -2.71219
-0.242209 -0.149753 -2.23695
0.824571 0.0652598 -0.325882
0.0613961 -0.159833 -1.86111
-0.0268665 -0.261497 0.201261
1.09155 0.00775457 -1.65264
-0.186388 0.0294593 -2.36877
0.0964484 -0.0135848 0.0275709
0.470782 -0.0903452 -2.19337
1.12054 -0.114119 -1.96979
0.81156 0.1174 -1.91913
1.04307 -0.0290258 -1.73106
0.229641 -0.22296 -2.63632
-0.124152 -0.153008 -2.22149
-0.236886 0.196681 -2.20765
1.0377 0.188838 -1.65831
0.184859 0.257167 0.00333952
0.564091 -0.210164 -2.56217
0.147173 0.0413404 -0.09418
0.682789 -0.124439 -1.96635
0.94797 0.113991 -1.49978
0.0682069 -0.0156053 0.167984
0.299138 0.0783523 -2.09498
1.25346 -0.101286 -1.48788
0.929438 -0.0984679 -1.45708
-0.193913 0.177174 -2.25115
0.0544885 -0.265964 -2.40497
-0.135081 -0.366615 -2.3983
1.05808 0.0439885 -1.67765
0.477384 -0.0360435 -0.372854
0.765803 -0.024773 -1.36333
0.851982 0.136063 -1.8461
0.186628 0.346599 -2.04286
0.951918 0.184094 -1.66742
-0.395446 0.506438 -2.05914
1.08081 -0.0637416 -2.09723
-0.0804169 -0.0835062 -0.670012
0.852603 -0.0715632 -1.88536
0.137155 -0.0598117 -1.88412
0.237267 0.0392451 -0.12942
1.2571 -0.069669 -1.36926
0.662406 0.360769 -0.28477
-0.316712 0.144799 -2.30201
0.507831 -0.0163934 -1.14521
0.995892 -0.0553367 -1.2349
-0.0148702 -0.044866 -0.276794
0.0489767 0.520931 -0.179635
0.970735 0.0341293 -1.87598
0.882792 -0.139428 -1.72694
0.83383 0.0525862 -1.15316
1.05706 0.154281 -1.9005
0.638487 0.146434 -1.87741
1.13086 0.0471003 -1.556
0.906262 -0.164061 -1.34578
0.830637 0.0395535 -1.2453
0.69577 -0.160983 -0.537792
0.888177 -0.107126 -1.74103
1.0933 -0.0764562 -1.41082
0.833358 -0.294968 -1.98894
-0.0293048 0.34043 -0.340235
1.09149 -0.0373871 -1.66861
0.743376 0.0943133 -1.62153
0.902844 -0.0715542 -1.89278
1.11504 -0.190544 -1.73019
1.01543 -0.238003 -1.30984
1.21052 0.146797 -1.45389
0.854772 -0.193431 -1.66083
0.0463901 0.0592558 -0.0376604
1.04936 -0.0805144 -1.5521
0.400022 0.351013 -0.447858
0.934457 -0.00481147 -1.35843
0.305212 -0.0222937 0.262147
1.06489 0.157622 -1.59885
0.893028 -0.162313 -1.16612
0.313729 0.00411484 -0.127602
1.07953 0.0543933 -1.49391
0.183312 -0.0569373 -0.803882
1.25938 0.0600816 -1.72599
1.38135 0.181062 -1.83541
1.08772 0.00453919 -1.56122
0.995861 -0.30572 -1.79098
1.05456 0.14491 -1.62401
1.41729 -0.0792881 -1.56966
0.327618 0.249626 -0.714042
0.815115 0.213289 -1.77844
0.790699 -0.346188 -0.782929
1.1807 0.237117 -1.75514
0.903382 -0.0277415 -0.545417
1.08257 -0.321386 -1.40211
0.949658 -0.563317 -1.00642
0.87611 -0.183247 -1.49303
0.538728 -0.141013 -1.22236
-0.490378 0.738938 -0.358517
1.14975 -0.345455 -1.56822
1.07076 0.247371 -1.76432
0.517108 -0.445683 -1.17718
-0.412203 -0.037095 -0.881632
0.740406 0.234663 -1.93368
0.391807 0.474816 -0.261189
1.07324 0.199973 -1.84554
-0.299964 0.027877 -0.467412
1.10349 -0.651568 -1.04026
0.982903 0.521998 -1.65341
1.26102 0.328572 -0.846761
0.686753 -0.114066 -1.39867
1.36036 0.20269 -1.36854
1.24854 -0.307023 -1.25656
0.815594 -0.0628748 -0.407192
0.890867 0.252354 -1.37899
0.314611 0.142647 -0.255903
0.260236 0.00534212 -0.358835
0.22457 0.0206078 -0.391207
0.324009 -0.0387407 -0.0844414
0.816229 -0.240058 -1.57807
-0.0151488 -0.199234 0.063628
0.577571 0.327696 -1.03476
1.21493 -0.156825 -1.71743
0.316885 0.116938 -0.386174
-0.0464665 -0.276558 -0.100445
1.04172 -0.178345 -1.22817
1.21773 -0.526855 -0.692582
-0.410575 -0.376143 -0.865931
0.0 0.0 -2.18775
0.141794 -0.300815 -1.14596
0.443073 -0.286491 -2.0365
0.0 0.0 -2.18627
0.750586 -0.163415 -1.02517
0.912229 -0.358913 -1.27313
0.738863 -0.057687 -0.957039
0.540438 0.0950693 -0.600217
0.238628 0.140669 -2.13479
0.661148 0.253025 -1.80965
0.0 0.0 -2.19756
0.230377 -0.414117 -0.487079
0.0 0.0 -2.28192
-0.244642 0.358311 -0.367326
0.0 0.0 -2.18578
0.324242 -0.0808889 -1.70588
-0.00680809 -0.0280892 -0.265686
0.132093 -0.736728 -1.27499
0.0 0.0 -2.10436
0.0 0.0 -2.0921
0.0 0.0 -2.06218
0.0 0.0 -2.00871
0.0 0.0 -2.03128
0.0 0.0 -2.07787
0.0 0.0 -2.06708
0.0 0.0 -2.07101
0.0 0.0 -2.01901
0.0 0.0 -2.09946
0.0 0.0 -2.09161
0.0 0.0 -2.08327
0.0 0.0 -1.98125
0.0 0.0 -2.09112
0.0 0.0 -2.03226
0.0 0.0 -2.08474
0.0 0.0 -2.00136
0.0 0.0 -1.98909
0.0 0.0 -2.02539
0.0 0.0 -2.17254
0.0 0.0 -1.84636
0.0 0.0 -1.82968
0.0 0.0 -1.81153
0.0 0.0 -1.96359
0.0 0.0 -1.92533
0.0 0.0 -1.80319
0.0 0.0 -1.94544
0.0 0.0 -1.89786
0.0 0.0 -1.78603
0.0 0.0 -1.8753
0.0 0.0 -1.96113
0.0 0.0 -1.78995
0.0 0.0 -1.97781
0.0 0.0 -1.88903
0.0 0.0 -1.88118
0.0 0.0 -1.90718
0.0 0.0 -1.95182
0.0 0.0 -1.83802
0.0 0.0 -1.82232
0.0 0.0 -1.8027
0.0 0.0 -1.63152
0.0 0.0 -1.74335
0.0 0.0 -1.60454
0.0 0.0 -1.58835
0.0 0.0 -1.71098
0.0 0.0 -1.68596
0.0 0.0 -1.75463
0.0 0.0 -1.65506
0.0 0.0 -1.70853
0.0 0.0 -1.59718
0.0 0.0 -1.7149
0.0 0.0 -1.61828
0.0 0.0 -1.68302
0.0 0.0 -1.67959
0.0 0.0 -1.70755
0.0 0.0 -1.71883
0.0 0.0 -1.6325
0.0 0.0 -1.62956
0.0 0.0 -1.59669
0.0 0.0 -1.6894
0.0 0.0 -1.51282
0.0 0.0 -1.53489
0.0 0.0 -1.58002
0.0 0.0 -1.43875
0.0 0.0 -1.47603
0.0 0.0 -1.47063
0.0 0.0 -1.40393
0.0 0.0 -1.4417
0.0 0.0 -1.4726
0.0 0.0 -1.40883
0.0 0.0 -1.46377
0.0 0.0 -1.49614
0.0 0.0 -1.39608
0.0 0.0 -1.4466
0.0 0.0 -1.42109
0.0 0.0 -1.50546
0.0 0.0 -1.50056
0.0 0.0 -1.53783
0.0 0.0 -1.58296
0.0 0.0 -1.42551
0.0 0.0 -1.21263
0.0 0.0 -1.25727
0.0 0.0 -1.20086
0.0 0.0 -1.37057
0.0 0.0 -1.32103
0.0 0.0 -1.30828
0.0 0.0 -1.30485
0.0 0.0 -1.2661
0.0 0.0 -1.34654
0.0 0.0 -1.27345
0.0 0.0 -1.30534
0.0 0.0 -1.37401
0.0 0.0 -1.35144
0.0 0.0 -1.22391
0.0 0.0 -1.22342
0.0 0.0 -1.19645
0.0 0.0 -1.27345
0.0 0.0 -1.24746
0.0 0.0 -1.32299
0.0 0.0 -1.23176
0.0 0.0 -1.07137
0.0 0.0 -1.0233
0.0 0.0 -1.09884
0.0 0.0 -1.07823
0.0 0.0 -1.1783
0.0 0.0 -1.06597
0.0 0.0 -1.0488
0.0 0.0 -1.013
0.0 0.0 -1.00662
0.0 0.0 -1.11208
0.0 0.0 -1.01545
0.0 0.0 -1.02869
0.0 0.0 -1.02036
0.0 0.0 -1.12728
0.0 0.0 -1.08461
0.0 0.0 -1.12385
0.0 0.0 -1.02379
0.0 0.0 -1.19007
0.0 0.0 -1.02036
0.0 0.0 -1.16456
-0.0 -0.0 -1.0
-0.0 -0.0 -1.0
-0.0 -0.0 -1.0
-0.0 -0.0 -1.0
-0.0 -0.0 -1.0
-0.0 -0.0 -1.0
-0.0 -0.0 -1.0
-0.0 -0.0 -1.0
-0.0 -0.0 -1.0
-0.0 -0.0 -1.0
-0.0 -0.0 -1.0
-0.0 -0.0 -1.0
-0.0 -0.0 -1.0
-0.0 -0.0 -1.0
-0.0 -0.0 -1.0
-0.0 -0.0 -1.0
-0.0 -0.0 -1.0
-0.0 -0.0 -1.0
-0.0 -0.0 -1.0
-0.0 -0.0 -1.0
SCALARS radius float 1
LOOKUP_TABLE default
0.005
0.005
0.005
0.005
0.005
0.005
0.005
0.005
0.005
0.005
0.005
0.005
0.005
0.005
0.005
0.005
0.005
0.005
0.005
0.005
0.005
0.005
0.005
0.005
0.005
0.005
0.005
0.005
0.005
0.005
0.005
0.005
0.005
0.005
0.005
0.005
0.005
0.005
0.005
0.005
0.005
0.005
0.005
0.005
0.005
0.005
0.005
0.005
0.005
0.005
0.005
0.005
0.005
0.005
0.005
0.005
0.005
0.005
0.005
0.005
0.005
0.005
0.005
0.005
0.005
0.005
0.005
0.005
0.005
0.005
0.005
0.005
0.005
0.005
0.005
0.005
0.005
0.005
0.005
0.005
0.005
0.005
0.005
0.005
0.005
0.005
0.005
0.005
0.005
0.005
0.005
0.005
0.005
0.005
0.005
0.005
0.005
0.005
0.005
0.005
0.005
0.005
0.005
0.005
0.005
0.005
0.005
0.005
0.005
0.005
0.005
0.005
0.005
0.005
0.005
0.005
0.005
0.005
0.005
0.005
0.005
0.005
0.005
0.005
0.005
0.005
0.005
0.005
0.005
0.005
0.005
0.005
0.005
0.005
0.005
0.005
0.005
0.005
0.005
0.005
0.005
0.005
0.005
0.005
0.005
0.005
0.005
0.005
0.005
0.005
0.005
0.005
0.005
0.005
0.005
0.005
0.005
0.005
0.005
0.005
0.005
0.005
0.005
0.005
0.005
0.005
0.005
0.005
0.005
0.005
0.005
0.005
0.005
0.005
0.005
0.005
0.005
0.005
0.005
0.005
0.005
0.005
0.005
0.005
0.005
0.005
0.005
0.005
0.005
0.005
0.005
0.005
0.005
0.005
0.005
0.005
0.005
0.005
0.005
0.005
0.005
0.005
0.005
0.005
0.005
0.005
0.005
0.005
0.005
0.005
0.005
0.005
0.005
0.005
0.005
0.005
0.005
0.005
0.005
0.005
0.005
0.005
0.005
0.005
0.005
0.005
0.005
0.005
0.005
0.005
0.005
0.005
0.005
0.005
0.005
0.005
0.005
0.005
0.005
0.005
0.005
0.005
0.005
0.005
0.005
0.005
0.005
0.005
0.005
0.005
0.005
0.005
0.005
0.005
0.005
0.005
0.005
0.005
0.005
0.005
0.005
0.005
0.005
0.005
0.005
0.005
0.005
0.005
0.005
0.005
0.005
0.005
0.005
0.005
0.005
0.005
0.005
0.005
0.005
0.005
0.005
0.005
0.005
0.005
0.005
0.005
0.005
0.005
0.005
0.005
0.005
0.005
0.005
0.005
0.005
0.005
0.005
0.005
0.005
0.005
0.005
0.005
0.005
0.005
0.005
0.005
0.005
0.005
0.005
0.005
0.005
0.005
0.005
0.005
0.005
0.005
0.005
0.005
0.005
0.005
0.005
0.005
0.005
0.005
0.005
0.005
0.005
0.005
0.005
0.005
0.005
0.005
0.005
0.005
0.005
0.005
0.005
0.005
0.005
0.005
0.005
0.005
0.005
0.005
0.005
0.005
0.005
0.005
0.005
0.005
0.005
0.005
0.005
0.005
0.005
0.005
0.005
0.005
0.005
0.005
SCALARS type float 1
LOOKUP_TABLE default
1.0
1.0
1.0
1.0
1.0
1.0
1.0
1.0
1.0
1.0
1.0
1.0
1.0
1.0
1.0
1.0
1.0
1.0
1.0
1.0
1.0
1.0
1.0
1.0
1.0
1.0
1.0
1.0
1.0
1.0
1.0
1.0
1.0
1.0
1.0
1.0
1.0
1.0
1.0
1.0
1.0
1.0
1.0
1.0
1.0
1.0
1.0
1.0
1.0
1.0
1.0
1.0
1.0
1.0
1.0
1.0
1.0
1.0
1.0
1.0
1.0
1.0
1.0
1.0
1.0
1.0
1.0
1.0
1.0
1.0
1.0
1.0
1.0
1.0
1.0
1.0
1.0
1.0
1.0
1.0
1.0
1.0
1.0
1.0
1.0
1.0
1.0
1.0
1.0
1.0
1.0
1.0
1.0
1.0
1.0
1.0
1.0
1.0
1.0
1.0
1.0
1.0
1.0
1.0
1.0
1.0
1.0
1.0
1.0
1.0
1.0
1.0
1.0
1.0
1.0
1.0
1.0
1.0
1.0
1.0
1.0
1.0
1.0
1.0
1.0
1.0
1.0
1.0
1.0
1.0
1.0
1.0
1.0
1.0
1.0
1.0
1.0
1.0
1.0
1.0
1.0
1.0
1.0
1.0
1.0
1.0
1.0
1.0
1.0
1.0
1.0
1.0
1.0
1.0
1.0
1.0
1.0
1.0
1.0
1.0
1.0
1.0
1.0
1.0
1.0
1.0
1.0
1.0
1.0
1.0
1.0
1.0
1.0
1.0
1.0
1.0
1.0
1.0
1.0
1.0
1.0
1.0
1.0
1.0
1.0
1.0
1.0
1.0
1.0
1.0
1.0
1.0
1.0
1.0
1.0
1.0
1.0
1.0
1.0
1.0
1.0
1.0
1.0
1.0
1.0
1.0
1.0
1.0
1.0
1.0
1.0
1.0
1.0
1.0
1.0
1.0
1.0
1.0
1.0
1.0
1.0
1.0
1.0
1.0
1.0
1.0
1.0
1.0
1.0
1.0
1.0
1.0
1.0
1.0
1.0
1.0
1.0
1.0
1.0
1.0
1.0
1.0
1.0
1.0
1.0
1.0
1.0
1.0
1.0
1.0
1.0
1.0
1.0
1.0
1.0
1.0
1.0
1.0
1.0
1.0
1.0
1.0
1.0
1.0
1.0
1.0
1.0
1.0
1.0
1.0
1.0
1.0
1.0
1.0
1.0
1.0
1.0
1.0
1.0
1.0
1.0
1.0
1.0
1.0
1.0
1.0
1.0
1.0
1.0
1.0
1.0
1.0
1.0
1.0
1.0
1.0
1.0
1.0
1.0
1.0
1.0
1.0
1.0
1.0
1.0
1.0
1.0
1.0
1.0
1.0
1.0
1.0
1.0
1.0
1.0
1.0
1.0
1.0
1.0
1.0
1.0
1.0
1.0
1.0
1.0
1.0
1.0
1.0
1.0
1.0
1.0
1.0
1.0
1.0
1.0
1.0
1.0
1.0
1.0
1.0
1.0
1.0
1.0
1.0
1.0
1.0
1.0
1.0
1.0
1.0
1.0
1.0
1.0
1.0
1.0
1.0
1.0
1.0
1.0
1.0
SCALARS id float 1
LOOKUP_TABLE default
1.0
2.0
3.0
4.0
5.0
6.0
7.0
8.0
9.0
10.0
11.0
12.0
13.0
14.0
15.0
16.0
17.0
18.0
19.0
20.0
21.0
22.0
23.0
24.0
25.0
26.0
27.0
28.0
29.0
30.0
31.0
32.0
33.0
34.0
35.0
36.0
37.0
38.0
39.0
40.0
41.0
42.0
43.0
44.0
45.0
46.0
47.0
48.0
49.0
50.0
51.0
52.0
53.0
54.0
55.0
56.0
57.0
58.0
59.0
60.0
61.0
62.0
63.0
64.0
65.0
66.0
67.0
68.0
69.0
70.0
71.0
72.0
73.0
74.0
75.0
76.0
77.0
78.0
79.0
80.0
81.0
82.0
83.0
84.0
85.0
86.0
87.0
88.0
89.0
90.0
91.0
92.0
93.0
94.0
95.0
96.0
97.0
98.0
99.0
100.0
101.0
102.0
103.0
104.0
105.0
106.0
107.0
108.0
109.0
110.0
111.0
112.0
113.0
114.0
115.0
116.0
117.0
118.0
119.0
120.0
121.0
122.0
123.0
124.0
125.0
126.0
127.0
128.0
129.0
130.0
131.0
132.0
133.0
134.0
135.0
136.0
137.0
138.0
139.0
140.0
141.0
142.0
143.0
144.0
145.0
146.0
147.0
148.0
149.0
150.0
151.0
152.0
153.0
154.0
155.0
156.0
157.0
158.0
159.0
160.0
161.0
162.0
163.0
164.0
165.0
166.0
167.0
168.0
169.0
170.0
171.0
172.0
173.0
174.0
175.0
176.0
177.0
178.0
179.0
180.0
181.0
182.0
183.0
184.0
185.0
186.0
187.0
188.0
189.0
190.0
191.0
192.0
193.0
194.0
195.0
196.0
197.0
198.0
199.0
200.0
201.0
202.0
203.0
204.0
205.0
206.0
207.0
208.0
209.0
210.0
211.0
212.0
213.0
214.0
215.0
216.0
217.0
218.0
219.0
220.0
221.0
222.0
223.0
224.0
225.0
226.0
227.0
228.0
229.0
230.0
231.0
232.0
233.0
234.0
235.0
236.0
237.0
238.0
239.0
240.0
241.0
242.0
243.0
244.0
245.0
246.0
247.0
248.0
249.0
250.0
251.0
252.0
253.0
254.0
255.0
256.0
257.0
258.0
259.0
260.0
261.0
262.0
263.0
264.0
265.0
266.0
267.0
268.0
269.0
270.0
271.0
272.0
273.0
274.0
275.0
276.0
277.0
278.0
279.0
280.0
281.0
282.0
283.0
284.0
285.0
286.0
287.0
288.0
289.0
290.0
291.0
292.0
293.0
294.0
295.0
296.0
297.0
298.0
299.0
300.0
301.0
302.0
303.0
304.0
305.0
306.0
307.0
308.0
309.0
310.0
311.0
312.0
313.0
314.0
315.0
316.0
317.0
318.0
319.0
320.0
321.0
322.0
323.0
324.0
325.0
326.0
327.0
328.0
329.0
330.0
331.0
332.0
333.0
334.0
335.0
336.0
337.0
338.0
339.0
340.0
341.0
342.0
343.0
344.0
345.0
346.0
347.0
348.0
349.0
350.0
351.0
352.0
353.0
354.0
355.0
356.0
357.0
358.0
359.0
360.0

