# vtk DataFile Version 2.0
Generated by lpp.py
ASCII
DATASET POLYDATA
POINTS 500 float
0.392974 -0.0207311 -1.18661
0.0499219 -0.0369868 -1.18692
0.111967 -0.0236481 -1.19501
0.0871643 -0.037276 -1.17346
0.0494076 -0.0449963 -1.17896
0.092595 -0.0353935 -1.18166
0.0328913 -0.015366 -1.16902
0.0100681 -0.0288653 -1.17055
0.0149595 -0.0375219 -1.17159
0.00500077 -0.00499792 -1.17503
0.259479 -0.0050579 -1.195
0.495001 -0.0245531 -1.195
0.0301198 -0.045001 -1.17156
0.462575 -0.035675 -1.19353
0.0310841 -0.00498768 -1.17044
0.0926209 -0.0244768 -1.1806
0.150409 -0.00864292 -1.18635
0.0440228 -0.0373931 -1.195
0.433209 -0.00499933 -1.19035
0.483152 -0.0364395 -1.18525
0.0136571 -0.0258149 -1.17945
0.0752541 -0.0307806 -1.17473
0.462717 -0.0109226 -1.18067
0.0508593 -0.0307583 -1.17916
0.363421 -0.0359961 -0.947073
0.495005 -0.00499651 -1.18546
0.461199 -0.018556 -1.18693
0.468847 -0.0280305 -1.195
0.494983 -0.0450018 -1.178
0.0728223 -0.0224684 -1.17972
0.0380711 -0.0322464 -1.18862
0.440802 -0.0207054 -1.195
0.137132 -0.0223589 -1.195
0.467082 -0.0181895 -1.195
0.211737 -0.022927 -0.245002
0.0718562 -0.0236683 -1.19501
0.0439637 -0.0450021 -1.18735
0.0212141 -0.035704 -1.19501
0.0636517 -0.00499688 -1.18085
0.00500009 -0.0222123 -1.18811
0.20717 -0.0053395 -0.245002
0.294739 -0.0207127 -1.19291
0.0483897 -0.0244803 -1.18653
0.0405464 -0.0160514 -1.17542
0.113712 -0.0371724 -1.18548
0.446737 -0.00499855 -1.18618
0.0137837 -0.00499799 -1.18028
0.0229098 -0.0257639 -1.195
0.490073 -0.00665233 -1.17692
0.495004 -0.0448264 -1.195
0.131996 -0.0137292 -1.195
0.476894 -0.0292496 -1.18829
0.470567 -0.00499634 -1.17891
0.0406689 -0.0267564 -1.18061
0.0347031 -0.0363198 -1.17399
0.00499948 -0.00499479 -1.19501
0.171742 -0.00760351 -1.18605
0.00501511 -0.0450028 -1.195
0.0220659 -0.0141905 -1.17026
0.495002 -0.0345501 -1.19501
0.0569153 -0.0296738 -1.18706
0.490771 -0.0299623 -1.1872
0.0206888 -0.0449995 -1.16824
0.030508 -0.00498739 -1.18267
0.0211015 -0.00499451 -1.18709
0.443869 -0.0148812 -1.17948
0.447083 -0.0449904 -1.17874
0.485641 -0.0159031 -1.17876
0.485986 -0.00910087 -1.18678
0.065451 -0.0157899 -1.18069
0.474978 -0.0049985 -1.18788
0.0433433 -0.0143315 -1.19501
0.494998 -0.0145547 -1.195
0.0271387 -0.00592218 -1.195
0.495002 -0.0393268 -1.18623
0.433206 -0.0138422 -1.19501
0.44543 -0.0052594 -1.17629
0.0386882 -0.00504714 -1.17693
0.489493 -0.020075 -1.18796
0.492055 -0.00499916 -1.19501
0.0129295 -0.036387 -1.18132
0.148065 -0.0352066 -1.19503
0.469571 -0.0365299 -1.18633
0.00499622 -0.0294529 -1.19501
0.27904 -0.0249152 -0.324941
0.474849 -0.045006 -1.18609
0.409184 -0.0100183 -1.17935
0.0588788 -0.0373148 -1.18092
0.0229033 -0.00499998 -1.17619
0.380443 -0.0154287 -1.19502
0.00499862 -0.0301146 -1.182
0.0175498 -0.0450058 -1.19501
0.0421666 -0.0366381 -1.18063
0.011328 -0.0371883 -1.19501
0.0436466 -0.0313792 -1.17226
0.0817804 -0.0343993 -1.18138
0.442058 -0.00500007 -1.19501
0.407052 -0.0291014 -1.19499
0.307776 -0.00857005 -1.16681
0.0127182 -0.0295974 -1.18866
0.0122402 -0.0218804 -1.195
0.360126 -0.0448895 -0.663559
0.449192 -0.0262497 -1.19501
0.474938 -0.0120098 -1.195
0.495002 -0.014338 -1.1819
0.393033 -0.0138956 -1.19496
0.0506075 -0.0450021 -1.16611
0.00499675 -0.0221561 -1.17596
0.459934 -0.00501979 -1.18884
0.0375395 -0.0450022 -1.195
0.039221 -0.0212159 -1.18881
0.0267515 -0.0394656 -1.17917
0.417799 -0.00515718 -1.17781
0.0370255 -0.0450056 -1.17879
0.0285544 -0.0135151 -1.17784
0.00499923 -0.045001 -1.17979
0.214146 -0.00531588 -1.18723
0.0371204 -0.00650479 -1.195
0.436617 -0.00579339 -1.18099
0.0570042 -0.00499757 -1.19501
0.476704 -0.0218479 -1.195
0.400024 -0.0212021 -1.195
0.465725 -0.0273482 -1.18553
0.00499348 -0.00499589 -1.18503
0.485295 -0.026962 -1.195
0.429261 -0.0232552 -1.17895
0.157101 -0.0160405 -1.18645
0.452059 -0.00500727 -1.195
0.469291 -0.0449685 -1.19498
0.0311596 -0.0308123 -1.18154
0.47453 -0.0362561 -1.19501
0.449256 -0.045003 -1.195
0.479361 -0.0450044 -1.19501
0.305709 -0.0111723 -1.1948
0.0636393 -0.0449483 -1.17656
0.452687 -0.0356157 -1.19501
0.0455116 -0.0220578 -1.16916
0.442509 -0.0448572 -1.18763
0.012522 -0.0450044 -1.18638
0.42155 -0.0449928 -1.18097
0.0209871 -0.0159517 -1.19502
0.0183992 -0.0215198 -1.18713
0.0433096 -0.0413802 -1.17191
0.435761 -0.0449976 -1.19501
0.487178 -0.0450011 -1.18878
0.485301 -0.0369619 -1.195
0.0628906 -0.0286534 -1.19501
0.0784891 -0.0179643 -1.17282
0.482058 -0.00499711 -1.195
0.459285 -0.0450009 -1.19501
0.021303 -0.0315286 -1.17647
0.246407 -0.0350722 -1.195
0.4641 -0.0449637 -1.18627
0.230854 -0.0155552 -1.00192
0.358662 -0.0219051 -1.18988
0.0949451 -0.014885 -1.17901
0.067004 -0.00499442 -1.19501
0.0483892 -0.0143169 -1.18638
0.442815 -0.0373558 -1.19501
0.042007 -0.00499516 -1.18636
0.387431 -0.0356229 -1.19489
0.0495803 -0.0195265 -1.17793
0.0334667 -0.0158819 -1.195
0.3763 -0.0247169 -1.19501
0.0135094 -0.0171094 -1.17454
0.0131331 -0.0131386 -1.18951
0.470236 -0.0141141 -1.18644
0.019325 -0.0132011 -1.18167
0.0149981 -0.00499758 -1.19501
0.0327927 -0.0224263 -1.17624
0.436338 -0.023735 -1.18658
0.420894 -0.0449512 -1.195
0.15201 -0.0138458 -1.195
0.0225413 -0.0450016 -1.18635
0.0175103 -0.0450019 -1.17772
0.00499164 -0.0385167 -1.1874
0.362635 -0.00877199 -1.19466
0.00658545 -0.0144081 -1.18207
0.0569682 -0.0194021 -1.18709
0.0364261 -0.0129335 -1.18398
0.107073 -0.0291678 -1.18826
0.0654742 -0.0121083 -1.17139
0.40718 -0.0448789 -1.195
0.0329191 -0.0258658 -1.19501
0.0223882 -0.0307945 -1.18638
0.00499527 -0.0149872 -1.19501
0.0813063 -0.00498742 -1.17728
0.13189 -0.0449981 -1.18335
0.424355 -0.00501147 -1.195
0.469474 -0.0423073 -1.17788
0.454051 -0.0449932 -1.18622
0.063846 -0.037003 -1.18959
0.443124 -0.025319 -1.17926
0.187791 -0.0243777 -1.195
0.106996 -0.00499665 -1.195
0.333732 -0.0271444 -1.195
0.00499862 -0.0365858 -1.17439
0.374304 -0.00721309 -1.18486
0.370464 -0.0218528 -1.16987
0.0440185 -0.0273976 -1.19502
0.0574056 -0.0179884 -1.1719
0.0275436 -0.0450057 -1.19501
0.107588 -0.0450002 -1.18658
0.208287 -0.0405091 -0.245002
0.486753 -0.0372367 -1.17506
0.0312103 -0.0357109 -1.19501
0.392922 -0.0443965 -1.195
0.0815245 -0.0342485 -1.195
0.458566 -0.0128731 -1.195
0.0970028 -0.0450027 -1.18648
0.0712518 -0.0450017 -1.195
0.0190901 -0.0246783 -1.16953
0.467809 -0.00499945 -1.195
0.0505091 -0.0450012 -1.195
0.0135478 -0.00787224 -1.17071
0.179614 -0.0308523 -1.18473
0.448626 -0.0144741 -1.19501
0.4005 -0.0449233 -1.18733
0.0812507 -0.0450003 -1.195
0.436346 -0.0297024 -1.19501
0.428822 -0.0302013 -1.18819
0.00846302 -0.0450039 -1.17026
0.0271986 -0.0128803 -1.18782
0.484914 -0.0146615 -1.19501
0.0230222 -0.0218469 -1.17828
0.187505 -0.00499871 -1.195
0.428328 -0.0449981 -1.18832
0.0819726 -0.0238486 -1.19501
0.219012 -0.0176784 -1.18752
0.456313 -0.0300637 -1.18753
0.495003 -0.0328509 -1.17861
0.0562387 -0.0119113 -1.1805
0.390464 -0.0258632 -1.19486
0.428147 -0.0374855 -1.19501
0.1113 -0.0236762 -1.18042
0.401221 -0.0196244 -1.17999
0.305032 -0.0340466 -1.19301
0.2137 -0.0229398 -1.19499
0.0716307 -0.00499699 -1.17477
0.171628 -0.0383236 -1.18765
0.129399 -0.0212744 -1.18875
0.237345 -0.027741 -1.18608
0.116959 -0.0279259 -1.18748
0.0749621 -0.012517 -1.18045
0.428579 -0.0371176 -1.18097
0.0536918 -0.0245504 -1.19501
0.0720034 -0.00500058 -1.18635
0.0715475 -0.0336607 -1.19501
0.39906 -0.00501066 -1.195
0.0599198 -0.0245298 -1.17903
0.0620083 -0.0109342 -1.18872
0.414039 -0.044833 -1.18773
0.458928 -0.023975 -1.19501
0.08487 -0.0140568 -1.17947
0.163781 -0.040345 -1.195
0.483452 -0.0252393 -1.1819
0.0558884 -0.0450014 -1.18657
0.113014 -0.0450058 -1.195
0.162011 -0.0136368 -1.195
0.369079 -0.0333692 -1.19452
0.0612547 -0.0449995 -1.195
0.414643 -0.0220473 -1.19491
0.00500245 -0.0138528 -1.17039
0.0969928 -0.0187485 -1.188
0.111998 -0.0136515 -1.195
0.429003 -0.0229062 -1.19501
0.415027 -0.0370672 -1.17992
0.0919955 -0.00786101 -1.18684
0.421507 -0.0295895 -1.195
0.398626 -0.0361325 -1.195
0.417335 -0.00507039 -1.18786
0.35853 -0.0062283 -0.601341
0.435078 -0.0449863 -1.18094
0.479783 -0.0170699 -1.18678
0.376666 -0.00598434 -1.195
0.0555847 -0.0355669 -1.19502
0.0891896 -0.00887944 -1.17209
0.433117 -0.014969 -1.18301
0.443652 -0.0304529 -1.18783
0.231138 -0.00503055 -1.195
0.417368 -0.012182 -1.195
0.43548 -0.0376565 -1.18822
0.081998 -0.0136573 -1.195
0.183962 -0.0143491 -1.195
0.157145 -0.0224341 -1.19501
0.157009 -0.00498792 -1.19503
0.406499 -0.037006 -1.18888
0.0770006 -0.00499905 -1.19501
0.063012 -0.0186343 -1.19501
0.0520075 -0.00499721 -1.18635
0.407701 -0.014748 -1.19502
0.172611 -0.0450137 -1.19501
0.0728397 -0.0402035 -1.17804
0.0283125 -0.0227468 -1.18671
0.053513 -0.0143692 -1.195
0.241067 -0.0395183 -1.18785
0.387926 -0.00518952 -1.195
0.482665 -0.0449948 -1.17986
0.0488958 -0.0127495 -1.17061
0.305548 -0.00673243 -1.18574
0.102221 -0.0450038 -1.19501
0.0533111 -0.0379359 -1.17264
0.279568 -0.0391381 -1.19384
0.048685 -0.0049986 -1.17693
0.42636 -0.0050151 -1.18306
0.425303 -0.0130183 -1.18895
0.239336 -0.0108589 -1.195
0.0682063 -0.0450036 -1.18548
0.0719906 -0.0136608 -1.195
0.447057 -0.0205161 -1.1871
0.273014 -0.0252479 -1.19501
0.0762187 -0.0394642 -1.18833
0.298462 -0.0427821 -1.19429
0.140533 -0.0409805 -1.18699
0.116991 -0.0179289 -1.18748
0.22011 -0.0450033 -1.195
0.101968 -0.023843 -1.19501
0.414264 -0.0299663 -1.18803
0.454078 -0.0232811 -1.18054
0.273182 -0.00510766 -1.195
0.0919963 -0.01366 -1.195
0.385182 -0.038952 -1.16998
0.0869984 -0.00499866 -1.19501
0.10699 -0.0186504 -1.18793
0.0577744 -0.00513454 -1.17276
0.101994 -0.0136592 -1.195
0.393643 -0.00501009 -1.1866
0.404708 -0.00498674 -1.18675
0.0918014 -0.0450003 -1.19501
0.440559 -0.0356638 -1.17985
0.123652 -0.0449662 -1.195
0.0809349 -0.0450035 -1.1814
0.0470066 -0.0050033 -1.19501
0.109361 -0.0339442 -1.17707
0.022016 -0.0050041 -1.16623
0.205065 -0.0152297 -0.245002
0.0919671 -0.0238991 -1.19501
0.0325372 -0.0416018 -1.18704
0.414421 -0.0371456 -1.195
0.368891 -0.0163164 -1.19169
0.162956 -0.0278312 -1.18787
0.122 -0.0136495 -1.195
0.137016 -0.00499296 -1.195
0.147137 -0.0226093 -1.195
0.16708 -0.00501267 -1.19489
0.260856 -0.0318637 -1.19249
0.232818 -0.0297643 -1.19499
0.252429 -0.013855 -0.278851
0.123142 -0.0346119 -1.18337
0.333171 -0.0411133 -1.19478
0.334681 -0.0267229 -1.18317
0.197507 -0.00512515 -1.195
0.0769993 -0.0187469 -1.188
0.133053 -0.0301401 -1.18548
0.410339 -0.00506526 -1.195
0.0865358 -0.0401017 -1.18807
0.207604 -0.00498141 -1.195
0.0641534 -0.032462 -1.17395
0.440968 -0.0127756 -1.18881
0.24721 -0.0169144 -1.19273
0.381242 -0.0438118 -1.195
0.0826323 -0.0240631 -1.18075
0.324441 -0.0400328 -1.18426
0.199276 -0.0351026 -1.195
0.137099 -0.0153183 -1.18646
0.121428 -0.0344139 -1.195
0.0359805 -0.0401196 -1.16483
0.177471 -0.00504869 -1.19441
0.0906013 -0.0450014 -1.1788
0.102362 -0.0449072 -1.17805
0.320634 -0.0280332 -1.182
0.197922 -0.0247956 -1.195
0.453171 -0.012646 -1.18629
0.101986 -0.0050008 -1.18634
0.396402 -0.0277126 -1.17129
0.0869977 -0.0187719 -1.18802
0.384734 -0.0101493 -1.1868
0.0869472 -0.0291875 -1.18817
0.372619 -0.00947818 -1.15564
0.0660016 -0.0236734 -1.18692
0.382953 -0.0222362 -1.18736
0.152319 -0.0276441 -1.18797
0.227434 -0.0382084 -1.19498
0.101481 -0.0350377 -1.19501
0.105835 -0.0121999 -1.18037
0.464654 -0.0202832 -1.17771
0.221069 -0.00496687 -1.195
0.0665377 -0.0220622 -1.17196
0.169413 -0.0312627 -1.18093
0.256905 -0.0151457 -1.19438
0.480546 -0.00499843 -1.17946
0.0260244 -0.036239 -1.16902
0.120301 -0.0448773 -1.18558
0.193962 -0.0144777 -1.195
0.381621 -0.0322531 -1.18744
0.069109 -0.0321437 -1.18262
0.111465 -0.0351245 -1.195
0.421278 -0.0376531 -1.18775
0.285565 -0.006766 -1.19239
0.288087 -0.0444906 -1.19497
0.116996 -0.00499531 -1.19497
0.167176 -0.022206 -1.195
0.0720787 -0.0378691 -1.16835
0.142403 -0.0289074 -1.18885
0.177565 -0.0220579 -1.19499
0.343215 -0.0433893 -1.19344
0.146876 -0.018492 -1.1859
0.0914956 -0.034886 -1.19501
0.178167 -0.0152708 -1.18691
0.295694 -0.00712941 -1.195
0.154962 -0.0450079 -1.195
0.453381 -0.0142067 -1.1764
0.267104 -0.0149738 -1.195
0.286099 -0.0293326 -1.195
0.0969968 -0.00499979 -1.19501
0.0961618 -0.00499647 -1.17821
0.223902 -0.0241059 -1.1949
0.428306 -0.0441119 -1.17365
0.279617 -0.0169289 -1.195
0.113328 -0.0449222 -1.17839
0.134992 -0.045006 -1.19501
0.382335 -0.0180405 -1.17777
0.267029 -0.0399334 -1.195
0.421895 -0.0223845 -1.18801
0.262161 -0.0155759 -1.09248
0.121966 -0.023648 -1.195
0.208594 -0.0315067 -1.195
0.332241 -0.0114485 -1.195
0.203854 -0.0158291 -1.19453
0.40044 -0.013875 -1.18819
0.461028 -0.0361503 -1.18115
0.112029 -0.00748798 -1.18664
0.0768252 -0.0288183 -1.18803
0.130102 -0.0294563 -1.19501
0.181987 -0.0415946 -1.195
0.142015 -0.0136453 -1.195
0.318903 -0.0410873 -1.19412
0.422919 -0.0138127 -1.17923
0.179773 -0.0318196 -1.19502
0.347085 -0.0156707 -1.19182
0.386158 -0.044962 -1.18635
0.157672 -0.0324392 -1.195
0.161815 -0.00583704 -1.18631
0.189301 -0.0348069 -1.195
0.0819989 -0.00785752 -1.18683
0.473606 -0.0227956 -1.18139
0.213551 -0.0129849 -1.195
0.129363 -0.038247 -1.19029
0.0969821 -0.0292528 -1.18822
0.13807 -0.0354895 -1.195
0.127017 -0.00499973 -1.195
0.172445 -0.0235273 -1.18651
0.101618 -0.0101023 -1.17157
0.406756 -0.0440738 -1.17767
0.0556659 -0.0282522 -1.17076
0.25221 -0.0263511 -1.19501
0.123748 -0.0243336 -1.18108
0.201371 -0.045003 -1.195
0.24876 -0.00730195 -1.195
0.372719 -0.0447396 -1.18409
0.389267 -0.00635463 -1.17404
0.122028 -0.0076823 -1.18676
0.102198 -0.0368126 -1.18406
0.324937 -0.0192628 -1.16283
0.22512 -0.0141634 -1.195
0.232029 -0.0440705 -1.18827
0.242109 -0.0259558 -1.19499
0.192736 -0.0397102 -1.18623
0.374383 -0.0313085 -1.18017
0.340723 -0.00536715 -1.195
0.407513 -0.0221245 -1.18786
0.415036 -0.0150995 -1.18572
0.393106 -0.0365653 -1.18626
0.398975 -0.0285975 -1.18835
0.251551 -0.0448667 -1.19485
0.421501 -0.0294513 -1.18093
0.234098 -0.0197405 -1.19494
0.399449 -0.00541426 -1.17826
0.3569 -0.0323249 -1.19322
0.394946 -0.0450173 -1.17881
0.139366 -0.00550666 -1.1853
0.172237 -0.0135786 -1.19501
0.191383 -0.0449847 -1.19491
0.413587 -0.023022 -1.17979
0.393207 -0.0128869 -1.1805
0.144975 -0.0449655 -1.19501
0.169249 -0.0319875 -1.195
0.454693 -0.00499288 -1.18005
0.102034 -0.0277279 -1.17973
0.492452 -0.0232011 -1.17805
0.218317 -0.0338402 -1.19494
0.147012 -0.00499428 -1.195
0.439639 -0.0425562 -1.17238
0.450064 -0.0364066 -1.18298
0.304755 -0.0227155 -1.19493
0.210742 -0.0415401 -1.195
0.406345 -0.0302 -1.18153
0.152537 -0.039241 -1.18705
0.45848 -0.0450007 -1.17726
0.314801 -0.0243614 -1.19478
VERTICES 500 1000
1 0
1 1
1 2
1 3
1 4
1 5
1 6
1 7
1 8
1 9
1 10
1 11
1 12
1 13
1 14
1 15
1 16
1 17
1 18
1 19
1 20
1 21
1 22
1 23
1 24
1 25
1 26
1 27
1 28
1 29
1 30
1 31
1 32
1 33
1 34
1 35
1 36
1 37
1 38
1 39
1 40
1 41
1 42
1 43
1 44
1 45
1 46
1 47
1 48
1 49
1 50
1 51
1 52
1 53
1 54
1 55
1 56
1 57
1 58
1 59
1 60
1 61
1 62
1 63
1 64
1 65
1 66
1 67
1 68
1 69
1 70
1 71
1 72
1 73
1 74
1 75
1 76
1 77
1 78
1 79
1 80
1 81
1 82
1 83
1 84
1 85
1 86
1 87
1 88
1 89
1 90
1 91
1 92
1 93
1 94
1 95
1 96
1 97
1 98
1 99
1 100
1 101
1 102
1 103
1 104
1 105
1 106
1 107
1 108
1 109
1 110
1 111
1 112
1 113
1 114
1 115
1 116
1 117
1 118
1 119
1 120
1 121
1 122
1 123
1 124
1 125
1 126
1 127
1 128
1 129
1 130
1 131
1 132
1 133
1 134
1 135
1 136
1 137
1 138
1 139
1 140
1 141
1 142
1 143
1 144
1 145
1 146
1 147
1 148
1 149
1 150
1 151
1 152
1 153
1 154
1 155
1 156
1 157
1 158
1 159
1 160
1 161
1 162
1 163
1 164
1 165
1 166
1 167
1 168
1 169
1 170
1 171
1 172
1 173
1 174
1 175
1 176
1 177
1 178
1 179
1 180
1 181
1 182
1 183
1 184
1 185
1 186
1 187
1 188
1 189
1 190
1 191
1 192
1 193
1 194
1 195
1 196
1 197
1 198
1 199
1 200
1 201
1 202
1 203
1 204
1 205
1 206
1 207
1 208
1 209
1 210
1 211
1 212
1 213
1 214
1 215
1 216
1 217
1 218
1 219
1 220
1 221
1 222
1 223
1 224
1 225
1 226
1 227
1 228
1 229
1 230
1 231
1 232
1 233
1 234
1 235
1 236
1 237
1 238
1 239
1 240
1 241
1 242
1 243
1 244
1 245
1 246
1 247
1 248
1 249
1 250
1 251
1 252
1 253
1 254
1 255
1 256
1 257
1 258
1 259
1 260
1 261
1 262
1 263
1 264
1 265
1 266
1 267
1 268
1 269
1 270
1 271
1 272
1 273
1 274
1 275
1 276
1 277
1 278
1 279
1 280
1 281
1 282
1 283
1 284
1 285
1 286
1 287
1 288
1 289
1 290
1 291
1 292
1 293
1 294
1 295
1 296
1 297
1 298
1 299
1 300
1 301
1 302
1 303
1 304
1 305
1 306
1 307
1 308
1 309
1 310
1 311
1 312
1 313
1 314
1 315
1 316
1 317
1 318
1 319
1 320
1 321
1 322
1 323
1 324
1 325
1 326
1 327
1 328
1 329
1 330
1 331
1 332
1 333
1 334
1 335
1 336
1 337
1 338
1 339
1 340
1 341
1 342
1 343
1 344
1 345
1 346
1 347
1 348
1 349
1 350
1 351
1 352
1 353
1 354
1 355
1 356
1 357
1 358
1 359
1 360
1 361
1 362
1 363
1 364
1 365
1 366
1 367
1 368
1 369
1 370
1 371
1 372
1 373
1 374
1 375
1 376
1 377
1 378
1 379
1 380
1 381
1 382
1 383
1 384
1 385
1 386
1 387
1 388
1 389
1 390
1 391
1 392
1 393
1 394
1 395
1 396
1 397
1 398
1 399
1 400
1 401
1 402
1 403
1 404
1 405
1 406
1 407
1 408
1 409
1 410
1 411
1 412
1 413
1 414
1 415
1 416
1 417
1 418
1 419
1 420
1 421
1 422
1 423
1 424
1 425
1 426
1 427
1 428
1 429
1 430
1 431
1 432
1 433
1 434
1 435
1 436
1 437
1 438
1 439
1 440
1 441
1 442
1 443
1 444
1 445
1 446
1 447
1 448
1 449
1 450
1 451
1 452
1 453
1 454
1 455
1 456
1 457
1 458
1 459
1 460
1 461
1 462
1 463
1 464
1 465
1 466
1 467
1 468
1 469
1 470
1 471
1 472
1 473
1 474
1 475
1 476
1 477
1 478
1 479
1 480
1 481
1 482
1 483
1 484
1 485
1 486
1 487
1 488
1 489
1 490
1 491
1 492
1 493
1 494
1 495
1 496
1 497
1 498
1 499
POINT_DATA 500
VECTORS i float
0.0 0.0 0.0
0.0 0.0 0.0
0.0 0.0 0.0
0.0 0.0 0.0
0.0 0.0 0.0
0.0 0.0 0.0
0.0 0.0 0.0
0.0 0.0 0.0
0.0 0.0 0.0
0.0 0.0 0.0
0.0 0.0 0.0
0.0 0.0 0.0
0.0 0.0 0.0
0.0 0.0 0.0
0.0 0.0 0.0
0.0 0.0 0.0
0.0 0.0 0.0
0.0 0.0 0.0
0.0 0.0 0.0
0.0 0.0 0.0
0.0 0.0 0.0
0.0 0.0 0.0
0.0 0.0 0.0
0.0 0.0 0.0
0.0 0.0 0.0
0.0 0.0 0.0
0.0 0.0 0.0
0.0 0.0 0.0
0.0 0.0 0.0
0.0 0.0 0.0
0.0 0.0 0.0
0.0 0.0 0.0
0.0 0.0 0.0
0.0 0.0 0.0
0.0 0.0 0.0
0.0 0.0 0.0
0.0 0.0 0.0
0.0 0.0 0.0
0.0 0.0 0.0
0.0 0.0 0.0
0.0 0.0 0.0
0.0 0.0 0.0
0.0 0.0 0.0
0.0 0.0 0.0
0.0 0.0 0.0
0.0 0.0 0.0
0.0 0.0 0.0
0.0 0.0 0.0
0.0 0.0 0.0
0.0 0.0 0.0
0.0 0.0 0.0
0.0 0.0 0.0
0.0 0.0 0.0
0.0 0.0 0.0
0.0 0.0 0.0
0.0 0.0 0.0
0.0 0.0 0.0
0.0 0.0 0.0
0.0 0.0 0.0
0.0 0.0 0.0
0.0 0.0 0.0
0.0 0.0 0.0
0.0 0.0 0.0
0.0 0.0 0.0
0.0 0.0 0.0
0.0 0.0 0.0
0.0 0.0 0.0
0.0 0.0 0.0
0.0 0.0 0.0
0.0 0.0 0.0
0.0 0.0 0.0
0.0 0.0 0.0
0.0 0.0 0.0
0.0 0.0 0.0
0.0 0.0 0.0
0.0 0.0 0.0
0.0 0.0 0.0
0.0 0.0 0.0
0.0 0.0 0.0
0.0 0.0 0.0
0.0 0.0 0.0
0.0 0.0 0.0
0.0 0.0 0.0
0.0 0.0 0.0
0.0 0.0 0.0
0.0 0.0 0.0
0.0 0.0 0.0
0.0 0.0 0.0
0.0 0.0 0.0
0.0 0.0 0.0
0.0 0.0 0.0
0.0 0.0 0.0
0.0 0.0 0.0
0.0 0.0 0.0
0.0 0.0 0.0
0.0 0.0 0.0
0.0 0.0 0.0
0.0 0.0 0.0
0.0 0.0 0.0
0.0 0.0 0.0
0.0 0.0 0.0
0.0 0.0 0.0
0.0 0.0 0.0
0.0 0.0 0.0
0.0 0.0 0.0
0.0 0.0 0.0
0.0 0.0 0.0
0.0 0.0 0.0
0.0 0.0 0.0
0.0 0.0 0.0
0.0 0.0 0.0
0.0 0.0 0.0
0.0 0.0 0.0
0.0 0.0 0.0
0.0 0.0 0.0
0.0 0.0 0.0
0.0 0.0 0.0
0.0 0.0 0.0
0.0 0.0 0.0
0.0 0.0 0.0
0.0 0.0 0.0
0.0 0.0 0.0
0.0 0.0 0.0
0.0 0.0 0.0
0.0 0.0 0.0
0.0 0.0 0.0
0.0 0.0 0.0
0.0 0.0 0.0
0.0 0.0 0.0
0.0 0.0 0.0
0.0 0.0 0.0
0.0 0.0 0.0
0.0 0.0 0.0
0.0 0.0 0.0
0.0 0.0 0.0
0.0 0.0 0.0
0.0 0.0 0.0
0.0 0.0 0.0
0.0 0.0 0.0
0.0 0.0 0.0
0.0 0.0 0.0
0.0 0.0 0.0
0.0 0.0 0.0
0.0 0.0 0.0
0.0 0.0 0.0
0.0 0.0 0.0
0.0 0.0 0.0
0.0 0.0 0.0
0.0 0.0 0.0
0.0 0.0 0.0
0.0 0.0 0.0
0.0 0.0 0.0
0.0 0.0 0.0
0.0 0.0 0.0
0.0 0.0 0.0
0.0 0.0 0.0
0.0 0.0 0.0
0.0 0.0 0.0
0.0 0.0 0.0
0.0 0.0 0.0
0.0 0.0 0.0
0.0 0.0 0.0
0.0 0.0 0.0
0.0 0.0 0.0
0.0 0.0 0.0
0.0 0.0 0.0
0.0 0.0 0.0
0.0 0.0 0.0
0.0 0.0 0.0
0.0 0.0 0.0
0.0 0.0 0.0
0.0 0.0 0.0
0.0 0.0 0.0
0.0 0.0 0.0
0.0 0.0 0.0
0.0 0.0 0.0
0.0 0.0 0.0
0.0 0.0 0.0
0.0 0.0 0.0
0.0 0.0 0.0
0.0 0.0 0.0
0.0 0.0 0.0
0.0 0.0 0.0
0.0 0.0 0.0
0.0 0.0 0.0
0.0 0.0 0.0
0.0 0.0 0.0
0.0 0.0 0.0
0.0 0.0 0.0
0.0 0.0 0.0
0.0 0.0 0.0
0.0 0.0 0.0
0.0 0.0 0.0
0.0 0.0 0.0
0.0 0.0 0.0
0.0 0.0 0.0
0.0 0.0 0.0
0.0 0.0 0.0
0.0 0.0 0.0
0.0 0.0 0.0
0.0 0.0 0.0
0.0 0.0 0.0
0.0 0.0 0.0
0.0 0.0 0.0
0.0 0.0 0.0
0.0 0.0 0.0
0.0 0.0 0.0
0.0 0.0 0.0
0.0 0.0 0.0
0.0 0.0 0.0
0.0 0.0 0.0
0.0 0.0 0.0
0.0 0.0 0.0
0.0 0.0 0.0
0.0 0.0 0.0
0.0 0.0 0.0
0.0 0.0 0.0
0.0 0.0 0.0
0.0 0.0 0.0
0.0 0.0 0.0
0.0 0.0 0.0
0.0 0.0 0.0
0.0 0.0 0.0
0.0 0.0 0.0
0.0 0.0 0.0
0.0 0.0 0.0
0.0 0.0 0.0
0.0 0.0 0.0
0.0 0.0 0.0
0.0 0.0 0.0
0.0 0.0 0.0
0.0 0.0 0.0
0.0 0.0 0.0
0.0 0.0 0.0
0.0 0.0 0.0
0.0 0.0 0.0
0.0 0.0 0.0
0.0 0.0 0.0
0.0 0.0 0.0
0.0 0.0 0.0
0.0 0.0 0.0
0.0 0.0 0.0
0.0 0.0 0.0
0.0 0.0 0.0
0.0 0.0 0.0
0.0 0.0 0.0
0.0 0.0 0.0
0.0 0.0 0.0
0.0 0.0 0.0
0.0 0.0 0.0
0.0 0.0 0.0
0.0 0.0 0.0
0.0 0.0 0.0
0.0 0.0 0.0
0.0 0.0 0.0
0.0 0.0 0.0
0.0 0.0 0.0
0.0 0.0 0.0
0.0 0.0 0.0
0.0 0.0 0.0
0.0 0.0 0.0
0.0 0.0 0.0
0.0 0.0 0.0
0.0 0.0 0.0
0.0 0.0 0.0
0.0 0.0 0.0
0.0 0.0 0.0
0.0 0.0 0.0
0.0 0.0 0.0
0.0 0.0 0.0
0.0 0.0 0.0
0.0 0.0 0.0
0.0 0.0 0.0
0.0 0.0 0.0
0.0 0.0 0.0
0.0 0.0 0.0
0.0 0.0 0.0
0.0 0.0 0.0
0.0 0.0 0.0
0.0 0.0 0.0
0.0 0.0 0.0
0.0 0.0 0.0
0.0 0.0 0.0
0.0 0.0 0.0
0.0 0.0 0.0
0.0 0.0 0.0
0.0 0.0 0.0
0.0 0.0 0.0
0.0 0.0 0.0
0.0 0.0 0.0
0.0 0.0 0.0
0.0 0.0 0.0
0.0 0.0 0.0
0.0 0.0 0.0
0.0 0.0 0.0
0.0 0.0 0.0
0.0 0.0 0.0
0.0 0.0 0.0
0.0 0.0 0.0
0.0 0.0 0.0
0.0 0.0 0.0
0.0 0.0 0.0
0.0 0.0 0.0
0.0 0.0 0.0
0.0 0.0 0.0
0.0 0.0 0.0
0.0 0.0 0.0
0.0 0.0 0.0
0.0 0.0 0.0
0.0 0.0 0.0
0.0 0.0 0.0
0.0 0.0 0.0
0.0 0.0 0.0
0.0 0.0 0.0
0.0 0.0 0.0
0.0 0.0 0.0
0.0 0.0 0.0
0.0 0.0 0.0
0.0 0.0 0.0
0.0 0.0 0.0
0.0 0.0 0.0
0.0 0.0 0.0
0.0 0.0 0.0
0.0 0.0 0.0
0.0 0.0 0.0
0.0 0.0 0.0
0.0 0.0 0.0
0.0 0.0 0.0
0.0 0.0 0.0
0.0 0.0 0.0
0.0 0.0 0.0
0.0 0.0 0.0
0.0 0.0 0.0
0.0 0.0 0.0
0.0 0.0 0.0
0.0 0.0 0.0
0.0 0.0 0.0
0.0 0.0 0.0
0.0 0.0 0.0
0.0 0.0 0.0
0.0 0.0 0.0
0.0 0.0 0.0
0.0 0.0 0.0
0.0 0.0 0.0
0.0 0.0 0.0
0.0 0.0 0.0
0.0 0.0 0.0
0.0 0.0 0.0
0.0 0.0 0.0
0.0 0.0 0.0
0.0 0.0 0.0
0.0 0.0 0.0
0.0 0.0 0.0
0.0 0.0 0.0
0.0 0.0 0.0
0.0 0.0 0.0
0.0 0.0 0.0
0.0 0.0 0.0
0.0 0.0 0.0
0.0 0.0 0.0
0.0 0.0 0.0
0.0 0.0 0.0
0.0 0.0 0.0
0.0 0.0 0.0
0.0 0.0 0.0
0.0 0.0 0.0
0.0 0.0 0.0
0.0 0.0 0.0
0.0 0.0 0.0
0.0 0.0 0.0
0.0 0.0 0.0
0.0 0.0 0.0
0.0 0.0 0.0
0.0 0.0 0.0
0.0 0.0 0.0
0.0 0.0 0.0
0.0 0.0 0.0
0.0 0.0 0.0
0.0 0.0 0.0
0.0 0.0 0.0
0.0 0.0 0.0
0.0 0.0 0.0
0.0 0.0 0.0
0.0 0.0 0.0
0.0 0.0 0.0
0.0 0.0 0.0
0.0 0.0 0.0
0.0 0.0 0.0
0.0 0.0 0.0
0.0 0.0 0.0
0.0 0.0 0.0
0.0 0.0 0.0
0.0 0.0 0.0
0.0 0.0 0.0
0.0 0.0 0.0
0.0 0.0 0.0
0.0 0.0 0.0
0.0 0.0 0.0
0.0 0.0 0.0
0.0 0.0 0.0
0.0 0.0 0.0
0.0 0.0 0.0
0.0 0.0 0.0
0.0 0.0 0.0
0.0 0.0 0.0
0.0 0.0 0.0
0.0 0.0 0.0
0.0 0.0 0.0
0.0 0.0 0.0
0.0 0.0 0.0
0.0 0.0 0.0
0.0 0.0 0.0
0.0 0.0 0.0
0.0 0.0 0.0
0.0 0.0 0.0
0.0 0.0 0.0
0.0 0.0 0.0
0.0 0.0 0.0
0.0 0.0 0.0
0.0 0.0 0.0
0.0 0.0 0.0
0.0 0.0 0.0
0.0 0.0 0.0
0.0 0.0 0.0
0.0 0.0 0.0
0.0 0.0 0.0
0.0 0.0 0.0
0.0 0.0 0.0
0.0 0.0 0.0
0.0 0.0 0.0
0.0 0.0 0.0
0.0 0.0 0.0
0.0 0.0 0.0
0.0 0.0 0.0
0.0 0.0 0.0
0.0 0.0 0.0
0.0 0.0 0.0
0.0 0.0 0.0
0.0 0.0 0.0
0.0 0.0 0.0
0.0 0.0 0.0
0.0 0.0 0.0
0.0 0.0 0.0
0.0 0.0 0.0
0.0 0.0 0.0
0.0 0.0 0.0
0.0 0.0 0.0
0.0 0.0 0.0
0.0 0.0 0.0
0.0 0.0 0.0
0.0 0.0 0.0
0.0 0.0 0.0
0.0 0.0 0.0
0.0 0.0 0.0
0.0 0.0 0.0
0.0 0.0 0.0
0.0 0.0 0.0
0.0 0.0 0.0
0.0 0.0 0.0
0.0 0.0 0.0
0.0 0.0 0.0
0.0 0.0 0.0
0.0 0.0 0.0
0.0 0.0 0.0
0.0 0.0 0.0
0.0 0.0 0.0
0.0 0.0 0.0
0.0 0.0 0.0
0.0 0.0 0.0
0.0 0.0 0.0
0.0 0.0 0.0
0.0 0.0 0.0
0.0 0.0 0.0
0.0 0.0 0.0
0.0 0.0 0.0
0.0 0.0 0.0
0.0 0.0 0.0
0.0 0.0 0.0
0.0 0.0 0.0
0.0 0.0 0.0
0.0 0.0 0.0
0.0 0.0 0.0
0.0 0.0 0.0
0.0 0.0 0.0
0.0 0.0 0.0
0.0 0.0 0.0
0.0 0.0 0.0
0.0 0.0 0.0
0.0 0.0 0.0
0.0 0.0 0.0
0.0 0.0 0.0
0.0 0.0 0.0
0.0 0.0 0.0
0.0 0.0 0.0
0.0 0.0 0.0
0.0 0.0 0.0
0.0 0.0 0.0
0.0 0.0 0.0
0.0 0.0 0.0
0.0 0.0 0.0
VECTORS f float
-0.0156904 -0.169253 -0.147299
-0.000489169 -0.000258306 0.00192942
0.00147927 -0.00781832 0.00466775
0.00550124 -0.000615117 -0.00107385
-0.0029194 -0.000548361 -0.0012348
0.00283794 0.00208797 -0.00658357
0.0013748 -0.00124424 -0.00411698
-0.00031022 -6.89198e-05 0.000191191
-0.00145883 5.51723e-05 -0.000631459
-0.000427747 -0.000514913 -0.000690717
-0.000686099 0.000395357 0.0029959
7.0834e-05 0.00151284 -0.00140505
0.000598476 -0.00169715 0.000585912
0.00203203 -0.00938178 -0.00816876
0.00279817 -0.0881696 -0.00294902
-0.0301681 0.00606022 0.00281781
-0.0393434 0.054228 0.0500273
0.00229149 -0.000138456 -0.00106217
-0.00375578 0.012915 0.0011312
-0.00215306 0.000579908 -0.000104306
0.00178003 -0.00202143 0.000133897
-0.00135667 -0.01466 0.00736534
-0.00610365 0.00115207 0.0013594
0.0011853 0.0017582 -0.00181372
0.0 0.0 -0.0128413
-0.000219327 0.00241609 0.000462949
-0.00613442 0.0101612 -0.00435434
-0.00121035 0.00136241 0.0017039
-6.32434e-05 0.000675921 0.0022421
0.00855967 -0.00157976 0.000841056
-0.00105045 -0.00095514 0.00346236
0.000317828 0.000263006 -0.00459052
0.00742856 -0.00850228 -0.00103733
-0.000345925 0.000762009 -0.00241858
-7.51907e-19 -1.64617e-11 5.75928e-15
-0.000673747 0.00770695 0.00553516
-0.00107584 0.000804911 -0.000862284
-0.000143727 0.000384702 0.00113174
0.0108773 -0.00529619 0.00972916
-0.000781449 0.000228386 3.18597e-06
1.04071e-17 -1.64616e-11 -1.78677e-16
0.0 0.0 -0.0128413
-0.000404514 0.00155014 0.00122662
0.00453227 -0.000942174 -0.000438884
-0.0110891 -0.00499546 0.00166428
0.0297984 0.0101375 -0.0580168
0.00165404 0.00113572 0.00078489
0.000600845 0.000284936 0.000929717
0.0020099 -0.00303483 0.00156568
-0.0206753 -0.000150908 -0.00209073
0.0109809 -0.000172239 0.00177573
-0.00129381 0.00492955 0.00964384
-0.0083863 -0.00353871 0.0221132
-0.00509423 0.000550955 -0.000340833
-0.00390091 -6.02947e-05 -0.00171001
7.21759e-05 -0.000148502 -6.55281e-05
0.0 0.0 -0.0128413
1.39796e-06 8.45127e-05 -4.47385e-05
-0.00135668 0.00044373 -0.00321604
0.00250881 0.000698496 3.33653e-05
0.00396366 -0.003767 0.0071562
0.00077067 0.000390858 -0.00296839
0.00015642 -0.000136448 0.000202619
-7.40456e-05 0.000172628 -0.00267402
0.000842205 0.00013618 -0.00106652
0.0114749 -0.00645128 0.0203946
0.0 0.0 -0.0128413
-0.000651041 0.00050788 -0.00452897
0.00266827 -0.00135408 -0.00124255
-0.0026603 -0.000498958 -0.0115558
0.0102083 0.000630541 -0.0226149
-0.00155606 0.000945029 0.000639624
0.00221529 0.0019633 0.000292569
0.000932986 -0.000534579 -0.000607977
0.00377449 0.000773631 -0.000258894
-0.00326135 0.00993417 -0.0103314
-0.0168318 -0.00402943 0.0803947
0.00119121 -0.00126398 -0.00267542
0.00169995 0.00222226 -0.00498051
-0.00238469 0.00118078 0.000639754
0.000446777 0.000219224 9.71377e-05
-0.0212583 0.0279636 0.149701
-0.00264862 -0.00952484 -0.00590461
3.53281e-05 0.00047532 0.000500985
0.00539993 4.06438e-06 -0.00935295
0.00183874 -0.00877813 0.00588479
0.0 0.0 -0.0128413
0.00874991 -0.0116696 0.000876838
0.00269438 0.000451635 -0.00113884
0.000255856 0.00573713 0.102015
7.21964e-05 2.89605e-05 -0.000300628
0.000479104 -0.000331001 0.000421094
-0.0044214 -0.00207286 0.00290752
-0.000183456 7.1803e-05 0.000767265
-0.000231257 -0.00160216 0.000255223
-0.0143553 -0.00679299 0.00958223
-0.0265954 -0.000384764 -0.0116874
-0.00137147 -0.0318192 -0.0485875
0.0 0.0 -0.0128413
0.000123304 0.00076106 0.000231609
-0.00190388 0.000110826 0.000124102
0.0 0.0 -0.0128413
9.74642e-05 -0.00239555 0.00142457
0.00139801 0.000556264 6.14619e-05
-0.0012329 -0.000957825 -0.00545313
0.0 0.0 -0.0128413
-0.000963779 -0.00143339 0.00233533
-0.00037862 -0.00114559 -0.00043204
-0.00720561 1.60508e-05 -0.00723203
0.000475632 0.000299464 -0.000756415
-0.00170641 0.000761679 0.00228011
-0.00386503 -0.00335255 -0.00234534
0.0 0.0 -0.0128413
0.000378719 -0.00260125 0.00322631
-0.00112391 -0.00216414 -0.00389414
0.000194713 0.000322625 0.00017982
0.0 0.0 -0.0128413
0.000416914 0.00209526 -0.000149929
0.00125535 -0.000131461 -0.00967766
0.00319008 0.0014883 -0.000232131
-0.000978017 -0.000667246 0.000539602
0.0 0.0 -0.0128413
-0.000692868 0.00221823 0.000297933
0.000261781 -0.000662103 0.000461176
-0.00233965 0.00103674 -0.00258875
0.0 0.0 -0.0128413
0.0629354 -0.0768555 -0.0130349
-0.00194439 -0.000587092 0.0203728
0.0 0.0 -0.0128413
-0.00166652 -0.00076928 0.00251726
-0.00632567 -0.000917214 -0.0020478
0.00481013 -0.00568439 -0.00113107
0.00173323 -0.00106913 0.00357126
0.0 0.0 -0.0128413
0.00268274 -0.00382343 -0.010634
-0.00604534 -0.00665072 0.00544446
0.00108927 -0.00505793 0.00322422
0.00879902 -4.82604e-05 -0.00627671
5.14668e-05 -6.05546e-05 0.000298121
-0.00323078 -0.00513894 -0.0124888
-0.000305874 0.000216697 0.00104112
-0.000408994 0.00120313 0.000248998
0.00122574 -0.00282798 0.00200449
0.00118419 -0.00278675 0.0108807
0.00249752 -0.00273446 0.00581574
-0.012016 0.00351863 -0.00190003
-0.00126601 0.00219021 0.00521431
0.00749389 0.00515551 -0.00418653
-0.000703219 0.00230026 -0.000521277
-0.0311494 0.00550188 0.00578206
0.000157783 -0.000440314 0.000189743
0.0818517 0.0639223 -0.110562
0.0356903 -0.000366147 0.0602934
0.0 0.0 -0.0128413
0.0 0.0 -0.0128413
-0.00266629 -0.00143828 0.00689204
-0.00708255 -0.00551396 -0.00101322
0.000738883 0.00107488 -0.000287757
0.00985477 -0.00483615 0.00125258
0.00224409 -0.001622 0.000613306
0.0 0.0 -0.0128413
0.000461537 -0.00248227 0.000434347
-0.00044575 -0.00172175 -0.00153524
0.00235344 -0.00174216 0.0457209
-0.00203463 0.0020069 -0.00321131
-0.00137322 -0.000228356 -0.000305157
-0.0034968 -0.000500309 -0.00446476
-0.000122128 0.000664162 -0.00120977
-0.00012126 -0.000640235 -0.000366772
-0.00314312 -0.00254018 0.00538207
0.0052834 -0.0167476 -0.0190685
0.00219572 0.000148388 -0.00338844
0.0105801 0.00020985 -0.0125157
0.000647646 -0.000334508 -0.000304809
-0.000328355 -0.000190902 8.97552e-06
0.000345409 0.000291447 -0.000249657
0.0 0.0 -0.0128413
-0.000648546 -0.00121981 -0.000159553
0.00599127 -0.00372097 0.00679067
0.000976255 0.000844344 0.000899529
-0.00381631 0.00320338 -0.00324056
-0.00315238 -0.0011397 0.00868484
-0.000386297 -0.027996 -0.0171344
0.000318098 -0.000802058 0.00128286
0.000459106 0.0013487 0.00243644
-0.00021101 4.68831e-07 -0.000355168
-0.00518837 -0.0149718 0.015202
0.0 0.0 -0.0128413
0.000677352 0.000276797 0.00179326
0.0 0.0 -0.0128413
-0.00911663 0.000134358 -0.0291927
0.00111311 -0.015408 -0.000496056
-0.000864405 0.00525375 -0.00472576
-8.15969e-07 -7.85013e-07 -1.24614e-06
-0.00252513 -0.0110613 -0.00867569
0.000592809 -0.000246259 -2.78548e-06
0.000902902 -0.000649248 -0.000530001
0.0 0.0 -0.0128413
0.0 0.0 -0.0128413
0.00196476 -0.000517963 0.00231117
-0.0119484 0.00682992 0.0038965
0.000700958 0.000204845 0.000539355
0.0055179 -0.0017107 0.00168822
-2.61247e-18 -1.64616e-11 1.99875e-14
-0.00578075 0.000776434 -0.00397929
1.699e-05 0.000233866 0.00106733
0.000704282 -0.00423628 0.0730471
-0.00889773 0.00593557 0.00559779
1.12064e-08 3.14187e-08 0.000449047
-0.0159314 -0.00546267 -0.00437419
0.00188535 0.00383172 -0.00110127
4.83318e-05 0.000728503 0.00317222
0.00112376 0.00188199 -0.000336458
0.00364444 0.00066839 -0.00102192
-0.000212545 -0.00134403 0.00184341
0.0 0.0 -0.0128413
0.00405064 -0.00563342 -0.00362548
0.0 0.0 -0.0128413
0.00151066 -0.000948154 -0.00348499
-0.00095137 -0.00519579 0.0928022
-0.0135498 -0.0173798 0.0170465
0.00146973 -0.000351325 -0.000562932
0.000773683 0.000204562 -0.00109412
0.00142936 -0.00144345 -0.00142643
-0.000334728 0.000342371 0.000852429
0.00151305 0.00248186 -0.00102833
-0.00646361 -0.000777905 -0.0048155
-0.0197914 -0.0138927 -0.0161134
0.0 0.0 -0.0128413
-0.00213841 -0.0036532 0.000644996
-0.00348739 -0.0038253 0.00259614
-0.00449003 -0.00414125 0.000882219
0.0 0.0 -0.0128413
0.00740716 5.73003e-06 0.0374639
-0.010798 0.00887146 0.00225156
0.0 0.0 -0.0128413
0.0 0.0 -0.0128413
0.090553 -0.0866139 -0.0148271
-0.00375677 0.00472997 -0.00560703
0.000839306 0.00276299 0.0182342
-0.000979525 -0.00125072 -0.0119816
0.0 0.0 -0.0128413
0.0156186 -0.0169068 -0.0142735
-0.000474449 0.0021994 -0.00177858
0.0939506 0.0107699 0.0811836
-0.00552683 0.0095279 0.00420508
-0.00338875 0.00331977 0.00555868
-0.00285352 0.00283764 0.00333784
0.0182745 -0.00114905 -0.0281937
-0.00372552 -0.0152076 0.0123064
0.0089686 0.00111838 0.000206119
-0.0040915 9.85676e-05 0.00479239
-0.00049678 -0.00615528 0.000822857
0.00475274 -0.0313451 0.0101134
0.0440276 -0.00130103 -0.00156365
0.00275264 0.00150373 0.0045461
-0.00307187 -0.00299884 -0.00202315
-0.00259779 0.050821 0.00027693
0.0233688 -0.0437339 0.0278535
0.0 0.0 -0.0128413
-0.000196865 -0.00232458 -0.00312068
0.0 0.0 -0.0128413
1.6589e-06 -0.00193646 0.000569512
0.00179437 0.00533378 -0.00199002
-0.0157996 -0.0119537 0.0056656
0.0276125 -0.0153421 -0.0264667
0.0 0.0 -0.0128413
0.00935952 -0.0104102 0.00631393
0.000674137 0.000223075 0.00136048
0.00040802 -4.88906e-05 -0.00462248
0.0 0.0 -0.0128413
0.0 0.0 -0.0128413
0.020433 -0.000784664 -0.0194253
-0.00483679 0.00145017 3.95023e-05
0.0 0.0 -0.0128413
0.000660637 0.000675391 0.00463126
0.00312028 0.00395955 -0.00677893
-0.0052834 0.0167476 -0.00661403
-0.00523597 0.000272819 0.0049593
0.000632155 5.79586e-05 -0.00014514
0.0 0.0 -0.0128413
-0.00118007 -0.00951999 0.00799915
0.00319783 -0.000584919 -0.0206131
0.00140976 -0.00608702 0.000737212
0.00624984 0.0104491 0.0100321
-0.0390134 -0.0470205 0.15684
-0.00403109 0.0274908 0.00796058
-0.00754247 0.0095847 0.00200356
0.00153394 0.00258072 -0.00190018
-0.00191975 0.00229445 -0.00213105
0.00841385 -0.00837049 0.224526
-0.0281029 0.00391527 -0.00267957
2.25563e-05 -0.00596505 -0.00563865
-0.000315274 -0.000124689 0.00161876
-0.00440766 0.00546003 -0.00172558
-0.0818517 -0.0639223 0.0848795
0.000684066 1.84547e-05 0.000845036
0.00801356 -0.0053266 0.00015841
2.65599e-05 -0.00101007 -0.00201817
0.0 0.0 -0.0128413
0.00323148 4.11062e-05 0.00056491
-0.00550809 0.00530758 0.00459141
0.0 0.0 -0.0128413
0.00111822 -0.00158473 -0.00216959
0.00899118 0.0467256 0.0230401
-0.028258 -0.0449939 -0.0324157
0.0 0.0 -0.0128413
0.00246602 0.000153032 -0.00263973
0.00207443 -0.00388938 -0.00944266
0.00244035 -0.00174851 0.0124398
0.00216824 -0.00447728 0.086652
-0.000315672 0.00216027 0.0031195
0.0 0.0 -0.0128413
-0.0130288 0.00998354 0.0084264
0.0107572 0.00504311 0.00578633
0.0267162 -0.0336997 -0.00327658
0.00279334 -0.00637673 -0.0126697
0.0 0.0 -0.0128413
-0.00554377 -0.000755495 -0.00259247
0.000640485 -6.14258e-05 2.72101e-05
-0.00583938 0.0150052 -0.00283271
0.0 0.0 -0.0128413
0.00365412 0.00711715 0.0149684
0.0101027 -0.0039774 0.000820588
0.00147584 1.34219e-05 -0.00592943
0.0063309 0.00136276 -0.000798849
-0.00633096 0.114047 -0.0655118
0.0629812 0.0292225 0.0199471
-0.0109268 -0.00697461 -0.00896241
0.00884275 0.00256831 0.00120621
-0.00348491 -0.00262505 0.0061523
0.00256995 0.00032543 -0.00693845
0.000132692 3.12079e-05 -0.00117684
0.107366 -0.0854392 0.0311167
-0.00926157 0.00096975 -0.000562763
-6.1187e-18 -1.64616e-11 1.89701e-13
0.0225295 0.000975684 0.0140799
0.00202019 -0.000683336 0.00250964
-0.0423832 0.00620361 -0.0588785
0.0 0.0 -0.0128413
0.00353348 0.00291251 -0.00773297
-0.00504913 -0.00866382 0.00137937
-0.0390195 -0.00845883 -0.00972708
0.00457874 0.00320016 -0.003512
-0.000682797 0.00120772 -0.0128834
0.0 0.0 -0.0128413
0.0 0.0 -0.0128413
0.00539993 -1.72966e-06 -0.00935292
0.00403033 -0.00169429 0.0420673
0.0 0.0 -0.0128413
0.0 0.0 -0.0128413
-0.000697379 -0.000120956 0.00131455
0.00632139 0.00790449 0.000608176
0.00816764 -0.00168551 0.00949924
0.018508 0.00134251 -0.0239718
-0.00459432 0.00129919 0.00017908
-0.0743828 -0.00697185 0.00631166
-0.0016184 -0.00828424 0.0070701
-0.00711872 0.0269514 -0.0114696
-0.0400257 -0.0160081 -0.00650146
0.0 0.0 -0.0128413
0.0144321 -0.00685331 -0.00322252
0.0 0.0 -0.0128413
0.0297831 -0.0140231 -0.000114243
-0.00791352 -0.000776746 0.00720548
-0.00225808 -0.00242525 0.0040688
0.00111022 -0.00538146 -0.000617283
0.0 0.0 -0.0128413
-0.00178043 0.00798727 -0.0118666
0.02876 0.00316495 0.0319884
0.0 0.0 -0.0128413
-0.000490438 -0.000413492 -1.1538e-05
-0.0107819 0.000543024 -0.00921451
0.00499294 0.000409953 -0.00350456
0.0 0.0 -0.0128413
-0.00293859 -0.0135807 -0.0039831
0.0 0.0 -0.0128413
0.0149921 0.0172023 -0.0341993
0.0 0.0 -0.0128413
-0.00219923 0.00228202 0.00751489
0.0 0.0 -0.0128413
-0.00792711 -0.00984872 -8.46949e-05
0.0157672 0.0161625 -0.0127187
0.00570949 0.00371929 0.00683889
0.0177068 -0.0153634 -0.0472852
0.00529802 -0.00270914 0.00417687
0.0122932 -0.251821 -0.0101191
-0.00348609 0.00245902 0.0166448
-0.00166178 0.00595649 -0.00670252
0.0382283 0.00689161 -0.0173666
0.00238667 -0.000538776 0.00101725
0.000277037 0.000283131 -0.00365066
0.0 0.0 -0.0128413
-0.0365247 0.00505496 -0.000247258
0.0 0.0 -0.0128413
0.00751475 -0.00275064 -0.00592758
0.00999253 -0.00602117 -0.006506
-0.0699426 -0.0154731 -0.0456701
0.0 0.0 -0.0128413
0.0 0.0 -0.0128413
-0.00833092 0.00722296 -0.030508
-0.000987316 0.00377724 -0.0129073
-0.00263731 0.00461035 0.00834842
-0.00372939 -0.00594117 -0.00160401
0.0 0.0 -0.0128413
0.0 0.0 -0.0128413
-0.000320475 0.00618227 0.00285546
-0.0039622 -0.00240597 -0.00721087
-0.00463929 -0.000481138 -0.00689224
0.00056933 0.000264739 -0.000283823
-0.0356349 -0.0143298 0.0043299
-0.00390548 0.000651407 -0.000401728
0.000367921 -0.000526039 -2.52748e-06
0.000559642 0.000258087 -0.00051554
-0.00433134 0.00426377 0.00668439
0.00499835 0.0055965 -0.00628773
0.0 0.0 -0.0128413
-0.0225276 0.0019983 0.0206025
0.000640026 4.92715e-05 -2.86416e-06
0.00750316 -0.000529557 -0.00177273
-0.0130812 -0.0198251 -9.71316e-05
0.0 0.0 -0.0128413
-0.000460686 0.000507752 0.000870696
-0.043104 0.00587201 0.0280099
0.0 0.0 -0.0128413
-0.00746577 0.00694443 -0.00601495
-0.0411481 -0.0993944 -0.00273165
2.50296e-05 0.00064158 1.03794e-07
0.0359359 -0.00484593 -0.0129385
-0.0716675 -0.145705 -0.028545
0.00294933 -0.00423104 -0.00129357
0.00971045 0.0071896 -0.0235926
0.0102782 -0.000522388 -0.00533978
-0.0101471 -0.011018 0.00130523
-0.0351775 -0.00911909 -0.000339831
0.0164922 -0.0173601 -0.0013925
0.0 0.0 -0.0128413
0.0 0.0 -0.0128413
-0.0773915 0.0341249 0.128062
0.0 0.0 -0.0128413
0.0 0.0 -0.0128413
-0.0305095 0.0370528 5.80802e-05
0.0108273 -0.00280471 0.00881592
0.0851266 0.0329825 0.00581062
-0.00691366 -0.0145509 -0.0179465
0.00235647 -0.00224754 -0.000692266
0.0600804 0.0934591 -0.000654335
-0.00236331 0.0378902 0.00497085
-0.0104092 0.00592742 -0.00749032
0.00653079 -0.0157746 0.0059336
-0.00753743 -0.000175626 0.0150765
0.0 0.0 -0.0128413
-0.0251796 0.0117739 0.0433836
0.0 0.0 -0.0128413
-0.00787848 0.00944635 0.00196713
0.000708983 -0.00298691 0.0485568
0.00704649 0.00350344 -0.00687338
0.0127641 -0.00174127 -4.92188e-05
0.00244323 0.00851075 0.00305304
0.0 0.0 -0.0128413
-0.0114009 0.0207718 0.00888983
0.0104446 -0.00490622 0.00530812
-0.00958814 -0.0144098 0.00418078
0.0 0.0 -0.0128413
0.000347259 -0.000645455 0.00181755
0.0 0.0 -0.0128413
0.0 0.0 -0.0128413
0.0 0.0 -0.0128413
0.0 0.0 -0.0128413
-0.000264815 -8.17285e-06 -0.00754244
0.00137147 0.0318192 0.022905
0.0 0.0 -0.0128413
0.0 0.0 -0.0128413
0.0 0.0 -0.0128413
0.0 0.0 -0.0128413
0.0 0.0 -0.0128413
0.0 0.0 -0.0128413
0.0208247 0.030717 0.0127055
0.0 0.0 -0.0128413
0.00597484 0.140247 -0.00917051
0.00692346 -0.00234877 0.0122382
-0.00217047 -0.00143909 0.0444535
-0.00937284 -0.0166122 -0.010968
0.0 0.0 -0.0128413
-0.0141489 0.0037244 0.17138
0.034036 -0.00734077 0.0211427
0.0322373 0.0583225 -0.00019635
-0.00699097 -0.000965415 0.00502752
-0.0673649 0.0788415 -0.0272874
-0.00468746 -0.00068316 -0.00422279
0.0118562 -0.00223935 -0.0126399
0.012346 0.0167372 -0.0492158
-0.000358003 -0.000207375 -0.0134601
-0.00339925 -0.00368379 -0.0100173
0.0 0.0 -0.0128413
-0.000530958 0.0254135 0.000220127
0.0 0.0 -0.0128413
0.0193709 -0.0200966 0.0263458
0.00731006 -5.34517e-05 0.00723736
0.0 0.0 -0.0128413
VECTORS omega float
-5.34546 4.43962 -1.07122
0.844035 -3.48776 2.91675
1.07801 0.441782 0.53395
-5.90173 -2.47692 9.72827
-0.385472 -1.45545 -1.15938
0.595409 4.02002 -1.86304
1.35679 20.483 4.47293
0.0435758 0.159028 -0.0783606
0.0202574 0.240323 -0.129122
-0.0738116 -0.0255836 -0.0647175
-6.20477 -68.4915 -22.9399
0.400689 -0.252362 0.676623
0.147103 -0.751757 -0.201699
-0.927985 1.41546 0.369956
-9.41011 -1.52793 -0.856537
-1.31882 2.99362 0.115004
-14.5087 -7.06337 -29.5222
-1.28535 1.12333 -3.96373
-4.67164 -3.31281 0.804008
-0.113048 -5.12142 0.929646
-0.727418 -0.842274 -0.532696
-1.89556 -1.31795 0.73517
4.71733 0.7142 0.0816951
1.76788 6.05286 -2.65317
0.966792 23.3572 -7.41968
0.0751968 -0.153855 0.178199
0.6807 -1.74149 -0.826312
0.34675 -0.68281 -1.37717
-0.998461 -0.208461 0.221469
0.639923 1.86106 0.597941
-0.425665 -1.78688 -5.01326
-2.24448 -0.809564 -3.06882
-0.199329 0.619626 0.545912
-0.490221 0.0704918 -0.255695
-3.02397 2.83836 1.02647
1.42275 3.48578 2.16597
-2.48488 3.78357 -3.60192
-0.115856 0.0684695 0.0421238
-0.366845 0.937915 1.83153
-0.0654431 -0.105477 -0.0885448
0.371536 1.20594 0.294155
-55.4682 -25.1852 -8.88766
-2.45251 -2.61066 1.75504
-0.676869 1.12651 3.95806
3.88711 4.38577 3.48558
-1.43488 -2.39726 -1.83434
-0.155673 2.46697 0.0560797
-0.57392 1.65939 1.03205
0.255728 -6.44268 3.28448
-0.116699 0.0199448 -0.170066
-0.685733 0.902199 -1.04439
-2.19709 -2.89825 -3.00746
-4.69458 2.4692 0.538726
0.598719 -3.13775 1.70677
-2.5242 -0.889981 1.52473
-0.00532326 0.054935 0.0045913
26.7662 36.3611 23.7976
-0.0226528 -0.0649798 0.068614
7.37773 -1.45803 -3.44258
0.679607 0.224537 0.273291
-0.36464 -4.50376 1.0691
1.21303 -1.1142 1.38621
-0.0412114 1.02859 0.0802503
1.59112 0.217705 1.30143
1.47015 -1.77588 1.72331
2.28323 -1.51182 1.99245
0.245132 0.258328 2.3438
5.02745 3.67463 -1.84482
-1.11279 -0.559115 -0.00866168
-2.15069 0.377749 0.0929889
-0.195528 -1.16607 0.503281
-0.134538 2.00112 -1.58698
0.0857776 0.1137 -0.523135
-0.801042 1.57137 -0.0757568
0.429193 -0.301444 -0.399315
0.898123 0.741266 3.23171
5.19686 -0.459931 -8.3083
0.830317 -1.67663 -0.643718
-0.597301 1.0329 0.939286
-0.0339351 -0.0626539 -0.322233
0.040393 1.28617 -0.341495
-7.48835 -0.930007 3.87533
1.4658 -0.0378594 -4.72737
0.0309 -0.000670153 -0.00366716
-0.592553 29.2581 5.4505
1.33332 -6.17162 2.64932
5.24905 -9.72406 2.58798
-1.92205 5.04031 1.2632
-1.74079 -0.123004 -0.77046
-7.54589 -19.6262 -2.40816
-0.0153768 -0.0065962 0.093462
0.0195462 0.0502136 0.0728724
-1.14797 1.41394 -0.760912
-0.00990005 -0.0790314 -0.0793532
-0.891378 -2.07067 1.46175
0.219317 4.3862 -2.56256
0.1654 1.78539 2.18012
1.84429 -10.1867 -3.17806
11.0631 -56.5583 -0.135767
-0.0907864 0.278327 0.0690788
-0.198042 0.0276973 -0.180144
-1.08959 25.6014 -3.03175
-0.510128 -0.549545 -0.493578
0.193488 0.433662 -0.738083
4.69089 -2.06327 0.938712
2.26108 -9.55519 4.87952
-2.194 -1.03018 -1.76981
0.180173 0.172727 -0.0024667
-0.611 -0.374642 0.261417
-0.0825844 0.0263299 -0.037616
-4.53225 -1.74737 -0.393413
-0.885659 0.183198 -0.182419
-3.40222 4.47977 -1.26268
-0.665512 1.24697 -0.992688
-0.979504 3.43572 -1.97348
-0.0367958 0.0543194 -0.00522155
-25.1542 -19.1928 -1.09082
-0.33892 -0.372467 -0.161233
-3.59608 -1.72585 6.14929
-0.365919 3.29471 0.769781
0.247747 0.458416 0.224621
-5.35226 -1.95802 -9.8153
0.464445 -1.52284 -1.01599
0.0061573 -0.0317186 0.0389774
0.635526 -0.541993 -1.00073
-2.52284 -5.6385 1.87456
-4.80489 -2.74155 -12.4986
-0.0437327 0.506947 -1.65193
-0.374007 0.100259 0.879948
2.32367 0.499009 0.284255
1.20585 -2.46576 0.429694
-0.134432 -3.55949 3.1372
0.118049 -0.819162 0.849519
-0.385967 -40.0445 -8.84992
-1.56303 15.7506 -7.75285
-1.89102 -1.40523 -2.00593
0.350203 -2.58196 -1.74051
-0.731229 3.6328 -2.27516
-0.0545992 -0.0711562 0.0313868
-5.04485 -9.4481 3.1166
-0.119105 -0.117324 0.504629
0.482069 0.518098 -0.24472
0.233158 -0.51162 0.090623
-0.0461258 -8.02782 -1.53734
0.330917 0.518371 -0.179981
1.04309 0.0224902 0.301841
0.572316 5.0125 0.291119
1.08477 -2.46265 -2.10139
0.3353 0.221897 0.561827
-1.65364 -1.39588 0.318682
0.395794 0.609246 0.390459
13.0976 -34.7562 -2.01547
0.317204 1.74057 0.404999
-19.8961 -13.2163 5.599
-26.4742 -4.2847 -11.2017
1.21671 4.68989 -0.749255
0.0544404 1.62421 2.14246
-1.13978 -0.929637 -0.471991
0.946297 -4.02037 -3.28719
-0.325593 -2.71016 0.223753
-1.2886 0.777304 -6.21154
-0.0830833 1.34471 -3.14996
0.17289 1.59166 2.75944
-5.35443 -18.0229 -2.38124
-1.84531 -0.190462 0.493565
0.0181089 0.213266 -0.107615
-2.19886 -1.31605 0.942021
-1.20275 1.01612 -0.0173237
0.03223 0.0109737 8.77649e-05
-5.33092 5.3633 -1.02978
0.204631 1.35654 -5.32181
-0.420578 -12.0553 -1.62143
-1.98665 0.337793 1.75553
-0.0458074 -0.0232648 0.0463554
0.0611434 -0.0691435 0.0160782
0.0173502 0.0744742 -0.0234944
-13.4563 -8.52788 -10.6393
0.0410394 -0.204252 -0.0887723
0.284338 2.48111 1.1951
3.50098 -2.51796 0.164217
0.779122 2.44945 -1.76819
-0.752166 6.07962 1.32307
0.483085 -10.9037 6.46005
0.158763 1.31291 -2.26524
-0.164362 -1.12688 -2.55167
0.0317605 0.0436058 0.0194859
-0.861487 2.59748 0.0330274
9.99918 -37.2704 23.0971
-0.541729 -1.3864 -2.73369
1.27766 5.01757 0.703931
0.853128 -1.29436 0.291963
-0.824064 -4.13715 2.52284
2.83369 1.43339 -2.06164
3.34862 4.33745 0.0728014
-0.251064 2.36754 1.27761
-3.38381 -14.2447 21.9923
0.0902289 -0.0141473 0.166856
-11.195 -10.2817 -7.3267
-6.64544 142.147 -3.48086
2.26291 2.16555 2.01444
2.50126 -3.53612 0.854287
-0.0941922 -0.0123581 0.0271659
-3.07545 2.08172 -5.27904
-1.75771 1.23771 7.75107
-6.93849 -15.8002 -3.19472
-0.169396 -0.254642 0.304661
3.52602 -9.6663 16.7101
-0.819124 0.825908 1.30701
1.43783 -1.45807 -0.976715
1.98549 -0.473532 -3.17512
0.263668 4.44901 1.26121
0.558357 -0.444097 -0.0633966
0.0169184 0.794344 0.844903
-0.658421 6.99898 3.13617
-0.795225 -0.598331 -2.09411
-4.49284 -0.0724131 -8.32241
0.0156146 0.134599 1.12596
7.88782 8.36146 -3.99825
-0.00723408 4.19199 -3.76069
-2.39017 3.46975 4.89275
-2.63562 0.615563 3.42068
-0.0430177 -0.152093 -0.0489503
-1.52841 1.04151 -2.48832
0.878964 -0.92742 -5.86904
-0.576245 0.208221 -1.63034
0.493546 0.213036 1.5841
0.933883 7.93003 2.55844
-0.133227 2.09131 0.991474
18.1634 -2.05076 -16.1225
1.35121 -1.85135 -2.35183
-0.349066 0.141624 1.48911
0.564463 0.999377 -0.0170615
-13.2562 -7.36256 -1.0231
-2.12254 -4.16 -8.28913
-0.295825 5.31044 -5.46027
-26.1783 2.58269 6.59972
-15.1831 -25.2869 10.1268
-1.40506 -16.6738 -14.6437
0.328709 -4.8123 1.61013
-5.22164 9.80636 -0.450603
0.652485 -2.31738 2.80746
-12.8759 -20.5384 53.5522
1.60101 -2.71475 2.65556
-0.265259 4.27323 1.62338
6.72881 -12.1478 0.443267
1.114 3.32456 4.56962
-0.0425351 -2.40049 -0.338669
-0.0722021 3.77399 -1.2337
-0.316015 -10.338 -6.69942
-0.649726 2.98537 0.38731
0.17754 -2.27983 -2.46798
-0.718457 9.6209 -1.68617
-0.758464 -0.101722 0.128582
-2.02874 3.61294 3.59581
0.207697 -0.295978 2.30934
-1.88269 -0.246253 -1.32121
2.24344 -4.33012 -1.04848
-0.0889194 4.651 -1.54799
1.75702 -0.715565 -0.179551
2.62671 33.9003 -33.2315
-0.345818 4.57945 -3.97552
-1.1844 -3.35499 -3.3778
-0.210699 -0.22337 0.083491
0.474493 -1.26004 0.472223
-0.334242 2.54851 -0.216461
-0.357945 -2.92751 -3.1787
-39.0927 17.2164 8.33199
-0.806895 -1.79438 0.285728
3.05806 -1.58549 3.51392
-4.19719 -8.16562 -5.83989
-0.514062 4.66284 -1.01468
0.987462 18.6215 0.6013
3.75861 -4.42201 0.830369
-0.396033 0.0488782 -2.55767
1.64919 -13.1014 -15.2412
0.0629054 4.11856 -2.38264
12.9223 -10.3139 -7.52188
-8.44938 -3.05591 -1.29444
-0.837078 -2.53937 -2.1434
0.610578 -13.0749 -17.5513
-0.250697 -3.72368 1.34384
-1.60644 2.98864 2.55578
-0.973837 2.41194 0.0939174
2.02743 8.64101 -0.24466
0.398359 1.42048 1.20807
-0.0367542 2.72633 0.205068
1.02032 6.701 -3.20659
-0.308031 1.97749 0.890525
-0.337142 2.60385 2.18335
-0.099484 -3.01565 0.343719
0.499383 -4.22393 0.824781
0.488487 -0.0987951 -0.0664929
-5.04711 9.49757 3.10566
1.13059 -1.02933 1.90637
-0.598086 1.30751 0.203648
-10.0155 -25.6352 -2.47383
2.64132 -4.96724 -5.46079
-3.28191 4.84718 2.51818
0.96125 -2.93847 1.35571
-2.70304 -20.0482 -34.4182
-0.327878 0.850409 -0.383148
-0.300908 -6.83843 4.34808
-20.9045 -13.6687 -0.107955
-0.353978 1.27746 1.51682
1.31041 -8.41096 0.564354
-1.81279 3.03531 -3.33342
-7.70475 8.85774 5.05197
1.0283 -3.9519 -2.82503
0.180446 2.3615 -0.86806
2.6004 0.343659 0.147612
6.14804 -44.9452 3.03592
1.94106 -0.0650388 0.757023
23.7254 -18.4555 19.8126
17.2971 -35.0741 37.0762
0.604256 -6.05333 3.3023
-2.83662 6.0654 3.39712
-0.450224 1.50111 -0.438282
8.12245 7.09771 3.2578
-0.335191 3.22208 0.240011
0.787877 -61.8654 -50.0132
-0.0432398 1.51097 -0.495237
-16.766 -13.7318 -10.266
0.178232 1.37426 1.17066
-0.804595 -0.270455 -0.20853
0.843865 -0.904554 -1.82046
-0.593036 1.49158 -0.109984
-3.88522 8.35438 -0.139087
0.146082 3.08875 -1.64544
-0.427695 4.93187 -4.18203
2.39601 0.434706 -0.122923
-0.0382978 11.1039 0.0675114
-2.89154 -0.876545 -3.66604
0.0845847 3.11474 -0.244517
1.76986 -60.1917 52.4571
1.8074 -0.680043 0.560197
0.379941 0.125943 -1.63282
0.787813 2.24891 0.614358
0.170517 0.162404 0.0560366
1.86879 -4.83276 1.01266
2.83262 -16.6825 6.60595
2.6318 1.90201 2.79495
-0.0564739 0.845333 0.933615
-0.265507 -1.68146 1.39723
-1.42391 0.563696 -2.37884
-1.63991 -5.9393 0.178101
-0.370714 -0.616943 1.44499
-21.6799 -4.60214 1.44096
-3.3925 25.0856 1.19655
-1.28846 -5.2534 6.91693
0.364125 -19.3305 -29.6186
11.1743 -58.6198 -25.9076
0.749914 3.17295 4.53116
-0.573252 -2.40029 0.0552806
-4.42648 0.876159 8.50275
0.608681 -4.82727 -2.11301
1.29924 -3.81247 5.88922
9.91559 -3.09468 1.61613
4.53412 -0.861198 1.28736
-1.80117 -1.20175 -2.77103
-0.130193 -20.3903 5.85697
7.65479 12.3874 -6.60139
-0.152914 -1.55385 -1.4183
-14.2211 -19.1674 1.61656
-2.41876 1.92148 -3.68733
-13.6547 -3.94272 -4.04652
-0.785438 -0.139191 -0.000990864
-3.96224 6.83614 -40.1098
-0.890122 4.6032 -0.455579
0.652922 6.0434 0.00593186
1.8073 5.69497 10.8378
13.3819 -34.0596 12.1366
4.4413 -3.37055 -6.37251
3.09569 2.52749 3.64708
-2.13472 -3.67126 2.00974
0.240658 9.74584 -6.74408
-1.08934 -1.21928 0.0343844
-5.56226 5.9506 -11.3238
1.31826 -2.0192 0.0448516
-58.9783 9.45361 52.4709
-1.19036 -3.13566 -1.37482
1.54401 5.47058 1.7507
2.85359 -4.22901 3.33763
-12.2203 -28.3498 9.32766
0.551826 0.110088 -3.59654
2.06099 9.04193 -2.22936
6.41303 -1.049 -1.74615
-2.94601 -2.71639 -4.7783
2.31819 -2.98437 -1.13288
11.324 -3.17144 9.81929
25.6974 -47.1285 -25.9649
0.524207 -1.8039 -0.95856
-2.27201 4.7126 -0.0861072
1.07827 -5.23557 -5.97096
-0.302217 2.61148 1.99206
29.7299 -3.97634 -20.549
0.396416 2.80995 -2.0964
-0.329533 0.286587 0.65183
4.58828 3.10161 2.78921
7.36016 -9.06308 -1.34215
3.19226 -37.7374 29.5861
0.270207 2.23977 0.664443
-1.95035 1.04189 -2.86993
31.8272 -67.8101 38.1927
1.05389 1.87451 -0.0845268
2.40264 3.68362 -2.54223
-24.1333 -42.1314 44.7525
4.84997 8.07627 20.6516
-1.00539 1.58643 -0.706784
-4.96238 -23.7248 -0.305458
4.89018 -31.3209 -43.2914
-0.703856 -1.40328 -2.3024
1.1346 0.807911 2.05811
18.3282 -33.9222 29.973
7.73836 -11.6081 -1.85106
0.302937 2.13378 0.442444
0.343573 6.38845 3.55309
-4.33181 -52.3523 20.102
3.36928 7.65818 4.13181
6.21839 -40.634 3.52
-0.978362 -1.81614 -11.7053
0.388859 2.84842 1.44272
8.74031 -10.9322 1.60475
3.15718 -57.1426 16.2761
-1.97012 -0.874932 2.50301
-43.3714 -117.105 18.3169
-0.480647 1.94626 -1.86612
-13.6312 -9.54409 16.0646
-1.65565 -19.3974 -18.9621
-13.3808 3.65517 11.6493
3.53987 4.72658 -6.36221
1.17169 -1.16817 3.23334
0.635755 -5.24682 -0.558926
0.600489 -3.3417 0.0304972
-0.681858 -0.788017 2.14498
-3.17605 -0.833369 4.11232
0.915391 0.918571 -1.12077
-49.5545 -43.0711 35.0267
-2.78475 -1.07844 -10.5062
1.50087 0.233303 -6.74807
-7.53319 -76.6042 -49.645
7.59606 -1.20093 0.638988
0.341502 0.851406 -1.03071
4.34931 -3.38193 -0.645526
-1.90991 -2.94378 1.75078
1.47505 -1.87806 3.26266
1.34825 -0.00951299 1.76578
-0.738379 -15.0929 4.85792
-2.70216 6.49571 -2.96939
0.267721 -1.28714 1.58101
0.0963969 3.28115 -4.18818
0.520045 1.48047 0.243305
1.01124 9.78145 -8.51239
-7.26651 -42.2696 8.95648
14.2187 -3.6617 1.19984
-7.66034 -36.0607 0.938906
-0.325424 -32.991 -3.28575
3.16527 8.91178 -1.65623
-0.342439 0.604546 8.72651
-11.8903 -16.5535 1.45956
18.0839 47.3999 -21.7329
8.06661 3.75026 -11.3244
-3.92143 -2.00012 0.405872
-1.85505 0.135863 1.49088
21.4602 1.59653 19.7867
9.9322 -38.5432 -8.37766
-7.39719 -8.20514 -2.84882
-11.4319 -19.3545 -3.30845
5.46866 -41.9126 14.9792
4.99553 15.9382 4.53207
-0.0891569 -35.5418 -11.9893
2.25113 -3.45174 2.98095
-2.63983 4.00343 -7.93179
-1.24893 6.09968 1.22441
4.24858 4.16945 -1.9234
6.03351 -39.7405 3.37431
8.18687 -0.554375 -7.8263
19.2046 -5.72427 17.0843
2.25718 -6.71357 -1.75234
15.672 -47.5122 19.7401
8.75998 10.2075 -15.3502
7.73962 -4.83407 7.1504
0.0421129 0.579309 1.77529
0.100309 4.2772 -6.6803
-2.13178 -6.47138 8.05209
4.87379 10.5131 -4.51624
1.74014 -0.660345 0.12174
-1.19696 0.248463 0.239069
-1.65962 -3.25216 -1.0217
5.84341 -6.93711 -2.52367
-3.94525 -1.3604 -0.505807
-9.42476 21.1193 22.4133
0.645678 2.61316 1.82118
-2.74454 9.37401 -0.898909
-1.94032 -0.190323 -1.06334
-14.2241 1.9107 -10.1413
-0.128831 -3.08355 -7.83902
-3.71322 -7.12444 -9.49114
3.84437 -9.01122 -16.3901
0.658937 10.0407 -1.15954
24.039 -16.2903 0.786415
VECTORS v float
-0.0181252 0.0110512 -0.0698856
0.0265759 -0.00514328 -0.00360412
0.0154254 0.00865075 0.00205371
0.0322539 0.0122979 0.00310922
0.0127753 0.00143918 -0.0118841
0.0259217 -0.0106754 0.00298078
0.0228454 -0.00435918 -0.0295943
0.000534913 -0.00018456 -0.000467794
0.00119642 1.65946e-06 0.000464981
-0.000159896 0.000341081 0.000155068
-0.20888 -0.0459093 0.00116559
6.47397e-05 -0.0025099 0.00153186
0.00334845 -2.1688e-05 -0.00421492
-0.00833115 0.000111806 -0.0436063
0.00909701 0.00229133 -0.0121182
0.0206602 0.00712071 -0.009978
-0.0556359 -0.0661068 -0.0265765
0.0243976 -0.019469 -2.85412e-05
-0.0114247 0.011278 -0.0430627
-0.0299713 -0.0134623 -0.0086304
-0.000899423 0.0014006 -0.00198104
0.0199199 -0.000564494 0.000119509
-0.0106747 -0.00681848 0.0192043
0.029195 -0.00868644 -0.00077403
0.044798 -0.0199207 -3.66723
2.20939e-05 0.000797754 0.00188093
-0.00576264 0.0183074 -0.00947514
-0.00311505 0.00316683 -0.00117
-0.00109893 0.000245685 0.00393579
0.0122806 0.00057099 0.00525998
0.0140296 -0.0125761 -0.0108393
-0.00994984 0.00633693 -0.00156082
0.0182534 -0.00485092 -0.000474642
0.00220259 0.00334859 -0.00108246
0.0141892 0.015117 2.69095e-11
0.0175247 -0.0058482 0.000825401
0.0192498 0.000221387 -0.0159941
-0.00100809 -0.000329 -0.000215783
0.00679314 0.00328225 -0.00425656
-8.42597e-05 0.000149859 -0.000267848
0.00602859 -0.00185734 -3.26544e-12
-0.468588 0.00718531 -0.0799988
0.0183592 -0.00864144 0.00255162
0.0204089 -0.00704855 -0.031697
0.0668775 -0.0265832 -0.0186931
-0.0170274 0.00202613 -0.00508991
0.00664565 0.000733906 -0.0102481
0.00860308 0.00333181 -0.000354954
-0.00693994 -0.0298446 -0.0074121
0.00263294 0.000750331 -0.000794341
0.0241322 0.00335884 -0.000372482
-0.0267765 -0.000720092 -0.00046522
-0.00268754 -0.000476406 -0.038901
0.00423684 -0.0144858 -0.0201297
0.0139984 -0.00434671 -0.0187974
0.000107841 2.8757e-05 6.35302e-06
-0.0141323 -0.104558 0.0788612
-0.000366397 3.79204e-05 -0.0001363
0.0104207 0.00265955 -0.0306984
0.00272554 -0.00283067 0.000141034
0.0260662 0.00431329 -0.00297883
-0.00631161 -0.0142837 0.00181385
0.00388641 0.000429073 -0.00124052
0.0191466 0.000808302 -0.0165063
0.0085506 0.000399468 -0.00734633
-0.00398804 -0.011834 0.0176568
0.00755494 0.00192993 -0.035642
0.00500955 -0.0223007 -0.0181892
0.005273 -0.00730548 -0.00210366
0.0107925 -0.00368637 -0.00281879
0.00291183 -0.000639004 -0.000651343
0.0097488 0.000649422 0.000185488
0.000163696 -0.00205036 4.43162e-05
0.0199429 0.00747132 0.000606454
0.00127367 -0.00785324 -0.00210413
0.033995 -0.0149674 0.000304957
-0.0271507 -0.00868471 -0.00656135
0.0119412 -0.00447157 -0.00609484
-0.0170513 -0.0152629 -0.00254848
0.00508838 -0.000206873 -1.0902e-05
0.00515898 5.7717e-05 -0.00152438
0.0199778 -0.0192368 -0.0179749
-0.0439012 0.00612029 -0.0146105
-7.57718e-05 -2.98042e-05 -0.000102074
0.61741 0.0113006 -1.06939
-0.0462417 0.00314329 -0.0183706
-0.114985 -0.00821838 0.0254483
0.0319017 0.00613561 0.00211637
0.0135784 -0.000162816 -0.0218807
-0.104053 -0.0989118 0.00899211
-0.000406993 0.000505594 -7.55761e-05
-0.000125656 -8.24935e-05 3.70834e-05
0.0203891 -0.0121921 -0.0133276
-0.000426587 -7.7581e-05 -0.000176818
0.00973693 -0.000477314 -0.0202189
0.0138477 -0.0141123 0.00446091
0.0162573 -0.000653884 -0.00215246
-0.0312079 -0.0124481 -0.00654476
-0.629229 -0.0271787 -0.0489023
0.000519037 0.000339807 -0.00108178
9.62665e-05 0.000981506 -0.000157833
0.0528441 0.000359056 -2.80765
-0.00338823 0.00917111 -0.00038334
0.00424179 -0.000965832 0.000528723
3.16248e-05 -0.00824069 -0.0242744
-0.150379 -0.0170149 0.0413887
0.00979525 -0.00134102 -0.00229387
-0.00018804 0.000765185 0.00104251
0.00614705 -0.00299909 0.00219577
0.000180809 0.000355978 -0.000266975
0.0261001 -0.00360223 -0.0173335
0.000504399 0.00333796 -0.00102651
-0.087003 -0.00720358 -0.163367
0.00411131 0.000966963 -0.00411575
0.015729 -0.00335297 -0.025974
-2.33858e-05 6.19495e-05 -0.000217599
-0.12131 -0.029087 0.171317
0.0193253 0.00864415 5.75476e-05
-0.0348151 0.0547352 -0.0259051
0.0190676 0.00205783 -0.00179912
0.00154081 -0.00223791 -0.00199597
-0.0658925 0.0404661 0.00356654
-0.0163997 0.0135005 -0.00648895
0.000288928 7.05602e-05 9.51922e-05
7.68262e-06 -0.00790006 -0.000408071
-0.0175204 0.0639618 0.00248947
0.0471899 -0.00917287 0.0220747
0.00339125 0.000617741 -0.000700175
-0.0189934 -0.0236688 -0.0362895
0.0102499 -0.00522901 -0.0170034
-0.0129178 -0.00547033 0.000400222
-0.00711971 -0.000974156 -0.00346607
-0.00491677 -0.000443542 0.000513293
-0.285685 -0.00113263 0.056793
0.0342329 -0.0101478 -0.0309899
-0.0149141 0.00309743 -8.51195e-06
0.00983798 -0.00220276 -0.01659
-0.0259636 0.00184188 -0.0169462
-0.000168856 -8.91965e-05 -0.00016224
-0.0740802 0.00680218 -0.0359828
-0.000432566 0.000896967 -0.000565717
0.00191351 -0.00050354 -0.00164639
0.0138383 -0.00426712 -0.00947759
-0.0335647 -0.00781858 -0.00112077
0.000469318 -0.000567758 -0.00882146
0.00724528 -0.00941729 -6.54876e-06
0.0253852 -0.00372795 -0.00423057
0.0126674 -0.00430177 0.0128974
0.00494328 -0.000980231 0.000207559
-0.0359863 0.00264236 -0.0205118
-0.00140409 0.00107318 -0.00156894
-0.345981 0.0709433 -0.0823467
-0.00932263 0.0140296 -0.0297003
-0.0729343 0.0948907 -0.603662
-0.670394 0.542579 0.188468
0.0213744 0.00160569 0.00551051
0.0203386 0.000299289 -0.000835056
0.0144182 0.0034593 -0.00340421
-0.0142489 -0.0105943 0.00266084
0.0227119 0.000305169 -0.000832972
0.0733205 -0.0679318 0.0969758
0.0307835 0.00228473 -0.00569205
0.0101479 -0.00134578 -0.000258443
-0.159775 0.0783604 -0.0283571
-0.000412226 0.00444832 -0.0102166
4.99424e-05 -0.000248044 -9.99398e-05
-0.016897 0.0258588 -0.00402308
0.00725902 0.0014389 -0.00528565
-6.93723e-06 -0.000165685 -0.000319143
0.00762659 -0.00675224 -0.0214534
-0.0247542 0.0599015 0.0144314
-0.0670082 0.00189325 0.0038391
0.0316154 -0.0153617 -0.0158477
0.000739031 0.000491262 0.000417524
7.52618e-05 0.000110537 0.000127982
-0.00028351 5.82718e-05 -0.00025874
-0.273632 -0.00407984 0.199962
-0.000204234 3.54516e-05 -3.82414e-05
0.0113683 0.00423151 -0.00355475
0.0140826 -0.00152936 -0.0277784
0.0183525 -0.00293405 -0.00393196
0.0145706 -0.0136089 0.00471386
-0.0906662 0.00741179 -0.000243913
0.00669208 -0.000760655 -0.000358778
0.00216694 0.00190143 -0.00155047
0.00018151 -1.23039e-05 -0.000167697
-0.00072612 -0.0158641 0.00778558
0.011896 0.00434809 0.0279133
-0.040121 -0.0108554 0.00664488
-0.0235645 0.0034591 0.0159447
-0.03649 0.00409377 0.00725981
0.0216215 0.000345319 -0.00184551
-0.00808235 -0.00763585 0.00193823
0.0216825 -0.0167407 1.49958e-07
0.011567 0.00331474 -0.0031495
-0.275273 0.101686 0.000410816
0.000238072 0.00016822 -0.000441995
-0.196952 0.246488 -0.259707
0.552446 0.433403 1.69822
0.0294639 -0.0185855 -0.000249625
0.0123127 -0.0119945 0.0215676
-0.000196502 0.000332782 -0.000485551
0.027079 0.00162881 -0.017336
0.00618739 0.00878691 1.58106e-11
-0.0902547 0.0688205 -0.112585
-0.00158629 0.00121154 -0.00117089
-0.0522948 0.00628063 -0.100943
0.0255358 0.0130133 0.00273349
-0.00728819 -0.00718321 -3.32001e-05
0.00688521 0.00654403 -0.000512071
0.0231963 -9.53994e-05 0.00245375
-0.000607386 0.00296972 -0.00468582
0.00509538 -0.00028712 -0.000630856
0.0477082 -0.000111918 -0.000170077
0.00377356 0.00275463 -0.00964966
-0.0463588 0.0755916 -0.144604
0.00159655 -0.00233467 -0.00175377
-0.0386522 0.00612774 -0.0486217
0.0213568 -0.000146437 -0.000291316
0.0247458 0.0524608 -0.0124374
-0.017646 0.00613579 0.0119813
0.000536248 0.000220699 -0.000283578
0.00575186 0.000152275 -0.00605416
-0.00458439 -0.004166 -0.00162786
0.00373583 1.857e-05 -0.00362911
0.0621564 -0.00750781 0.000548705
-0.0522837 0.000632351 -0.0174313
0.0216971 0.00472979 0.0052081
-0.154149 0.0677256 0.167047
-0.0151201 0.00469136 -0.00307974
0.00114691 -0.0106468 -0.000298049
0.0125956 -0.000185045 -0.000315706
-0.106543 -0.0570246 -0.0724329
-0.0330067 0.0133777 0.00411936
0.0180569 -0.00231948 -0.00687164
-0.0895208 0.092973 -0.0717028
-0.375728 -0.0221785 -0.135934
-0.0944251 0.0580963 0.00887992
-0.00964433 0.00302039 -0.00715338
0.0485107 0.0208577 0.00299971
0.0240944 0.0050985 0.000128918
-0.733784 -0.0805939 -0.189622
0.0218811 -0.00231178 -0.00230332
0.0207727 0.00707387 0.0106086
-0.101926 -0.078063 -0.0566006
0.0125446 0.00209604 -0.00110738
0.0138502 -0.00172534 0.0030917
0.0258605 -0.0065279 -0.000819813
-0.057546 -0.00265314 0.00500047
0.0115854 0.00654104 0.00164773
0.0155081 0.00253171 -0.00295934
-0.0811716 0.0190095 -0.00472043
-0.000788018 0.00342036 0.000392363
0.0102287 -0.0178041 0.00903697
-0.010592 -0.0131486 -0.000319754
-0.021777 -0.00041521 0.00387003
0.0349711 0.000620558 0.00771384
0.025256 -0.013192 0.000172126
0.0151553 0.0232741 -0.0188864
-0.33923 0.162348 -0.13603
0.0229025 0.00136272 -0.000281944
-0.0861333 -0.0504817 0.0300281
-0.000680211 0.00116251 0.00150955
0.0170655 0.00516516 0.00572292
0.0159843 0.00759108 -0.00687287
-0.010243 0.00561198 -0.00146476
-0.0398114 0.0334422 -0.129126
0.0195702 -0.000738742 -0.00376683
-0.0161925 -0.0180232 -0.00378861
-0.0559353 0.0227949 -0.00411096
-0.0285295 -0.0028496 -0.0108326
0.0455685 -0.00283742 -2.58068
-0.0379717 -0.0105718 -0.0356267
-0.0200372 0.0171365 -0.00575689
-0.209602 0.129761 -0.00810343
0.0215186 0.000335372 -0.00161465
0.0501772 -0.0414232 0.00849228
-0.0171826 0.0493519 -0.0174987
-0.0532746 0.0285743 -0.026596
-0.321013 -0.0264915 -0.000658467
-0.0442369 -0.0215354 0.00614473
-0.0167414 -0.00938157 0.00272454
0.0114196 -0.00251476 -0.00458845
0.0688785 -0.00262755 0.0116879
0.0370202 -0.0123813 -0.000837779
0.0232286 0.0030221 0.0199353
-0.042386 -0.0393897 -0.00364118
0.01787 0.00059595 0.00384311
0.0136135 0.00127117 -0.00110352
0.0189428 0.00101125 -0.00134551
-0.0629569 0.0391704 -0.117829
-0.00782192 0.00399635 0.00286864
0.0301359 0.00152381 -0.00625565
0.00278709 0.000796016 -0.00389753
0.00264351 0.00765414 0.000758749
-0.26229 0.103152 -0.0276757
-0.0814542 -0.0147316 -0.000451661
-0.0344133 -0.0130311 -0.0282591
0.0180175 -0.00107178 -0.00402022
-0.452056 0.0720041 0.0492363
-0.00228091 -0.00170952 -0.0013622
0.0269575 -0.0119091 -0.00405397
-0.259248 -0.0689526 0.201344
0.0122214 -0.000528223 -0.00385453
-0.0103697 0.00380974 -0.0582551
0.00197484 0.00910444 -0.0498519
-0.330958 0.0662491 -0.00455441
0.013913 6.14429e-05 0.00261542
0.013387 -0.00357392 0.00264545
-0.0013818 -0.00612159 0.0106619
-0.278545 0.0808474 -0.0477948
0.0429767 -0.00679365 -0.00063495
-0.114472 -0.143176 -0.265945
0.0268494 0.0231746 0.00245765
0.0188319 -0.00329928 -0.00692082
-0.0762426 0.0398243 0.00147725
0.0148428 0.00451085 0.00433982
-0.0421737 -0.0361257 0.0151362
-3.67957e-05 0.00382083 0.00061646
-0.399756 0.00473943 -4.2759e-06
0.0216415 -0.000303381 -0.00559371
0.110608 0.180874 0.303761
0.0113427 -0.00388648 0.00155437
0.0158574 0.0079387 0.00583451
0.0109219 -0.00295351 0.000837919
0.0176258 -0.00230177 -0.00182044
-0.0747223 -0.0155571 -0.0348368
-0.00699839 0.0365073 -0.00801684
0.0234932 -9.13933e-05 -0.00103806
-0.0175045 0.029463 -0.00230903
0.076597 -0.000820911 0.000740987
0.0399903 0.00089955 0.0139921
0.0197652 -0.000318662 -0.000864193
-0.0305214 -0.0202291 -0.0803395
0.00649997 5.23361e-05 -0.0208966
0.000629597 -0.00189935 -3.616e-12
0.0163462 -0.00419283 0.00207196
-0.000877814 0.00209921 -0.00161068
-0.0486408 -0.0491356 0.0099634
-0.259811 0.163812 0.0758769
0.0314212 -0.00585832 -0.0140395
0.0103764 0.00258208 0.000378227
0.0183899 -0.0125646 0.00317496
0.0263856 -0.00408216 -0.00136419
0.0442278 0.00261433 -0.00447389
-0.153799 -0.0694673 0.173438
-0.179641 0.140539 0.0100116
0.401956 0.0173157 -0.696207
0.0397236 0.022106 0.016186
-0.196478 -0.0301413 -0.0262183
-0.918364 0.645822 0.358926
0.0525207 0.00260948 -4.36149e-05
0.0158773 0.00516949 0.0040526
0.00912377 0.0402713 0.014567
-0.0209639 -0.00346494 -0.00235349
0.023402 6.8648e-05 -0.0029773
0.00315064 -0.0197998 0.00893343
0.0244514 -0.00391544 0.0173078
0.0245087 0.022998 0.0189305
-0.172323 0.181975 0.0529696
-0.173096 0.00659534 -0.00645453
0.0237466 0.0173809 0.0244775
-0.506096 0.168832 -0.0878741
-0.031007 -0.0207157 0.00150292
0.00185756 0.0379175 -0.00964638
0.0325035 -0.0144664 0.00581653
-0.00294458 0.0152241 -0.00920252
0.0531825 -0.00272248 0.0664062
0.0303817 -4.91888e-05 0.0208753
0.0284183 -0.0195839 -0.0111597
-1.52179 0.474486 0.0448262
0.0294178 0.016806 -9.37398e-06
-0.0180924 0.00384146 0.00599427
0.0168353 0.00720451 0.00444714
0.459253 0.245303 0.399193
0.0180478 0.0109197 -0.00164398
-0.108267 0.059453 -0.00472661
0.01295 -0.00359784 0.0203427
0.0246858 0.398233 0.767298
0.0114167 0.000122814 -0.000132834
-0.135473 0.107558 -0.0175657
0.00134958 -0.0124463 -0.020703
-0.0176455 0.0563502 0.0249839
0.0243956 -0.00147932 -0.00232535
0.0214936 -0.0045357 6.91603e-05
-0.0253799 -0.0184076 -0.00632896
-0.348187 0.0262135 -0.0574451
0.0102334 -0.00309235 0.00675364
0.024403 0.00338932 0.0235108
-0.192229 0.108464 -0.058276
-0.000704038 -8.33704e-05 -0.0107479
0.021116 0.0100581 -0.00818566
0.0793015 0.00693891 -0.0074755
0.0693071 -0.0185965 0.000433128
-0.0841364 0.119693 -0.0698718
0.00705508 0.00304698 0.00565034
0.0286345 -0.00916447 -0.00059202
-0.0334301 0.027825 0.000317501
-0.301424 0.0208742 0.0741465
-0.383642 -0.118072 0.0145054
0.0106002 -0.00101 -0.00672687
0.0286237 0.0125687 -0.00741356
-0.0174174 -0.00269443 -0.00799121
0.008249 0.0186835 -0.0127698
0.0493345 -0.00512508 0.01894
-0.205462 0.114254 0.138494
0.0165563 0.0506605 -0.0273381
0.0237205 0.0231511 0.00556987
0.0811456 -0.0524355 0.0217217
-0.340235 -0.109848 0.000274734
-0.024923 0.0145536 3.8149e-05
-0.00201392 0.00086037 0.00715786
-0.307599 0.105711 4.73062e-07
-0.43178 -0.211045 -2.49293e-05
0.0151005 0.00265108 0.00182766
0.0137824 -0.000651851 -0.000725164
-0.0201642 -0.0296583 -0.0141569
-0.0508885 0.0491552 -0.0482573
-0.343016 -0.041855 -9.68399e-08
0.0411485 0.0146845 -0.0269728
-0.0439681 -0.00141249 -0.0114732
-0.167797 0.174458 0.0291464
-0.272542 -0.0302323 0.00135118
-0.0142567 -0.0128965 -0.00862389
-0.754496 -0.328592 0.386396
0.0205567 0.00530522 0.000388932
-0.0621701 0.0818693 0.00140458
-0.101089 -0.0973265 -2.8515e-08
0.0438087 0.0547871 0.0411939
-0.032241 0.0594554 -0.0814131
-0.0300519 0.0136766 0.0157831
0.0355723 0.0123609 -0.016016
0.0164088 -4.18924e-05 0.00475509
0.0227106 -0.000849612 0.00711285
-0.00440294 -0.0398253 0.00163285
0.0230724 -0.00834723 -0.00179606
-0.377997 0.0458013 0.151329
0.0541889 0.019808 -0.0163899
-0.0352095 -0.0251429 0.0242935
-0.299418 -0.0814143 -0.065202
-0.121778 -0.00757902 -0.0532402
0.0203519 -0.0122615 -0.0017346
0.0183259 -0.0083536 -0.00656204
-0.0734563 0.0347174 0.00950186
0.0114038 0.0092842 0.0100057
-0.0185559 0.0111231 -0.0107747
0.113099 0.0590123 0.000396662
0.0375868 0.020037 0.0227081
0.0170642 -0.00301105 -0.0035752
0.0212044 -0.010293 0.00224202
0.0181883 2.73959e-05 -0.00407875
0.0118293 -0.0458807 -0.0320149
-0.0287799 -0.0643523 -0.0189084
-0.0485514 0.0559776 0.0685863
0.0230273 0.0084941 -0.00176459
-0.185365 0.0881729 -0.00668744
0.0277679 -0.0126567 -0.00420117
0.00193503 0.00976313 0.000129618
-0.191278 0.161417 0.00137237
-0.298099 0.0135428 -0.0215644
-0.0425414 0.0493084 -0.122744
0.0234292 0.00114083 -0.0020231
0.022575 0.00018879 0.0160712
-1.09384 0.113003 0.366134
-0.234129 0.0273945 -0.00122001
-0.268021 -0.0124473 0.145355
-0.221117 0.149981 0.0124581
0.10815 -0.00569431 0.0835379
-0.173959 -0.0655086 -0.21081
-0.145917 0.00142661 -0.00168939
-0.0381139 0.0478175 -0.0712844
-0.0317312 0.0627857 0.0196518
-0.0974002 -0.046686 -0.0561805
-0.106157 0.0295282 0.00794808
-0.321531 -0.0122926 0.093986
-0.0353628 0.0208124 0.0120162
-0.18029 0.186567 -0.0942697
-0.0380437 0.0621281 -0.0291392
-0.519473 0.29205 0.339492
-0.0615867 -0.0265502 -0.041487
-0.105194 0.0709227 -0.00983933
0.0599522 0.00437957 0.0106191
0.00917206 -0.016384 0.00826132
-0.0395647 0.0331425 -0.0340947
0.00877919 0.0552033 -0.0389723
-0.0306846 0.00525471 -0.0179575
-0.0294512 -0.00399668 -0.0110578
-0.00954089 0.00103705 0.000654814
-0.00154824 0.0234745 -0.00760931
-0.00341979 -0.0106672 -0.0313802
-0.112924 -0.0678103 -0.102877
0.010089 0.002972 -0.00258086
-0.00591985 -0.00117137 -0.0500651
-0.0554739 0.0203486 -0.0331723
-0.414618 -0.123169 -0.0963504
-0.0507173 0.186642 -0.000199104
-0.0733822 0.00591326 -0.045321
0.0287566 0.00816147 -0.0513418
-0.00210611 -0.00357151 -0.0028432
-0.340365 -0.130812 -0.0260635
SCALARS radius float 1
LOOKUP_TABLE default
0.005
0.005
0.005
0.005
0.005
0.005
0.005
0.005
0.005
0.005
0.005
0.005
0.005
0.005
0.005
0.005
0.005
0.005
0.005
0.005
0.005
0.005
0.005
0.005
0.005
0.005
0.005
0.005
0.005
0.005
0.005
0.005
0.005
0.005
0.005
0.005
0.005
0.005
0.005
0.005
0.005
0.005
0.005
0.005
0.005
0.005
0.005
0.005
0.005
0.005
0.005
0.005
0.005
0.005
0.005
0.005
0.005
0.005
0.005
0.005
0.005
0.005
0.005
0.005
0.005
0.005
0.005
0.005
0.005
0.005
0.005
0.005
0.005
0.005
0.005
0.005
0.005
0.005
0.005
0.005
0.005
0.005
0.005
0.005
0.005
0.005
0.005
0.005
0.005
0.005
0.005
0.005
0.005
0.005
0.005
0.005
0.005
0.005
0.005
0.005
0.005
0.005
0.005
0.005
0.005
0.005
0.005
0.005
0.005
0.005
0.005
0.005
0.005
0.005
0.005
0.005
0.005
0.005
0.005
0.005
0.005
0.005
0.005
0.005
0.005
0.005
0.005
0.005
0.005
0.005
0.005
0.005
0.005
0.005
0.005
0.005
0.005
0.005
0.005
0.005
0.005
0.005
0.005
0.005
0.005
0.005
0.005
0.005
0.005
0.005
0.005
0.005
0.005
0.005
0.005
0.005
0.005
0.005
0.005
0.005
0.005
0.005
0.005
0.005
0.005
0.005
0.005
0.005
0.005
0.005
0.005
0.005
0.005
0.005
0.005
0.005
0.005
0.005
0.005
0.005
0.005
0.005
0.005
0.005
0.005
0.005
0.005
0.005
0.005
0.005
0.005
0.005
0.005
0.005
0.005
0.005
0.005
0.005
0.005
0.005
0.005
0.005
0.005
0.005
0.005
0.005
0.005
0.005
0.005
0.005
0.005
0.005
0.005
0.005
0.005
0.005
0.005
0.005
0.005
0.005
0.005
0.005
0.005
0.005
0.005
0.005
0.005
0.005
0.005
0.005
0.005
0.005
0.005
0.005
0.005
0.005
0.005
0.005
0.005
0.005
0.005
0.005
0.005
0.005
0.005
0.005
0.005
0.005
0.005
0.005
0.005
0.005
0.005
0.005
0.005
0.005
0.005
0.005
0.005
0.005
0.005
0.005
0.005
0.005
0.005
0.005
0.005
0.005
0.005
0.005
0.005
0.005
0.005
0.005
0.005
0.005
0.005
0.005
0.005
0.005
0.005
0.005
0.005
0.005
0.005
0.005
0.005
0.005
0.005
0.005
0.005
0.005
0.005
0.005
0.005
0.005
0.005
0.005
0.005
0.005
0.005
0.005
0.005
0.005
0.005
0.005
0.005
0.005
0.005
0.005
0.005
0.005
0.005
0.005
0.005
0.005
0.005
0.005
0.005
0.005
0.005
0.005
0.005
0.005
0.005
0.005
0.005
0.005
0.005
0.005
0.005
0.005
0.005
0.005
0.005
0.005
0.005
0.005
0.005
0.005
0.005
0.005
0.005
0.005
0.005
0.005
0.005
0.005
0.005
0.005
0.005
0.005
0.005
0.005
0.005
0.005
0.005
0.005
0.005
0.005
0.005
0.005
0.005
0.005
0.005
0.005
0.005
0.005
0.005
0.005
0.005
0.005
0.005
0.005
0.005
0.005
0.005
0.005
0.005
0.005
0.005
0.005
0.005
0.005
0.005
0.005
0.005
0.005
0.005
0.005
0.005
0.005
0.005
0.005
0.005
0.005
0.005
0.005
0.005
0.005
0.005
0.005
0.005
0.005
0.005
0.005
0.005
0.005
0.005
0.005
0.005
0.005
0.005
0.005
0.005
0.005
0.005
0.005
0.005
0.005
0.005
0.005
0.005
0.005
0.005
0.005
0.005
0.005
0.005
0.005
0.005
0.005
0.005
0.005
0.005
0.005
0.005
0.005
0.005
0.005
0.005
0.005
0.005
0.005
0.005
0.005
0.005
0.005
0.005
0.005
0.005
0.005
0.005
0.005
0.005
0.005
0.005
0.005
0.005
0.005
0.005
0.005
0.005
0.005
0.005
0.005
0.005
0.005
0.005
0.005
0.005
0.005
0.005
0.005
0.005
0.005
0.005
0.005
0.005
0.005
0.005
0.005
0.005
0.005
0.005
0.005
0.005
0.005
0.005
0.005
0.005
0.005
0.005
0.005
0.005
0.005
0.005
0.005
0.005
0.005
SCALARS type float 1
LOOKUP_TABLE default
1.0
1.0
1.0
1.0
1.0
1.0
1.0
1.0
1.0
1.0
1.0
1.0
1.0
1.0
1.0
1.0
1.0
1.0
1.0
1.0
1.0
1.0
1.0
1.0
1.0
1.0
1.0
1.0
1.0
1.0
1.0
1.0
1.0
1.0
1.0
1.0
1.0
1.0
1.0
1.0
1.0
1.0
1.0
1.0
1.0
1.0
1.0
1.0
1.0
1.0
1.0
1.0
1.0
1.0
1.0
1.0
1.0
1.0
1.0
1.0
1.0
1.0
1.0
1.0
1.0
1.0
1.0
1.0
1.0
1.0
1.0
1.0
1.0
1.0
1.0
1.0
1.0
1.0
1.0
1.0
1.0
1.0
1.0
1.0
1.0
1.0
1.0
1.0
1.0
1.0
1.0
1.0
1.0
1.0
1.0
1.0
1.0
1.0
1.0
1.0
1.0
1.0
1.0
1.0
1.0
1.0
1.0
1.0
1.0
1.0
1.0
1.0
1.0
1.0
1.0
1.0
1.0
1.0
1.0
1.0
1.0
1.0
1.0
1.0
1.0
1.0
1.0
1.0
1.0
1.0
1.0
1.0
1.0
1.0
1.0
1.0
1.0
1.0
1.0
1.0
1.0
1.0
1.0
1.0
1.0
1.0
1.0
1.0
1.0
1.0
1.0
1.0
1.0
1.0
1.0
1.0
1.0
1.0
1.0
1.0
1.0
1.0
1.0
1.0
1.0
1.0
1.0
1.0
1.0
1.0
1.0
1.0
1.0
1.0
1.0
1.0
1.0
1.0
1.0
1.0
1.0
1.0
1.0
1.0
1.0
1.0
1.0
1.0
1.0
1.0
1.0
1.0
1.0
1.0
1.0
1.0
1.0
1.0
1.0
1.0
1.0
1.0
1.0
1.0
1.0
1.0
1.0
1.0
1.0
1.0
1.0
1.0
1.0
1.0
1.0
1.0
1.0
1.0
1.0
1.0
1.0
1.0
1.0
1.0
1.0
1.0
1.0
1.0
1.0
1.0
1.0
1.0
1.0
1.0
1.0
1.0
1.0
1.0
1.0
1.0
1.0
1.0
1.0
1.0
1.0
1.0
1.0
1.0
1.0
1.0
1.0
1.0
1.0
1.0
1.0
1.0
1.0
1.0
1.0
1.0
1.0
1.0
1.0
1.0
1.0
1.0
1.0
1.0
1.0
1.0
1.0
1.0
1.0
1.0
1.0
1.0
1.0
1.0
1.0
1.0
1.0
1.0
1.0
1.0
1.0
1.0
1.0
1.0
1.0
1.0
1.0
1.0
1.0
1.0
1.0
1.0
1.0
1.0
1.0
1.0
1.0
1.0
1.0
1.0
1.0
1.0
1.0
1.0
1.0
1.0
1.0
1.0
1.0
1.0
1.0
1.0
1.0
1.0
1.0
1.0
1.0
1.0
1.0
1.0
1.0
1.0
1.0
1.0
1.0
1.0
1.0
1.0
1.0
1.0
1.0
1.0
1.0
1.0
1.0
1.0
1.0
1.0
1.0
1.0
1.0
1.0
1.0
1.0
1.0
1.0
1.0
1.0
1.0
1.0
1.0
1.0
1.0
1.0
1.0
1.0
1.0
1.0
1.0
1.0
1.0
1.0
1.0
1.0
1.0
1.0
1.0
1.0
1.0
1.0
1.0
1.0
1.0
1.0
1.0
1.0
1.0
1.0
1.0
1.0
1.0
1.0
1.0
1.0
1.0
1.0
1.0
1.0
1.0
1.0
1.0
1.0
1.0
1.0
1.0
1.0
1.0
1.0
1.0
1.0
1.0
1.0
1.0
1.0
1.0
1.0
1.0
1.0
1.0
1.0
1.0
1.0
1.0
1.0
1.0
1.0
1.0
1.0
1.0
1.0
1.0
1.0
1.0
1.0
1.0
1.0
1.0
1.0
1.0
1.0
1.0
1.0
1.0
1.0
1.0
1.0
1.0
1.0
1.0
1.0
1.0
1.0
1.0
1.0
1.0
1.0
1.0
1.0
1.0
1.0
1.0
1.0
1.0
1.0
1.0
1.0
1.0
1.0
1.0
1.0
1.0
1.0
1.0
1.0
1.0
1.0
1.0
1.0
1.0
1.0
1.0
1.0
1.0
1.0
1.0
1.0
1.0
1.0
1.0
1.0
1.0
1.0
1.0
1.0
1.0
1.0
1.0
1.0
1.0
1.0
1.0
1.0
1.0
1.0
1.0
1.0
SCALARS id float 1
LOOKUP_TABLE default
1.0
2.0
3.0
4.0
5.0
6.0
7.0
8.0
9.0
10.0
11.0
12.0
13.0
14.0
15.0
16.0
17.0
18.0
19.0
20.0
21.0
22.0
23.0
24.0
25.0
26.0
27.0
28.0
29.0
30.0
31.0
32.0
33.0
34.0
35.0
36.0
37.0
38.0
39.0
40.0
41.0
42.0
43.0
44.0
45.0
46.0
47.0
48.0
49.0
50.0
51.0
52.0
53.0
54.0
55.0
56.0
57.0
58.0
59.0
60.0
61.0
62.0
63.0
64.0
65.0
66.0
67.0
68.0
69.0
70.0
71.0
72.0
73.0
74.0
75.0
76.0
77.0
78.0
79.0
80.0
81.0
82.0
83.0
84.0
85.0
86.0
87.0
88.0
89.0
90.0
91.0
92.0
93.0
94.0
95.0
96.0
97.0
98.0
99.0
100.0
101.0
102.0
103.0
104.0
105.0
106.0
107.0
108.0
109.0
110.0
111.0
112.0
113.0
114.0
115.0
116.0
117.0
118.0
119.0
120.0
121.0
122.0
123.0
124.0
125.0
126.0
127.0
128.0
129.0
130.0
131.0
132.0
133.0
134.0
135.0
136.0
137.0
138.0
139.0
140.0
141.0
142.0
143.0
144.0
145.0
146.0
147.0
148.0
149.0
150.0
151.0
152.0
153.0
154.0
155.0
156.0
157.0
158.0
159.0
160.0
161.0
162.0
163.0
164.0
165.0
166.0
167.0
168.0
169.0
170.0
171.0
172.0
173.0
174.0
175.0
176.0
177.0
178.0
179.0
180.0
181.0
182.0
183.0
184.0
185.0
186.0
187.0
188.0
189.0
190.0
191.0
192.0
193.0
194.0
195.0
196.0
197.0
198.0
199.0
200.0
201.0
202.0
203.0
204.0
205.0
206.0
207.0
208.0
209.0
210.0
211.0
212.0
213.0
214.0
215.0
216.0
217.0
218.0
219.0
220.0
221.0
222.0
223.0
224.0
225.0
226.0
227.0
228.0
229.0
230.0
231.0
232.0
233.0
234.0
235.0
236.0
237.0
238.0
239.0
240.0
241.0
242.0
243.0
244.0
245.0
246.0
247.0
248.0
249.0
250.0
251.0
252.0
253.0
254.0
255.0
256.0
257.0
258.0
259.0
260.0
261.0
262.0
263.0
264.0
265.0
266.0
267.0
268.0
269.0
270.0
271.0
272.0
273.0
274.0
275.0
276.0
277.0
278.0
279.0
280.0
281.0
282.0
283.0
284.0
285.0
286.0
287.0
288.0
289.0
290.0
291.0
292.0
293.0
294.0
295.0
296.0
297.0
298.0
299.0
300.0
301.0
302.0
303.0
304.0
305.0
306.0
307.0
308.0
309.0
310.0
311.0
312.0
313.0
314.0
315.0
316.0
317.0
318.0
319.0
320.0
321.0
322.0
323.0
324.0
325.0
326.0
327.0
328.0
329.0
330.0
331.0
332.0
333.0
334.0
335.0
336.0
337.0
338.0
339.0
340.0
341.0
342.0
343.0
344.0
345.0
346.0
347.0
348.0
349.0
350.0
351.0
352.0
353.0
354.0
355.0
356.0
357.0
358.0
359.0
360.0
361.0
362.0
363.0
364.0
365.0
366.0
367.0
368.0
369.0
370.0
371.0
372.0
373.0
374.0
375.0
376.0
377.0
378.0
379.0
380.0
381.0
382.0
383.0
384.0
385.0
386.0
387.0
388.0
389.0
390.0
391.0
392.0
393.0
394.0
395.0
396.0
397.0
398.0
399.0
400.0
401.0
402.0
403.0
404.0
405.0
406.0
407.0
408.0
409.0
410.0
411.0
412.0
413.0
414.0
415.0
416.0
417.0
418.0
419.0
420.0
421.0
422.0
423.0
424.0
425.0
426.0
427.0
428.0
429.0
430.0
431.0
432.0
433.0
434.0
435.0
436.0
437.0
438.0
439.0
440.0
441.0
442.0
443.0
444.0
445.0
446.0
447.0
448.0
449.0
450.0
451.0
452.0
453.0
454.0
455.0
456.0
457.0
458.0
459.0
460.0
461.0
462.0
463.0
464.0
465.0
466.0
467.0
468.0
469.0
470.0
471.0
472.0
473.0
474.0
475.0
476.0
477.0
478.0
479.0
480.0
481.0
482.0
483.0
484.0
485.0
486.0
487.0
488.0
489.0
490.0
491.0
492.0
493.0
494.0
495.0
496.0
497.0
498.0
499.0
500.0

