# vtk DataFile Version 2.0
Generated by lpp.py
ASCII
DATASET POLYDATA
POINTS 500 float
0.339148 -0.0277408 -1.19455
0.0564596 -0.0383032 -1.18659
0.117551 -0.0236446 -1.19501
0.0926839 -0.0372285 -1.17342
0.0529382 -0.045002 -1.18006
0.0980303 -0.0347128 -1.18149
0.0404307 -0.0146881 -1.17209
0.0114251 -0.0294387 -1.17432
0.0169492 -0.037607 -1.17256
0.00528883 -0.00500292 -1.17499
0.246964 -0.0120119 -1.18792
0.495001 -0.0228481 -1.195
0.0332463 -0.0450011 -1.1783
0.460915 -0.0351936 -1.195
0.0332727 -0.00654161 -1.1719
0.0975321 -0.0242626 -1.18147
0.14803 -0.00782272 -1.18685
0.0511707 -0.0369844 -1.19501
0.417505 -0.00502574 -1.19501
0.480856 -0.0374725 -1.18634
0.0132224 -0.0228868 -1.18326
0.0808278 -0.0310159 -1.17466
0.455209 -0.0130687 -1.1826
0.0547437 -0.0310725 -1.1799
0.343814 -0.0381065 -1.19501
0.495001 -0.00499756 -1.18715
0.457643 -0.0207921 -1.18852
0.468712 -0.0289499 -1.195
0.49191 -0.0450007 -1.17975
0.0777984 -0.0228114 -1.17951
0.041654 -0.0354071 -1.19238
0.43142 -0.0227439 -1.195
0.143123 -0.0223219 -1.195
0.465136 -0.0195935 -1.19501
0.217058 -0.0172581 -0.245002
0.0770369 -0.0238165 -1.195
0.0492701 -0.0450056 -1.18936
0.0219161 -0.0353973 -1.19501
0.0672549 -0.00499819 -1.18058
0.00500517 -0.0229233 -1.18896
0.20943 -0.00603601 -0.245002
0.267776 -0.0361949 -1.195
0.0530491 -0.0239749 -1.18672
0.0460405 -0.01695 -1.18009
0.122503 -0.0398329 -1.18805
0.439977 -0.00522624 -1.19494
0.0153738 -0.00500026 -1.18348
0.028032 -0.0259104 -1.19501
0.489545 -0.00505975 -1.17877
0.494958 -0.0450015 -1.195
0.137977 -0.0137166 -1.195
0.47537 -0.028956 -1.18752
0.464508 -0.00500706 -1.181
0.0453278 -0.0268969 -1.18106
0.0387248 -0.0365222 -1.17831
0.00501245 -0.00498677 -1.195
0.178728 -0.00792226 -1.18684
0.00500088 -0.0450044 -1.19501
0.024201 -0.0141502 -1.17438
0.495004 -0.0328468 -1.19501
0.0621371 -0.0294689 -1.18714
0.488586 -0.031246 -1.18751
0.0247769 -0.0444168 -1.1729
0.033014 -0.00499664 -1.1851
0.0233896 -0.00501547 -1.18955
0.428769 -0.0129241 -1.18382
0.442121 -0.0445491 -1.18072
0.486278 -0.0146048 -1.18031
0.483811 -0.00728545 -1.18666
0.0696097 -0.016086 -1.18034
0.471715 -0.00500266 -1.18794
0.0470276 -0.0137198 -1.19501
0.495002 -0.0128501 -1.195
0.0317629 -0.00499069 -1.19501
0.495001 -0.0389242 -1.18707
0.423556 -0.0131853 -1.19501
0.43447 -0.00499912 -1.18601
0.0418028 -0.00584851 -1.17724
0.48712 -0.0211077 -1.1891
0.488818 -0.00499596 -1.19501
0.0138651 -0.0363805 -1.1832
0.153174 -0.03599 -1.195
0.46858 -0.0369585 -1.18881
0.00499924 -0.0308782 -1.19501
0.337625 -0.0279262 -1.18427
0.474254 -0.0449809 -1.18651
0.391047 -0.0164809 -1.1814
0.0644983 -0.0365261 -1.18047
0.0248929 -0.00499848 -1.17926
0.326243 -0.0140021 -1.195
0.00499379 -0.0299903 -1.1819
0.0191569 -0.0450032 -1.195
0.0470189 -0.0363002 -1.18399
0.0120959 -0.0379225 -1.195
0.047193 -0.0336159 -1.17387
0.087393 -0.0343877 -1.18141
0.429284 -0.00499336 -1.195
0.381226 -0.0337863 -1.19501
0.256926 -0.0203926 -1.18951
0.0151894 -0.0295922 -1.19042
0.012966 -0.0209942 -1.19501
0.28547 -0.0429179 -0.808801
0.441242 -0.0299309 -1.19501
0.471735 -0.0120772 -1.195
0.495001 -0.0148017 -1.1852
0.335199 -0.0185633 -1.195
0.0541596 -0.0450029 -1.16686
0.00500616 -0.0218806 -1.17604
0.457432 -0.00502144 -1.1881
0.0407472 -0.0450052 -1.195
0.0437768 -0.0209872 -1.18897
0.0266874 -0.0376824 -1.18004
0.39168 -0.00503879 -1.18658
0.0425461 -0.0450058 -1.18197
0.0323126 -0.0136893 -1.18021
0.0050032 -0.0450022 -1.18086
0.198752 -0.0286361 -1.18895
0.0417607 -0.00514689 -1.195
0.423377 -0.005017 -1.18692
0.0620924 -0.00499618 -1.19501
0.475282 -0.0214195 -1.195
0.355435 -0.025463 -1.19499
0.463273 -0.0288098 -1.18652
0.00503409 -0.0049969 -1.185
0.482846 -0.0279549 -1.195
0.409452 -0.0192008 -1.18712
0.163396 -0.0162407 -1.1869
0.450186 -0.0051682 -1.19499
0.468987 -0.0449215 -1.195
0.0347134 -0.0317698 -1.18613
0.476292 -0.0355084 -1.19501
0.441941 -0.0448091 -1.195
0.47953 -0.04499 -1.195
0.273796 -0.0186885 -1.195
0.0688158 -0.0449894 -1.17706
0.449809 -0.037028 -1.19499
0.0495398 -0.023449 -1.17268
0.434778 -0.0445709 -1.18753
0.0120801 -0.0450021 -1.18794
0.403299 -0.0449809 -1.18674
0.0208585 -0.0133432 -1.195
0.0211217 -0.0215373 -1.18927
0.0462347 -0.0435216 -1.17279
0.42812 -0.0450032 -1.195
0.487212 -0.0450032 -1.1886
0.486108 -0.0374066 -1.195
0.0682413 -0.0285776 -1.19501
0.0840113 -0.019616 -1.17235
0.478796 -0.00499901 -1.195
0.457028 -0.0444092 -1.19501
0.0209186 -0.0299654 -1.17761
0.237761 -0.0362788 -1.195
0.46293 -0.0449966 -1.18696
0.273209 -0.016211 -1.17631
0.294811 -0.014296 -1.195
0.0989287 -0.0145519 -1.17953
0.0721105 -0.00501055 -1.195
0.052796 -0.0139859 -1.18686
0.434923 -0.0376861 -1.195
0.0468938 -0.00499897 -1.18633
0.319357 -0.0339954 -1.19497
0.0577339 -0.0216801 -1.17817
0.037118 -0.0165238 -1.195
0.306036 -0.0309272 -1.195
0.0134224 -0.0142189 -1.17775
0.0127831 -0.0128812 -1.18912
0.464792 -0.012525 -1.18782
0.0212671 -0.013123 -1.18389
0.0150111 -0.00500899 -1.195
0.0369904 -0.0222603 -1.17807
0.424468 -0.0209104 -1.188
0.397675 -0.0449709 -1.195
0.158167 -0.0136005 -1.195
0.0241667 -0.0449964 -1.18635
0.0170918 -0.0449993 -1.17929
0.00499839 -0.0379446 -1.18794
0.300391 -0.00498182 -1.195
0.00501301 -0.0148136 -1.18311
0.0619583 -0.0194521 -1.18696
0.0399061 -0.0121281 -1.18647
0.112528 -0.0291298 -1.18834
0.074889 -0.0154543 -1.17184
0.380001 -0.0445007 -1.195
0.0380109 -0.0264821 -1.19501
0.0247579 -0.0305165 -1.18678
0.00499484 -0.0149704 -1.195
0.0856311 -0.0049996 -1.17749
0.142493 -0.0447396 -1.18635
0.407504 -0.00499858 -1.195
0.468274 -0.0406943 -1.17954
0.449485 -0.0446029 -1.18845
0.0691549 -0.0369325 -1.18932
0.428708 -0.0261344 -1.18057
0.193783 -0.0223852 -1.195
0.112955 -0.00500054 -1.195
0.283512 -0.0147613 -1.19497
0.00497376 -0.0369656 -1.17471
0.316066 -0.0136122 -1.195
0.446178 -0.00768948 -1.173
0.0485931 -0.0273293 -1.19501
0.0640747 -0.0169196 -1.17206
0.0291629 -0.0450051 -1.19501
0.112524 -0.0450021 -1.18635
0.210608 -0.037214 -0.245002
0.483821 -0.0317008 -1.17873
0.0319153 -0.0353984 -1.19501
0.358467 -0.0444517 -1.195
0.0873094 -0.0348613 -1.195
0.457838 -0.012641 -1.195
0.102525 -0.0450023 -1.18635
0.0775247 -0.0450017 -1.19501
0.0176537 -0.0218311 -1.17295
0.464659 -0.00501201 -1.19501
0.0575291 -0.0449625 -1.195
0.0155397 -0.00517085 -1.17348
0.188745 -0.023318 -1.18642
0.441555 -0.0199363 -1.19501
0.369308 -0.0432314 -1.195
0.0875208 -0.0450015 -1.195
0.422678 -0.0277949 -1.195
0.416856 -0.0285677 -1.18686
0.0102346 -0.045008 -1.17202
0.0293502 -0.0131084 -1.18974
0.483904 -0.0137035 -1.195
0.0260746 -0.0218252 -1.18059
0.193743 -0.00503555 -1.195
0.408419 -0.0426169 -1.195
0.0873445 -0.0238705 -1.195
0.208648 -0.0193974 -1.18681
0.448221 -0.0296585 -1.1872
0.493898 -0.0333839 -1.17882
0.0603814 -0.0122426 -1.18013
0.353616 -0.0355832 -1.1949
0.414359 -0.0338012 -1.195
0.117563 -0.0240196 -1.18136
0.367727 -0.0217672 -1.1794
0.27774 -0.0353896 -1.195
0.213794 -0.0223105 -1.195
0.0758392 -0.00500374 -1.17545
0.180579 -0.0410183 -1.18712
0.132938 -0.0183451 -1.18771
0.186909 -0.0332631 -1.18624
0.12254 -0.0291641 -1.18834
0.0791061 -0.012953 -1.18057
0.409266 -0.0355894 -1.18658
0.0586257 -0.0244197 -1.19501
0.0770708 -0.00501163 -1.18632
0.0767567 -0.033818 -1.19501
0.347309 -0.00509243 -1.19494
0.0664701 -0.0265261 -1.17863
0.0671035 -0.0109176 -1.18864
0.39148 -0.0444558 -1.1871
0.454177 -0.0275771 -1.19499
0.0889198 -0.0145772 -1.17949
0.166644 -0.0410332 -1.195
0.480577 -0.0226984 -1.18171
0.0638254 -0.0450043 -1.18572
0.117514 -0.0450007 -1.19501
0.168585 -0.0135363 -1.195
0.300511 -0.0225995 -1.195
0.0675285 -0.044999 -1.195
0.394227 -0.0194231 -1.19501
0.00662495 -0.0137861 -1.1704
0.102435 -0.0185001 -1.18803
0.117964 -0.0136555 -1.195
0.413504 -0.0238228 -1.195
0.397537 -0.0364185 -1.18828
0.0971884 -0.00792151 -1.18683
0.403478 -0.0234712 -1.195
0.363643 -0.0339092 -1.195
0.397077 -0.00502818 -1.195
0.31277 -0.0303901 -1.18763
0.41813 -0.0450094 -1.19503
0.477531 -0.015061 -1.18742
0.31041 -0.00518969 -1.195
0.0610611 -0.0355342 -1.19501
0.0939721 -0.00854371 -1.17326
0.417958 -0.0134252 -1.18673
0.430528 -0.0308325 -1.1892
0.223743 -0.00498817 -1.19497
0.402316 -0.0135448 -1.19501
0.423091 -0.0371202 -1.19145
0.0870424 -0.0138569 -1.19501
0.188734 -0.0137247 -1.195
0.163433 -0.0220947 -1.195
0.163263 -0.00499872 -1.195
0.374377 -0.0389518 -1.17991
0.0821134 -0.00501274 -1.195
0.067826 -0.0185861 -1.19501
0.0571439 -0.00500082 -1.18626
0.37863 -0.0138494 -1.19501
0.1758 -0.0450051 -1.195
0.0785441 -0.0399664 -1.17849
0.0333849 -0.0219455 -1.1874
0.0587438 -0.0144201 -1.195
0.237764 -0.0420549 -1.18685
0.321599 -0.00516798 -1.195
0.481911 -0.0449988 -1.17984
0.0530722 -0.0140896 -1.17356
0.262092 -0.00499839 -1.195
0.107519 -0.0450021 -1.19501
0.057333 -0.0385538 -1.1738
0.252773 -0.0450026 -1.195
0.0517318 -0.00501792 -1.17756
0.412511 -0.0050382 -1.18635
0.412362 -0.0137844 -1.195
0.238705 -0.0149536 -1.195
0.073824 -0.0450054 -1.18572
0.0769242 -0.0138112 -1.195
0.436923 -0.0235832 -1.18661
0.25778 -0.0363489 -1.195
0.081559 -0.0391062 -1.18801
0.282724 -0.0440365 -1.195
0.152491 -0.0449999 -1.18634
0.122939 -0.0184698 -1.18779
0.222788 -0.0450092 -1.195
0.107556 -0.0235114 -1.19501
0.395183 -0.0294107 -1.19501
0.445135 -0.0222911 -1.18098
0.24776 -0.00499899 -1.195
0.0971358 -0.0136583 -1.19501
0.379606 -0.0279651 -1.18281
0.0921283 -0.00499756 -1.19501
0.11263 -0.0184482 -1.18803
0.0607925 -0.00502808 -1.17294
0.107525 -0.0134162 -1.195
0.328071 -0.0227747 -1.17311
0.372309 -0.00574036 -1.19471
0.097519 -0.0449959 -1.195
0.429799 -0.037438 -1.18155
0.127506 -0.0449975 -1.195
0.0865658 -0.0450039 -1.18168
0.0520511 -0.00503556 -1.19489
0.116983 -0.0347961 -1.18141
0.0239569 -0.005516 -1.16808
0.205301 -0.0159419 -0.245002
0.0973408 -0.0236496 -1.195
0.0349522 -0.0416831 -1.18757
0.390233 -0.0381361 -1.19501
0.305161 -0.0137592 -1.195
0.168395 -0.0269795 -1.18783
0.127965 -0.0136527 -1.195
0.14297 -0.00499947 -1.195
0.153121 -0.0222316 -1.195
0.173763 -0.00499337 -1.19501
0.247782 -0.0363382 -1.195
0.227907 -0.0287015 -1.18856
0.366087 -0.00748781 -1.16729
0.128539 -0.0343514 -1.18225
0.29267 -0.0449988 -1.19498
0.207956 -0.0300608 -1.18515
0.203741 -0.00500234 -1.195
0.0822153 -0.019007 -1.18793
0.139399 -0.0258367 -1.18627
0.386035 -0.00500181 -1.195
0.0925159 -0.0399831 -1.18795
0.213737 -0.00499293 -1.195
0.0714893 -0.0349283 -1.17351
0.434289 -0.0133923 -1.19293
0.244752 -0.0300844 -1.1855
0.311069 -0.0395891 -1.19483
0.0875459 -0.0243565 -1.1811
0.290782 -0.0249395 -1.195
0.200679 -0.0363515 -1.19501
0.14304 -0.016536 -1.18685
0.12752 -0.0346987 -1.19501
0.036952 -0.0413485 -1.16974
0.183752 -0.00500053 -1.195
0.096106 -0.0450016 -1.17869
0.107521 -0.0443755 -1.17771
0.114204 -0.00499895 -1.17804
0.203783 -0.0224287 -1.195
0.448905 -0.0145223 -1.19093
0.107545 -0.00499973 -1.1866
0.418362 -0.00758587 -1.17863
0.0922321 -0.0187532 -1.18794
0.255024 -0.0415665 -1.1832
0.0924804 -0.0293944 -1.18842
0.321977 -0.0251947 -1.18391
0.0711263 -0.0234509 -1.18693
0.32864 -0.0292179 -1.195
0.158335 -0.0265566 -1.18765
0.227763 -0.0363411 -1.195
0.107522 -0.0350058 -1.195
0.108733 -0.0129511 -1.18065
0.461393 -0.0230158 -1.17845
0.230773 -0.00648106 -1.18801
0.072965 -0.0253303 -1.17112
0.171021 -0.0379304 -1.18657
0.247836 -0.0190126 -1.195
0.47713 -0.00500913 -1.17954
0.0310808 -0.0299161 -1.17549
0.130476 -0.0450037 -1.18495
0.19874 -0.0137047 -1.195
0.320726 -0.0229897 -1.19486
0.0744312 -0.0318057 -1.18254
0.117514 -0.0346665 -1.195
0.404335 -0.0334659 -1.19501
0.255018 -0.00499983 -1.1879
0.272772 -0.0449917 -1.195
0.122966 -0.00499666 -1.195
0.173512 -0.0222539 -1.195
0.0760922 -0.0449998 -1.1702
0.148185 -0.029132 -1.18972
0.183696 -0.022369 -1.195
0.29761 -0.0363051 -1.195
0.15311 -0.0164358 -1.18686
0.0975215 -0.0349845 -1.19501
0.179911 -0.0185235 -1.18634
0.264121 -0.0161088 -1.195
0.157483 -0.0450075 -1.19501
0.440068 -0.0136135 -1.18477
0.254989 -0.0120349 -1.195
0.262781 -0.0450029 -1.195
0.10213 -0.00499724 -1.195
0.101796 -0.00501188 -1.17842
0.223792 -0.0222556 -1.195
0.413392 -0.0449751 -1.18623
0.263159 -0.0264195 -1.195
0.120111 -0.0450014 -1.17983
0.137498 -0.0449998 -1.195
0.310755 -0.0221141 -1.195
0.242776 -0.0449903 -1.195
0.399493 -0.0185034 -1.18657
0.150984 -0.0357768 -1.18279
0.127546 -0.0236405 -1.195
0.209224 -0.0311877 -1.195
0.271245 -0.00901917 -1.195
0.208738 -0.0136764 -1.195
0.373743 -0.0250023 -1.19495
0.455553 -0.0367991 -1.18671
0.117968 -0.0078852 -1.18684
0.0822437 -0.029059 -1.18815
0.135859 -0.0291854 -1.195
0.185759 -0.0443228 -1.195
0.148039 -0.0136194 -1.195
0.287721 -0.0347848 -1.19501
0.402372 -0.00773576 -1.18687
0.182044 -0.0350399 -1.195
0.280414 -0.00499732 -1.195
0.319487 -0.0449853 -1.195
0.162344 -0.0320201 -1.195
0.168522 -0.007643 -1.18692
0.191611 -0.0321427 -1.195
0.0871546 -0.00803319 -1.18688
0.469682 -0.0209587 -1.18542
0.218743 -0.013636 -1.195
0.135195 -0.0372456 -1.18913
0.102532 -0.029241 -1.18854
0.14318 -0.0359867 -1.195
0.132971 -0.00499801 -1.195
0.17855 -0.0281557 -1.18865
0.0940004 -0.0202956 -1.173
0.386917 -0.0337733 -1.18657
0.0598053 -0.028933 -1.17156
0.252821 -0.027674 -1.195
0.141041 -0.0344713 -1.1815
0.205713 -0.0450015 -1.195
0.23776 -0.00500104 -1.195
0.302664 -0.0450013 -1.195
0.331893 -0.00535539 -1.1947
0.127968 -0.00787863 -1.18684
0.107523 -0.0366532 -1.18406
0.20513 -0.00999027 -1.18643
0.228804 -0.0136052 -1.195
0.227761 -0.042107 -1.18683
0.242824 -0.0276592 -1.195
0.195307 -0.0390201 -1.18701
0.0206866 -0.016377 -1.16513
0.2904 -0.0052596 -1.195
0.384923 -0.0234098 -1.195
0.38748 -0.0137215 -1.19032
0.327792 -0.0393855 -1.195
0.372381 -0.0350452 -1.19025
0.232783 -0.0449983 -1.195
0.402736 -0.0280123 -1.18613
0.233691 -0.0236038 -1.195
0.448687 -0.0371304 -1.17938
0.288175 -0.0407531 -1.18701
0.336182 -0.0449533 -1.195
0.137968 -0.00791911 -1.18685
0.178707 -0.0136883 -1.195
0.195718 -0.0450122 -1.195
0.391152 -0.0247341 -1.18712
0.346616 -0.020373 -1.19498
0.147492 -0.0450034 -1.195
0.172321 -0.0327241 -1.195
0.445156 -0.00506244 -1.18631
0.107548 -0.0239521 -1.18138
0.495003 -0.0246665 -1.18359
0.219221 -0.0311423 -1.195
0.153087 -0.00499334 -1.195
0.424434 -0.0450124 -1.18548
0.442087 -0.0376221 -1.18804
0.271019 -0.0266129 -1.18751
0.214256 -0.0398185 -1.195
0.39856 -0.0249043 -1.16699
0.160024 -0.0385566 -1.1878
0.455806 -0.0447084 -1.17995
0.280826 -0.0258464 -1.195
VERTICES 500 1000
1 0
1 1
1 2
1 3
1 4
1 5
1 6
1 7
1 8
1 9
1 10
1 11
1 12
1 13
1 14
1 15
1 16
1 17
1 18
1 19
1 20
1 21
1 22
1 23
1 24
1 25
1 26
1 27
1 28
1 29
1 30
1 31
1 32
1 33
1 34
1 35
1 36
1 37
1 38
1 39
1 40
1 41
1 42
1 43
1 44
1 45
1 46
1 47
1 48
1 49
1 50
1 51
1 52
1 53
1 54
1 55
1 56
1 57
1 58
1 59
1 60
1 61
1 62
1 63
1 64
1 65
1 66
1 67
1 68
1 69
1 70
1 71
1 72
1 73
1 74
1 75
1 76
1 77
1 78
1 79
1 80
1 81
1 82
1 83
1 84
1 85
1 86
1 87
1 88
1 89
1 90
1 91
1 92
1 93
1 94
1 95
1 96
1 97
1 98
1 99
1 100
1 101
1 102
1 103
1 104
1 105
1 106
1 107
1 108
1 109
1 110
1 111
1 112
1 113
1 114
1 115
1 116
1 117
1 118
1 119
1 120
1 121
1 122
1 123
1 124
1 125
1 126
1 127
1 128
1 129
1 130
1 131
1 132
1 133
1 134
1 135
1 136
1 137
1 138
1 139
1 140
1 141
1 142
1 143
1 144
1 145
1 146
1 147
1 148
1 149
1 150
1 151
1 152
1 153
1 154
1 155
1 156
1 157
1 158
1 159
1 160
1 161
1 162
1 163
1 164
1 165
1 166
1 167
1 168
1 169
1 170
1 171
1 172
1 173
1 174
1 175
1 176
1 177
1 178
1 179
1 180
1 181
1 182
1 183
1 184
1 185
1 186
1 187
1 188
1 189
1 190
1 191
1 192
1 193
1 194
1 195
1 196
1 197
1 198
1 199
1 200
1 201
1 202
1 203
1 204
1 205
1 206
1 207
1 208
1 209
1 210
1 211
1 212
1 213
1 214
1 215
1 216
1 217
1 218
1 219
1 220
1 221
1 222
1 223
1 224
1 225
1 226
1 227
1 228
1 229
1 230
1 231
1 232
1 233
1 234
1 235
1 236
1 237
1 238
1 239
1 240
1 241
1 242
1 243
1 244
1 245
1 246
1 247
1 248
1 249
1 250
1 251
1 252
1 253
1 254
1 255
1 256
1 257
1 258
1 259
1 260
1 261
1 262
1 263
1 264
1 265
1 266
1 267
1 268
1 269
1 270
1 271
1 272
1 273
1 274
1 275
1 276
1 277
1 278
1 279
1 280
1 281
1 282
1 283
1 284
1 285
1 286
1 287
1 288
1 289
1 290
1 291
1 292
1 293
1 294
1 295
1 296
1 297
1 298
1 299
1 300
1 301
1 302
1 303
1 304
1 305
1 306
1 307
1 308
1 309
1 310
1 311
1 312
1 313
1 314
1 315
1 316
1 317
1 318
1 319
1 320
1 321
1 322
1 323
1 324
1 325
1 326
1 327
1 328
1 329
1 330
1 331
1 332
1 333
1 334
1 335
1 336
1 337
1 338
1 339
1 340
1 341
1 342
1 343
1 344
1 345
1 346
1 347
1 348
1 349
1 350
1 351
1 352
1 353
1 354
1 355
1 356
1 357
1 358
1 359
1 360
1 361
1 362
1 363
1 364
1 365
1 366
1 367
1 368
1 369
1 370
1 371
1 372
1 373
1 374
1 375
1 376
1 377
1 378
1 379
1 380
1 381
1 382
1 383
1 384
1 385
1 386
1 387
1 388
1 389
1 390
1 391
1 392
1 393
1 394
1 395
1 396
1 397
1 398
1 399
1 400
1 401
1 402
1 403
1 404
1 405
1 406
1 407
1 408
1 409
1 410
1 411
1 412
1 413
1 414
1 415
1 416
1 417
1 418
1 419
1 420
1 421
1 422
1 423
1 424
1 425
1 426
1 427
1 428
1 429
1 430
1 431
1 432
1 433
1 434
1 435
1 436
1 437
1 438
1 439
1 440
1 441
1 442
1 443
1 444
1 445
1 446
1 447
1 448
1 449
1 450
1 451
1 452
1 453
1 454
1 455
1 456
1 457
1 458
1 459
1 460
1 461
1 462
1 463
1 464
1 465
1 466
1 467
1 468
1 469
1 470
1 471
1 472
1 473
1 474
1 475
1 476
1 477
1 478
1 479
1 480
1 481
1 482
1 483
1 484
1 485
1 486
1 487
1 488
1 489
1 490
1 491
1 492
1 493
1 494
1 495
1 496
1 497
1 498
1 499
POINT_DATA 500
VECTORS i float
0.0 0.0 0.0
0.0 0.0 0.0
0.0 0.0 0.0
0.0 0.0 0.0
0.0 0.0 0.0
0.0 0.0 0.0
0.0 0.0 0.0
0.0 0.0 0.0
0.0 0.0 0.0
0.0 0.0 0.0
0.0 0.0 0.0
0.0 0.0 0.0
0.0 0.0 0.0
0.0 0.0 0.0
0.0 0.0 0.0
0.0 0.0 0.0
0.0 0.0 0.0
0.0 0.0 0.0
0.0 0.0 0.0
0.0 0.0 0.0
0.0 0.0 0.0
0.0 0.0 0.0
0.0 0.0 0.0
0.0 0.0 0.0
0.0 0.0 0.0
0.0 0.0 0.0
0.0 0.0 0.0
0.0 0.0 0.0
0.0 0.0 0.0
0.0 0.0 0.0
0.0 0.0 0.0
0.0 0.0 0.0
0.0 0.0 0.0
0.0 0.0 0.0
0.0 0.0 0.0
0.0 0.0 0.0
0.0 0.0 0.0
0.0 0.0 0.0
0.0 0.0 0.0
0.0 0.0 0.0
0.0 0.0 0.0
0.0 0.0 0.0
0.0 0.0 0.0
0.0 0.0 0.0
0.0 0.0 0.0
0.0 0.0 0.0
0.0 0.0 0.0
0.0 0.0 0.0
0.0 0.0 0.0
0.0 0.0 0.0
0.0 0.0 0.0
0.0 0.0 0.0
0.0 0.0 0.0
0.0 0.0 0.0
0.0 0.0 0.0
0.0 0.0 0.0
0.0 0.0 0.0
0.0 0.0 0.0
0.0 0.0 0.0
0.0 0.0 0.0
0.0 0.0 0.0
0.0 0.0 0.0
0.0 0.0 0.0
0.0 0.0 0.0
0.0 0.0 0.0
0.0 0.0 0.0
0.0 0.0 0.0
0.0 0.0 0.0
0.0 0.0 0.0
0.0 0.0 0.0
0.0 0.0 0.0
0.0 0.0 0.0
0.0 0.0 0.0
0.0 0.0 0.0
0.0 0.0 0.0
0.0 0.0 0.0
0.0 0.0 0.0
0.0 0.0 0.0
0.0 0.0 0.0
0.0 0.0 0.0
0.0 0.0 0.0
0.0 0.0 0.0
0.0 0.0 0.0
0.0 0.0 0.0
0.0 0.0 0.0
0.0 0.0 0.0
0.0 0.0 0.0
0.0 0.0 0.0
0.0 0.0 0.0
0.0 0.0 0.0
0.0 0.0 0.0
0.0 0.0 0.0
0.0 0.0 0.0
0.0 0.0 0.0
0.0 0.0 0.0
0.0 0.0 0.0
0.0 0.0 0.0
0.0 0.0 0.0
0.0 0.0 0.0
0.0 0.0 0.0
0.0 0.0 0.0
0.0 0.0 0.0
0.0 0.0 0.0
0.0 0.0 0.0
0.0 0.0 0.0
0.0 0.0 0.0
0.0 0.0 0.0
0.0 0.0 0.0
0.0 0.0 0.0
0.0 0.0 0.0
0.0 0.0 0.0
0.0 0.0 0.0
0.0 0.0 0.0
0.0 0.0 0.0
0.0 0.0 0.0
0.0 0.0 0.0
0.0 0.0 0.0
0.0 0.0 0.0
0.0 0.0 0.0
0.0 0.0 0.0
0.0 0.0 0.0
0.0 0.0 0.0
0.0 0.0 0.0
0.0 0.0 0.0
0.0 0.0 0.0
0.0 0.0 0.0
0.0 0.0 0.0
0.0 0.0 0.0
0.0 0.0 0.0
0.0 0.0 0.0
0.0 0.0 0.0
0.0 0.0 0.0
0.0 0.0 0.0
0.0 0.0 0.0
0.0 0.0 0.0
0.0 0.0 0.0
0.0 0.0 0.0
0.0 0.0 0.0
0.0 0.0 0.0
0.0 0.0 0.0
0.0 0.0 0.0
0.0 0.0 0.0
0.0 0.0 0.0
0.0 0.0 0.0
0.0 0.0 0.0
0.0 0.0 0.0
0.0 0.0 0.0
0.0 0.0 0.0
0.0 0.0 0.0
0.0 0.0 0.0
0.0 0.0 0.0
0.0 0.0 0.0
0.0 0.0 0.0
0.0 0.0 0.0
0.0 0.0 0.0
0.0 0.0 0.0
0.0 0.0 0.0
0.0 0.0 0.0
0.0 0.0 0.0
0.0 0.0 0.0
0.0 0.0 0.0
0.0 0.0 0.0
0.0 0.0 0.0
0.0 0.0 0.0
0.0 0.0 0.0
0.0 0.0 0.0
0.0 0.0 0.0
0.0 0.0 0.0
0.0 0.0 0.0
0.0 0.0 0.0
0.0 0.0 0.0
0.0 0.0 0.0
0.0 0.0 0.0
0.0 0.0 0.0
0.0 0.0 0.0
0.0 0.0 0.0
0.0 0.0 0.0
0.0 0.0 0.0
0.0 0.0 0.0
0.0 0.0 0.0
0.0 0.0 0.0
0.0 0.0 0.0
0.0 0.0 0.0
0.0 0.0 0.0
0.0 0.0 0.0
0.0 0.0 0.0
0.0 0.0 0.0
0.0 0.0 0.0
0.0 0.0 0.0
0.0 0.0 0.0
0.0 0.0 0.0
0.0 0.0 0.0
0.0 0.0 0.0
0.0 0.0 0.0
0.0 0.0 0.0
0.0 0.0 0.0
0.0 0.0 0.0
0.0 0.0 0.0
0.0 0.0 0.0
0.0 0.0 0.0
0.0 0.0 0.0
0.0 0.0 0.0
0.0 0.0 0.0
0.0 0.0 0.0
0.0 0.0 0.0
0.0 0.0 0.0
0.0 0.0 0.0
0.0 0.0 0.0
0.0 0.0 0.0
0.0 0.0 0.0
0.0 0.0 0.0
0.0 0.0 0.0
0.0 0.0 0.0
0.0 0.0 0.0
0.0 0.0 0.0
0.0 0.0 0.0
0.0 0.0 0.0
0.0 0.0 0.0
0.0 0.0 0.0
0.0 0.0 0.0
0.0 0.0 0.0
0.0 0.0 0.0
0.0 0.0 0.0
0.0 0.0 0.0
0.0 0.0 0.0
0.0 0.0 0.0
0.0 0.0 0.0
0.0 0.0 0.0
0.0 0.0 0.0
0.0 0.0 0.0
0.0 0.0 0.0
0.0 0.0 0.0
0.0 0.0 0.0
0.0 0.0 0.0
0.0 0.0 0.0
0.0 0.0 0.0
0.0 0.0 0.0
0.0 0.0 0.0
0.0 0.0 0.0
0.0 0.0 0.0
0.0 0.0 0.0
0.0 0.0 0.0
0.0 0.0 0.0
0.0 0.0 0.0
0.0 0.0 0.0
0.0 0.0 0.0
0.0 0.0 0.0
0.0 0.0 0.0
0.0 0.0 0.0
0.0 0.0 0.0
0.0 0.0 0.0
0.0 0.0 0.0
0.0 0.0 0.0
0.0 0.0 0.0
0.0 0.0 0.0
0.0 0.0 0.0
0.0 0.0 0.0
0.0 0.0 0.0
0.0 0.0 0.0
0.0 0.0 0.0
0.0 0.0 0.0
0.0 0.0 0.0
0.0 0.0 0.0
0.0 0.0 0.0
0.0 0.0 0.0
0.0 0.0 0.0
0.0 0.0 0.0
0.0 0.0 0.0
0.0 0.0 0.0
0.0 0.0 0.0
0.0 0.0 0.0
0.0 0.0 0.0
0.0 0.0 0.0
0.0 0.0 0.0
0.0 0.0 0.0
0.0 0.0 0.0
0.0 0.0 0.0
0.0 0.0 0.0
0.0 0.0 0.0
0.0 0.0 0.0
0.0 0.0 0.0
0.0 0.0 0.0
0.0 0.0 0.0
0.0 0.0 0.0
0.0 0.0 0.0
0.0 0.0 0.0
0.0 0.0 0.0
0.0 0.0 0.0
0.0 0.0 0.0
0.0 0.0 0.0
0.0 0.0 0.0
0.0 0.0 0.0
0.0 0.0 0.0
0.0 0.0 0.0
0.0 0.0 0.0
0.0 0.0 0.0
0.0 0.0 0.0
0.0 0.0 0.0
0.0 0.0 0.0
0.0 0.0 0.0
0.0 0.0 0.0
0.0 0.0 0.0
0.0 0.0 0.0
0.0 0.0 0.0
0.0 0.0 0.0
0.0 0.0 0.0
0.0 0.0 0.0
0.0 0.0 0.0
0.0 0.0 0.0
0.0 0.0 0.0
0.0 0.0 0.0
0.0 0.0 0.0
0.0 0.0 0.0
0.0 0.0 0.0
0.0 0.0 0.0
0.0 0.0 0.0
0.0 0.0 0.0
0.0 0.0 0.0
0.0 0.0 0.0
0.0 0.0 0.0
0.0 0.0 0.0
0.0 0.0 0.0
0.0 0.0 0.0
0.0 0.0 0.0
0.0 0.0 0.0
0.0 0.0 0.0
0.0 0.0 0.0
0.0 0.0 0.0
0.0 0.0 0.0
0.0 0.0 0.0
0.0 0.0 0.0
0.0 0.0 0.0
0.0 0.0 0.0
0.0 0.0 0.0
0.0 0.0 0.0
0.0 0.0 0.0
0.0 0.0 0.0
0.0 0.0 0.0
0.0 0.0 0.0
0.0 0.0 0.0
0.0 0.0 0.0
0.0 0.0 0.0
0.0 0.0 0.0
0.0 0.0 0.0
0.0 0.0 0.0
0.0 0.0 0.0
0.0 0.0 0.0
0.0 0.0 0.0
0.0 0.0 0.0
0.0 0.0 0.0
0.0 0.0 0.0
0.0 0.0 0.0
0.0 0.0 0.0
0.0 0.0 0.0
0.0 0.0 0.0
0.0 0.0 0.0
0.0 0.0 0.0
0.0 0.0 0.0
0.0 0.0 0.0
0.0 0.0 0.0
0.0 0.0 0.0
0.0 0.0 0.0
0.0 0.0 0.0
0.0 0.0 0.0
0.0 0.0 0.0
0.0 0.0 0.0
0.0 0.0 0.0
0.0 0.0 0.0
0.0 0.0 0.0
0.0 0.0 0.0
0.0 0.0 0.0
0.0 0.0 0.0
0.0 0.0 0.0
0.0 0.0 0.0
0.0 0.0 0.0
0.0 0.0 0.0
0.0 0.0 0.0
0.0 0.0 0.0
0.0 0.0 0.0
0.0 0.0 0.0
0.0 0.0 0.0
0.0 0.0 0.0
0.0 0.0 0.0
0.0 0.0 0.0
0.0 0.0 0.0
0.0 0.0 0.0
0.0 0.0 0.0
0.0 0.0 0.0
0.0 0.0 0.0
0.0 0.0 0.0
0.0 0.0 0.0
0.0 0.0 0.0
0.0 0.0 0.0
0.0 0.0 0.0
0.0 0.0 0.0
0.0 0.0 0.0
0.0 0.0 0.0
0.0 0.0 0.0
0.0 0.0 0.0
0.0 0.0 0.0
0.0 0.0 0.0
0.0 0.0 0.0
0.0 0.0 0.0
0.0 0.0 0.0
0.0 0.0 0.0
0.0 0.0 0.0
0.0 0.0 0.0
0.0 0.0 0.0
0.0 0.0 0.0
0.0 0.0 0.0
0.0 0.0 0.0
0.0 0.0 0.0
0.0 0.0 0.0
0.0 0.0 0.0
0.0 0.0 0.0
0.0 0.0 0.0
0.0 0.0 0.0
0.0 0.0 0.0
0.0 0.0 0.0
0.0 0.0 0.0
0.0 0.0 0.0
0.0 0.0 0.0
0.0 0.0 0.0
0.0 0.0 0.0
0.0 0.0 0.0
0.0 0.0 0.0
0.0 0.0 0.0
0.0 0.0 0.0
0.0 0.0 0.0
0.0 0.0 0.0
0.0 0.0 0.0
0.0 0.0 0.0
0.0 0.0 0.0
0.0 0.0 0.0
0.0 0.0 0.0
0.0 0.0 0.0
0.0 0.0 0.0
0.0 0.0 0.0
0.0 0.0 0.0
0.0 0.0 0.0
0.0 0.0 0.0
0.0 0.0 0.0
0.0 0.0 0.0
0.0 0.0 0.0
0.0 0.0 0.0
0.0 0.0 0.0
0.0 0.0 0.0
0.0 0.0 0.0
0.0 0.0 0.0
0.0 0.0 0.0
0.0 0.0 0.0
0.0 0.0 0.0
0.0 0.0 0.0
0.0 0.0 0.0
0.0 0.0 0.0
0.0 0.0 0.0
0.0 0.0 0.0
0.0 0.0 0.0
0.0 0.0 0.0
0.0 0.0 0.0
0.0 0.0 0.0
0.0 0.0 0.0
0.0 0.0 0.0
0.0 0.0 0.0
0.0 0.0 0.0
0.0 0.0 0.0
0.0 0.0 0.0
0.0 0.0 0.0
0.0 0.0 0.0
0.0 0.0 0.0
0.0 0.0 0.0
0.0 0.0 0.0
0.0 0.0 0.0
0.0 0.0 0.0
0.0 0.0 0.0
0.0 0.0 0.0
0.0 0.0 0.0
0.0 0.0 0.0
0.0 0.0 0.0
0.0 0.0 0.0
0.0 0.0 0.0
0.0 0.0 0.0
0.0 0.0 0.0
0.0 0.0 0.0
0.0 0.0 0.0
0.0 0.0 0.0
0.0 0.0 0.0
0.0 0.0 0.0
0.0 0.0 0.0
0.0 0.0 0.0
0.0 0.0 0.0
0.0 0.0 0.0
0.0 0.0 0.0
0.0 0.0 0.0
0.0 0.0 0.0
0.0 0.0 0.0
0.0 0.0 0.0
0.0 0.0 0.0
0.0 0.0 0.0
0.0 0.0 0.0
VECTORS f float
0.0 0.0 -0.0128413
0.00223531 -0.00293825 -0.0198334
0.00199285 0.00172331 0.00154897
0.000886689 0.00821387 0.00191712
-0.00701557 -0.00503307 0.00478813
0.00586453 0.00501974 -0.00128197
0.0 0.0 -0.0128413
0.184555 0.0997912 0.0828536
-0.040721 -0.0692064 0.0430686
0.0 0.0 -0.0128413
-0.00224104 0.00397211 0.00543156
-0.000114745 -0.0069002 0.000143237
0.0464301 -0.0816223 0.0589795
-0.0377117 -0.0326981 -0.0174983
0.0 0.0 -0.0128413
0.00974955 0.0176126 0.00594371
-0.00164879 -0.000683821 -0.00180021
0.00143692 0.000434033 0.00470141
0.00546802 -0.000894002 0.0135435
-0.00335377 -0.0120253 0.00364866
0.001203 -6.20752e-07 -0.0119153
0.00313601 0.00266145 -0.00554066
0.000484549 0.0015017 -0.013805
-0.00921099 -0.0124152 -0.0123378
0.00578687 -0.00199369 0.109572
0.0010896 0.00079021 -0.00837094
-0.0432364 -0.00653169 0.0287564
0.0293186 0.0177163 -0.00803346
-0.00142015 0.00121489 -0.00611798
-0.00996712 0.00907465 -0.00711764
0.00141532 0.000391503 -0.00136386
0.00230404 0.0234807 -0.014277
0.00207695 0.000391895 -0.00208433
0.0478968 0.00591997 0.0264735
-8.57729e-18 -1.64616e-11 -3.76556e-14
-0.000435726 0.000364697 -0.00095366
0.00330945 0.00243344 0.00569224
-0.00957757 -0.0180601 -0.0303288
0.0111203 0.0160793 0.00190469
-0.00408306 0.0151804 -0.0253048
6.19281e-18 -1.64616e-11 1.37737e-15
-0.00524954 -0.00100607 0.00257002
-0.00429929 0.00443986 0.00533904
0.0 0.0 -0.0128413
-0.00270988 -0.00243668 -0.00188312
0.0 0.0 -0.0128413
0.0 0.0 -0.0128413
0.0346456 0.0197414 -0.0517134
-0.00287357 -0.000224489 -0.00805282
0.000691795 0.000406176 0.000256319
0.000952672 0.00103592 0.00104657
-0.00690804 0.0102029 1.50707e-05
0.0 0.0 -0.0128413
0.00239986 -0.00270666 -0.00380812
-0.00653839 -0.00543342 0.00311827
-0.00413454 -0.0185427 0.0037216
0.0035607 0.00552111 0.00300968
0.000308972 -0.00228753 -0.00163829
0.0312466 -0.000101102 -0.0358272
-0.00239432 -0.000107841 0.00229624
-0.00709275 0.00288123 -0.00294412
-0.0153888 -0.0137125 0.00239507
-0.00138671 -0.00662862 -0.00604276
0.00674194 0.00461489 -0.00828182
0.0042825 -4.63478e-05 -0.0065194
0.0268384 0.0450607 0.0133239
-0.0143989 -0.0148186 -0.0152259
0.00198343 -0.000627749 -0.00557576
-0.00211486 -0.00228938 0.00704804
0.00607638 0.0181056 -0.00531402
0.0118118 0.00612896 -0.00523085
-0.00942446 0.00695853 0.0457281
-0.0052111 -0.00440176 -0.00169244
0.0077337 0.0193713 -0.000716162
0.00219081 0.00537912 -0.00153551
0.00310197 -0.0101532 0.00862576
-0.000181228 -0.00376237 -0.0128917
-0.109072 -0.00795796 -0.00930922
0.000720994 0.00188149 -0.00716995
-0.00456958 -0.00171716 0.000462921
-0.00173741 -0.00410808 -0.00235309
-0.00131814 -0.00335028 0.00197927
0.0137865 -0.0277778 -0.021205
-0.000319137 -0.00296531 -0.00497167
0.0 0.0 -0.0128413
0.0133546 5.206e-05 0.0071546
0.00294082 -0.00268789 -0.00555037
0.00687519 -0.00593281 -0.00678051
0.000507087 -0.0102392 -0.0129117
0.0414143 -0.0698513 -0.0160193
-0.0524227 -0.0117398 -0.0772707
-0.00704791 -0.00636869 -0.00607213
0.0045988 -0.00704774 -0.0165261
-0.00134372 -0.00274509 -0.00178845
0.00323441 0.00235727 0.00498887
0.0059641 0.0100563 -0.00265293
0.00119373 -0.0181293 0.0087483
0.0022484 -0.00362321 0.0724417
0.00265098 0.00483521 -0.00959575
0.00622698 0.00183709 -0.00629966
-0.021687 0.00549322 -0.0146397
0.0 0.0 -0.0128413
-0.00215097 0.0015314 0.0871181
-0.0139747 0.0197525 -0.018566
-0.0002791 0.00584437 -0.000452054
-0.000503087 -0.000429883 0.000393479
-0.00818705 0.00504483 0.008184
-0.000539128 -0.0056941 -0.0126418
-0.0134764 -0.00239311 0.000890827
0.00299624 0.000640451 -0.000633245
0.010625 -0.0204179 -0.0233066
0.119328 -0.0907388 -0.0772261
-0.00767948 0.000133012 0.000528313
-0.00294197 0.000899481 -0.0037479
-0.169537 -0.0205249 0.137545
0.000206783 0.00321639 0.000424084
-0.000790424 0.0180292 0.00249834
0.00555327 -0.000183465 -0.013092
0.00599301 -0.000484179 -0.0042936
-0.0031261 -0.0341594 0.0227554
0.0124319 -0.00449849 -0.0059108
0.0 0.0 -0.0128413
-0.0211127 0.0343402 -0.00211128
-0.0013237 -0.00275522 -0.0150855
-0.00205894 -0.00153914 -5.51493e-05
0.00197025 0.0037177 -0.0062233
-0.00465739 -0.00125962 -0.00255317
0.0 0.0 -0.0128413
-0.0145081 -0.000187356 -0.0146765
0.00621982 0.0099015 0.00757328
-0.00513371 -0.003851 -0.00892339
-0.0105526 0.00258124 0.00201154
-0.0117046 -0.000209104 -0.0188666
-0.000449496 -0.000769784 0.00498697
0.000524214 -0.000194854 -0.0051506
0.0 0.0 -0.0128413
0.0090866 0.00887934 0.00619105
0.0 0.0 -0.0128413
-0.00576832 -0.00410863 -0.000154723
0.0140169 -0.0010968 0.00905399
-0.0222452 -0.00213415 -0.0100465
0.0134748 -0.0191383 0.0205737
-0.000609603 0.000140407 -0.0122412
0.00646805 -0.0103117 0.00970544
0.00812283 0.000553554 0.0142169
-0.00242602 0.000557379 0.00343821
0.000645686 -0.00511084 0.00287058
0.0 0.0 -0.0128413
0.00273671 0.00648378 -0.00586138
-0.00609241 0.00084095 0.00294304
-0.10447 0.103714 0.0670433
-0.00123169 -0.000998787 0.00345326
0.0181801 -0.00697564 -0.00666439
0.0 0.0 -0.0128413
-2.92251e-05 -0.000639381 -4.02981e-05
-0.00929677 -0.00220532 -0.0170526
-0.00789014 8.13522e-05 -0.0018362
0.0185057 0.0320004 0.0141264
0.00721608 0.0337162 -0.00621475
0.0648216 0.0616215 -0.0111584
0.000288635 0.000178102 -0.0128364
-0.00530666 -0.0174704 -0.0100451
0.0456744 -0.0249033 -0.0327545
0.0239713 -0.022598 0.00147926
-0.0661792 0.207209 -0.126726
-0.0440493 0.0242958 -0.0331801
-0.00365155 -0.000624514 -0.00760008
0.0404408 0.0211315 0.140987
-0.000931097 0.000180523 0.00109696
-0.000157231 -0.0141172 -0.00331376
-0.0147524 0.0105776 0.0127065
-0.0140169 0.0010968 -0.0347365
0.00205101 0.00144256 -0.000486374
-0.0132379 -0.0590139 -0.0365215
0.0024182 -0.0149559 -0.00698877
-0.000418091 -0.0199592 -0.0220047
-0.00491577 -0.0886756 0.00114719
-0.0465042 -0.000175987 -0.0307262
0.0136932 0.0105758 -0.000792575
0.0323088 0.0133655 -0.0783624
-0.00144178 4.74633e-05 -0.00161705
0.0 0.0 -0.0128413
0.000327564 0.000567095 0.000256749
0.0251359 -0.0104893 -0.0208656
0.0679554 -0.0171773 -0.0565058
-0.0532289 -0.0322068 -0.0427399
-0.0126707 0.00822218 0.018686
0.00223548 -0.000183844 0.00216362
0.00441395 0.00120873 0.0085668
-0.000397674 -0.00196017 -0.00817557
0.00610559 0.000180811 -0.000361506
-0.00962883 0.000579595 0.00304906
-0.00445256 0.0127967 0.0131052
0.00591105 0.00207794 0.00104279
0.0055947 0.00103524 0.00441878
0.0 0.0 -0.0128413
-0.0738737 -0.197011 -0.033632
0.000511967 -0.000399974 0.000152423
0.0 0.0 -0.0128413
-0.0155338 -0.00204532 0.00904802
-0.00673763 -0.00041053 -0.00267968
-0.00260401 -0.00571754 -0.0128662
-0.00541671 0.00162891 0.00105085
-9.6364e-17 -1.64618e-11 5.96365e-13
0.00194683 0.00327593 -0.00808479
-0.00744659 0.00590967 0.00184559
-0.000324823 0.000488627 -0.00110642
0.00306542 0.000769552 -0.0028283
0.00897421 0.00204794 0.00268502
-0.00396661 -0.000712526 0.000689738
-0.00537633 0.000682981 0.00631037
0.196483 0.243166 0.336678
-0.0138759 -0.00104449 0.00409306
-0.00220138 -4.15586e-05 -0.0032471
0.0 0.0 -0.0128413
-0.0111953 -0.00106815 0.00516706
0.0014578 -0.00758899 0.0196071
-0.0782716 -0.245061 -0.160705
-0.000445342 0.00120166 0.00173159
-0.00244586 -0.0105152 -0.0643914
0.00167851 0.00443 -0.00597175
0.0335579 -0.0264101 0.0240276
0.00490382 -0.0227219 0.0133392
-0.00207695 -0.000370049 -0.00562903
-0.012607 0.00163967 0.0113841
0.026755 -0.000748333 0.00106055
0.000462584 3.57241e-05 -0.00356202
-0.00299166 0.000111928 0.0016813
0.00266591 -0.021295 0.0213486
0.0 0.0 -0.0128413
-0.00107416 0.00372473 -0.00106579
-0.00464214 0.00812382 -0.0188368
0.0 0.0 -0.0128413
-0.0129322 0.000559712 -0.000475349
-0.00273059 0.00298378 -0.00214032
0.0 0.0 -0.0128413
-0.0291021 0.0811628 -0.00116533
-0.0145271 0.0101904 -0.000634289
0.0 0.0 -0.0128413
-0.0208099 0.00997832 0.0172932
-0.0025599 0.000799508 -0.000513712
0.0 0.0 -0.0128413
0.00164602 0.000578749 0.00292561
0.0 0.0 -0.0128413
0.0106385 -0.00353874 0.00562435
-0.0156416 0.0267124 0.0174729
0.00669209 8.61712e-05 0.000347717
-0.0016361 -0.00648058 -0.00100181
0.0 0.0 -0.0128413
0.000509778 0.00557193 -0.00372058
-0.00209155 -0.000670304 -0.0175853
0.0 0.0 -0.0128413
0.0 0.0 -0.0128413
-0.00513505 0.00704546 -0.000286319
-0.0033687 -0.000914382 0.00380336
-0.00614371 -0.00303198 -0.0022108
-0.0124431 -0.00192271 -0.00551978
-0.00450259 -0.000673363 0.000624357
0.000589944 0.0049159 0.00420964
-0.0297849 -0.0105204 0.00450539
-0.00704737 0.00140566 -0.00383721
-0.0159098 -0.00250517 0.017812
0.000433885 0.00314534 -0.0106869
-0.00402626 0.00395084 -0.00787381
-0.00274589 0.00280245 -0.000904291
-0.00549861 -0.000255534 -0.0136185
0.0018672 -0.00501692 -0.00751811
-0.0231821 0.00728121 0.0454925
0.00272282 -0.0155595 -0.00212923
-1.63172e-05 -0.00058036 -0.00122948
0.00381318 0.00597126 -0.0265527
0.0 0.0 -0.0128413
-0.0337902 0.0116614 0.0710932
-0.00223291 -0.000318289 -0.0103279
-3.78645e-05 2.61222e-05 -6.43874e-05
0.00371586 0.00103256 -0.00860048
0.00658337 -0.00134525 -0.00529531
0.00019972 -0.00818507 0.00881343
0.0186025 -0.0231525 -0.0176403
0.00313151 -0.0155601 -0.0128426
0.00510859 0.00829462 0.0143035
0.0208354 0.0407849 -0.00762159
0.00576635 -0.00516516 -0.0131259
0.000558273 2.2555e-06 -0.0016757
0.000535001 0.00236445 7.06823e-05
0.00407995 0.00103718 0.00152377
0.0 0.0 -0.0128413
-0.00153807 0.000295583 0.018483
0.0306178 -0.0140937 0.00117675
-0.00048975 -0.000895971 -0.0128955
0.00177101 0.00145646 0.0330184
0.0085543 -0.00557714 -0.00532878
-0.00190063 -0.00197354 -0.00525877
0.00418052 0.00448314 0.0116425
-0.0329651 0.0154481 -0.0110129
0.00390565 -0.00743612 0.00764187
-0.0407628 0.0695465 0.00181082
0.000501942 -0.00596824 -0.00774251
-0.00563038 -0.00123299 -0.00824662
-0.00119212 -0.00148886 -0.000905403
-0.00382026 -0.000766331 -0.000575939
-0.00129099 1.32582e-05 -0.00968197
0.00664654 0.00256689 5.33079e-05
0.109072 0.00795796 -0.0163733
-0.0102664 0.000909252 0.0176773
-0.012966 -0.00289699 -0.0144936
0.00934146 0.00158529 0.00151089
-0.0131886 0.00204786 0.00240176
-0.000636918 4.86174e-05 -6.58525e-05
0.0 0.0 -0.0128413
0.0078332 -0.00119684 0.000273733
0.0030255 0.00559312 -0.0061028
0.0361768 -0.0703187 0.00121404
-0.00273582 -0.00516925 0.00276599
-0.00162166 0.000990061 -0.00248507
5.90897e-05 0.00729236 -0.0028991
0.00200584 0.00947702 -0.00102503
-0.000525659 0.00102722 0.0660198
0.0 0.0 -0.0128413
0.00329532 -0.000556396 0.000305905
0.00298573 0.0160579 0.0116492
0.0 0.0 -0.0128413
0.00152686 -0.00952999 0.0414848
0.000414869 0.00304495 -0.000568047
0.0 0.0 -0.0128413
-0.00360639 0.00390504 0.00215918
0.0 0.0 -0.0128413
0.0 0.0 -0.0128413
0.00282636 -0.00611718 -0.00486997
0.0 0.0 -0.0128413
0.00073339 -0.00216507 -0.000118909
-0.00739724 -0.000428245 -0.00409589
0.00339033 -0.000214218 -0.0180028
-0.000524725 0.000310576 -0.00419057
0.0 0.0 -0.0128413
-1.13341e-17 -1.64616e-11 3.68183e-13
0.018209 -0.0295605 -0.0209184
0.0132723 0.0270507 -0.0273555
0.00153873 -0.0013268 0.027794
0.0374934 -0.0108522 -0.00025067
-0.00604286 0.00792508 -0.000516829
-0.00138347 5.09141e-05 -0.000736769
-0.00139686 -0.000972938 -0.00156924
-0.00121022 -0.000444596 -0.000721629
-0.0129303 -0.00270338 0.00957159
0.00852378 -0.00326385 -0.000160275
0.00270902 0.00849448 0.000231756
0.0 0.0 -0.0128413
0.00218561 -0.00456485 -0.000365874
0.00611676 -0.00560242 -0.0121865
-0.00269251 0.00207733 0.00246394
-0.00704951 -0.0003179 -0.0116095
-0.00725697 -0.00854191 0.000104262
-0.00471233 0.000225632 -0.00172269
0.000306335 0.00049703 0.00159713
-0.0058055 0.0047176 0.00789752
-0.0122287 0.000752893 0.00119459
0.00892216 0.0032705 0.00565446
-0.00535778 -0.00887713 -0.0145837
0.00149681 -0.00220036 -0.00322069
0.0103523 0.00652351 -0.0120107
-0.00283633 0.00765682 0.00596901
0.01222 0.000569531 -0.00408351
0.00844868 0.0128293 0.00292663
-0.00182288 -0.00129888 0.000328676
-0.00199763 -0.00342867 -0.000159653
-0.000751615 -0.00203182 -0.00878121
0.0165887 0.00193179 -0.00135186
-0.00536106 0.00170242 0.0016079
0.000628998 -0.00445163 4.24758e-05
-0.00335652 0.00258979 0.00311852
-0.00390952 -0.00180771 -0.000624409
-0.00359747 0.00276158 -0.00291065
-0.00440828 0.00116283 -0.00960321
0.000805416 0.00965136 0.00206198
-0.00820548 -0.00012996 0.0141954
0.0 0.0 -0.0128413
0.00398678 0.00315421 -0.000391034
0.0 0.0 -0.0128413
0.011071 -0.00332724 -0.00368891
0.000374698 -0.00051386 -0.00012196
-0.000613683 -0.00400488 -0.000787859
0.00655537 0.00763375 0.000626492
-6.66295e-05 0.00288931 -0.00137109
0.00325274 0.00246065 -0.00224136
0.0 0.0 -0.0128413
-0.00852042 -0.00179332 -0.00512662
0.0127381 0.00637772 0.00428551
0.00256607 8.52109e-05 -0.000859321
0.0127195 0.00342193 0.00535184
0.017426 -0.000351554 0.0173439
0.0 0.0 -0.0128413
0.000390636 0.000453716 0.00120633
0.00262245 0.014351 0.00195689
0.0 0.0 -0.0128413
0.00180946 -0.00620493 -0.00426427
0.000662784 0.00483252 -0.00141703
-0.00682717 0.00296706 0.0457728
-0.000259067 0.00929724 -0.00591815
0.0262962 -0.00111295 -0.000587301
-0.00542051 -0.00023436 0.00133135
0.000264322 0.000314568 -8.62909e-05
0.00532943 -0.00137646 -0.00547028
-0.000487946 0.0029131 -0.00113174
-1.73696e-05 1.06283e-05 0.00533109
-0.0131388 -0.00703039 0.00182652
-0.000951985 -0.000605433 -0.00238535
-0.00106115 -0.000319367 0.00290447
0.00112698 -0.000184951 -0.0034024
0.00025797 -0.000114877 -0.012827
-0.00412292 -0.00180167 0.00409194
0.00873255 0.000282973 -0.00121635
0.0168401 0.00958478 -0.00574865
-0.0318294 0.000667133 -0.00132091
0.0209474 -0.00308768 -0.0208567
-0.00346982 0.000159336 -0.00830748
0.0057233 -0.0103913 -0.0123684
-0.027373 -0.00117867 0.0438991
-0.000455937 0.000254811 -0.00239507
-0.000986416 0.00232813 0.00179562
0.00146237 -0.00219719 0.00242293
0.00513698 0.00767846 -0.000671639
0.0139913 -0.0104375 0.00148682
0.0107596 0.00407089 0.0181841
0.000936934 -0.00059052 -0.00410697
-0.00218899 -0.00131105 0.0008796
0.00347506 0.0124117 -0.000556163
0.00953354 -0.0042693 -0.000384687
0.00770387 0.0238737 -0.0193417
0.0 0.0 -0.0128413
-0.00519732 -0.00180419 -0.00541362
-0.000542752 0.00105587 0.00482659
0.00469991 0.0023099 0.00762327
-0.00363801 0.00177935 -0.000372106
0.0145458 -0.00332447 -0.0123814
0.00120344 -0.000788543 -0.00111621
-0.00531418 0.00575057 0.0646224
-0.00101083 0.00863271 0.00475678
-0.00114566 -0.00512548 -0.000298699
-0.057744 -0.0236008 -0.00021277
0.000416196 -0.000470611 -0.000276332
-0.00139224 0.00206916 0.00102627
-0.0124833 -0.00527324 0.00474073
0.00563408 -0.0118339 0.017886
-0.00102793 0.00016135 -0.0193273
0.0 0.0 -0.0128413
0.00727417 -0.00509142 0.00300641
-0.00191466 0.000448971 -0.00235529
0.00181025 0.00396096 -0.00041979
-0.0013989 0.00442691 -0.000638034
-0.0021044 5.98537e-05 -0.00055961
-0.00169426 -0.00180661 -0.0115001
-0.00819391 0.00343375 0.00285229
-0.00405068 -0.00909494 -0.0118289
0.0223908 0.0119599 0.0261597
0.00815211 -0.00589676 -0.000938217
0.00337649 -0.000790011 -0.00704323
-0.00406099 -0.0090263 -0.00175459
0.00381614 0.0116767 0.00131482
0.015146 -0.00685781 -0.00286916
0.0 0.0 -0.0128413
-0.000836489 -0.00094797 -0.000411192
-0.00519128 0.00239602 0.00398057
0.0 0.0 -0.0128413
-0.0158506 -0.00622999 -0.000725495
0.00693634 0.00334391 -0.00234567
0.000453637 -0.000242114 -0.000803749
-0.00792518 -0.000800982 0.00111204
0.0 0.0 -0.0128413
0.0373097 0.00236881 -3.55313e-05
0.000555983 0.000332572 0.000115924
-0.00294082 0.00268789 -0.0201322
0.000628501 -0.000189103 0.000285413
0.0782716 0.245061 0.135023
-0.0154704 -0.00467548 -0.00460299
-0.00128823 -0.00832351 0.00559431
0.00276925 -0.00181104 0.000584369
0.0143989 0.0148186 -0.0104566
0.0011448 -0.0106337 0.0029408
-0.000749574 -7.09464e-05 0.00221723
0.00151082 -0.000483789 -0.002577
-0.000825407 -0.00413991 -0.00604673
0.00950891 0.00413907 -0.00184222
-0.00191031 -0.000187064 0.00161923
0.0 0.0 -0.0128413
-0.0016662 0.00242981 0.000649742
-0.0126567 0.000626165 -0.00240906
0.0 0.0 -0.0128413
-0.00419258 0.00438196 -0.00753013
0.00213915 0.00381023 0.00574897
0.000356477 -0.0112152 -0.00412032
-0.00216817 -0.00104123 -0.000539814
0.0168248 0.0334537 0.0283165
0.0283094 -0.00067674 0.0172419
0.0 0.0 -0.0128413
-0.0143586 0.00113326 -0.000899988
0.0 0.0 -0.0128413
-0.00085705 -0.000292373 0.00162787
-0.0117153 -7.94776e-05 -0.000431377
-0.0123204 0.000258161 0.00420114
VECTORS omega float
-20.532 -17.9132 -1.64445
-0.262746 -5.39795 -1.32858
1.10512 3.89521 -0.0745413
0.00692412 -5.9894 0.762608
-2.48662 -1.95014 0.195446
0.950408 3.78756 -0.963803
3.64453 7.25228 -4.43938
-1.18808 1.3109 2.26547
0.472716 1.34562 -0.207886
-0.494172 5.91226 -0.407463
0.3067 -2.72146 2.87218
-0.289547 0.00473262 -0.00454732
0.52402 -0.848807 1.10416
0.184263 3.31382 0.419715
3.23287 -13.8504 -0.576803
1.63467 2.22781 -1.35337
-0.41099 -3.72677 -2.57017
1.04468 -0.707258 -1.30728
-0.647104 -14.834 5.0712
-1.17444 -0.142536 0.108369
-4.54105 0.0879571 -0.240639
-1.9766 -3.0785 0.603074
-8.96977 -26.0853 3.46608
1.05553 -0.187312 0.831291
8.64763 32.231 -8.67797
-0.0947063 0.711543 -0.151921
-10.9512 2.17496 -1.6343
-1.52137 1.32764 0.487646
-0.0458186 -0.511597 -0.0996353
3.12756 3.19863 0.194242
0.0537576 -1.4191 0.177411
-1.16032 -9.29523 -3.75913
0.845148 2.47017 1.65793
-0.955714 0.487273 2.67238
-3.02397 2.83836 1.02647
0.129112 6.41016 0.709818
2.9676 -1.8657 -2.40534
-0.0501394 2.27122 -1.26721
-0.21749 4.05326 4.84439
0.784583 0.136978 -0.707288
0.371537 1.20594 0.294155
1.47788 -0.0465522 -2.45173
1.4109 -3.806 0.557053
5.4428 4.91743 3.40542
-1.68546 -5.65409 2.56734
-0.0784771 -10.0837 -1.41842
-1.58468 3.31309 3.91168
-0.55586 -0.516453 2.40184
1.31514 -0.938964 -0.461684
0.0475662 0.0748738 -0.065588
0.124825 5.04883 -1.16381
-1.30977 1.35151 0.420517
0.589411 -1.59576 0.456138
2.90719 2.48038 0.869952
1.28448 -1.48359 1.52078
-0.104856 -0.370937 0.952245
0.484227 -6.09878 -0.548008
-0.621226 0.407702 -0.449033
2.19935 -1.78606 -0.0375055
-0.0465764 0.0199187 -0.385922
-1.40468 -5.53423 -0.303692
0.0202985 0.194437 -0.547412
-1.9595 8.38486 -0.439395
-0.286978 -5.0605 2.58548
-1.30666 -4.59562 -1.62956
-0.136985 -5.10831 -0.256642
-3.10207 2.41539 0.197385
-1.43828 1.60469 -2.01854
-0.810654 0.0894002 0.179101
2.01179 1.58406 1.61469
-0.821762 -4.82948 -1.57931
-2.09593 2.09918 -1.02295
-0.0250707 0.016557 0.272626
-0.0572879 5.8941 3.44696
0.161886 -0.429673 -0.0417407
-1.77823 -16.1625 -4.12916
4.31882 0.20756 -4.29363
-7.15868 26.8496 -0.936698
0.210122 0.741701 0.048123
-0.143225 -1.38257 -0.733239
0.818559 -4.29839 -2.69062
-0.806137 0.486813 2.19104
0.352522 -0.422106 1.50718
-0.465434 0.0970065 0.400692
59.6282 -26.7295 45.1058
1.37305 -1.82472 -0.967067
-6.4238 -14.0009 1.04069
-0.822177 2.44341 1.24939
-0.957373 0.439424 1.55015
-3.59926 -2.20198 -3.16178
1.33894 -1.22668 -1.42689
-0.141642 0.692802 -0.403675
0.0867349 2.43415 -0.682475
-0.439628 0.460631 -0.0609518
-1.99614 -1.50118 -1.24391
0.91857 5.6005 0.982698
0.777479 -15.693 -8.207
6.66064 -6.36638 -9.10595
1.33787 3.87657 -0.419533
-2.15672 0.504373 3.45252
2.32526 -0.728028 -1.38601
-2.09657 -112.819 -3.07352
3.78911 -4.02053 -2.67695
1.46577 -0.206883 -1.12119
0.754456 -0.0917211 0.450193
-0.89267 -8.49489 14.583
-3.18662 4.17907 -2.16723
-0.275488 0.200261 -0.269794
5.43764 -0.0206756 4.88625
-0.147295 2.38792 -2.44778
0.16354 -1.55767 2.00439
1.27321 -0.397147 2.61509
-2.86251 -4.17285 0.939124
-0.771342 -2.38035 -2.3403
1.55554 2.16299 1.42233
0.230486 0.155423 -0.0334955
-1.15456 -1.45052 0.597546
-4.2688 3.43091 -1.04696
4.00235 14.9883 -4.33956
0.449824 4.30573 3.08454
0.931013 -1.8422 -0.43447
-3.6653 -27.1282 2.22414
0.058671 -0.347593 2.49115
0.278239 2.47737 0.287055
-0.239625 -0.00377355 0.898033
-0.93369 3.1671 1.46647
-0.182586 -1.18115 0.930411
-0.17983 2.08411 2.83816
-0.612751 6.49395 -0.020063
-1.11234 0.862706 -4.62097
-0.0422697 0.173863 -1.21955
2.72736 -7.49864 7.50925
-0.305154 0.639439 0.450447
2.67167 -2.78648 1.34138
-0.912059 0.697907 -0.111963
-2.86434 -1.01764 -5.19151
-3.32116 -3.80739 2.76453
6.2168 2.92454 6.89487
0.632934 -0.231166 -0.443011
3.70437 5.39376 -0.743934
-0.152303 2.79909 3.04158
-1.98657 2.93651 1.04154
4.4776 -2.74549 0.154201
-0.376001 -6.26107 7.07753
0.966513 -0.666103 0.413702
-0.396015 0.274852 0.408153
2.25145 4.99385 2.23753
0.60825 -1.94112 -1.02196
0.118698 -0.58139 0.65057
-3.92721 -2.27782 -4.49131
-8.17687 -5.23148 7.97736
0.313742 0.596883 -0.717749
-0.504033 -4.86704 -0.417613
29.0588 21.3453 0.739176
-7.23843 2.36049 0.0946012
0.507419 -1.89755 0.881043
-0.0810057 -1.40614 -0.26532
-0.121825 -4.32681 -0.862887
0.816125 -5.05808 -6.58761
-4.11192 -1.72284 0.495268
1.97071 -5.72343 -1.23712
4.28793 0.786358 -1.26017
-0.961843 2.64083 2.06207
-2.94996 -2.32894 1.48021
-0.423528 0.599256 -1.33181
0.133814 0.932437 -1.8776
1.54634 -0.0122807 1.55914
-1.94084 4.65926 5.65383
-0.0188796 0.618687 -0.412945
1.41439 -4.17607 -1.69928
-3.41541 6.40991 -5.40065
0.00472585 -8.9818 2.73642
-0.98579 0.870245 -2.87568
0.101819 0.104035 0.742997
0.526677 0.368067 0.656337
0.301043 -0.715909 0.665953
-0.0450647 -1.92531 -3.40307
-1.18397 -1.0896 -0.656643
0.817197 -4.53178 -2.12457
4.3388 -2.19634 0.438466
-0.297233 -2.96529 1.00344
1.2152 0.276264 1.73278
-0.140308 -7.50818 3.66948
-0.636613 4.81271 -1.14628
-0.0382451 -6.44102 -1.7658
-0.623995 0.304292 -1.01619
-0.707432 2.33206 3.19575
-1.04545 -3.0104 -0.832628
-0.242135 -13.5956 -7.19784
-0.911476 -2.87145 0.47283
0.937725 4.4229 5.60641
-1.431 -4.90172 2.45564
-2.17261 -0.491525 -3.74861
0.529732 2.21227 0.766362
0.18259 4.11105 2.47685
-8.18552 -7.78929 8.94802
2.34539 -0.916129 -1.72272
-0.873946 0.424007 -5.85185
-12.2675 86.0769 -8.4973
-2.65089 5.68047 0.642379
-1.60995 -0.651294 1.69101
-0.0407277 0.230614 -0.231704
1.3047 -4.50487 0.279911
-1.7577 1.23771 7.75107
-1.57875 -1.16879 -0.677014
-0.387137 0.991442 -0.241495
0.00986501 -19.1542 13.4128
1.52002 5.72628 0.300694
1.27443 -0.0813843 3.29665
0.202945 -4.96437 -1.97117
0.0776471 3.44077 -1.55633
3.29679 3.04557 -8.02092
-0.970442 1.43002 -2.27974
0.370949 -1.4317 0.24216
-2.41364 -0.0684018 5.73746
-1.40963 -3.39888 -4.36864
1.59477 -9.07598 4.64938
-3.81136 -12.5668 13.3618
0.174645 2.22742 -1.39451
0.476018 -11.9399 3.1545
-0.530706 10.4197 1.4535
-0.535739 0.0311298 0.570045
0.878716 -5.6977 -3.71239
-0.0414305 -0.850189 0.784915
1.39659 -2.6996 -7.44302
0.483924 -0.664039 -0.39994
1.13945 -5.36384 -1.99404
0.0301868 6.3697 0.260807
0.66068 -4.42209 3.77252
1.01939 -6.62494 -3.06446
0.0146189 0.362197 0.253013
3.02436 0.767942 -2.90648
3.47871 -32.6821 7.6247
1.07406 -11.5109 1.27677
0.906665 3.95174 -0.373321
28.1198 22.8405 34.3115
1.74004 0.773854 3.62763
-0.999635 -0.388282 0.636257
0.488334 -3.71601 -2.77042
-3.18167 0.568539 -0.435373
1.15065 -3.42989 0.138518
-0.0380128 -1.21994 4.3457
-0.502398 -3.96691 1.29374
2.27673 -0.531665 -2.67377
-2.61715 8.01099 -0.0889067
-0.574166 6.6531 -2.14526
0.0397245 -8.17963 4.3109
0.921863 6.80668 -2.1694
-38.5148 -25.427 -17.4398
0.14549 3.42061 0.8622
-0.740685 -7.6786 -4.98501
6.38797 2.22567 -1.05642
8.35096 -7.27104 -0.507329
0.92022 1.40029 1.0606
-1.38478 -1.03158 3.49324
1.02086 -4.5081 0.783129
1.22953 -0.404303 0.393477
0.0802027 5.31345 -2.384
2.82497 2.87759 -2.83025
-1.64511 -1.24278 -0.73027
-0.782152 3.87776 -1.62971
-0.0697781 -11.664 -0.86137
1.30435 2.26594 -2.40226
-0.55115 -3.32614 -0.473923
0.205768 3.62867 0.931592
-0.0844906 -10.5285 -0.949272
-4.16802 -1.93324 5.70643
-0.699913 -6.39985 -3.7431
1.3967 -10.6892 -0.101157
-2.68289 -15.3398 -4.16421
1.73998 -10.8497 -3.3239
37.4579 -27.6578 10.1956
1.00254 -10.2845 4.79892
-3.29697 0.750344 -0.467814
1.74682 -3.66181 1.21249
1.80494 5.14963 -1.60573
0.098389 -3.36028 -2.18237
0.573876 5.81164 7.04219
-0.788793 2.54909 5.32229
-0.774741 -4.78723 0.299846
1.15178 -10.737 1.75241
1.23104 3.90058 -4.19692
-0.373246 7.916 0.0926311
-0.604914 5.06475 -0.871248
0.370401 3.5834 1.85006
0.338414 5.32913 4.23658
9.59007 -1.95576 -1.6897
0.30438 4.1392 0.614629
0.310021 5.19846 -1.922
-2.86041 -6.73869 2.83646
-1.09742 -14.5844 14.0864
0.180287 1.47526 -5.91225
-1.6638 -2.74677 0.540653
0.933642 -1.25118 5.40134
0.285984 7.05387 -0.322132
0.0572547 -0.0861258 -0.950255
1.86024 6.62071 2.84427
0.547596 -0.04325 0.985017
-0.833596 -4.10968 0.126987
-0.091977 0.28552 -1.64248
0.116424 5.53175 -0.269711
1.80102 -3.7454 0.204909
0.0171502 0.262306 0.164098
0.475036 9.22215 -0.587731
-6.17058 9.24198 -7.80161
-0.342532 -10.4036 -0.741846
-0.1326 0.088991 0.31288
1.46315 0.447096 -2.54163
-0.584308 5.7298 -4.04762
-0.887616 6.82877 -3.10645
-0.300593 0.103269 0.0260854
-1.56704 -5.1309 0.64386
-2.36599 0.534712 -0.848036
1.05494 1.07373 -6.20948
0.185372 -1.76699 -2.2462
-0.0528156 0.305953 -0.753593
1.55813 5.15222 0.332307
0.828845 -9.96263 -0.76087
-1.79967 0.70797 1.82482
-0.0478777 -0.213796 -2.17524
-0.213025 5.39919 -5.04043
-9.73985 -2.18655 0.322587
-0.391435 2.1605 3.56021
0.351089 -3.4102 0.745456
-0.528382 -1.13216 -2.7276
1.00653 4.68696 -1.44267
-41.8111 -34.8439 37.3794
0.789982 -5.45203 -13.2867
-0.269014 6.02253 0.242307
-4.37826 -4.73942 -4.14398
0.0577155 -3.78029 1.15337
0.261884 3.73668 0.333075
4.24635 9.34118 2.01407
-0.237644 3.40344 -1.19897
46.1413 -15.2294 5.53823
0.379942 0.125943 -1.63282
0.182464 5.59329 -0.97481
1.7415 3.59688 3.62201
8.08897 -3.47687 -0.622246
1.07494 -0.401947 1.89328
0.640639 -3.78641 -3.45021
-0.0938502 4.15987 -0.442981
-0.0529337 4.72139 1.90027
0.181055 4.37516 0.722764
-0.0636728 2.27739 3.63042
-0.155171 -0.16466 0.492405
0.137543 -3.09663 -0.318461
-3.3747 17.834 1.01482
-1.62624 3.66645 -1.54191
-0.0885958 -1.49059 -3.53291
-8.24613 -26.2338 -8.63073
0.920147 0.268505 0.772628
0.158892 -5.97286 -1.06703
-0.302656 0.915065 1.43345
0.166259 -18.319 -11.2655
-0.973077 -5.12977 0.413558
0.101831 0.740103 0.403044
1.71043 -2.51501 -1.1156
-12.1174 15.4314 3.09188
9.11052 6.5222 -12.3027
8.14755 -3.88687 -6.32278
-2.47872 -1.83156 0.335595
-1.96295 -2.48545 6.08474
0.836489 -0.370867 -0.258114
-1.09031 -1.2678 0.915758
0.668337 5.19276 -0.469085
2.44274 -5.82754 -1.08065
-0.162745 0.503645 -0.546193
0.376033 4.77373 -0.385515
0.355612 5.08817 -1.03189
-3.52213 -18.8166 0.350666
-0.294888 1.05759 -0.137821
-0.997292 5.77138 -10.0458
-0.252428 -3.89298 -1.0658
-0.759307 -7.37442 -3.44198
-0.0193771 -4.39455 0.839429
16.1807 -31.0239 0.81574
-1.24481 -5.72051 0.166229
-46.5109 -17.9662 16.2902
-0.864214 -2.93381 0.459103
-3.24242 -8.87061 18.1544
0.0993674 -3.0874 -0.191499
0.206457 0.64201 0.579974
0.53997 6.07866 1.30229
-0.847618 4.50428 -1.53294
2.94877 -4.21584 -2.41103
-6.39102 -9.27581 -0.988232
-1.8815 -4.39092 -1.20882
0.20033 0.327467 -2.9675
-0.241305 -0.512966 0.362937
1.23747 -0.999584 0.0270455
-4.17447 -0.156752 -4.92768
1.31196 4.98317 -3.89524
0.535335 0.137339 1.06765
6.78846 1.31756 -12.2943
0.0856381 5.40189 -1.17674
1.55097 5.33742 -1.16004
1.42561 -7.87359 0.265641
-0.357555 2.80758 0.226308
-0.2698 -1.22063 0.134887
-0.248891 2.02843 2.25447
0.604357 6.32233 1.51003
0.880801 0.366998 0.150238
1.36838 -0.981454 -2.52503
-0.465651 4.35387 3.245
0.620065 0.477965 6.31721
0.24963 -1.37975 3.18002
0.887787 5.65513 0.191187
1.66534 -7.74452 1.03642
3.83485 0.621909 -3.74372
0.323009 0.646788 -1.36791
-0.499368 -12.1291 -3.75104
0.167028 -1.22343 2.30185
-0.439785 1.11258 0.0820706
0.692383 5.52921 4.86872
-1.2628 4.02591 2.82896
0.164172 0.0737095 0.172143
-2.36724 -5.38763 0.0437706
6.10081 3.25782 -2.7832
0.518498 4.68573 -3.00159
-0.089218 3.68668 -0.856201
-1.0851 -4.37274 2.96708
-0.36442 0.244773 -0.261696
3.82059 5.13577 -0.80823
-2.95247 -21.0996 7.76859
0.57328 -0.399237 0.92567
0.856617 0.747268 -2.2175
1.18299 -0.48893 -0.72839
0.204125 1.53464 -1.59095
3.69336 8.93513 -26.5076
6.87488 -7.02793 -4.96654
-0.280177 -1.67892 -0.940521
-0.899754 -5.34424 1.45514
0.828065 -0.459464 -1.05586
0.60679 -0.988361 2.69317
1.29388 1.7247 -1.87896
-1.26748 -0.255155 -7.03213
-0.523289 8.30537 3.88567
2.14502 1.76125 -0.324486
-0.534792 -0.897858 2.18672
-0.437328 -7.23178 8.56214
0.836626 1.96703 -2.6411
-0.703675 -4.92508 -2.83096
-0.629156 1.33873 -0.220706
0.53201 -6.50896 -2.38337
2.61811 -2.3716 0.78919
0.0962777 -0.310499 0.27852
-1.37131 -2.05918 2.99781
-0.295108 -3.72261 0.135856
-1.64178 1.87574 -0.0677352
0.0980142 3.83133 2.49162
-1.13512 -1.14627 0.226135
-1.44974 -0.591536 2.97757
-8.65067 -2.60649 -1.44657
2.33918 -0.707994 -2.14617
0.319141 -0.338271 0.040295
5.90924 15.3317 -0.1319
-0.183727 -0.622956 -0.791787
-0.146028 -0.00136292 -0.199365
-0.688664 0.641511 4.76668
4.57916 -11.1197 21.699
-0.142826 -2.89477 0.0295455
0.259338 3.0299 0.181694
-3.5677 2.3634 3.36031
-0.758904 1.1908 -1.21356
-0.672207 -1.30135 0.420023
0.424564 -0.0980823 0.0171782
2.5031 0.66322 -3.92532
29.2082 31.2052 5.2155
-0.810026 -1.16139 2.35692
6.5279 -10.8593 6.65141
10.0193 10.1119 1.49349
3.23594 4.06997 -12.4789
5.03257 15.4641 -2.19499
0.0470788 0.0873654 1.19273
-1.40684 5.83214 2.02652
-0.271408 0.217085 -0.904245
6.48351 0.99751 1.212
2.28667 -4.85581 10.8704
3.83683 -14.8963 10.4909
0.681684 -4.09727 -1.19611
-0.971418 3.95977 -3.68549
-0.235614 1.07132 0.426475
0.854168 8.73566 0.583301
-7.00162 -16.1283 5.26923
0.000508297 1.29331 0.207627
1.80701 2.96728 0.0543116
2.52366 -13.1646 -1.97515
1.72303 3.788 -0.526077
0.0526073 -0.0315743 0.279203
-0.0620201 -0.204602 0.398195
-0.0342586 3.38623 4.18419
0.698241 -7.4702 6.65138
-0.323092 4.0118 -7.99452
10.0205 8.62017 4.97783
-0.848428 0.0228516 1.2147
-12.5416 1.73389 5.65974
-0.187076 -0.978475 4.24286
-9.46266 -1.3496 0.152994
-0.346933 1.11953 -2.39244
VECTORS v float
-0.0363707 0.0584977 0.117892
0.0224858 -0.0115781 -0.00298292
0.0277915 -0.000501813 0.000633793
0.0304513 -0.00297394 0.00918426
-0.0133597 0.00191941 -0.0152293
0.0307816 -0.00507435 0.00503822
0.112456 -0.0727206 0.0752384
-0.0681667 -0.123329 -0.000866012
0.0031366 -0.0366465 0.0228701
0.0510265 -0.00234372 -0.00412028
-0.0268812 -0.000749399 -0.00390105
-3.05069e-05 0.00451715 -0.000366652
0.00994728 -0.00666757 -0.0373934
-0.0119988 -0.0179926 -0.00884343
0.0532519 0.0253599 0.117197
0.0359318 -0.00674247 0.00071792
0.0249832 -0.0010191 -0.000489325
0.0280924 0.0130545 -0.000209148
-0.0741227 0.00315789 -0.00579641
-0.00628343 -0.00592919 0.00102956
0.0190327 0.00930474 -0.020192
0.0406856 -0.00196731 0.0152465
-0.047258 0.0105726 -0.0300554
0.0159603 0.00210639 -0.0248551
-0.0212427 0.0195873 -0.0575116
0.00107536 -0.00231502 -0.00126158
-0.0332105 -0.00820555 -0.0614262
-0.0221109 -0.0218845 -0.000529372
-0.00775563 -0.0016454 -0.00923197
0.0365363 -0.00419595 0.00808163
0.0259004 0.00598723 -0.0119308
-0.0487284 -0.0325434 -0.00240731
0.0241815 0.000465129 -4.57681e-05
-0.0139349 0.00333493 -0.00975361
0.0141892 0.015117 2.69724e-11
0.0325922 -0.00280974 -0.000825894
0.00373605 0.00120901 -0.0271746
0.00501787 -0.00409346 -0.00979849
0.0268326 -0.00439812 0.00241036
-0.0030726 0.000531104 0.000384931
0.00602859 -0.00185734 -3.26771e-12
0.00395542 -0.0105302 -0.000453385
0.0314344 0.0211517 -0.0102616
0.0405034 -0.00089509 -0.0118509
0.0328703 -0.00700201 0.000158334
-0.0720817 -0.00878692 -0.0931837
0.0393951 -0.000668397 -0.00820464
0.0320663 0.00223203 -0.0150358
-0.00289273 -0.00221389 -0.00455259
0.000380014 -8.7145e-06 0.000212816
0.0268654 0.000691444 9.70843e-05
0.0126005 0.011247 0.000400551
-0.000808452 -0.00262924 0.0138733
0.031839 0.00569622 0.00236416
0.0157502 0.00163149 0.0103629
-0.000148462 -0.000782701 -0.00108907
0.0169194 0.00740865 -0.00538124
0.00234539 0.00288449 0.00353537
0.0110183 0.0140314 0.0526379
0.00183909 0.00505882 -0.00105525
0.0394702 -0.00904609 0.00155468
0.00267777 -0.00270433 -0.000998178
0.00685912 -0.034132 -0.00140401
0.0109091 -0.00715447 0.00602695
0.0291324 0.000649908 -0.0339326
-0.0385615 0.00230305 -0.012022
-0.0310021 0.00329075 -0.0373235
0.00852256 0.0203662 0.0158892
-0.0186999 0.00496919 0.00594722
0.0315714 -0.011142 0.00207762
-0.00876243 -0.00125615 -0.00400374
0.00602987 0.0155959 -0.00168813
-1.98885e-05 0.00459188 0.000229863
0.0520378 0.00542275 -0.00216667
0.00156031 0.00284268 -0.00181384
-0.0818646 -0.00345587 0.00789621
0.00991094 -0.00352316 -0.0131139
0.0436193 -0.000119686 0.197339
0.00225356 0.00222312 0.00214918
-0.00937995 -0.00173979 0.00426516
-0.00334581 -0.00579243 0.0153618
0.021063 -0.00353962 -0.000677113
0.00274368 0.00111389 0.00544485
0.000563873 0.00154733 -0.000682454
-0.522013 0.584185 0.258463
-0.000586999 -0.0185894 0.00427633
-0.120867 0.0264084 -0.0441721
0.0357479 -0.00392701 0.00946772
0.000287252 -0.000637183 0.00547984
-0.0419934 -0.0294681 0.00374313
-0.042366 0.000747095 -0.0195166
0.00350825 0.000321145 0.000455836
0.0203377 0.0075087 -0.00714697
0.00213023 0.00137603 -0.000920747
0.0344508 -0.014231 -0.00906954
0.0325191 -0.0048968 0.00754972
-0.0826982 0.00381209 0.00352393
-0.0723871 0.032119 -0.0418205
0.00886006 -0.00442749 0.00237182
0.0102661 -0.0105747 0.0151033
-0.0117537 -0.018971 -0.00176745
-0.357638 0.00839513 0.631086
-0.002027 -0.0620947 -0.00944833
-0.00587624 -0.00757726 0.00625301
-0.000681105 -0.00410324 -0.001091
0.0597259 0.0917856 -0.00165963
0.0105414 -0.00253826 -0.0182938
-0.001014 0.0114121 0.0063332
-0.000814171 0.0166127 -0.013336
0.0122832 0.00128176 8.53141e-07
0.0236412 -0.00159739 -0.00667336
0.0217098 -0.0552757 -0.0172195
-0.146269 0.000193831 -0.055424
0.0100678 0.00578052 -0.0202736
0.0838971 -0.0131092 -0.0135772
0.000217705 0.00061308 0.00107776
0.00714858 0.00041594 -0.00302084
0.0498305 0.0374198 0.00603326
-0.0730325 -0.00441278 -0.00787631
0.0406633 0.00909809 0.00462264
-0.00414712 -0.00316684 -0.00025145
-0.116092 0.0415153 -0.045045
-0.0219314 -0.0161555 -0.0118488
0.00650865 -0.000909358 -0.0112556
-0.00393001 0.00295382 0.00388537
-0.081585 0.00618503 -0.0123555
0.0214481 0.00474755 0.000493001
-0.0393496 -0.000987228 -0.0384576
0.0504513 0.00405597 -0.00170968
0.0262155 0.0141072 0.00748794
-0.00329214 -0.00271339 0.00111096
-0.0673365 -0.0322169 -0.00382921
0.000497467 0.00155427 0.00518071
-0.00347487 0.00454805 -0.000673433
0.0452338 0.00139096 0.00495616
-0.034538 0.0364475 -0.0389343
0.0265596 0.00141085 0.00485905
-0.0336287 0.0308316 -0.0426609
-0.000523812 0.00175463 -0.00209818
-0.0596991 0.0101519 -0.00836814
0.0112917 0.0384651 0.00566325
0.00947065 -0.0101432 -0.0359408
-0.00840488 -0.0154118 -0.0099371
-0.0514474 -0.00147469 0.00305907
0.00655265 2.81819e-05 -0.00260216
0.000858682 0.00535707 0.000763721
0.0324984 -0.00302691 -0.00142928
0.0488188 -0.0242776 0.0131047
-0.0176884 -0.00192301 0.00274583
-0.0140229 0.0198405 0.00750718
-0.0346645 -0.113332 -0.0923193
0.0112965 -0.0109321 0.00111672
0.0170728 -0.00756609 -0.0103669
0.0686585 0.255454 0.223567
0.011949 0.0394393 1.43225e-05
0.032522 -0.00387532 0.00844908
0.0229574 -0.00381292 0.00584084
0.0140652 0.0203536 -0.00699011
-0.0620587 -0.0115906 -0.00219499
0.0628933 0.00275455 0.0173357
-0.0312964 0.0122356 0.0166483
0.0289833 -0.00970663 -0.00110748
0.0383615 0.0110974 -0.00664858
-0.0123788 0.0161834 -0.00091185
-0.016097 0.0653237 -0.0536762
-0.0383012 -0.0127753 -0.0334797
0.00281383 0.0283069 0.0171228
0.00120522 0.0297512 -0.0363451
0.00316318 -1.61351e-05 -0.000373852
0.0281379 -0.0119829 0.010307
-0.0746931 -0.00800416 0.00321929
-0.0779346 -0.0336336 -0.00162701
0.0213338 0.00234415 -7.22838e-05
0.00574356 -0.00676513 -0.00785607
0.00683092 -0.00664664 -0.00540216
0.00065097 0.00408192 0.00355381
-0.0186637 0.00688784 2.93672e-06
-0.00172527 0.00119582 -0.00573485
0.0402617 0.00659261 0.00595613
0.108877 0.0384127 -0.0548916
0.0334632 -0.00569952 -0.000497924
0.038351 0.00409466 0.00646903
-0.080691 -0.0740144 -0.000107598
0.0242258 0.00537873 -0.00816255
0.0481231 -0.00128854 -0.0537395
-0.00955862 -0.00608664 -0.00572486
0.0205693 0.00559653 -0.0112706
0.0242188 0.00814949 -0.000741228
-0.0774779 -0.00276194 0.00135651
-0.00436394 0.0057705 0.00578824
-0.0503852 0.00930708 -0.0299103
0.0351491 0.000537605 0.00696785
-0.0650684 0.0179065 -0.0239767
0.00829529 0.00477114 -0.00305544
0.0218119 -0.000410697 -0.000750426
-0.0392421 0.0411042 -0.0212125
-0.0482652 -0.0998851 -0.0202871
-0.00271266 0.00814415 -3.71615e-05
-0.315104 -0.098449 -0.041918
0.022153 0.0128767 -0.0042118
0.0320493 -0.040616 0.00883179
0.00121874 0.00438662 -0.00361098
0.0314112 -0.0013528 0.00113001
0.00618739 0.0087869 1.58266e-11
-0.019299 0.0340494 -0.00772226
0.00889097 0.0124214 0.00662527
-0.085365 -0.0156789 -0.000155748
0.028818 -0.00760335 -0.000437876
0.00524342 -0.00538839 0.0115205
0.030065 0.00306203 0.00279605
0.0264867 0.000584692 0.00189797
-0.0381069 0.062908 -0.167606
0.000784308 0.00717012 -0.010665
0.0230931 0.00370141 0.000224874
0.123255 0.0163777 -0.00445569
0.0153622 -0.0069297 -0.00112877
-0.0337882 -0.0632432 0.000419081
-0.128325 0.00529436 0.0179356
0.0290548 0.000223377 0.000173662
-0.0616885 -0.00346544 0.00665132
-0.0441617 -0.00579087 -0.00378279
0.0292585 -0.00422726 0.0151845
0.0338514 0.00675441 -0.0269048
-0.0101716 -0.00155089 0.00201391
0.0123189 -0.087944 -0.0138393
0.00973524 -0.00361805 -0.000926932
-0.0553266 -0.00789832 -0.000678438
0.0313221 -6.31465e-05 -0.000475988
-0.00656999 0.0319812 -0.00882625
-0.00286697 -0.0169196 -0.0536717
-0.00572215 -0.00126067 0.000270057
0.0356758 -0.00525759 0.00600815
-0.023573 0.0534782 -0.140545
-0.0735387 -0.000207721 0.00167588
0.0298923 -0.0125977 0.00258426
-0.0140382 -0.178537 0.0626782
-0.00146703 -0.0108114 -0.000245706
0.0169468 0.00236433 -0.00015181
0.0334791 -0.0050865 -0.00484293
0.034918 -0.0162274 0.00192934
0.0227942 -0.00333595 -0.00504611
0.00857465 -0.0171328 -0.00367814
0.0297834 -0.00549857 -0.0026042
0.0260953 -0.00926754 -0.00933321
-0.0718067 -0.0509317 -0.000466053
0.0413126 -0.00920213 -0.00177079
0.0599643 -0.00513475 -0.0275539
0.0314818 -0.00795642 0.000970509
-0.41368 0.00212005 -0.0211379
0.0292966 -0.00266487 0.00457242
0.0556894 0.0153185 -0.0192802
-0.0479663 -0.104871 -0.0207512
-0.0536065 -0.0618508 0.0413181
0.0263369 -0.0226025 -0.00506261
0.0190079 0.00930674 -0.000491744
0.000848709 0.0244475 0.00349438
0.0397308 0.00105193 0.00433297
0.0262902 -0.000165843 -0.000868105
0.0246063 -0.00224897 -0.000179307
-0.0325359 -0.000444651 -0.00145858
0.0243992 0.00184094 -0.00163035
-0.062266 0.000953538 -0.00672016
0.0337023 0.00488897 0.010782
0.0403261 -0.0108031 0.0160934
0.0185719 -0.000843944 0.00133504
-0.0623582 0.00418036 -0.000138108
-0.108052 -0.0388008 -0.0340792
0.0779062 -0.00107239 0.00487328
-0.052014 -0.0147766 -0.00259089
-0.075844 0.0433888 -0.000660295
-0.0444751 -0.00265725 0.00139689
0.0217493 -0.0421785 -0.0363206
-0.0703707 -0.00432731 0.00932914
0.00617162 -0.0160194 0.0113653
-0.0182974 -0.00873822 3.64981e-05
0.0328985 -0.00980004 0.00311708
0.0180249 0.0117887 -0.0093248
-0.0759119 -0.000637803 0.0118019
-0.0533289 -0.00676743 0.0127622
0.0229801 0.00270173 0.00305604
-0.0631125 -0.012333 -0.00160264
-0.07262 0.00170579 0.0185845
0.0424567 0.00106139 0.00210844
0.00376553 0.00293699 0.00019082
0.0203796 0.0028082 0.00114992
0.0289574 -0.00108901 0.00163231
-0.118974 0.238845 -0.0252442
0.0405042 -0.00532956 -0.0059028
0.0336747 -0.00402161 0.000450977
0.0360384 0.0147007 -0.00138607
-0.127614 -0.039533 -0.000600617
0.0128434 -0.000417559 -0.000162707
0.0393453 -0.00225253 0.0146228
0.0611772 0.0242713 -0.00306849
0.0334596 -0.00131283 0.0037364
0.00823129 -0.0139207 0.0002268
-0.00118743 0.0164122 0.000266759
-0.00773726 0.00222075 -0.00130897
0.0268926 -0.0109672 0.0111691
-0.00958203 0.00232084 0.000220191
0.0273989 -0.00101472 0.000773386
0.0189083 -0.00613047 -0.0175178
0.00764313 0.00259148 -0.000166778
0.127654 0.00723804 0.0113217
-0.0708043 -0.00537011 -0.000907328
-0.0621526 0.0225215 0.00131959
0.0065955 0.00463985 -0.000115083
0.0379505 -0.000184883 0.00986864
0.068176 -9.65525e-05 -0.000732778
-0.069507 0.0755992 -0.132986
0.0026171 0.00276546 -6.36832e-05
0.0408638 -0.00699249 0.00251936
-0.0284667 -0.0176313 -0.000154493
0.0237113 -0.00457819 -0.00106794
0.0217763 -0.00441046 -0.00241094
0.0189555 -0.00162987 0.000565005
0.0276346 -0.0012749 0.0011618
-0.064686 0.0402789 -0.0024083
-0.0691903 -0.0595864 -0.035227
-0.000851795 0.00017771 4.11997e-05
0.0537586 -0.00417752 -0.00862264
0.0201596 0.0900762 -0.23039
0.0464065 -0.00575786 -0.0141427
0.0270866 -0.00614435 0.00656695
0.057459 0.000127575 0.028664
0.0238813 -0.0108062 0.00257845
-0.651502 -0.506156 0.227455
-0.0998973 0.0158435 0.0217359
0.0318081 1.38992e-05 -0.000418827
-0.0682842 -0.0171126 0.0103105
0.0239456 -0.00112333 -1.43239e-05
0.0455879 0.00162666 0.0113789
0.0310141 0.0102655 -0.0137375
0.043284 0.00338252 0.00149298
0.0275734 -0.0553734 0.164044
0.000629597 -0.00189936 -3.59092e-12
0.0316167 -0.00491981 0.00214805
0.00408304 0.00771735 -0.0143897
-0.0566427 -0.00656648 -0.00708606
-0.00408826 0.0235651 0.000439003
0.0242434 -0.0027844 -0.0037984
0.0204881 -0.000427923 -0.000234805
0.0249316 0.000353963 -8.10249e-06
0.0260886 -0.00114793 0.000229741
0.00955146 0.0012635 -0.00103591
0.000599052 0.00127277 -0.000105645
0.000912952 0.00277067 0.00069025
0.0454445 0.0167868 -4.21465
0.0316398 0.00160439 0.00372608
-0.0149753 0.00106704 -0.00573388
0.00917441 -0.00851085 0.000102214
0.0123939 -0.00200396 -0.00258828
0.0295836 0.00350561 -0.00406009
0.0251328 0.000171874 -6.40295e-05
-0.0915036 -0.00070749 -0.00077284
0.0348684 -0.0014643 -0.000772106
0.0109004 0.000309997 -0.000903283
0.0344667 -0.00124123 0.0104671
-0.0354737 -0.00554924 -0.156231
0.0645848 -0.085322 -0.0354961
-0.0264806 0.00462499 -0.0186893
0.0332748 0.00919216 -0.00815618
-0.00440097 0.00923529 0.00103094
-0.00389003 0.00889427 -0.00219709
0.024572 0.000641966 -0.000402988
0.0293848 -0.00542055 -0.00105324
-0.0207716 -0.0333027 -0.0128857
0.00386291 0.00152298 -0.001238
0.0455141 -0.00125802 0.0176716
0.0326123 -0.013468 0.00169066
0.035495 0.000856022 0.00730651
0.0141383 0.00529377 0.00249471
-0.0370326 -0.00339615 -0.0655169
0.0403908 -0.000346474 0.00857688
-0.0949404 0.0210583 0.000479055
0.0392016 0.00475454 -0.00773409
-0.256569 -0.151331 -0.213868
0.0264087 -0.0075265 0.000363628
-0.0646181 0.0535698 -0.0218814
0.0343013 -0.00792209 0.00148291
-0.0586541 0.0358326 -0.000125467
0.0245786 0.00355669 0.00648931
0.0110473 0.00324421 -0.00114187
0.0335586 -0.00275976 -0.00171415
0.0355314 -0.000717487 0.00919868
-0.00124639 -0.0248498 -0.0573433
0.0205563 0.0458337 0.0263185
0.027642 0.00225603 0.0067906
0.0367005 -0.0203674 0.00223163
-0.00678551 -0.000448058 0.000137642
-0.00692222 -0.00168042 -0.00106549
-0.0107402 0.00550852 -0.0108506
0.0340924 -0.000428028 0.00790608
-7.22139e-05 0.0139713 -0.000560774
-0.0110808 0.0173941 0.00860357
0.04228 -0.0018356 0.00638241
0.0324219 -0.00895992 -0.00023426
-0.078472 -0.00111318 0.00451736
0.00282304 -0.00406955 0.0305629
-0.00595919 0.001373 0.000194395
0.0208854 -0.000504471 -0.000108766
0.0316616 -0.00304325 0.000948921
0.0369237 0.000985635 0.0175079
0.0239675 -0.000936964 -0.00201929
0.0216884 0.00237455 -0.000195174
0.00361685 -0.00679662 0.000201914
0.0219045 -0.00230505 -0.000202925
0.0323965 -0.00182082 -0.00277976
0.00983485 -0.00254784 -0.00499193
-0.0108691 0.000814886 -0.00532798
0.0237555 -0.00122266 -0.000949599
-0.0849401 -0.0681733 -0.123701
-0.0129375 0.00995406 0.00437212
0.000710409 -0.000454958 0.000397568
0.0580557 0.00636214 -0.00829331
0.0485434 -0.00501416 0.0121533
0.00311314 -0.00336592 -0.00311381
-0.157871 3.50396e-06 -0.0360605
0.0365358 -0.0418161 0.000423505
0.0300514 -0.000521097 0.00312206
0.0230202 -0.0003607 0.000464046
-0.0338015 0.0418254 -0.000449058
0.00417335 -0.00932381 9.6851e-05
-0.0814193 -0.0205007 0.00660506
0.113639 0.0180814 -0.0188051
0.0272711 -0.00151193 -0.000101721
0.00812143 0.00186745 0.000481528
-0.00819578 -0.00722901 0.000776702
0.00394925 -0.00386723 -0.00797324
-0.0759033 -0.0260389 0.0139493
-0.015523 -0.0171129 -0.0158742
0.0220456 0.00228661 0.000662694
0.0384524 -0.0102617 -0.00376748
0.0263078 -0.00169809 -0.000171319
0.01626 -0.0174694 -0.00372703
0.0241428 -0.000917349 -0.000787042
0.00608317 0.0384834 0.00215284
-0.112208 0.0105598 -0.0153987
0.011062 -0.0174139 0.00284863
-0.00416198 0.00413452 -0.000841273
-0.0418254 0.00860083 -0.000236084
0.0163385 0.00622371 -0.00113748
0.020693 -0.0140862 0.00427382
-0.00136292 0.0124204 -0.00111558
0.0556493 0.000894934 -0.00964323
0.00413599 -0.0316557 -0.0694513
0.0160699 0.00718291 -0.00216477
0.0266735 -0.00107429 0.0012737
0.0335361 -0.00951965 0.000539893
0.0231269 -0.0025028 -0.000623061
0.0242635 -0.00122983 -0.000469413
0.0131927 -0.00407048 -0.00640895
0.0421867 -0.0246106 0.00811011
-0.0825963 -0.00388753 0.019719
0.0322036 -0.0415082 -0.0175754
-0.000719388 0.00605452 -0.000810085
0.0898717 -0.0124595 -0.0448712
0.0113624 0.000585548 0.000156026
0.00356036 0.00988125 -0.0013926
-0.0111621 0.011163 0.000601897
0.0342637 -0.0106108 0.0517211
0.0229335 5.18341e-05 -0.000858833
0.0391795 -0.00153171 0.0136987
0.0277587 -0.000736561 0.00788349
0.00634616 -0.008659 0.000746042
0.0098429 0.00430289 0.00201164
-0.00116478 -0.0025405 -0.000120773
0.0188293 -0.0141227 0.0100054
0.23273 -0.422725 0.282651
-0.0283933 -0.0446245 8.15468e-05
-0.0562686 -0.0338192 -0.00193826
-0.103061 -0.0214451 -0.0454396
-0.045458 0.00362238 -3.36226e-05
0.0205701 -0.130011 -0.170454
0.0139753 -0.000393187 -0.000611433
-0.0725468 -0.0275274 -0.0143465
0.00493937 0.00182724 0.00101429
-0.060571 0.00734464 -0.0294771
-0.0126563 -0.00371098 -0.0075231
-0.00807302 -0.012896 0.000683859
0.0244164 0.000250927 -0.00070674
0.0182471 0.00778036 -0.000495708
0.0123241 -5.98043e-05 -0.000411782
-0.0739497 -0.0072902 -0.0148193
-0.113188 0.143177 0.0610433
0.0233176 -0.00111133 -0.000872607
0.00997684 -0.015852 -0.000463854
-0.08815 -6.16295e-05 -0.0344183
0.0409114 -0.0186207 0.0151735
0.00330332 -0.00306995 -0.00468394
0.00742972 -0.0023266 -0.0012466
0.0229138 0.000747718 -0.000144547
-0.0805297 -0.000714675 0.0142683
0.00752777 -0.0100724 -0.0808265
-0.0515526 0.041582 0.149433
0.0134599 -0.00192833 -0.000121568
0.380129 -0.0537338 0.198605
0.0333853 -0.00131662 -0.00610763
-0.0389417 0.0690735 -0.0637645
-0.00633104 -0.0264253 -0.000247098
SCALARS radius float 1
LOOKUP_TABLE default
0.005
0.005
0.005
0.005
0.005
0.005
0.005
0.005
0.005
0.005
0.005
0.005
0.005
0.005
0.005
0.005
0.005
0.005
0.005
0.005
0.005
0.005
0.005
0.005
0.005
0.005
0.005
0.005
0.005
0.005
0.005
0.005
0.005
0.005
0.005
0.005
0.005
0.005
0.005
0.005
0.005
0.005
0.005
0.005
0.005
0.005
0.005
0.005
0.005
0.005
0.005
0.005
0.005
0.005
0.005
0.005
0.005
0.005
0.005
0.005
0.005
0.005
0.005
0.005
0.005
0.005
0.005
0.005
0.005
0.005
0.005
0.005
0.005
0.005
0.005
0.005
0.005
0.005
0.005
0.005
0.005
0.005
0.005
0.005
0.005
0.005
0.005
0.005
0.005
0.005
0.005
0.005
0.005
0.005
0.005
0.005
0.005
0.005
0.005
0.005
0.005
0.005
0.005
0.005
0.005
0.005
0.005
0.005
0.005
0.005
0.005
0.005
0.005
0.005
0.005
0.005
0.005
0.005
0.005
0.005
0.005
0.005
0.005
0.005
0.005
0.005
0.005
0.005
0.005
0.005
0.005
0.005
0.005
0.005
0.005
0.005
0.005
0.005
0.005
0.005
0.005
0.005
0.005
0.005
0.005
0.005
0.005
0.005
0.005
0.005
0.005
0.005
0.005
0.005
0.005
0.005
0.005
0.005
0.005
0.005
0.005
0.005
0.005
0.005
0.005
0.005
0.005
0.005
0.005
0.005
0.005
0.005
0.005
0.005
0.005
0.005
0.005
0.005
0.005
0.005
0.005
0.005
0.005
0.005
0.005
0.005
0.005
0.005
0.005
0.005
0.005
0.005
0.005
0.005
0.005
0.005
0.005
0.005
0.005
0.005
0.005
0.005
0.005
0.005
0.005
0.005
0.005
0.005
0.005
0.005
0.005
0.005
0.005
0.005
0.005
0.005
0.005
0.005
0.005
0.005
0.005
0.005
0.005
0.005
0.005
0.005
0.005
0.005
0.005
0.005
0.005
0.005
0.005
0.005
0.005
0.005
0.005
0.005
0.005
0.005
0.005
0.005
0.005
0.005
0.005
0.005
0.005
0.005
0.005
0.005
0.005
0.005
0.005
0.005
0.005
0.005
0.005
0.005
0.005
0.005
0.005
0.005
0.005
0.005
0.005
0.005
0.005
0.005
0.005
0.005
0.005
0.005
0.005
0.005
0.005
0.005
0.005
0.005
0.005
0.005
0.005
0.005
0.005
0.005
0.005
0.005
0.005
0.005
0.005
0.005
0.005
0.005
0.005
0.005
0.005
0.005
0.005
0.005
0.005
0.005
0.005
0.005
0.005
0.005
0.005
0.005
0.005
0.005
0.005
0.005
0.005
0.005
0.005
0.005
0.005
0.005
0.005
0.005
0.005
0.005
0.005
0.005
0.005
0.005
0.005
0.005
0.005
0.005
0.005
0.005
0.005
0.005
0.005
0.005
0.005
0.005
0.005
0.005
0.005
0.005
0.005
0.005
0.005
0.005
0.005
0.005
0.005
0.005
0.005
0.005
0.005
0.005
0.005
0.005
0.005
0.005
0.005
0.005
0.005
0.005
0.005
0.005
0.005
0.005
0.005
0.005
0.005
0.005
0.005
0.005
0.005
0.005
0.005
0.005
0.005
0.005
0.005
0.005
0.005
0.005
0.005
0.005
0.005
0.005
0.005
0.005
0.005
0.005
0.005
0.005
0.005
0.005
0.005
0.005
0.005
0.005
0.005
0.005
0.005
0.005
0.005
0.005
0.005
0.005
0.005
0.005
0.005
0.005
0.005
0.005
0.005
0.005
0.005
0.005
0.005
0.005
0.005
0.005
0.005
0.005
0.005
0.005
0.005
0.005
0.005
0.005
0.005
0.005
0.005
0.005
0.005
0.005
0.005
0.005
0.005
0.005
0.005
0.005
0.005
0.005
0.005
0.005
0.005
0.005
0.005
0.005
0.005
0.005
0.005
0.005
0.005
0.005
0.005
0.005
0.005
0.005
0.005
0.005
0.005
0.005
0.005
0.005
0.005
0.005
0.005
0.005
0.005
0.005
0.005
0.005
0.005
0.005
0.005
0.005
0.005
0.005
0.005
0.005
0.005
0.005
0.005
0.005
0.005
0.005
0.005
0.005
0.005
0.005
0.005
0.005
0.005
0.005
0.005
0.005
0.005
0.005
0.005
0.005
0.005
0.005
SCALARS type float 1
LOOKUP_TABLE default
1.0
1.0
1.0
1.0
1.0
1.0
1.0
1.0
1.0
1.0
1.0
1.0
1.0
1.0
1.0
1.0
1.0
1.0
1.0
1.0
1.0
1.0
1.0
1.0
1.0
1.0
1.0
1.0
1.0
1.0
1.0
1.0
1.0
1.0
1.0
1.0
1.0
1.0
1.0
1.0
1.0
1.0
1.0
1.0
1.0
1.0
1.0
1.0
1.0
1.0
1.0
1.0
1.0
1.0
1.0
1.0
1.0
1.0
1.0
1.0
1.0
1.0
1.0
1.0
1.0
1.0
1.0
1.0
1.0
1.0
1.0
1.0
1.0
1.0
1.0
1.0
1.0
1.0
1.0
1.0
1.0
1.0
1.0
1.0
1.0
1.0
1.0
1.0
1.0
1.0
1.0
1.0
1.0
1.0
1.0
1.0
1.0
1.0
1.0
1.0
1.0
1.0
1.0
1.0
1.0
1.0
1.0
1.0
1.0
1.0
1.0
1.0
1.0
1.0
1.0
1.0
1.0
1.0
1.0
1.0
1.0
1.0
1.0
1.0
1.0
1.0
1.0
1.0
1.0
1.0
1.0
1.0
1.0
1.0
1.0
1.0
1.0
1.0
1.0
1.0
1.0
1.0
1.0
1.0
1.0
1.0
1.0
1.0
1.0
1.0
1.0
1.0
1.0
1.0
1.0
1.0
1.0
1.0
1.0
1.0
1.0
1.0
1.0
1.0
1.0
1.0
1.0
1.0
1.0
1.0
1.0
1.0
1.0
1.0
1.0
1.0
1.0
1.0
1.0
1.0
1.0
1.0
1.0
1.0
1.0
1.0
1.0
1.0
1.0
1.0
1.0
1.0
1.0
1.0
1.0
1.0
1.0
1.0
1.0
1.0
1.0
1.0
1.0
1.0
1.0
1.0
1.0
1.0
1.0
1.0
1.0
1.0
1.0
1.0
1.0
1.0
1.0
1.0
1.0
1.0
1.0
1.0
1.0
1.0
1.0
1.0
1.0
1.0
1.0
1.0
1.0
1.0
1.0
1.0
1.0
1.0
1.0
1.0
1.0
1.0
1.0
1.0
1.0
1.0
1.0
1.0
1.0
1.0
1.0
1.0
1.0
1.0
1.0
1.0
1.0
1.0
1.0
1.0
1.0
1.0
1.0
1.0
1.0
1.0
1.0
1.0
1.0
1.0
1.0
1.0
1.0
1.0
1.0
1.0
1.0
1.0
1.0
1.0
1.0
1.0
1.0
1.0
1.0
1.0
1.0
1.0
1.0
1.0
1.0
1.0
1.0
1.0
1.0
1.0
1.0
1.0
1.0
1.0
1.0
1.0
1.0
1.0
1.0
1.0
1.0
1.0
1.0
1.0
1.0
1.0
1.0
1.0
1.0
1.0
1.0
1.0
1.0
1.0
1.0
1.0
1.0
1.0
1.0
1.0
1.0
1.0
1.0
1.0
1.0
1.0
1.0
1.0
1.0
1.0
1.0
1.0
1.0
1.0
1.0
1.0
1.0
1.0
1.0
1.0
1.0
1.0
1.0
1.0
1.0
1.0
1.0
1.0
1.0
1.0
1.0
1.0
1.0
1.0
1.0
1.0
1.0
1.0
1.0
1.0
1.0
1.0
1.0
1.0
1.0
1.0
1.0
1.0
1.0
1.0
1.0
1.0
1.0
1.0
1.0
1.0
1.0
1.0
1.0
1.0
1.0
1.0
1.0
1.0
1.0
1.0
1.0
1.0
1.0
1.0
1.0
1.0
1.0
1.0
1.0
1.0
1.0
1.0
1.0
1.0
1.0
1.0
1.0
1.0
1.0
1.0
1.0
1.0
1.0
1.0
1.0
1.0
1.0
1.0
1.0
1.0
1.0
1.0
1.0
1.0
1.0
1.0
1.0
1.0
1.0
1.0
1.0
1.0
1.0
1.0
1.0
1.0
1.0
1.0
1.0
1.0
1.0
1.0
1.0
1.0
1.0
1.0
1.0
1.0
1.0
1.0
1.0
1.0
1.0
1.0
1.0
1.0
1.0
1.0
1.0
1.0
1.0
1.0
1.0
1.0
1.0
1.0
1.0
1.0
1.0
1.0
1.0
1.0
1.0
1.0
1.0
1.0
1.0
1.0
1.0
1.0
1.0
1.0
1.0
1.0
1.0
1.0
1.0
1.0
1.0
1.0
1.0
1.0
1.0
1.0
1.0
1.0
1.0
1.0
1.0
1.0
SCALARS id float 1
LOOKUP_TABLE default
1.0
2.0
3.0
4.0
5.0
6.0
7.0
8.0
9.0
10.0
11.0
12.0
13.0
14.0
15.0
16.0
17.0
18.0
19.0
20.0
21.0
22.0
23.0
24.0
25.0
26.0
27.0
28.0
29.0
30.0
31.0
32.0
33.0
34.0
35.0
36.0
37.0
38.0
39.0
40.0
41.0
42.0
43.0
44.0
45.0
46.0
47.0
48.0
49.0
50.0
51.0
52.0
53.0
54.0
55.0
56.0
57.0
58.0
59.0
60.0
61.0
62.0
63.0
64.0
65.0
66.0
67.0
68.0
69.0
70.0
71.0
72.0
73.0
74.0
75.0
76.0
77.0
78.0
79.0
80.0
81.0
82.0
83.0
84.0
85.0
86.0
87.0
88.0
89.0
90.0
91.0
92.0
93.0
94.0
95.0
96.0
97.0
98.0
99.0
100.0
101.0
102.0
103.0
104.0
105.0
106.0
107.0
108.0
109.0
110.0
111.0
112.0
113.0
114.0
115.0
116.0
117.0
118.0
119.0
120.0
121.0
122.0
123.0
124.0
125.0
126.0
127.0
128.0
129.0
130.0
131.0
132.0
133.0
134.0
135.0
136.0
137.0
138.0
139.0
140.0
141.0
142.0
143.0
144.0
145.0
146.0
147.0
148.0
149.0
150.0
151.0
152.0
153.0
154.0
155.0
156.0
157.0
158.0
159.0
160.0
161.0
162.0
163.0
164.0
165.0
166.0
167.0
168.0
169.0
170.0
171.0
172.0
173.0
174.0
175.0
176.0
177.0
178.0
179.0
180.0
181.0
182.0
183.0
184.0
185.0
186.0
187.0
188.0
189.0
190.0
191.0
192.0
193.0
194.0
195.0
196.0
197.0
198.0
199.0
200.0
201.0
202.0
203.0
204.0
205.0
206.0
207.0
208.0
209.0
210.0
211.0
212.0
213.0
214.0
215.0
216.0
217.0
218.0
219.0
220.0
221.0
222.0
223.0
224.0
225.0
226.0
227.0
228.0
229.0
230.0
231.0
232.0
233.0
234.0
235.0
236.0
237.0
238.0
239.0
240.0
241.0
242.0
243.0
244.0
245.0
246.0
247.0
248.0
249.0
250.0
251.0
252.0
253.0
254.0
255.0
256.0
257.0
258.0
259.0
260.0
261.0
262.0
263.0
264.0
265.0
266.0
267.0
268.0
269.0
270.0
271.0
272.0
273.0
274.0
275.0
276.0
277.0
278.0
279.0
280.0
281.0
282.0
283.0
284.0
285.0
286.0
287.0
288.0
289.0
290.0
291.0
292.0
293.0
294.0
295.0
296.0
297.0
298.0
299.0
300.0
301.0
302.0
303.0
304.0
305.0
306.0
307.0
308.0
309.0
310.0
311.0
312.0
313.0
314.0
315.0
316.0
317.0
318.0
319.0
320.0
321.0
322.0
323.0
324.0
325.0
326.0
327.0
328.0
329.0
330.0
331.0
332.0
333.0
334.0
335.0
336.0
337.0
338.0
339.0
340.0
341.0
342.0
343.0
344.0
345.0
346.0
347.0
348.0
349.0
350.0
351.0
352.0
353.0
354.0
355.0
356.0
357.0
358.0
359.0
360.0
361.0
362.0
363.0
364.0
365.0
366.0
367.0
368.0
369.0
370.0
371.0
372.0
373.0
374.0
375.0
376.0
377.0
378.0
379.0
380.0
381.0
382.0
383.0
384.0
385.0
386.0
387.0
388.0
389.0
390.0
391.0
392.0
393.0
394.0
395.0
396.0
397.0
398.0
399.0
400.0
401.0
402.0
403.0
404.0
405.0
406.0
407.0
408.0
409.0
410.0
411.0
412.0
413.0
414.0
415.0
416.0
417.0
418.0
419.0
420.0
421.0
422.0
423.0
424.0
425.0
426.0
427.0
428.0
429.0
430.0
431.0
432.0
433.0
434.0
435.0
436.0
437.0
438.0
439.0
440.0
441.0
442.0
443.0
444.0
445.0
446.0
447.0
448.0
449.0
450.0
451.0
452.0
453.0
454.0
455.0
456.0
457.0
458.0
459.0
460.0
461.0
462.0
463.0
464.0
465.0
466.0
467.0
468.0
469.0
470.0
471.0
472.0
473.0
474.0
475.0
476.0
477.0
478.0
479.0
480.0
481.0
482.0
483.0
484.0
485.0
486.0
487.0
488.0
489.0
490.0
491.0
492.0
493.0
494.0
495.0
496.0
497.0
498.0
499.0
500.0

